0 0.764134 0.785805 0.0704833 0.244599 0.310476 129
2 0.47744 0.513113 0.0257062 0.0319019 0.704959 2
2 0.594736 0.564845 0.0478517 0.0735792 0.566085 134
0 0.637872 0.705686 0.0338808 0.212831 0.616931 109
2 0.477433 0.510264 0.0277837 0.0356079 0.642974 136
2 0.594592 0.569786 0.0521664 0.0719259 0.738897 139
2 0.565772 0.533728 0.0365845 0.0525315 0.705868 140
2 0.79365 0.661248 0.168398 0.140808 0.816639 141
9 0.663496 0.462808 0.0448638 0.15544 0.723956 143
2 0.768393 0.650474 0.119677 0.128517 0.336733 144
0 0.665813 0.709921 0.0310544 0.223486 0.367497 145
0 0.661783 0.714043 0.0398924 0.238854 0.4594 148
0 0.786614 0.767241 0.0589053 0.241743 0.452545 131
2 0.831663 0.680393 0.0874921 0.100788 0.219561 152
0 0.782469 0.76571 0.046207 0.236732 0.51893 153
2 0.775762 0.649657 0.14554 0.141546 0.255149 154
2 0.564687 0.537743 0.0335108 0.0489743 0.642176 116
0 0.755369 0.839452 0.0589574 0.279207 0.658378 151
0 0.764134 0.785805 0.0704833 0.244599 0.310476 129
2 0.47744 0.513113 0.0257062 0.0319019 0.704959 2
2 0.594736 0.564845 0.0478517 0.0735792 0.566085 134
0 0.637872 0.705686 0.0338808 0.212831 0.616931 109
2 0.477433 0.510264 0.0277837 0.0356079 0.642974 136
2 0.594592 0.569786 0.0521664 0.0719259 0.738897 139
2 0.565772 0.533728 0.0365845 0.0525315 0.705868 140
2 0.79365 0.661248 0.168398 0.140808 0.816639 141
9 0.663496 0.462808 0.0448638 0.15544 0.723956 143
2 0.768393 0.650474 0.119677 0.128517 0.336733 144
0 0.665813 0.709921 0.0310544 0.223486 0.367497 145
0 0.661783 0.714043 0.0398924 0.238854 0.4594 148
0 0.786614 0.767241 0.0589053 0.241743 0.452545 131
2 0.831663 0.680393 0.0874921 0.100788 0.219561 152
0 0.782469 0.76571 0.046207 0.236732 0.51893 153
2 0.775762 0.649657 0.14554 0.141546 0.255149 154
2 0.564687 0.537743 0.0335108 0.0489743 0.642176 116
0 0.755369 0.839452 0.0589574 0.279207 0.658378 151
