2 0.601561 0.572815 0.0642017 0.110749 0.794308 1
2 0.522968 0.552058 0.0456615 0.0682018 0.835633 2
0 0.894993 0.604886 0.0335397 0.125411 0.811414 3
0 0.739962 0.54303 0.0194811 0.0979613 0.720426 5
0 0.84403 0.60456 0.0281656 0.116611 0.766285 7
0 0.777999 0.519191 0.0169995 0.0771218 0.294388 9
0 0.800101 0.533376 0.0148411 0.0627702 0.225559 12
0 0.741147 0.54396 0.0187056 0.0982133 0.346699 14
2 0.601561 0.572815 0.0642017 0.110749 0.794308 1
2 0.522968 0.552058 0.0456615 0.0682018 0.835633 2
0 0.894993 0.604886 0.0335397 0.125411 0.811414 3
0 0.739962 0.54303 0.0194811 0.0979613 0.720426 5
0 0.84403 0.60456 0.0281656 0.116611 0.766285 7
0 0.777999 0.519191 0.0169995 0.0771218 0.294388 9
0 0.800101 0.533376 0.0148411 0.0627702 0.225559 12
0 0.741147 0.54396 0.0187056 0.0982133 0.346699 14
