2 0.520729 0.532275 0.0839806 0.0943726 0.839683 220
2 0.668188 0.654909 0.146063 0.16336 0.899845 224
2 0.793421 0.643359 0.147996 0.147994 0.919596 229
2 0.276383 0.493588 0.0449984 0.0666243 0.146978 210
2 0.274803 0.498395 0.0400102 0.0678914 0.725472 218
0 0.0884263 0.645085 0.0445122 0.163305 0.823258 208
1 0.151026 0.760071 0.0450082 0.137912 0.53225 241
0 0.936722 0.613007 0.0328389 0.157876 0.656592 246
1 0.153907 0.758634 0.0425143 0.141933 0.236876 250
0 0.937661 0.617774 0.030977 0.159233 0.696978 251
2 0.394413 0.479743 0.0374816 0.0421507 0.729974 236
2 0.520729 0.532275 0.0839806 0.0943726 0.839683 220
2 0.668188 0.654909 0.146063 0.16336 0.899845 224
2 0.793421 0.643359 0.147996 0.147994 0.919596 229
2 0.276383 0.493588 0.0449984 0.0666243 0.146978 210
2 0.274803 0.498395 0.0400102 0.0678914 0.725472 218
0 0.0884263 0.645085 0.0445122 0.163305 0.823258 208
1 0.151026 0.760071 0.0450082 0.137912 0.53225 241
0 0.936722 0.613007 0.0328389 0.157876 0.656592 246
1 0.153907 0.758634 0.0425143 0.141933 0.236876 250
0 0.937661 0.617774 0.030977 0.159233 0.696978 251
2 0.394413 0.479743 0.0374816 0.0421507 0.729974 236
