2 0.611022 0.575449 0.0694681 0.121531 0.726066 1
2 0.525391 0.554723 0.0474975 0.0673037 0.807704 2
0 0.941154 0.620845 0.0338009 0.131238 0.41839 3
0 0.889563 0.61993 0.0284852 0.131685 0.784297 7
0 0.943089 0.624837 0.0321615 0.128752 0.67548 18
0 0.252005 0.558708 0.019084 0.0953953 0.600519 19
0 0.755843 0.546054 0.0219726 0.101613 0.783829 5
2 0.525446 0.551581 0.0516361 0.0704281 0.644017 22
0 0.271226 0.559207 0.019493 0.0962132 0.641039 23
2 0.611022 0.575449 0.0694681 0.121531 0.726066 1
2 0.525391 0.554723 0.0474975 0.0673037 0.807704 2
0 0.941154 0.620845 0.0338009 0.131238 0.41839 3
0 0.889563 0.61993 0.0284852 0.131685 0.784297 7
0 0.943089 0.624837 0.0321615 0.128752 0.67548 18
0 0.252005 0.558708 0.019084 0.0953953 0.600519 19
0 0.755843 0.546054 0.0219726 0.101613 0.783829 5
2 0.525446 0.551581 0.0516361 0.0704281 0.644017 22
0 0.271226 0.559207 0.019493 0.0962132 0.641039 23
