0 0.0545657 0.850433 0.0728005 0.296046 0.317279 195
0 0.784093 0.716704 0.0356524 0.182943 0.658639 201
0 0.788185 0.71528 0.0390639 0.18671 0.754678 203
0 0.107401 0.855164 0.0626349 0.28893 0.177822 205
0 0.79551 0.582858 0.0220208 0.103914 0.637084 208
0 0.747085 0.709935 0.0410847 0.168782 0.778835 198
0 0.103246 0.855086 0.0739682 0.289829 0.690871 199
0 0.743417 0.71357 0.0351915 0.167543 0.479245 209
2 0.923323 0.562268 0.0616769 0.0978302 0.723561 210
0 0.0545657 0.850433 0.0728005 0.296046 0.317279 195
0 0.784093 0.716704 0.0356524 0.182943 0.658639 201
0 0.788185 0.71528 0.0390639 0.18671 0.754678 203
0 0.107401 0.855164 0.0626349 0.28893 0.177822 205
0 0.79551 0.582858 0.0220208 0.103914 0.637084 208
0 0.747085 0.709935 0.0410847 0.168782 0.778835 198
0 0.103246 0.855086 0.0739682 0.289829 0.690871 199
0 0.743417 0.71357 0.0351915 0.167543 0.479245 209
2 0.923323 0.562268 0.0616769 0.0978302 0.723561 210
