0 0.46362 0.767291 0.0484976 0.23153 0.746432 201
0 0.561353 0.582335 0.021848 0.100349 0.706577 208
0 0.679147 0.818815 0.0577215 0.274807 0.779122 211
0 0.467624 0.764378 0.0427837 0.230139 0.199143 212
2 0.894949 0.584162 0.132695 0.100541 0.854606 215
0 0.562142 0.577444 0.0245004 0.111354 0.42697 216
2 0.665388 0.542735 0.0473838 0.0815241 0.763156 218
2 0.819806 0.529726 0.0473452 0.0492497 0.709987 219
0 0.42094 0.761799 0.0394557 0.208331 0.693802 209
2 0.75261 0.513998 0.0448835 0.0629355 0.726134 220
2 0.888746 0.577777 0.11894 0.0893771 0.471899 224
2 0.667548 0.538953 0.0449079 0.0789185 0.638261 225
0 0.420288 0.763389 0.043405 0.201804 0.683346 198
0 0.46362 0.767291 0.0484976 0.23153 0.746432 201
0 0.561353 0.582335 0.021848 0.100349 0.706577 208
0 0.679147 0.818815 0.0577215 0.274807 0.779122 211
0 0.467624 0.764378 0.0427837 0.230139 0.199143 212
2 0.894949 0.584162 0.132695 0.100541 0.854606 215
0 0.562142 0.577444 0.0245004 0.111354 0.42697 216
2 0.665388 0.542735 0.0473838 0.0815241 0.763156 218
2 0.819806 0.529726 0.0473452 0.0492497 0.709987 219
0 0.42094 0.761799 0.0394557 0.208331 0.693802 209
2 0.75261 0.513998 0.0448835 0.0629355 0.726134 220
2 0.888746 0.577777 0.11894 0.0893771 0.471899 224
2 0.667548 0.538953 0.0449079 0.0789185 0.638261 225
0 0.420288 0.763389 0.043405 0.201804 0.683346 198
