2 0.545524 0.491249 0.0283747 0.0379089 0.629258 261
2 0.500339 0.500192 0.033932 0.0556946 0.224841 210
2 0.544808 0.490035 0.0288103 0.0437586 0.293481 280
2 0.500411 0.498818 0.029898 0.0522695 0.733775 290
0 0.691546 0.688975 0.0623398 0.18336 0.213139 254
0 0.319317 0.560099 0.01829 0.0968504 0.59688 294
2 0.952294 0.679796 0.0953578 0.16569 0.759421 253
2 0.862931 0.626759 0.115508 0.118509 0.867881 236
2 0.97823 0.67853 0.0435399 0.173023 0.517123 279
0 0.698682 0.66823 0.0420521 0.134555 0.570297 255
2 0.545524 0.491249 0.0283747 0.0379089 0.629258 261
2 0.500339 0.500192 0.033932 0.0556946 0.224841 210
2 0.544808 0.490035 0.0288103 0.0437586 0.293481 280
2 0.500411 0.498818 0.029898 0.0522695 0.733775 290
0 0.691546 0.688975 0.0623398 0.18336 0.213139 254
0 0.319317 0.560099 0.01829 0.0968504 0.59688 294
2 0.952294 0.679796 0.0953578 0.16569 0.759421 253
2 0.862931 0.626759 0.115508 0.118509 0.867881 236
2 0.97823 0.67853 0.0435399 0.173023 0.517123 279
0 0.698682 0.66823 0.0420521 0.134555 0.570297 255
