0 0.677906 0.86625 0.0870025 0.265419 0.799457 129
2 0.426987 0.499205 0.026465 0.033964 0.409172 2
2 0.542815 0.57084 0.0468561 0.0968943 0.176078 134
0 0.564428 0.741946 0.0507023 0.258242 0.63417 109
2 0.427036 0.499648 0.0240516 0.0292473 0.5928 136
2 0.547059 0.576333 0.0634221 0.0821504 0.609747 139
2 0.511571 0.536798 0.0406241 0.0617521 0.469513 140
2 0.74039 0.671327 0.17449 0.154596 0.821183 141
9 0.596825 0.459978 0.0460697 0.174641 0.7678 143
0 0.689538 0.732182 0.0391545 0.134852 0.266927 131
0 0.693647 0.736751 0.0365143 0.152133 0.155742 153
0 0.677682 0.847612 0.0901175 0.294878 0.796844 151
2 0.512674 0.537809 0.0409698 0.0578577 0.697309 116
0 0.652068 0.568441 0.0232825 0.119724 0.505214 156
0 0.559968 0.743487 0.0573808 0.260581 0.806169 145
0 0.677906 0.86625 0.0870025 0.265419 0.799457 129
2 0.426987 0.499205 0.026465 0.033964 0.409172 2
2 0.542815 0.57084 0.0468561 0.0968943 0.176078 134
0 0.564428 0.741946 0.0507023 0.258242 0.63417 109
2 0.427036 0.499648 0.0240516 0.0292473 0.5928 136
2 0.547059 0.576333 0.0634221 0.0821504 0.609747 139
2 0.511571 0.536798 0.0406241 0.0617521 0.469513 140
2 0.74039 0.671327 0.17449 0.154596 0.821183 141
9 0.596825 0.459978 0.0460697 0.174641 0.7678 143
0 0.689538 0.732182 0.0391545 0.134852 0.266927 131
0 0.693647 0.736751 0.0365143 0.152133 0.155742 153
0 0.677682 0.847612 0.0901175 0.294878 0.796844 151
2 0.512674 0.537809 0.0409698 0.0578577 0.697309 116
0 0.652068 0.568441 0.0232825 0.119724 0.505214 156
0 0.559968 0.743487 0.0573808 0.260581 0.806169 145
