2 0.582235 0.572976 0.110842 0.133555 0.892642 220
2 0.876845 0.700303 0.216327 0.17951 0.886513 229
2 0.412935 0.495772 0.0562633 0.0584175 0.769726 236
2 0.48761 0.523091 0.0595332 0.0658023 0.801562 253
0 0.142047 0.535429 0.0250885 0.119019 0.655856 254
0 0.142914 0.53243 0.0252917 0.128126 0.76734 255
2 0.265329 0.450682 0.0286621 0.0412922 0.501001 261
0 0.984064 0.654542 0.0318729 0.186934 0.474374 246
2 0.906561 0.881547 0.186764 0.220564 0.864868 262
2 0.230244 0.47651 0.0452621 0.0678722 0.476267 263
2 0.23221 0.478154 0.0387451 0.065245 0.792508 210
2 0.582235 0.572976 0.110842 0.133555 0.892642 220
2 0.876845 0.700303 0.216327 0.17951 0.886513 229
2 0.412935 0.495772 0.0562633 0.0584175 0.769726 236
2 0.48761 0.523091 0.0595332 0.0658023 0.801562 253
0 0.142047 0.535429 0.0250885 0.119019 0.655856 254
0 0.142914 0.53243 0.0252917 0.128126 0.76734 255
2 0.265329 0.450682 0.0286621 0.0412922 0.501001 261
0 0.984064 0.654542 0.0318729 0.186934 0.474374 246
2 0.906561 0.881547 0.186764 0.220564 0.864868 262
2 0.230244 0.47651 0.0452621 0.0678722 0.476267 263
2 0.23221 0.478154 0.0387451 0.065245 0.792508 210
