0 0.581378 0.741915 0.0433826 0.20563 0.697252 201
0 0.577728 0.744426 0.0325726 0.193304 0.37847 203
0 0.641523 0.577905 0.0256508 0.0984125 0.628866 208
0 0.543371 0.735087 0.0381682 0.189619 0.757792 198
2 0.749417 0.541397 0.0495047 0.0858348 0.502616 210
0 0.786906 0.803686 0.057104 0.262642 0.799109 211
0 0.58416 0.741868 0.042237 0.200263 0.556634 212
2 0.946963 0.577002 0.101488 0.0871951 0.710664 215
0 0.641091 0.569757 0.0263198 0.111677 0.527273 216
2 0.750175 0.545206 0.0529196 0.0882687 0.751415 218
2 0.897625 0.528709 0.0489344 0.0509612 0.677493 219
0 0.539751 0.733504 0.0375575 0.188647 0.664448 209
0 0.581378 0.741915 0.0433826 0.20563 0.697252 201
0 0.577728 0.744426 0.0325726 0.193304 0.37847 203
0 0.641523 0.577905 0.0256508 0.0984125 0.628866 208
0 0.543371 0.735087 0.0381682 0.189619 0.757792 198
2 0.749417 0.541397 0.0495047 0.0858348 0.502616 210
0 0.786906 0.803686 0.057104 0.262642 0.799109 211
0 0.58416 0.741868 0.042237 0.200263 0.556634 212
2 0.946963 0.577002 0.101488 0.0871951 0.710664 215
0 0.641091 0.569757 0.0263198 0.111677 0.527273 216
2 0.750175 0.545206 0.0529196 0.0882687 0.751415 218
2 0.897625 0.528709 0.0489344 0.0509612 0.677493 219
0 0.539751 0.733504 0.0375575 0.188647 0.664448 209
