0 0.638723 0.87246 0.0777941 0.254541 0.736371 129
2 0.400225 0.496431 0.0244197 0.0340996 0.326835 2
2 0.521318 0.582707 0.0694056 0.0888386 0.705471 139
2 0.486415 0.540074 0.0467142 0.0664661 0.476648 140
2 0.707017 0.675745 0.179065 0.157785 0.852624 141
9 0.55543 0.463119 0.0451738 0.179895 0.583824 143
0 0.637027 0.716983 0.0341611 0.101992 0.209122 131
0 0.633236 0.845841 0.0894821 0.291804 0.399667 151
2 0.483717 0.541092 0.0424973 0.0629522 0.708831 116
0 0.619726 0.566983 0.0235371 0.120988 0.591619 156
0 0.515514 0.759906 0.0625061 0.26893 0.515882 145
9 0.551915 0.459421 0.0561981 0.190254 0.595823 160
0 0.513097 0.753322 0.0588842 0.274175 0.703802 148
0 0.638723 0.87246 0.0777941 0.254541 0.736371 129
2 0.400225 0.496431 0.0244197 0.0340996 0.326835 2
2 0.521318 0.582707 0.0694056 0.0888386 0.705471 139
2 0.486415 0.540074 0.0467142 0.0664661 0.476648 140
2 0.707017 0.675745 0.179065 0.157785 0.852624 141
9 0.55543 0.463119 0.0451738 0.179895 0.583824 143
0 0.637027 0.716983 0.0341611 0.101992 0.209122 131
0 0.633236 0.845841 0.0894821 0.291804 0.399667 151
2 0.483717 0.541092 0.0424973 0.0629522 0.708831 116
0 0.619726 0.566983 0.0235371 0.120988 0.591619 156
0 0.515514 0.759906 0.0625061 0.26893 0.515882 145
9 0.551915 0.459421 0.0561981 0.190254 0.595823 160
0 0.513097 0.753322 0.0588842 0.274175 0.703802 148
