0 0.071445 0.877687 0.0837149 0.23534 0.746324 211
2 0.530116 0.531238 0.074358 0.0868096 0.864742 220
2 0.661464 0.632337 0.117927 0.137182 0.853069 224
2 0.803866 0.639351 0.140698 0.141477 0.898285 229
24 0.0650918 0.932878 0.0522918 0.133409 0.107064 235
2 0.414151 0.478975 0.0379044 0.0441147 0.141002 236
2 0.310567 0.498888 0.0442876 0.0771393 0.507902 210
2 0.312358 0.502992 0.0405817 0.0677237 0.655902 218
0 0.156314 0.625235 0.038372 0.13937 0.842533 208
1 0.222793 0.727675 0.0410588 0.127586 0.578356 241
2 0.412632 0.481509 0.0363734 0.0404306 0.798016 237
0 0.076745 0.863532 0.0729277 0.201252 0.103875 228
0 0.958223 0.629034 0.0323769 0.165428 0.672861 246
0 0.071445 0.877687 0.0837149 0.23534 0.746324 211
2 0.530116 0.531238 0.074358 0.0868096 0.864742 220
2 0.661464 0.632337 0.117927 0.137182 0.853069 224
2 0.803866 0.639351 0.140698 0.141477 0.898285 229
24 0.0650918 0.932878 0.0522918 0.133409 0.107064 235
2 0.414151 0.478975 0.0379044 0.0441147 0.141002 236
2 0.310567 0.498888 0.0442876 0.0771393 0.507902 210
2 0.312358 0.502992 0.0405817 0.0677237 0.655902 218
0 0.156314 0.625235 0.038372 0.13937 0.842533 208
1 0.222793 0.727675 0.0410588 0.127586 0.578356 241
2 0.412632 0.481509 0.0363734 0.0404306 0.798016 237
0 0.076745 0.863532 0.0729277 0.201252 0.103875 228
0 0.958223 0.629034 0.0323769 0.165428 0.672861 246
