2 0.397568 0.539605 0.0371379 0.0468716 0.736042 2
0 0.120905 0.614808 0.0260338 0.113043 0.590112 80
0 0.118866 0.616902 0.0254976 0.112065 0.557825 91
9 0.822406 0.444807 0.126822 0.441661 0.880809 93
2 0.558744 0.685462 0.204458 0.232438 0.935197 1
2 0.586535 0.546388 0.0684722 0.0684751 0.582919 109
2 0.502985 0.492289 0.0270413 0.0403418 0.643327 116
2 0.394959 0.537584 0.0409694 0.0504935 0.600293 113
0 0.035041 0.62204 0.0251665 0.106791 0.560283 117
0 0.974915 0.596797 0.0400976 0.187011 0.766082 119
2 0.589504 0.546621 0.0616131 0.0594757 0.457256 121
0 0.974931 0.595507 0.0343135 0.178959 0.655804 122
2 0.397568 0.539605 0.0371379 0.0468716 0.736042 2
0 0.120905 0.614808 0.0260338 0.113043 0.590112 80
0 0.118866 0.616902 0.0254976 0.112065 0.557825 91
9 0.822406 0.444807 0.126822 0.441661 0.880809 93
2 0.558744 0.685462 0.204458 0.232438 0.935197 1
2 0.586535 0.546388 0.0684722 0.0684751 0.582919 109
2 0.502985 0.492289 0.0270413 0.0403418 0.643327 116
2 0.394959 0.537584 0.0409694 0.0504935 0.600293 113
0 0.035041 0.62204 0.0251665 0.106791 0.560283 117
0 0.974915 0.596797 0.0400976 0.187011 0.766082 119
2 0.589504 0.546621 0.0616131 0.0594757 0.457256 121
0 0.974931 0.595507 0.0343135 0.178959 0.655804 122
