2 0.251859 0.579249 0.0551191 0.0741179 0.423851 2
2 0.314271 0.504114 0.0234588 0.0341073 0.435167 42
2 0.459317 0.598708 0.125511 0.119373 0.841861 77
0 0.0685929 0.588037 0.0204875 0.090202 0.614102 80
0 0.937545 0.578272 0.0301388 0.110832 0.137129 85
0 0.937859 0.571785 0.0301166 0.123431 0.672869 87
0 0.0722201 0.586482 0.02317 0.0919848 0.143701 91
9 0.484041 0.458483 0.0363496 0.145203 0.545865 93
0 0.939162 0.570712 0.0272605 0.114893 0.425424 96
0 0.722869 0.573686 0.0259607 0.127741 0.814287 75
2 0.281613 0.723441 0.152714 0.251146 0.882521 1
2 0.251859 0.579249 0.0551191 0.0741179 0.423851 2
2 0.314271 0.504114 0.0234588 0.0341073 0.435167 42
2 0.459317 0.598708 0.125511 0.119373 0.841861 77
0 0.0685929 0.588037 0.0204875 0.090202 0.614102 80
0 0.937545 0.578272 0.0301388 0.110832 0.137129 85
0 0.937859 0.571785 0.0301166 0.123431 0.672869 87
0 0.0722201 0.586482 0.02317 0.0919848 0.143701 91
9 0.484041 0.458483 0.0363496 0.145203 0.545865 93
0 0.939162 0.570712 0.0272605 0.114893 0.425424 96
0 0.722869 0.573686 0.0259607 0.127741 0.814287 75
2 0.281613 0.723441 0.152714 0.251146 0.882521 1
