2 0.591739 0.549067 0.0597515 0.104153 0.811328 1
2 0.518854 0.529337 0.0435023 0.0609442 0.814986 2
0 0.856556 0.568878 0.0285187 0.113264 0.711122 3
0 0.0114757 0.706778 0.0229514 0.209411 0.653896 4
0 0.724041 0.519906 0.0183311 0.0915354 0.665448 5
2 0.5928 0.547794 0.0583511 0.0911323 0.629192 6
2 0.591739 0.549067 0.0597515 0.104153 0.811328 1
2 0.518854 0.529337 0.0435023 0.0609442 0.814986 2
0 0.856556 0.568878 0.0285187 0.113264 0.711122 3
0 0.0114757 0.706778 0.0229514 0.209411 0.653896 4
0 0.724041 0.519906 0.0183311 0.0915354 0.665448 5
2 0.5928 0.547794 0.0583511 0.0911323 0.629192 6
