2 0.601497 0.568567 0.0641624 0.112517 0.823269 1
2 0.522974 0.548296 0.0463334 0.0647684 0.835902 2
0 0.891669 0.59953 0.033679 0.121724 0.781519 3
0 0.738597 0.541141 0.0199703 0.100672 0.677875 5
0 0.840971 0.599183 0.0271184 0.115188 0.70191 7
0 0.776361 0.514706 0.0172349 0.0784049 0.547387 9
0 0.798372 0.526368 0.016242 0.0710224 0.33478 12
0 0.738868 0.539619 0.0170544 0.0952113 0.503265 14
2 0.601497 0.568567 0.0641624 0.112517 0.823269 1
2 0.522974 0.548296 0.0463334 0.0647684 0.835902 2
0 0.891669 0.59953 0.033679 0.121724 0.781519 3
0 0.738597 0.541141 0.0199703 0.100672 0.677875 5
0 0.840971 0.599183 0.0271184 0.115188 0.70191 7
0 0.776361 0.514706 0.0172349 0.0784049 0.547387 9
0 0.798372 0.526368 0.016242 0.0710224 0.33478 12
0 0.738868 0.539619 0.0170544 0.0952113 0.503265 14
