2 0.424298 0.534351 0.0387188 0.0478395 0.514515 2
0 0.127709 0.623961 0.0276567 0.118816 0.630995 80
0 0.126387 0.626231 0.0234171 0.119324 0.521078 91
2 0.661966 0.692335 0.221142 0.241932 0.901282 1
2 0.528265 0.497092 0.0296426 0.0429876 0.652825 116
2 0.424937 0.536626 0.0353303 0.0476187 0.652451 113
0 0.0410284 0.633264 0.0310703 0.109349 0.466328 117
2 0.424298 0.534351 0.0387188 0.0478395 0.514515 2
0 0.127709 0.623961 0.0276567 0.118816 0.630995 80
0 0.126387 0.626231 0.0234171 0.119324 0.521078 91
2 0.661966 0.692335 0.221142 0.241932 0.901282 1
2 0.528265 0.497092 0.0296426 0.0429876 0.652825 116
2 0.424937 0.536626 0.0353303 0.0476187 0.652451 113
0 0.0410284 0.633264 0.0310703 0.109349 0.466328 117
