0 0.0272677 0.884771 0.0545355 0.221539 0.811918 211
2 0.524949 0.531717 0.0761106 0.0893503 0.825481 220
2 0.661674 0.643243 0.127494 0.145511 0.862199 224
2 0.796853 0.642671 0.142989 0.142016 0.907016 229
26 0.0148349 0.935427 0.0296698 0.129146 0.150373 235
2 0.294563 0.492848 0.046431 0.0765737 0.700219 210
2 0.294638 0.498643 0.0405356 0.0701736 0.739176 218
0 0.123915 0.631374 0.0394592 0.151903 0.811222 208
1 0.191555 0.738192 0.0443685 0.127853 0.670626 241
2 0.402866 0.479004 0.0354865 0.0412816 0.772166 237
0 0.94605 0.617455 0.0335143 0.191271 0.660595 246
2 0.40347 0.477227 0.0331478 0.042724 0.559639 236
0 0.0272677 0.884771 0.0545355 0.221539 0.811918 211
2 0.524949 0.531717 0.0761106 0.0893503 0.825481 220
2 0.661674 0.643243 0.127494 0.145511 0.862199 224
2 0.796853 0.642671 0.142989 0.142016 0.907016 229
26 0.0148349 0.935427 0.0296698 0.129146 0.150373 235
2 0.294563 0.492848 0.046431 0.0765737 0.700219 210
2 0.294638 0.498643 0.0405356 0.0701736 0.739176 218
0 0.123915 0.631374 0.0394592 0.151903 0.811222 208
1 0.191555 0.738192 0.0443685 0.127853 0.670626 241
2 0.402866 0.479004 0.0354865 0.0412816 0.772166 237
0 0.94605 0.617455 0.0335143 0.191271 0.660595 246
2 0.40347 0.477227 0.0331478 0.042724 0.559639 236
