0 0.16866 0.959356 0.0482411 0.0803154 0.511725 129
2 0.420281 0.714814 0.195868 0.188168 0.90344 141
0 0.154088 0.863238 0.0535539 0.183278 0.417477 131
0 0.109745 0.920197 0.0849018 0.156281 0.695061 151
0 0.355848 0.564255 0.0324472 0.121935 0.454073 156
0 0.0220295 0.837817 0.044059 0.316294 0.304642 145
9 0.14068 0.465049 0.0691156 0.252689 0.866298 160
0 0.390205 0.558651 0.0305257 0.12075 0.297696 162
0 0.742434 0.651609 0.0387143 0.193115 0.729605 163
0 0.741653 0.655599 0.0442627 0.188174 0.453594 164
0 0.689184 0.671083 0.0414591 0.169947 0.636245 165
0 0.459613 0.581487 0.0346999 0.128799 0.405485 169
0 0.649269 0.700404 0.0425727 0.228541 0.751753 170
9 0.952243 0.409181 0.0660529 0.253981 0.886538 172
0 0.650977 0.703683 0.0443984 0.223835 0.656698 173
2 0.27211 0.611966 0.0836254 0.114071 0.841089 134
2 0.229165 0.562132 0.0473347 0.0684111 0.829891 140
0 0.16866 0.959356 0.0482411 0.0803154 0.511725 129
2 0.420281 0.714814 0.195868 0.188168 0.90344 141
0 0.154088 0.863238 0.0535539 0.183278 0.417477 131
0 0.109745 0.920197 0.0849018 0.156281 0.695061 151
0 0.355848 0.564255 0.0324472 0.121935 0.454073 156
0 0.0220295 0.837817 0.044059 0.316294 0.304642 145
9 0.14068 0.465049 0.0691156 0.252689 0.866298 160
0 0.390205 0.558651 0.0305257 0.12075 0.297696 162
0 0.742434 0.651609 0.0387143 0.193115 0.729605 163
0 0.741653 0.655599 0.0442627 0.188174 0.453594 164
0 0.689184 0.671083 0.0414591 0.169947 0.636245 165
0 0.459613 0.581487 0.0346999 0.128799 0.405485 169
0 0.649269 0.700404 0.0425727 0.228541 0.751753 170
9 0.952243 0.409181 0.0660529 0.253981 0.886538 172
0 0.650977 0.703683 0.0443984 0.223835 0.656698 173
2 0.27211 0.611966 0.0836254 0.114071 0.841089 134
2 0.229165 0.562132 0.0473347 0.0684111 0.829891 140
