0 0.733431 0.722607 0.031356 0.170421 0.600876 201
0 0.736545 0.716653 0.0363846 0.177452 0.680913 203
0 0.755162 0.57637 0.0220766 0.0963572 0.60983 208
0 0.694199 0.717465 0.0459714 0.168179 0.61776 198
0 0.0225007 0.85915 0.0450014 0.276299 0.692582 199
0 0.694882 0.717531 0.0530137 0.179533 0.76777 209
2 0.875852 0.555275 0.0593853 0.0927615 0.681591 210
0 0.938777 0.804301 0.0516481 0.256649 0.748608 211
0 0.734361 0.718538 0.0412278 0.181682 0.361222 212
0 0.733431 0.722607 0.031356 0.170421 0.600876 201
0 0.736545 0.716653 0.0363846 0.177452 0.680913 203
0 0.755162 0.57637 0.0220766 0.0963572 0.60983 208
0 0.694199 0.717465 0.0459714 0.168179 0.61776 198
0 0.0225007 0.85915 0.0450014 0.276299 0.692582 199
0 0.694882 0.717531 0.0530137 0.179533 0.76777 209
2 0.875852 0.555275 0.0593853 0.0927615 0.681591 210
0 0.938777 0.804301 0.0516481 0.256649 0.748608 211
0 0.734361 0.718538 0.0412278 0.181682 0.361222 212
