0 0.556575 0.893577 0.0996617 0.211324 0.82744 181
0 0.0626576 0.745132 0.0450636 0.257552 0.71279 186
0 0.117637 0.776442 0.0565069 0.25226 0.77869 164
0 0.119067 0.76891 0.0502973 0.24035 0.144289 163
0 0.0660662 0.748668 0.0558213 0.269545 0.476758 193
0 0.556575 0.893577 0.0996617 0.211324 0.82744 181
0 0.0626576 0.745132 0.0450636 0.257552 0.71279 186
0 0.117637 0.776442 0.0565069 0.25226 0.77869 164
0 0.119067 0.76891 0.0502973 0.24035 0.144289 163
0 0.0660662 0.748668 0.0558213 0.269545 0.476758 193
