2 0.266333 0.586303 0.0637382 0.0873924 0.87266 2
2 0.320705 0.500209 0.0270809 0.0395819 0.606661 42
2 0.342248 0.737287 0.150452 0.269312 0.892656 1
2 0.400052 0.498764 0.0250779 0.0402969 0.276274 74
2 0.386181 0.605468 0.0865587 0.116476 0.794655 77
0 0.131078 0.553413 0.0183716 0.0819964 0.675459 80
0 0.719078 0.562167 0.0254492 0.118627 0.673162 84
0 0.849132 0.560465 0.03113 0.12 0.604047 85
0 0.719125 0.557343 0.0282302 0.122053 0.590343 75
2 0.266333 0.586303 0.0637382 0.0873924 0.87266 2
2 0.320705 0.500209 0.0270809 0.0395819 0.606661 42
2 0.342248 0.737287 0.150452 0.269312 0.892656 1
2 0.400052 0.498764 0.0250779 0.0402969 0.276274 74
2 0.386181 0.605468 0.0865587 0.116476 0.794655 77
0 0.131078 0.553413 0.0183716 0.0819964 0.675459 80
0 0.719078 0.562167 0.0254492 0.118627 0.673162 84
0 0.849132 0.560465 0.03113 0.12 0.604047 85
0 0.719125 0.557343 0.0282302 0.122053 0.590343 75
