0 0.552006 0.883633 0.0643095 0.22849 0.710141 129
2 0.346955 0.492085 0.0225255 0.0296807 0.337172 2
2 0.42023 0.540795 0.0320415 0.0625853 0.352648 140
2 0.642662 0.6766 0.182355 0.163634 0.852315 141
9 0.469639 0.488897 0.0607278 0.276766 0.713791 143
0 0.540265 0.732366 0.0330228 0.0837827 0.109992 131
0 0.515133 0.861103 0.0550941 0.274711 0.623006 151
2 0.421518 0.536587 0.0338172 0.0649236 0.368573 116
0 0.557158 0.552006 0.0277785 0.121698 0.233249 156
0 0.409466 0.76758 0.0639509 0.28764 0.773576 145
9 0.468872 0.452378 0.0520311 0.196561 0.453717 160
0 0.587704 0.546505 0.0289612 0.113822 0.566825 162
0 0.946583 0.628157 0.0386289 0.180262 0.741624 163
0 0.552006 0.883633 0.0643095 0.22849 0.710141 129
2 0.346955 0.492085 0.0225255 0.0296807 0.337172 2
2 0.42023 0.540795 0.0320415 0.0625853 0.352648 140
2 0.642662 0.6766 0.182355 0.163634 0.852315 141
9 0.469639 0.488897 0.0607278 0.276766 0.713791 143
0 0.540265 0.732366 0.0330228 0.0837827 0.109992 131
0 0.515133 0.861103 0.0550941 0.274711 0.623006 151
2 0.421518 0.536587 0.0338172 0.0649236 0.368573 116
0 0.557158 0.552006 0.0277785 0.121698 0.233249 156
0 0.409466 0.76758 0.0639509 0.28764 0.773576 145
9 0.468872 0.452378 0.0520311 0.196561 0.453717 160
0 0.587704 0.546505 0.0289612 0.113822 0.566825 162
0 0.946583 0.628157 0.0386289 0.180262 0.741624 163
