2 0.37709 0.609321 0.0777974 0.0990784 0.794713 2
0 0.974605 0.765314 0.0507897 0.283608 0.86065 5
2 0.409902 0.508603 0.0339666 0.045934 0.451405 42
9 0.0877453 0.448227 0.0251525 0.0810338 0.456391 44
2 0.520786 0.76073 0.153654 0.290883 0.862237 1
0 0.00814355 0.636686 0.0162871 0.16105 0.123881 49
2 0.410213 0.508057 0.0321474 0.0508527 0.309076 55
0 0.00647237 0.65456 0.0129447 0.134153 0.257533 56
0 0.0300975 0.635422 0.0289676 0.164886 0.689517 62
0 0.0285367 0.625459 0.0305978 0.180469 0.790349 65
0 0.0883335 0.590746 0.0213447 0.130494 0.630339 67
9 0.0860076 0.450157 0.024597 0.0795503 0.645973 60
2 0.483482 0.485574 0.0211881 0.0276139 0.472349 74
2 0.37709 0.609321 0.0777974 0.0990784 0.794713 2
0 0.974605 0.765314 0.0507897 0.283608 0.86065 5
2 0.409902 0.508603 0.0339666 0.045934 0.451405 42
9 0.0877453 0.448227 0.0251525 0.0810338 0.456391 44
2 0.520786 0.76073 0.153654 0.290883 0.862237 1
0 0.00814355 0.636686 0.0162871 0.16105 0.123881 49
2 0.410213 0.508057 0.0321474 0.0508527 0.309076 55
0 0.00647237 0.65456 0.0129447 0.134153 0.257533 56
0 0.0300975 0.635422 0.0289676 0.164886 0.689517 62
0 0.0285367 0.625459 0.0305978 0.180469 0.790349 65
0 0.0883335 0.590746 0.0213447 0.130494 0.630339 67
9 0.0860076 0.450157 0.024597 0.0795503 0.645973 60
2 0.483482 0.485574 0.0211881 0.0276139 0.472349 74
