2 0.634633 0.613172 0.0862577 0.161108 0.810326 1
2 0.531565 0.577015 0.0567317 0.0775595 0.849678 2
0 0.221373 0.556919 0.0238384 0.132233 0.628971 19
0 0.809447 0.583669 0.0239271 0.125886 0.725006 5
0 0.243111 0.562955 0.022188 0.123026 0.626616 23
0 0.855422 0.537362 0.0164508 0.0834147 0.636177 12
0 0.810214 0.58173 0.0256819 0.126233 0.719138 29
0 0.854244 0.532176 0.0182498 0.0899063 0.391403 32
0 0.244439 0.573112 0.0225432 0.109251 0.538178 35
0 0.221286 0.565458 0.0217825 0.115769 0.32401 36
2 0.634633 0.613172 0.0862577 0.161108 0.810326 1
2 0.531565 0.577015 0.0567317 0.0775595 0.849678 2
0 0.221373 0.556919 0.0238384 0.132233 0.628971 19
0 0.809447 0.583669 0.0239271 0.125886 0.725006 5
0 0.243111 0.562955 0.022188 0.123026 0.626616 23
0 0.855422 0.537362 0.0164508 0.0834147 0.636177 12
0 0.810214 0.58173 0.0256819 0.126233 0.719138 29
0 0.854244 0.532176 0.0182498 0.0899063 0.391403 32
0 0.244439 0.573112 0.0225432 0.109251 0.538178 35
0 0.221286 0.565458 0.0217825 0.115769 0.32401 36
