2 0.627921 0.599801 0.079706 0.140454 0.773736 1
2 0.530081 0.56573 0.0567072 0.0765866 0.852181 2
0 0.986482 0.674506 0.0270355 0.166062 0.638468 7
0 0.227881 0.556096 0.0215249 0.121078 0.62707 19
0 0.796049 0.563802 0.0240731 0.122394 0.692253 5
0 0.251014 0.545818 0.0243374 0.134558 0.582497 23
0 0.842565 0.5179 0.0184244 0.0953788 0.603922 12
0 0.79455 0.565059 0.0213526 0.112537 0.692395 29
0 0.841341 0.518489 0.0206379 0.0977384 0.623363 32
2 0.627921 0.599801 0.079706 0.140454 0.773736 1
2 0.530081 0.56573 0.0567072 0.0765866 0.852181 2
0 0.986482 0.674506 0.0270355 0.166062 0.638468 7
0 0.227881 0.556096 0.0215249 0.121078 0.62707 19
0 0.796049 0.563802 0.0240731 0.122394 0.692253 5
0 0.251014 0.545818 0.0243374 0.134558 0.582497 23
0 0.842565 0.5179 0.0184244 0.0953788 0.603922 12
0 0.79455 0.565059 0.0213526 0.112537 0.692395 29
0 0.841341 0.518489 0.0206379 0.0977384 0.623363 32
