0 0.511073 0.899339 0.0983354 0.199263 0.795474 181
0 0.0209567 0.771296 0.0419133 0.237114 0.301643 186
0 0.0699358 0.783819 0.0580801 0.259344 0.38966 164
0 0.0718251 0.771006 0.0537347 0.239984 0.572345 163
0 0.0223696 0.768624 0.0447392 0.229906 0.138903 193
0 0.511073 0.899339 0.0983354 0.199263 0.795474 181
0 0.0209567 0.771296 0.0419133 0.237114 0.301643 186
0 0.0699358 0.783819 0.0580801 0.259344 0.38966 164
0 0.0718251 0.771006 0.0537347 0.239984 0.572345 163
0 0.0223696 0.768624 0.0447392 0.229906 0.138903 193
