2 0.343855 0.551826 0.043703 0.0582561 0.786551 2
2 0.854786 0.577412 0.164791 0.11612 0.576763 77
0 0.0942976 0.601227 0.021069 0.102713 0.173222 80
0 0.0963891 0.598715 0.0253689 0.106525 0.584781 91
9 0.632692 0.458662 0.0763806 0.275484 0.836925 93
2 0.411211 0.691285 0.173834 0.231486 0.911601 1
9 0.985992 0.385866 0.027443 0.107918 0.525009 103
2 0.508666 0.541476 0.0471688 0.0635409 0.761564 109
2 0.343855 0.551826 0.043703 0.0582561 0.786551 2
2 0.854786 0.577412 0.164791 0.11612 0.576763 77
0 0.0942976 0.601227 0.021069 0.102713 0.173222 80
0 0.0963891 0.598715 0.0253689 0.106525 0.584781 91
9 0.632692 0.458662 0.0763806 0.275484 0.836925 93
2 0.411211 0.691285 0.173834 0.231486 0.911601 1
9 0.985992 0.385866 0.027443 0.107918 0.525009 103
2 0.508666 0.541476 0.0471688 0.0635409 0.761564 109
