2 0.427841 0.53489 0.0397715 0.0464078 0.544971 2
0 0.128425 0.626995 0.0305091 0.121676 0.530612 80
0 0.127814 0.628054 0.0263958 0.119079 0.625619 91
2 0.673123 0.693897 0.223031 0.244626 0.91259 1
2 0.530243 0.49755 0.0288236 0.0438639 0.634469 116
2 0.427487 0.536822 0.0358848 0.0467747 0.588281 113
0 0.0409391 0.634186 0.0297851 0.110895 0.575725 117
2 0.633694 0.555417 0.0808001 0.0687893 0.568181 109
2 0.427841 0.53489 0.0397715 0.0464078 0.544971 2
0 0.128425 0.626995 0.0305091 0.121676 0.530612 80
0 0.127814 0.628054 0.0263958 0.119079 0.625619 91
2 0.673123 0.693897 0.223031 0.244626 0.91259 1
2 0.530243 0.49755 0.0288236 0.0438639 0.634469 116
2 0.427487 0.536822 0.0358848 0.0467747 0.588281 113
0 0.0409391 0.634186 0.0297851 0.110895 0.575725 117
2 0.633694 0.555417 0.0808001 0.0687893 0.568181 109
