0 0.779895 0.793346 0.0492563 0.251116 0.759704 129
2 0.499405 0.528636 0.0278 0.0355251 0.508257 2
2 0.612941 0.56859 0.0470418 0.0583188 0.646983 134
0 0.684243 0.657944 0.0271666 0.14981 0.126263 109
2 0.49973 0.529052 0.0252634 0.0314415 0.67436 136
2 0.611845 0.56643 0.045049 0.0649799 0.685294 139
2 0.58564 0.53934 0.0307103 0.0497309 0.182312 140
2 0.787173 0.641635 0.109128 0.119149 0.63613 141
9 0.684405 0.472962 0.0415185 0.143551 0.833109 143
2 0.784839 0.650806 0.103288 0.120444 0.280262 144
0 0.709183 0.695307 0.035035 0.184247 0.192895 145
0 0.706937 0.685695 0.0288273 0.163951 0.489797 148
0 0.824308 0.743593 0.0492638 0.237746 0.517023 131
2 0.858646 0.672294 0.0563401 0.0895729 0.517537 152
0 0.821719 0.744043 0.0452456 0.231741 0.719132 153
2 0.849353 0.671255 0.0751623 0.0903293 0.146505 154
2 0.585985 0.540477 0.0300264 0.0449583 0.68782 116
0 0.779895 0.793346 0.0492563 0.251116 0.759704 129
2 0.499405 0.528636 0.0278 0.0355251 0.508257 2
2 0.612941 0.56859 0.0470418 0.0583188 0.646983 134
0 0.684243 0.657944 0.0271666 0.14981 0.126263 109
2 0.49973 0.529052 0.0252634 0.0314415 0.67436 136
2 0.611845 0.56643 0.045049 0.0649799 0.685294 139
2 0.58564 0.53934 0.0307103 0.0497309 0.182312 140
2 0.787173 0.641635 0.109128 0.119149 0.63613 141
9 0.684405 0.472962 0.0415185 0.143551 0.833109 143
2 0.784839 0.650806 0.103288 0.120444 0.280262 144
0 0.709183 0.695307 0.035035 0.184247 0.192895 145
0 0.706937 0.685695 0.0288273 0.163951 0.489797 148
0 0.824308 0.743593 0.0492638 0.237746 0.517023 131
2 0.858646 0.672294 0.0563401 0.0895729 0.517537 152
0 0.821719 0.744043 0.0452456 0.231741 0.719132 153
2 0.849353 0.671255 0.0751623 0.0903293 0.146505 154
2 0.585985 0.540477 0.0300264 0.0449583 0.68782 116
