2 0.48922 0.46389 0.0280733 0.0441137 0.53723 261
2 0.445959 0.474265 0.0315276 0.0567399 0.613196 210
2 0.488882 0.465568 0.0273353 0.040191 0.673293 280
2 0.895769 0.588954 0.056104 0.0695161 0.577134 283
2 0.834733 0.643458 0.117255 0.132921 0.916081 279
0 0.46547 0.610073 0.0457183 0.145897 0.572304 255
2 0.748048 0.595518 0.0855766 0.101728 0.838467 236
2 0.445464 0.47642 0.0306886 0.0600272 0.524625 290
2 0.89226 0.588087 0.0601667 0.070324 0.719344 292
2 0.844535 0.643973 0.0979358 0.127117 0.372165 253
0 0.463137 0.611069 0.0530114 0.149986 0.648794 254
2 0.48922 0.46389 0.0280733 0.0441137 0.53723 261
2 0.445959 0.474265 0.0315276 0.0567399 0.613196 210
2 0.488882 0.465568 0.0273353 0.040191 0.673293 280
2 0.895769 0.588954 0.056104 0.0695161 0.577134 283
2 0.834733 0.643458 0.117255 0.132921 0.916081 279
0 0.46547 0.610073 0.0457183 0.145897 0.572304 255
2 0.748048 0.595518 0.0855766 0.101728 0.838467 236
2 0.445464 0.47642 0.0306886 0.0600272 0.524625 290
2 0.89226 0.588087 0.0601667 0.070324 0.719344 292
2 0.844535 0.643973 0.0979358 0.127117 0.372165 253
0 0.463137 0.611069 0.0530114 0.149986 0.648794 254
