2 0.549201 0.548531 0.0975202 0.11558 0.846682 220
2 0.806025 0.766537 0.266947 0.270705 0.819799 224
2 0.827288 0.66506 0.179226 0.177111 0.856267 229
2 0.241148 0.491017 0.0372647 0.0651988 0.812006 210
2 0.239846 0.489157 0.0388805 0.0726859 0.412146 218
1 0.0301403 0.866976 0.0592576 0.184624 0.574354 241
1 0.0274556 0.863413 0.0549111 0.187923 0.487251 250
2 0.397259 0.489434 0.0500123 0.0544768 0.769795 236
2 0.485308 0.517439 0.0551757 0.0641254 0.754685 253
0 0.158374 0.541665 0.0268355 0.114506 0.50526 254
0 0.158307 0.549337 0.0243732 0.10631 0.677215 255
2 0.397436 0.485736 0.0483375 0.0553869 0.266918 259
2 0.549201 0.548531 0.0975202 0.11558 0.846682 220
2 0.806025 0.766537 0.266947 0.270705 0.819799 224
2 0.827288 0.66506 0.179226 0.177111 0.856267 229
2 0.241148 0.491017 0.0372647 0.0651988 0.812006 210
2 0.239846 0.489157 0.0388805 0.0726859 0.412146 218
1 0.0301403 0.866976 0.0592576 0.184624 0.574354 241
1 0.0274556 0.863413 0.0549111 0.187923 0.487251 250
2 0.397259 0.489434 0.0500123 0.0544768 0.769795 236
2 0.485308 0.517439 0.0551757 0.0641254 0.754685 253
0 0.158374 0.541665 0.0268355 0.114506 0.50526 254
0 0.158307 0.549337 0.0243732 0.10631 0.677215 255
2 0.397436 0.485736 0.0483375 0.0553869 0.266918 259
