2 0.602623 0.568561 0.0657432 0.111802 0.81958 1
2 0.522803 0.54672 0.0469139 0.0651864 0.744913 2
0 0.902499 0.600593 0.0314746 0.123382 0.721951 3
0 0.741885 0.537884 0.0188273 0.0955609 0.682416 5
0 0.852244 0.603002 0.0281452 0.116864 0.703283 7
0 0.780065 0.51335 0.0174988 0.0700802 0.195269 9
0 0.800772 0.522806 0.014268 0.0655836 0.169148 12
0 0.743341 0.537233 0.0195527 0.0999081 0.408273 14
2 0.602623 0.568561 0.0657432 0.111802 0.81958 1
2 0.522803 0.54672 0.0469139 0.0651864 0.744913 2
0 0.902499 0.600593 0.0314746 0.123382 0.721951 3
0 0.741885 0.537884 0.0188273 0.0955609 0.682416 5
0 0.852244 0.603002 0.0281452 0.116864 0.703283 7
0 0.780065 0.51335 0.0174988 0.0700802 0.195269 9
0 0.800772 0.522806 0.014268 0.0655836 0.169148 12
0 0.743341 0.537233 0.0195527 0.0999081 0.408273 14
