2 0.513672 0.590383 0.0703889 0.0970477 0.8342 2
0 0.155534 0.563622 0.0265317 0.136998 0.584892 19
0 0.881491 0.615085 0.0384447 0.156783 0.832197 5
0 0.18291 0.572665 0.0268608 0.12667 0.674143 23
0 0.902265 0.535061 0.0217433 0.0821215 0.245894 12
0 0.901918 0.542732 0.021243 0.0903172 0.595122 32
0 0.184275 0.573145 0.026384 0.138241 0.568004 35
0 0.155794 0.569263 0.0290025 0.134426 0.613231 36
2 0.54186 0.512147 0.0501036 0.050197 0.43573 42
9 0.30345 0.425959 0.0114742 0.0486926 0.814602 44
9 0.266358 0.427784 0.0140755 0.0547438 0.536381 45
0 0.26563 0.554114 0.0192596 0.095438 0.591591 46
2 0.643029 0.650303 0.107275 0.208212 0.853711 1
2 0.513672 0.590383 0.0703889 0.0970477 0.8342 2
0 0.155534 0.563622 0.0265317 0.136998 0.584892 19
0 0.881491 0.615085 0.0384447 0.156783 0.832197 5
0 0.18291 0.572665 0.0268608 0.12667 0.674143 23
0 0.902265 0.535061 0.0217433 0.0821215 0.245894 12
0 0.901918 0.542732 0.021243 0.0903172 0.595122 32
0 0.184275 0.573145 0.026384 0.138241 0.568004 35
0 0.155794 0.569263 0.0290025 0.134426 0.613231 36
2 0.54186 0.512147 0.0501036 0.050197 0.43573 42
9 0.30345 0.425959 0.0114742 0.0486926 0.814602 44
9 0.266358 0.427784 0.0140755 0.0547438 0.536381 45
0 0.26563 0.554114 0.0192596 0.095438 0.591591 46
2 0.643029 0.650303 0.107275 0.208212 0.853711 1
