2 0.349015 0.599757 0.0727096 0.099136 0.79823 2
2 0.388405 0.50436 0.0293112 0.0489156 0.514231 42
9 0.0326655 0.443794 0.024549 0.0789762 0.498862 44
2 0.485423 0.761154 0.158186 0.296975 0.873906 1
9 0.032469 0.449136 0.0270331 0.0841787 0.65127 60
2 0.46237 0.487225 0.020259 0.0289091 0.450874 74
0 0.807156 0.568805 0.0269915 0.10062 0.705765 75
2 0.481407 0.59485 0.0892322 0.0650525 0.559337 77
2 0.480279 0.586823 0.0898638 0.0593085 0.435157 78
0 0.886689 0.570185 0.0231937 0.104661 0.541406 79
2 0.349015 0.599757 0.0727096 0.099136 0.79823 2
2 0.388405 0.50436 0.0293112 0.0489156 0.514231 42
9 0.0326655 0.443794 0.024549 0.0789762 0.498862 44
2 0.485423 0.761154 0.158186 0.296975 0.873906 1
9 0.032469 0.449136 0.0270331 0.0841787 0.65127 60
2 0.46237 0.487225 0.020259 0.0289091 0.450874 74
0 0.807156 0.568805 0.0269915 0.10062 0.705765 75
2 0.481407 0.59485 0.0892322 0.0650525 0.559337 77
2 0.480279 0.586823 0.0898638 0.0593085 0.435157 78
0 0.886689 0.570185 0.0231937 0.104661 0.541406 79
