2 0.444486 0.608646 0.0759215 0.104787 0.805059 2
0 0.0291719 0.60206 0.0337955 0.151224 0.607215 19
0 0.925035 0.68817 0.0464428 0.200516 0.842528 5
0 0.0635742 0.602371 0.0336513 0.151581 0.411127 23
0 0.876927 0.561352 0.0166365 0.0984491 0.486452 32
2 0.465695 0.512649 0.0330693 0.0503839 0.582636 42
9 0.201909 0.437625 0.0207576 0.0713104 0.38187 44
0 0.14572 0.590208 0.0258982 0.12496 0.627371 46
2 0.595672 0.729791 0.141795 0.289405 0.849396 1
0 0.130542 0.582345 0.0249333 0.133479 0.206758 49
0 0.0636927 0.607106 0.0332301 0.140204 0.693859 52
2 0.465563 0.510185 0.0356333 0.058157 0.544394 55
0 0.143338 0.583064 0.0243627 0.135354 0.393453 56
0 0.123512 0.597443 0.0220881 0.109741 0.323095 57
0 0.103659 0.594286 0.0180444 0.0892342 0.509487 59
9 0.202435 0.436822 0.0172845 0.0710733 0.434082 60
0 0.00545129 0.6012 0.0109026 0.151969 0.21853 61
0 0.177084 0.589635 0.022526 0.129316 0.716027 62
0 0.178496 0.58546 0.0199867 0.128959 0.352783 65
0 0.799691 0.521724 0.0146013 0.0699175 0.256146 66
0 0.200466 0.568731 0.0177527 0.103335 0.507797 67
2 0.444486 0.608646 0.0759215 0.104787 0.805059 2
0 0.0291719 0.60206 0.0337955 0.151224 0.607215 19
0 0.925035 0.68817 0.0464428 0.200516 0.842528 5
0 0.0635742 0.602371 0.0336513 0.151581 0.411127 23
0 0.876927 0.561352 0.0166365 0.0984491 0.486452 32
2 0.465695 0.512649 0.0330693 0.0503839 0.582636 42
9 0.201909 0.437625 0.0207576 0.0713104 0.38187 44
0 0.14572 0.590208 0.0258982 0.12496 0.627371 46
2 0.595672 0.729791 0.141795 0.289405 0.849396 1
0 0.130542 0.582345 0.0249333 0.133479 0.206758 49
0 0.0636927 0.607106 0.0332301 0.140204 0.693859 52
2 0.465563 0.510185 0.0356333 0.058157 0.544394 55
0 0.143338 0.583064 0.0243627 0.135354 0.393453 56
0 0.123512 0.597443 0.0220881 0.109741 0.323095 57
0 0.103659 0.594286 0.0180444 0.0892342 0.509487 59
9 0.202435 0.436822 0.0172845 0.0710733 0.434082 60
0 0.00545129 0.6012 0.0109026 0.151969 0.21853 61
0 0.177084 0.589635 0.022526 0.129316 0.716027 62
0 0.178496 0.58546 0.0199867 0.128959 0.352783 65
0 0.799691 0.521724 0.0146013 0.0699175 0.256146 66
0 0.200466 0.568731 0.0177527 0.103335 0.507797 67
