2 0.80628 0.684767 0.204676 0.238941 0.893046 220
2 0.568908 0.553751 0.0723928 0.0806667 0.817597 253
0 0.168306 0.572876 0.0211863 0.124369 0.175432 254
0 0.167718 0.565006 0.0239079 0.141807 0.607322 255
2 0.321882 0.468784 0.0258129 0.0352905 0.503443 261
2 0.507067 0.527087 0.0616743 0.068221 0.757121 236
0 0.826192 0.558634 0.0252523 0.0578674 0.168449 265
2 0.278714 0.484724 0.033061 0.059205 0.699184 210
2 0.278826 0.483981 0.0385964 0.0596751 0.118399 275
2 0.80628 0.684767 0.204676 0.238941 0.893046 220
2 0.568908 0.553751 0.0723928 0.0806667 0.817597 253
0 0.168306 0.572876 0.0211863 0.124369 0.175432 254
0 0.167718 0.565006 0.0239079 0.141807 0.607322 255
2 0.321882 0.468784 0.0258129 0.0352905 0.503443 261
2 0.507067 0.527087 0.0616743 0.068221 0.757121 236
0 0.826192 0.558634 0.0252523 0.0578674 0.168449 265
2 0.278714 0.484724 0.033061 0.059205 0.699184 210
2 0.278826 0.483981 0.0385964 0.0596751 0.118399 275
