2 0.607632 0.573148 0.067709 0.117868 0.78174 1
2 0.524464 0.550521 0.0483088 0.0668745 0.798668 2
0 0.927595 0.615845 0.0328702 0.133461 0.77857 3
0 0.87847 0.611086 0.0292645 0.127729 0.734143 7
0 0.925177 0.614729 0.0336873 0.126814 0.498483 18
0 0.25455 0.547831 0.0213209 0.113209 0.101473 19
0 0.751392 0.542446 0.0225453 0.106728 0.721413 5
2 0.607632 0.573148 0.067709 0.117868 0.78174 1
2 0.524464 0.550521 0.0483088 0.0668745 0.798668 2
0 0.927595 0.615845 0.0328702 0.133461 0.77857 3
0 0.87847 0.611086 0.0292645 0.127729 0.734143 7
0 0.925177 0.614729 0.0336873 0.126814 0.498483 18
0 0.25455 0.547831 0.0213209 0.113209 0.101473 19
0 0.751392 0.542446 0.0225453 0.106728 0.721413 5
