2 0.965159 0.784061 0.0696826 0.318702 0.751596 220
2 0.666497 0.592165 0.0835192 0.0892719 0.820192 253
0 0.256483 0.593572 0.0343568 0.131257 0.504279 254
0 0.247261 0.5953 0.0531964 0.132239 0.35475 255
2 0.393403 0.474843 0.0274316 0.0359218 0.542995 261
2 0.602035 0.559518 0.0673505 0.0767697 0.840856 236
2 0.3492 0.486359 0.0313884 0.0535148 0.627157 210
2 0.349931 0.484964 0.03417 0.057398 0.566899 275
2 0.597509 0.553139 0.0605212 0.0716489 0.114904 278
2 0.391021 0.473599 0.0277875 0.0360652 0.331879 280
2 0.963234 0.800004 0.0714372 0.273129 0.709759 281
2 0.965159 0.784061 0.0696826 0.318702 0.751596 220
2 0.666497 0.592165 0.0835192 0.0892719 0.820192 253
0 0.256483 0.593572 0.0343568 0.131257 0.504279 254
0 0.247261 0.5953 0.0531964 0.132239 0.35475 255
2 0.393403 0.474843 0.0274316 0.0359218 0.542995 261
2 0.602035 0.559518 0.0673505 0.0767697 0.840856 236
2 0.3492 0.486359 0.0313884 0.0535148 0.627157 210
2 0.349931 0.484964 0.03417 0.057398 0.566899 275
2 0.597509 0.553139 0.0605212 0.0716489 0.114904 278
2 0.391021 0.473599 0.0277875 0.0360652 0.331879 280
2 0.963234 0.800004 0.0714372 0.273129 0.709759 281
