2 0.430753 0.613074 0.0772685 0.104 0.833808 2
0 0.0097844 0.615213 0.0195688 0.148117 0.577195 19
0 0.931661 0.703337 0.049069 0.215974 0.823431 5
0 0.0355985 0.608506 0.0298399 0.148786 0.219172 23
2 0.452381 0.512812 0.0331829 0.0483461 0.631946 42
9 0.176709 0.440555 0.019509 0.0732904 0.654759 44
0 0.112954 0.596075 0.0251578 0.132629 0.291002 46
2 0.579348 0.741088 0.144708 0.285172 0.834579 1
0 0.113353 0.603723 0.0289416 0.123933 0.574413 49
0 0.0335079 0.613292 0.0321039 0.149385 0.712521 52
2 0.452284 0.509744 0.0363105 0.0561839 0.456591 55
0 0.114156 0.599063 0.027084 0.126704 0.676506 56
0 0.0937562 0.598067 0.0218884 0.118908 0.194496 57
0 0.0722739 0.604731 0.0167707 0.0974325 0.524327 59
0 0.148315 0.593427 0.0201341 0.13127 0.220881 62
0 0.145942 0.59897 0.0227382 0.136631 0.705769 65
0 0.789169 0.523806 0.0122355 0.0617935 0.194239 66
0 0.174782 0.573959 0.0195949 0.104172 0.575053 67
0 0.00808226 0.60922 0.0161645 0.131759 0.111315 69
0 0.176206 0.571467 0.0178205 0.106755 0.549861 70
0 0.928523 0.697558 0.0478291 0.222457 0.792547 71
2 0.430753 0.613074 0.0772685 0.104 0.833808 2
0 0.0097844 0.615213 0.0195688 0.148117 0.577195 19
0 0.931661 0.703337 0.049069 0.215974 0.823431 5
0 0.0355985 0.608506 0.0298399 0.148786 0.219172 23
2 0.452381 0.512812 0.0331829 0.0483461 0.631946 42
9 0.176709 0.440555 0.019509 0.0732904 0.654759 44
0 0.112954 0.596075 0.0251578 0.132629 0.291002 46
2 0.579348 0.741088 0.144708 0.285172 0.834579 1
0 0.113353 0.603723 0.0289416 0.123933 0.574413 49
0 0.0335079 0.613292 0.0321039 0.149385 0.712521 52
2 0.452284 0.509744 0.0363105 0.0561839 0.456591 55
0 0.114156 0.599063 0.027084 0.126704 0.676506 56
0 0.0937562 0.598067 0.0218884 0.118908 0.194496 57
0 0.0722739 0.604731 0.0167707 0.0974325 0.524327 59
0 0.148315 0.593427 0.0201341 0.13127 0.220881 62
0 0.145942 0.59897 0.0227382 0.136631 0.705769 65
0 0.789169 0.523806 0.0122355 0.0617935 0.194239 66
0 0.174782 0.573959 0.0195949 0.104172 0.575053 67
0 0.00808226 0.60922 0.0161645 0.131759 0.111315 69
0 0.176206 0.571467 0.0178205 0.106755 0.549861 70
0 0.928523 0.697558 0.0478291 0.222457 0.792547 71
