0 0.0320511 0.73556 0.0273279 0.163382 0.560849 80
0 0.0124384 0.749182 0.0248767 0.17511 0.482369 91
0 0.782081 0.755816 0.0492669 0.213765 0.780101 129
2 0.503134 0.537053 0.0295696 0.0380277 0.764894 2
0 0.844368 0.725706 0.0470058 0.207609 0.740939 131
2 0.607424 0.557245 0.048328 0.0709924 0.337526 134
0 0.706779 0.671398 0.0255 0.151485 0.461868 109
2 0.503988 0.540434 0.0274756 0.0360367 0.644615 136
0 0.841179 0.729851 0.0447435 0.2047 0.652518 138
2 0.612935 0.56495 0.0436305 0.0569651 0.768303 139
2 0.592158 0.541722 0.0286281 0.0415376 0.590931 140
2 0.776968 0.647069 0.116886 0.122779 0.170998 141
9 0.684083 0.482244 0.0348516 0.125443 0.667576 143
2 0.787175 0.648398 0.0962266 0.116648 0.600468 144
0 0.731618 0.693549 0.0375079 0.200377 0.654349 145
0 0.723972 0.684094 0.0525678 0.215117 0.571347 148
0 0.0320511 0.73556 0.0273279 0.163382 0.560849 80
0 0.0124384 0.749182 0.0248767 0.17511 0.482369 91
0 0.782081 0.755816 0.0492669 0.213765 0.780101 129
2 0.503134 0.537053 0.0295696 0.0380277 0.764894 2
0 0.844368 0.725706 0.0470058 0.207609 0.740939 131
2 0.607424 0.557245 0.048328 0.0709924 0.337526 134
0 0.706779 0.671398 0.0255 0.151485 0.461868 109
2 0.503988 0.540434 0.0274756 0.0360367 0.644615 136
0 0.841179 0.729851 0.0447435 0.2047 0.652518 138
2 0.612935 0.56495 0.0436305 0.0569651 0.768303 139
2 0.592158 0.541722 0.0286281 0.0415376 0.590931 140
2 0.776968 0.647069 0.116886 0.122779 0.170998 141
9 0.684083 0.482244 0.0348516 0.125443 0.667576 143
2 0.787175 0.648398 0.0962266 0.116648 0.600468 144
0 0.731618 0.693549 0.0375079 0.200377 0.654349 145
0 0.723972 0.684094 0.0525678 0.215117 0.571347 148
