2 0.360814 0.602385 0.0732499 0.10087 0.791397 2
0 0.986081 0.763726 0.0278385 0.291614 0.102339 5
2 0.397468 0.505511 0.0296841 0.0419942 0.442667 42
9 0.0568048 0.442883 0.0253889 0.0805111 0.181706 44
2 0.50114 0.767307 0.158073 0.295102 0.853738 1
9 0.0560352 0.447561 0.025571 0.0836917 0.65692 60
2 0.472172 0.485135 0.0197279 0.0289735 0.474368 74
0 0.819236 0.562971 0.0201942 0.106197 0.654467 75
2 0.984735 0.771598 0.0253736 0.270947 0.131672 76
2 0.493758 0.592039 0.0898744 0.0693254 0.717041 77
2 0.360814 0.602385 0.0732499 0.10087 0.791397 2
0 0.986081 0.763726 0.0278385 0.291614 0.102339 5
2 0.397468 0.505511 0.0296841 0.0419942 0.442667 42
9 0.0568048 0.442883 0.0253889 0.0805111 0.181706 44
2 0.50114 0.767307 0.158073 0.295102 0.853738 1
9 0.0560352 0.447561 0.025571 0.0836917 0.65692 60
2 0.472172 0.485135 0.0197279 0.0289735 0.474368 74
0 0.819236 0.562971 0.0201942 0.106197 0.654467 75
2 0.984735 0.771598 0.0253736 0.270947 0.131672 76
2 0.493758 0.592039 0.0898744 0.0693254 0.717041 77
