0 0.459699 0.755892 0.0540652 0.251021 0.726161 195
72 0.098298 0.672107 0.125873 0.412039 0.652363 196
0 0.459699 0.755892 0.0540652 0.251021 0.726161 195
72 0.098298 0.672107 0.125873 0.412039 0.652363 196
