2 0.524764 0.537586 0.0847692 0.0999618 0.871773 220
2 0.693015 0.682808 0.170447 0.187592 0.908078 224
2 0.797528 0.655954 0.152368 0.15867 0.932126 229
2 0.259013 0.491188 0.0387569 0.066599 0.480118 210
2 0.258038 0.495472 0.0378561 0.0651486 0.705657 218
0 0.046862 0.660005 0.0456592 0.173715 0.823461 208
1 0.10929 0.785969 0.0541555 0.157637 0.621997 241
0 0.934233 0.618153 0.0351277 0.160085 0.143736 246
1 0.10701 0.783303 0.0595669 0.160395 0.795998 250
2 0.388843 0.484483 0.0423216 0.0512183 0.768434 236
0 0.934082 0.623883 0.0388599 0.164889 0.828166 251
2 0.524764 0.537586 0.0847692 0.0999618 0.871773 220
2 0.693015 0.682808 0.170447 0.187592 0.908078 224
2 0.797528 0.655954 0.152368 0.15867 0.932126 229
2 0.259013 0.491188 0.0387569 0.066599 0.480118 210
2 0.258038 0.495472 0.0378561 0.0651486 0.705657 218
0 0.046862 0.660005 0.0456592 0.173715 0.823461 208
1 0.10929 0.785969 0.0541555 0.157637 0.621997 241
0 0.934233 0.618153 0.0351277 0.160085 0.143736 246
1 0.10701 0.783303 0.0595669 0.160395 0.795998 250
2 0.388843 0.484483 0.0423216 0.0512183 0.768434 236
0 0.934082 0.623883 0.0388599 0.164889 0.828166 251
