2 0.50557 0.465512 0.0306546 0.0485388 0.270838 261
2 0.463475 0.481307 0.0344299 0.0593547 0.34337 210
2 0.506313 0.471748 0.0291396 0.0398991 0.506184 280
2 0.938493 0.610741 0.0641124 0.0767355 0.211279 283
2 0.872792 0.671663 0.127778 0.143552 0.870054 279
0 0.527811 0.633458 0.0327139 0.132818 0.210322 255
2 0.779967 0.617939 0.0964197 0.111806 0.792385 236
2 0.463925 0.48116 0.0312256 0.0620772 0.698592 290
2 0.935043 0.612873 0.0668344 0.0716735 0.605877 292
9 0.528847 0.627641 0.0297537 0.121665 0.222844 254
0 0.300007 0.511899 0.018731 0.0877041 0.502208 294
2 0.777967 0.612382 0.0910531 0.100832 0.629358 295
2 0.50557 0.465512 0.0306546 0.0485388 0.270838 261
2 0.463475 0.481307 0.0344299 0.0593547 0.34337 210
2 0.506313 0.471748 0.0291396 0.0398991 0.506184 280
2 0.938493 0.610741 0.0641124 0.0767355 0.211279 283
2 0.872792 0.671663 0.127778 0.143552 0.870054 279
0 0.527811 0.633458 0.0327139 0.132818 0.210322 255
2 0.779967 0.617939 0.0964197 0.111806 0.792385 236
2 0.463925 0.48116 0.0312256 0.0620772 0.698592 290
2 0.935043 0.612873 0.0668344 0.0716735 0.605877 292
9 0.528847 0.627641 0.0297537 0.121665 0.222844 254
0 0.300007 0.511899 0.018731 0.0877041 0.502208 294
2 0.777967 0.612382 0.0910531 0.100832 0.629358 295
