0 0.0439855 0.72254 0.0262562 0.158542 0.617554 80
0 0.0222326 0.738464 0.0291526 0.172586 0.559175 91
2 0.603091 0.544463 0.059135 0.0630911 0.248707 116
0 0.778416 0.738625 0.0474305 0.212742 0.790743 129
2 0.503047 0.532008 0.0292597 0.0401188 0.675836 2
0 0.843302 0.706232 0.0412385 0.21878 0.619454 131
0 0.780141 0.739783 0.0518926 0.199438 0.200085 133
2 0.604717 0.548678 0.0522025 0.070649 0.523154 134
0 0.710318 0.660381 0.0262108 0.165289 0.506047 109
2 0.503817 0.535426 0.0275967 0.0370506 0.701297 136
0 0.843834 0.715343 0.0398748 0.196757 0.725483 138
2 0.61234 0.555743 0.042775 0.0603939 0.742965 139
2 0.592192 0.534943 0.0290606 0.0430556 0.538811 140
2 0.771629 0.638316 0.126883 0.124282 0.261341 141
9 0.681087 0.475099 0.0330012 0.124536 0.606175 143
2 0.786186 0.643586 0.0981667 0.118176 0.684807 144
0 0.733092 0.684828 0.0397559 0.190466 0.603678 145
0 0.0439855 0.72254 0.0262562 0.158542 0.617554 80
0 0.0222326 0.738464 0.0291526 0.172586 0.559175 91
2 0.603091 0.544463 0.059135 0.0630911 0.248707 116
0 0.778416 0.738625 0.0474305 0.212742 0.790743 129
2 0.503047 0.532008 0.0292597 0.0401188 0.675836 2
0 0.843302 0.706232 0.0412385 0.21878 0.619454 131
0 0.780141 0.739783 0.0518926 0.199438 0.200085 133
2 0.604717 0.548678 0.0522025 0.070649 0.523154 134
0 0.710318 0.660381 0.0262108 0.165289 0.506047 109
2 0.503817 0.535426 0.0275967 0.0370506 0.701297 136
0 0.843834 0.715343 0.0398748 0.196757 0.725483 138
2 0.61234 0.555743 0.042775 0.0603939 0.742965 139
2 0.592192 0.534943 0.0290606 0.0430556 0.538811 140
2 0.771629 0.638316 0.126883 0.124282 0.261341 141
9 0.681087 0.475099 0.0330012 0.124536 0.606175 143
2 0.786186 0.643586 0.0981667 0.118176 0.684807 144
0 0.733092 0.684828 0.0397559 0.190466 0.603678 145
