2 0.731985 0.620282 0.0785899 0.0978923 0.519725 253
0 0.322291 0.620469 0.0366429 0.13358 0.220122 254
0 0.323206 0.619601 0.0402409 0.137331 0.126859 255
2 0.428277 0.48585 0.0253994 0.0405493 0.246864 261
2 0.652536 0.578829 0.0693878 0.08193 0.777178 236
2 0.384659 0.499423 0.0302814 0.055215 0.572762 210
2 0.385738 0.503211 0.0322034 0.0572843 0.760687 275
2 0.654246 0.584163 0.07444 0.0832027 0.828294 278
2 0.430091 0.488107 0.0241846 0.0357631 0.43333 280
2 0.776084 0.575166 0.0330212 0.0425945 0.611989 283
2 0.724199 0.619721 0.0946227 0.0979839 0.814298 279
2 0.731985 0.620282 0.0785899 0.0978923 0.519725 253
0 0.322291 0.620469 0.0366429 0.13358 0.220122 254
0 0.323206 0.619601 0.0402409 0.137331 0.126859 255
2 0.428277 0.48585 0.0253994 0.0405493 0.246864 261
2 0.652536 0.578829 0.0693878 0.08193 0.777178 236
2 0.384659 0.499423 0.0302814 0.055215 0.572762 210
2 0.385738 0.503211 0.0322034 0.0572843 0.760687 275
2 0.654246 0.584163 0.07444 0.0832027 0.828294 278
2 0.430091 0.488107 0.0241846 0.0357631 0.43333 280
2 0.776084 0.575166 0.0330212 0.0425945 0.611989 283
2 0.724199 0.619721 0.0946227 0.0979839 0.814298 279
