0 0.0751978 0.698542 0.0275757 0.148585 0.549326 80
0 0.0506184 0.711824 0.0348486 0.164514 0.660889 91
2 0.605826 0.534869 0.0445093 0.0531139 0.396076 116
0 0.77027 0.691632 0.0491208 0.194102 0.576299 129
2 0.501873 0.525947 0.0299979 0.0414826 0.663643 2
0 0.846498 0.67113 0.0384071 0.193361 0.5904 131
0 0.7768 0.698056 0.0454482 0.187367 0.674598 133
2 0.600356 0.531017 0.0522884 0.0593271 0.572956 134
0 0.718457 0.637172 0.0313698 0.188335 0.128164 109
2 0.501542 0.526767 0.0278658 0.0354692 0.684772 136
0 0.84358 0.671198 0.0419935 0.186834 0.711614 138
2 0.608606 0.536851 0.040626 0.0522175 0.685647 139
2 0.59005 0.516927 0.0285785 0.0375957 0.438846 140
2 0.781526 0.618495 0.100625 0.110865 0.67299 141
0 0.0751978 0.698542 0.0275757 0.148585 0.549326 80
0 0.0506184 0.711824 0.0348486 0.164514 0.660889 91
2 0.605826 0.534869 0.0445093 0.0531139 0.396076 116
0 0.77027 0.691632 0.0491208 0.194102 0.576299 129
2 0.501873 0.525947 0.0299979 0.0414826 0.663643 2
0 0.846498 0.67113 0.0384071 0.193361 0.5904 131
0 0.7768 0.698056 0.0454482 0.187367 0.674598 133
2 0.600356 0.531017 0.0522884 0.0593271 0.572956 134
0 0.718457 0.637172 0.0313698 0.188335 0.128164 109
2 0.501542 0.526767 0.0278658 0.0354692 0.684772 136
0 0.84358 0.671198 0.0419935 0.186834 0.711614 138
2 0.608606 0.536851 0.040626 0.0522175 0.685647 139
2 0.59005 0.516927 0.0285785 0.0375957 0.438846 140
2 0.781526 0.618495 0.100625 0.110865 0.67299 141
