2 0.40403 0.612915 0.0798158 0.107584 0.842767 2
0 0.952293 0.726513 0.0532787 0.244561 0.839324 5
2 0.43033 0.508807 0.035537 0.0532047 0.535904 42
9 0.133073 0.443094 0.0231089 0.0699057 0.518466 44
0 0.0572646 0.620389 0.0316711 0.138259 0.447525 46
2 0.551659 0.750192 0.149518 0.292063 0.828428 1
0 0.0581149 0.633329 0.0269584 0.122828 0.263985 49
2 0.430919 0.511287 0.0332621 0.0460702 0.649187 55
0 0.0584849 0.623358 0.0273469 0.126739 0.680029 56
0 0.0304885 0.631219 0.0223305 0.113223 0.667781 57
0 0.0133759 0.621511 0.0190084 0.091001 0.332211 59
0 0.0918805 0.616375 0.0269666 0.143724 0.628555 62
0 0.0923453 0.622944 0.0282526 0.135068 0.426859 65
0 0.133287 0.582391 0.0203327 0.120861 0.63329 67
0 0.132446 0.581462 0.0231188 0.12887 0.24696 70
9 0.132778 0.443296 0.0238749 0.0714264 0.632018 60
2 0.40403 0.612915 0.0798158 0.107584 0.842767 2
0 0.952293 0.726513 0.0532787 0.244561 0.839324 5
2 0.43033 0.508807 0.035537 0.0532047 0.535904 42
9 0.133073 0.443094 0.0231089 0.0699057 0.518466 44
0 0.0572646 0.620389 0.0316711 0.138259 0.447525 46
2 0.551659 0.750192 0.149518 0.292063 0.828428 1
0 0.0581149 0.633329 0.0269584 0.122828 0.263985 49
2 0.430919 0.511287 0.0332621 0.0460702 0.649187 55
0 0.0584849 0.623358 0.0273469 0.126739 0.680029 56
0 0.0304885 0.631219 0.0223305 0.113223 0.667781 57
0 0.0133759 0.621511 0.0190084 0.091001 0.332211 59
0 0.0918805 0.616375 0.0269666 0.143724 0.628555 62
0 0.0923453 0.622944 0.0282526 0.135068 0.426859 65
0 0.133287 0.582391 0.0203327 0.120861 0.63329 67
0 0.132446 0.581462 0.0231188 0.12887 0.24696 70
9 0.132778 0.443296 0.0238749 0.0714264 0.632018 60
