2 0.614053 0.587825 0.0730011 0.126904 0.716788 1
2 0.525728 0.563363 0.0501984 0.0690557 0.816088 2
0 0.906324 0.638728 0.0309397 0.137257 0.827011 7
0 0.963649 0.635475 0.0381916 0.145384 0.809341 18
0 0.248383 0.559969 0.0207112 0.109513 0.611005 19
0 0.762491 0.554069 0.023213 0.104589 0.779192 5
0 0.267569 0.56505 0.0224421 0.106296 0.659878 23
0 0.961848 0.635868 0.0343789 0.140086 0.776356 3
0 0.805956 0.522867 0.0164148 0.0787828 0.500216 12
2 0.614053 0.587825 0.0730011 0.126904 0.716788 1
2 0.525728 0.563363 0.0501984 0.0690557 0.816088 2
0 0.906324 0.638728 0.0309397 0.137257 0.827011 7
0 0.963649 0.635475 0.0381916 0.145384 0.809341 18
0 0.248383 0.559969 0.0207112 0.109513 0.611005 19
0 0.762491 0.554069 0.023213 0.104589 0.779192 5
0 0.267569 0.56505 0.0224421 0.106296 0.659878 23
0 0.961848 0.635868 0.0343789 0.140086 0.776356 3
0 0.805956 0.522867 0.0164148 0.0787828 0.500216 12
