2 0.248826 0.586724 0.0605001 0.0794198 0.71636 2
2 0.307577 0.504433 0.0254487 0.0351135 0.554334 42
2 0.406543 0.606803 0.113803 0.118304 0.877291 77
0 0.0849611 0.57231 0.0233287 0.0913144 0.475442 80
0 0.707448 0.571077 0.0261019 0.125341 0.762284 84
0 0.885092 0.577501 0.0323165 0.121193 0.65048 85
0 0.889262 0.578137 0.0281172 0.120487 0.726322 87
2 0.283362 0.726673 0.134443 0.247788 0.848562 1
0 0.084277 0.57506 0.0215135 0.0876397 0.63503 91
2 0.248826 0.586724 0.0605001 0.0794198 0.71636 2
2 0.307577 0.504433 0.0254487 0.0351135 0.554334 42
2 0.406543 0.606803 0.113803 0.118304 0.877291 77
0 0.0849611 0.57231 0.0233287 0.0913144 0.475442 80
0 0.707448 0.571077 0.0261019 0.125341 0.762284 84
0 0.885092 0.577501 0.0323165 0.121193 0.65048 85
0 0.889262 0.578137 0.0281172 0.120487 0.726322 87
2 0.283362 0.726673 0.134443 0.247788 0.848562 1
0 0.084277 0.57506 0.0215135 0.0876397 0.63503 91
