0 0.0410004 0.726104 0.0287867 0.165733 0.507128 80
0 0.0186229 0.741053 0.0296087 0.17099 0.501191 91
2 0.603036 0.545118 0.0596841 0.0619157 0.209439 116
0 0.77888 0.743759 0.0501222 0.214612 0.775754 129
2 0.503099 0.532956 0.0293424 0.0404965 0.701222 2
0 0.844098 0.714077 0.0437171 0.209825 0.781456 131
2 0.604815 0.551247 0.0524724 0.071027 0.48056 134
0 0.709266 0.661529 0.0258706 0.158176 0.481284 109
2 0.503803 0.536588 0.0275647 0.0374277 0.690224 136
0 0.842503 0.719695 0.0392843 0.199471 0.672618 138
2 0.612518 0.558855 0.0433073 0.0596324 0.759889 139
2 0.59179 0.536851 0.0274938 0.0437451 0.518772 140
2 0.767939 0.641464 0.125448 0.126842 0.100861 141
9 0.682153 0.476846 0.0337131 0.124717 0.704964 143
2 0.785598 0.645045 0.0973019 0.115904 0.667447 144
0 0.732689 0.686937 0.040345 0.198673 0.627311 145
0 0.73123 0.681932 0.0417693 0.196839 0.503452 148
0 0.842482 0.716961 0.0426358 0.210807 0.630545 149
0 0.0410004 0.726104 0.0287867 0.165733 0.507128 80
0 0.0186229 0.741053 0.0296087 0.17099 0.501191 91
2 0.603036 0.545118 0.0596841 0.0619157 0.209439 116
0 0.77888 0.743759 0.0501222 0.214612 0.775754 129
2 0.503099 0.532956 0.0293424 0.0404965 0.701222 2
0 0.844098 0.714077 0.0437171 0.209825 0.781456 131
2 0.604815 0.551247 0.0524724 0.071027 0.48056 134
0 0.709266 0.661529 0.0258706 0.158176 0.481284 109
2 0.503803 0.536588 0.0275647 0.0374277 0.690224 136
0 0.842503 0.719695 0.0392843 0.199471 0.672618 138
2 0.612518 0.558855 0.0433073 0.0596324 0.759889 139
2 0.59179 0.536851 0.0274938 0.0437451 0.518772 140
2 0.767939 0.641464 0.125448 0.126842 0.100861 141
9 0.682153 0.476846 0.0337131 0.124717 0.704964 143
2 0.785598 0.645045 0.0973019 0.115904 0.667447 144
0 0.732689 0.686937 0.040345 0.198673 0.627311 145
0 0.73123 0.681932 0.0417693 0.196839 0.503452 148
0 0.842482 0.716961 0.0426358 0.210807 0.630545 149
