0 0.73091 0.8608 0.0582493 0.278401 0.730184 129
2 0.458067 0.503248 0.0271132 0.032962 0.13735 2
2 0.577501 0.566444 0.0522739 0.0794834 0.651885 134
0 0.60604 0.706676 0.0330029 0.207921 0.538799 109
2 0.457003 0.504643 0.0268995 0.0329005 0.710772 136
2 0.574847 0.569235 0.0542176 0.0778926 0.671971 139
2 0.544549 0.536126 0.0370138 0.0558627 0.537627 140
2 0.772037 0.665264 0.173856 0.146229 0.902604 141
9 0.637888 0.460584 0.0474172 0.1658 0.748324 143
2 0.743732 0.654594 0.110063 0.128607 0.157167 144
0 0.610765 0.713696 0.0399284 0.221662 0.562629 148
0 0.747371 0.756532 0.0388704 0.217726 0.338547 131
2 0.799976 0.66705 0.117135 0.138935 0.273497 152
0 0.74643 0.768662 0.0425467 0.245977 0.225144 153
0 0.731738 0.842287 0.0591052 0.315427 0.606241 151
2 0.545046 0.536274 0.0391889 0.0505405 0.643439 116
0 0.73091 0.8608 0.0582493 0.278401 0.730184 129
2 0.458067 0.503248 0.0271132 0.032962 0.13735 2
2 0.577501 0.566444 0.0522739 0.0794834 0.651885 134
0 0.60604 0.706676 0.0330029 0.207921 0.538799 109
2 0.457003 0.504643 0.0268995 0.0329005 0.710772 136
2 0.574847 0.569235 0.0542176 0.0778926 0.671971 139
2 0.544549 0.536126 0.0370138 0.0558627 0.537627 140
2 0.772037 0.665264 0.173856 0.146229 0.902604 141
9 0.637888 0.460584 0.0474172 0.1658 0.748324 143
2 0.743732 0.654594 0.110063 0.128607 0.157167 144
0 0.610765 0.713696 0.0399284 0.221662 0.562629 148
0 0.747371 0.756532 0.0388704 0.217726 0.338547 131
2 0.799976 0.66705 0.117135 0.138935 0.273497 152
0 0.74643 0.768662 0.0425467 0.245977 0.225144 153
0 0.731738 0.842287 0.0591052 0.315427 0.606241 151
2 0.545046 0.536274 0.0391889 0.0505405 0.643439 116
