2 0.248568 0.588879 0.0586674 0.0786936 0.752782 2
2 0.307063 0.505261 0.0263879 0.0351979 0.402179 42
2 0.393055 0.609272 0.102466 0.124079 0.855772 77
0 0.0919828 0.571929 0.0191156 0.0884484 0.605576 80
0 0.705217 0.566534 0.0240269 0.120178 0.724275 84
0 0.872544 0.577182 0.0268103 0.108737 0.574969 85
0 0.874513 0.580434 0.0251567 0.110188 0.692391 87
2 0.294861 0.729485 0.145102 0.251641 0.870162 1
0 0.0915302 0.574785 0.0232804 0.0863523 0.653133 91
2 0.248568 0.588879 0.0586674 0.0786936 0.752782 2
2 0.307063 0.505261 0.0263879 0.0351979 0.402179 42
2 0.393055 0.609272 0.102466 0.124079 0.855772 77
0 0.0919828 0.571929 0.0191156 0.0884484 0.605576 80
0 0.705217 0.566534 0.0240269 0.120178 0.724275 84
0 0.872544 0.577182 0.0268103 0.108737 0.574969 85
0 0.874513 0.580434 0.0251567 0.110188 0.692391 87
2 0.294861 0.729485 0.145102 0.251641 0.870162 1
0 0.0915302 0.574785 0.0232804 0.0863523 0.653133 91
