0 0.401626 0.708185 0.0525585 0.225015 0.538106 164
0 0.40626 0.702845 0.0471824 0.230987 0.761882 165
0 0.298866 0.803748 0.0538726 0.304815 0.772652 170
2 0.07562 0.778946 0.15124 0.247522 0.900154 177
0 0.835619 0.847175 0.101612 0.295346 0.908835 181
0 0.19902 0.593541 0.0321132 0.138081 0.463972 183
0 0.142085 0.608171 0.0265779 0.156628 0.50435 185
0 0.360693 0.69613 0.0371385 0.20027 0.638425 186
0 0.405204 0.715809 0.0493339 0.209493 0.516635 163
0 0.401626 0.708185 0.0525585 0.225015 0.538106 164
0 0.40626 0.702845 0.0471824 0.230987 0.761882 165
0 0.298866 0.803748 0.0538726 0.304815 0.772652 170
2 0.07562 0.778946 0.15124 0.247522 0.900154 177
0 0.835619 0.847175 0.101612 0.295346 0.908835 181
0 0.19902 0.593541 0.0321132 0.138081 0.463972 183
0 0.142085 0.608171 0.0265779 0.156628 0.50435 185
0 0.360693 0.69613 0.0371385 0.20027 0.638425 186
0 0.405204 0.715809 0.0493339 0.209493 0.516635 163
