0 0.254182 0.943412 0.0581813 0.112367 0.697338 129
2 0.46042 0.710302 0.19333 0.181121 0.894423 141
0 0.22831 0.848131 0.0484348 0.169993 0.532121 131
0 0.192529 0.908433 0.0853571 0.180287 0.764314 151
0 0.390523 0.560499 0.0317489 0.120957 0.161798 156
0 0.0866406 0.830381 0.0515306 0.307113 0.736815 145
9 0.205969 0.464123 0.0657724 0.242198 0.84541 160
0 0.425398 0.554885 0.0281192 0.121873 0.139248 162
0 0.780139 0.648232 0.0424084 0.195016 0.649201 163
0 0.780852 0.650192 0.0529416 0.202029 0.527754 164
0 0.718394 0.663088 0.0380123 0.169422 0.570536 165
0 0.494158 0.582526 0.0328618 0.118465 0.319552 169
0 0.684908 0.70034 0.043494 0.201598 0.693958 170
9 0.976686 0.411251 0.0414017 0.244012 0.91957 172
0 0.682565 0.693057 0.0511386 0.216738 0.647186 173
2 0.264158 0.561087 0.0466323 0.0690975 0.69192 116
2 0.307894 0.607074 0.0811705 0.113317 0.803034 134
0 0.254182 0.943412 0.0581813 0.112367 0.697338 129
2 0.46042 0.710302 0.19333 0.181121 0.894423 141
0 0.22831 0.848131 0.0484348 0.169993 0.532121 131
0 0.192529 0.908433 0.0853571 0.180287 0.764314 151
0 0.390523 0.560499 0.0317489 0.120957 0.161798 156
0 0.0866406 0.830381 0.0515306 0.307113 0.736815 145
9 0.205969 0.464123 0.0657724 0.242198 0.84541 160
0 0.425398 0.554885 0.0281192 0.121873 0.139248 162
0 0.780139 0.648232 0.0424084 0.195016 0.649201 163
0 0.780852 0.650192 0.0529416 0.202029 0.527754 164
0 0.718394 0.663088 0.0380123 0.169422 0.570536 165
0 0.494158 0.582526 0.0328618 0.118465 0.319552 169
0 0.684908 0.70034 0.043494 0.201598 0.693958 170
9 0.976686 0.411251 0.0414017 0.244012 0.91957 172
0 0.682565 0.693057 0.0511386 0.216738 0.647186 173
2 0.264158 0.561087 0.0466323 0.0690975 0.69192 116
2 0.307894 0.607074 0.0811705 0.113317 0.803034 134
