2 0.355626 0.601091 0.0721048 0.101396 0.819203 2
2 0.393614 0.503394 0.030244 0.0446933 0.568001 42
9 0.0481317 0.439339 0.0257081 0.076581 0.365754 44
2 0.497325 0.763336 0.161418 0.305507 0.867728 1
9 0.0479864 0.444455 0.0256524 0.0815756 0.824646 60
2 0.467528 0.484702 0.0212549 0.0277546 0.497252 74
0 0.815083 0.565669 0.0196707 0.104792 0.657973 75
2 0.489668 0.593309 0.0876976 0.066608 0.598097 77
2 0.489389 0.591508 0.0915779 0.0692928 0.440204 78
0 0.890991 0.569329 0.0240274 0.108213 0.587796 79
2 0.355626 0.601091 0.0721048 0.101396 0.819203 2
2 0.393614 0.503394 0.030244 0.0446933 0.568001 42
9 0.0481317 0.439339 0.0257081 0.076581 0.365754 44
2 0.497325 0.763336 0.161418 0.305507 0.867728 1
9 0.0479864 0.444455 0.0256524 0.0815756 0.824646 60
2 0.467528 0.484702 0.0212549 0.0277546 0.497252 74
0 0.815083 0.565669 0.0196707 0.104792 0.657973 75
2 0.489668 0.593309 0.0876976 0.066608 0.598097 77
2 0.489389 0.591508 0.0915779 0.0692928 0.440204 78
0 0.890991 0.569329 0.0240274 0.108213 0.587796 79
