2 0.47699 0.615273 0.0744069 0.103946 0.792001 2
0 0.0931985 0.604593 0.0301253 0.137298 0.6123 19
0 0.907472 0.65879 0.0415216 0.179737 0.878936 5
0 0.119995 0.607994 0.0290112 0.134937 0.694656 23
0 0.891374 0.553509 0.0216025 0.0894245 0.682507 32
2 0.493382 0.52021 0.0360917 0.0513771 0.447604 42
9 0.247842 0.446177 0.0166113 0.0659884 0.520619 44
0 0.204087 0.589236 0.0228373 0.110252 0.729878 46
2 0.61985 0.700234 0.128063 0.257448 0.821066 1
0 0.183796 0.579404 0.0206612 0.121232 0.682021 49
0 0.0205939 0.602886 0.0340211 0.146065 0.242915 50
0 0.122144 0.604736 0.0301786 0.133386 0.354707 52
2 0.494124 0.519346 0.0416028 0.0526985 0.552283 55
0 0.205053 0.580748 0.0225366 0.117188 0.511117 56
0 0.184049 0.58709 0.0199142 0.107515 0.596647 57
2 0.47699 0.615273 0.0744069 0.103946 0.792001 2
0 0.0931985 0.604593 0.0301253 0.137298 0.6123 19
0 0.907472 0.65879 0.0415216 0.179737 0.878936 5
0 0.119995 0.607994 0.0290112 0.134937 0.694656 23
0 0.891374 0.553509 0.0216025 0.0894245 0.682507 32
2 0.493382 0.52021 0.0360917 0.0513771 0.447604 42
9 0.247842 0.446177 0.0166113 0.0659884 0.520619 44
0 0.204087 0.589236 0.0228373 0.110252 0.729878 46
2 0.61985 0.700234 0.128063 0.257448 0.821066 1
0 0.183796 0.579404 0.0206612 0.121232 0.682021 49
0 0.0205939 0.602886 0.0340211 0.146065 0.242915 50
0 0.122144 0.604736 0.0301786 0.133386 0.354707 52
2 0.494124 0.519346 0.0416028 0.0526985 0.552283 55
0 0.205053 0.580748 0.0225366 0.117188 0.511117 56
0 0.184049 0.58709 0.0199142 0.107515 0.596647 57
