2 0.347911 0.72545 0.200907 0.19941 0.924685 141
0 0.290483 0.572484 0.0260003 0.118785 0.585195 156
9 0.0271665 0.467531 0.054333 0.268544 0.78351 160
0 0.324875 0.567036 0.0282143 0.117561 0.253633 162
0 0.67731 0.658414 0.0462556 0.200627 0.613332 163
0 0.67487 0.657396 0.0395434 0.198641 0.733159 164
0 0.635463 0.680645 0.0371598 0.184515 0.782125 165
0 0.400874 0.594337 0.0241777 0.132775 0.461111 169
0 0.587591 0.726484 0.0494009 0.214202 0.808762 170
9 0.88592 0.413163 0.0693448 0.272755 0.865776 172
2 0.208592 0.621991 0.0902022 0.117769 0.864859 134
2 0.166204 0.565198 0.0507067 0.0737503 0.832264 140
2 0.11177 0.485283 0.0228916 0.0318108 0.581005 2
2 0.167752 0.568876 0.0567005 0.0762121 0.529175 116
2 0.347911 0.72545 0.200907 0.19941 0.924685 141
0 0.290483 0.572484 0.0260003 0.118785 0.585195 156
9 0.0271665 0.467531 0.054333 0.268544 0.78351 160
0 0.324875 0.567036 0.0282143 0.117561 0.253633 162
0 0.67731 0.658414 0.0462556 0.200627 0.613332 163
0 0.67487 0.657396 0.0395434 0.198641 0.733159 164
0 0.635463 0.680645 0.0371598 0.184515 0.782125 165
0 0.400874 0.594337 0.0241777 0.132775 0.461111 169
0 0.587591 0.726484 0.0494009 0.214202 0.808762 170
9 0.88592 0.413163 0.0693448 0.272755 0.865776 172
2 0.208592 0.621991 0.0902022 0.117769 0.864859 134
2 0.166204 0.565198 0.0507067 0.0737503 0.832264 140
2 0.11177 0.485283 0.0228916 0.0318108 0.581005 2
2 0.167752 0.568876 0.0567005 0.0762121 0.529175 116
