2 0.561288 0.507428 0.0292451 0.042582 0.726801 261
2 0.516158 0.51053 0.0389957 0.0560351 0.375069 210
2 0.559867 0.501576 0.0309931 0.0423269 0.506214 280
2 0.515141 0.510095 0.0290959 0.053047 0.69439 290
0 0.792675 0.732531 0.0426367 0.205476 0.520715 254
0 0.323081 0.575016 0.0209369 0.101739 0.646416 294
2 0.974179 0.716583 0.0512831 0.1351 0.547287 253
2 0.901496 0.655242 0.128162 0.125599 0.859077 236
2 0.967257 0.696559 0.0632207 0.161695 0.348189 279
0 0.788575 0.730386 0.0560012 0.201708 0.180707 255
2 0.561288 0.507428 0.0292451 0.042582 0.726801 261
2 0.516158 0.51053 0.0389957 0.0560351 0.375069 210
2 0.559867 0.501576 0.0309931 0.0423269 0.506214 280
2 0.515141 0.510095 0.0290959 0.053047 0.69439 290
0 0.792675 0.732531 0.0426367 0.205476 0.520715 254
0 0.323081 0.575016 0.0209369 0.101739 0.646416 294
2 0.974179 0.716583 0.0512831 0.1351 0.547287 253
2 0.901496 0.655242 0.128162 0.125599 0.859077 236
2 0.967257 0.696559 0.0632207 0.161695 0.348189 279
0 0.788575 0.730386 0.0560012 0.201708 0.180707 255
