2 0.52736 0.484623 0.0279382 0.038849 0.333573 261
2 0.483688 0.498161 0.030882 0.0545616 0.700656 210
2 0.528521 0.487915 0.0284263 0.0375282 0.494101 280
2 0.980516 0.622111 0.0389678 0.135241 0.274475 283
2 0.930196 0.665523 0.139608 0.147371 0.738313 279
0 0.612684 0.658297 0.054823 0.145053 0.589387 255
2 0.483962 0.49799 0.0343179 0.0592325 0.672358 290
0 0.613802 0.665426 0.0512067 0.159451 0.547448 254
0 0.310943 0.550717 0.0185242 0.0881096 0.577646 294
2 0.929865 0.65093 0.140269 0.168074 0.690174 253
2 0.822157 0.612333 0.101402 0.109934 0.780138 236
2 0.52736 0.484623 0.0279382 0.038849 0.333573 261
2 0.483688 0.498161 0.030882 0.0545616 0.700656 210
2 0.528521 0.487915 0.0284263 0.0375282 0.494101 280
2 0.980516 0.622111 0.0389678 0.135241 0.274475 283
2 0.930196 0.665523 0.139608 0.147371 0.738313 279
0 0.612684 0.658297 0.054823 0.145053 0.589387 255
2 0.483962 0.49799 0.0343179 0.0592325 0.672358 290
0 0.613802 0.665426 0.0512067 0.159451 0.547448 254
0 0.310943 0.550717 0.0185242 0.0881096 0.577646 294
2 0.929865 0.65093 0.140269 0.168074 0.690174 253
2 0.822157 0.612333 0.101402 0.109934 0.780138 236
