2 0.302125 0.5619 0.0495164 0.0644701 0.614066 2
2 0.664322 0.579642 0.128229 0.122082 0.613425 77
0 0.0774975 0.60341 0.0214964 0.101794 0.531076 80
0 0.0797596 0.601773 0.0260406 0.104249 0.19057 91
9 0.547781 0.449906 0.0550018 0.208843 0.798169 93
0 0.796658 0.571111 0.0247171 0.143064 0.684882 75
2 0.331681 0.701455 0.157785 0.237875 0.912716 1
0 0.797114 0.569476 0.0287059 0.143414 0.109515 100
0 0.20387 0.509026 0.0198388 0.0976211 0.135305 102
9 0.886043 0.389076 0.0241284 0.0805856 0.326169 103
0 0.030963 0.534192 0.0265943 0.14624 0.559075 105
2 0.302125 0.5619 0.0495164 0.0644701 0.614066 2
2 0.664322 0.579642 0.128229 0.122082 0.613425 77
0 0.0774975 0.60341 0.0214964 0.101794 0.531076 80
0 0.0797596 0.601773 0.0260406 0.104249 0.19057 91
9 0.547781 0.449906 0.0550018 0.208843 0.798169 93
0 0.796658 0.571111 0.0247171 0.143064 0.684882 75
2 0.331681 0.701455 0.157785 0.237875 0.912716 1
0 0.797114 0.569476 0.0287059 0.143414 0.109515 100
0 0.20387 0.509026 0.0198388 0.0976211 0.135305 102
9 0.886043 0.389076 0.0241284 0.0805856 0.326169 103
0 0.030963 0.534192 0.0265943 0.14624 0.559075 105
