2 0.366308 0.604775 0.0752934 0.103087 0.7943 2
0 0.982187 0.765683 0.0356265 0.305039 0.21184 5
2 0.401558 0.506366 0.0283483 0.0420918 0.209046 42
9 0.0658512 0.444406 0.0238405 0.0720484 0.270065 44
2 0.508488 0.758113 0.158814 0.292971 0.870006 1
0 0.00737991 0.631907 0.0147598 0.197552 0.144538 65
9 0.0648495 0.447922 0.0250012 0.0787773 0.647334 60
2 0.474587 0.484586 0.019871 0.0275354 0.469165 74
0 0.823256 0.559598 0.0197633 0.103107 0.737382 75
0 0.98315 0.77199 0.0334197 0.282105 0.423727 76
2 0.49985 0.589775 0.0909696 0.0682906 0.639863 77
2 0.366308 0.604775 0.0752934 0.103087 0.7943 2
0 0.982187 0.765683 0.0356265 0.305039 0.21184 5
2 0.401558 0.506366 0.0283483 0.0420918 0.209046 42
9 0.0658512 0.444406 0.0238405 0.0720484 0.270065 44
2 0.508488 0.758113 0.158814 0.292971 0.870006 1
0 0.00737991 0.631907 0.0147598 0.197552 0.144538 65
9 0.0648495 0.447922 0.0250012 0.0787773 0.647334 60
2 0.474587 0.484586 0.019871 0.0275354 0.469165 74
0 0.823256 0.559598 0.0197633 0.103107 0.737382 75
0 0.98315 0.77199 0.0334197 0.282105 0.423727 76
2 0.49985 0.589775 0.0909696 0.0682906 0.639863 77
