2 0.658007 0.606268 0.14292 0.172142 0.876495 220
2 0.928789 0.771669 0.142422 0.258699 0.899381 229
2 0.511219 0.534472 0.0662536 0.072828 0.81257 253
0 0.140673 0.55364 0.0286364 0.13831 0.514136 254
0 0.138507 0.556525 0.0260675 0.134554 0.791688 255
2 0.278776 0.465939 0.0253022 0.03776 0.596489 261
2 0.448542 0.507447 0.0653597 0.0634372 0.776221 259
2 0.445901 0.506892 0.0566827 0.0594346 0.160369 236
0 0.724321 0.551181 0.0204123 0.106063 0.595903 265
2 0.240293 0.48344 0.0381762 0.0648584 0.71925 210
2 0.658007 0.606268 0.14292 0.172142 0.876495 220
2 0.928789 0.771669 0.142422 0.258699 0.899381 229
2 0.511219 0.534472 0.0662536 0.072828 0.81257 253
0 0.140673 0.55364 0.0286364 0.13831 0.514136 254
0 0.138507 0.556525 0.0260675 0.134554 0.791688 255
2 0.278776 0.465939 0.0253022 0.03776 0.596489 261
2 0.448542 0.507447 0.0653597 0.0634372 0.776221 259
2 0.445901 0.506892 0.0566827 0.0594346 0.160369 236
0 0.724321 0.551181 0.0204123 0.106063 0.595903 265
2 0.240293 0.48344 0.0381762 0.0648584 0.71925 210
