2 0.506591 0.591452 0.0699164 0.10071 0.773644 2
0 0.141561 0.565889 0.0278656 0.138918 0.721158 19
0 0.88598 0.617747 0.0374655 0.161022 0.808331 5
0 0.169213 0.578732 0.0270833 0.12606 0.702617 23
0 0.900626 0.532218 0.0228549 0.0825967 0.127033 12
0 0.900822 0.539068 0.0216277 0.0869798 0.582557 32
0 0.141782 0.574815 0.0271938 0.12348 0.597614 36
2 0.52749 0.510044 0.0496514 0.0504189 0.717766 42
9 0.293091 0.425909 0.0147141 0.0519722 0.591854 44
9 0.255173 0.428831 0.015856 0.0554946 0.136503 45
0 0.252995 0.551389 0.0190954 0.0984803 0.148146 46
2 0.639191 0.656542 0.114014 0.220358 0.830329 1
0 0.238525 0.549416 0.0201347 0.109264 0.542466 49
0 0.0766873 0.582726 0.0252087 0.124835 0.602013 50
0 0.884001 0.609512 0.0379079 0.173467 0.677339 51
2 0.506591 0.591452 0.0699164 0.10071 0.773644 2
0 0.141561 0.565889 0.0278656 0.138918 0.721158 19
0 0.88598 0.617747 0.0374655 0.161022 0.808331 5
0 0.169213 0.578732 0.0270833 0.12606 0.702617 23
0 0.900626 0.532218 0.0228549 0.0825967 0.127033 12
0 0.900822 0.539068 0.0216277 0.0869798 0.582557 32
0 0.141782 0.574815 0.0271938 0.12348 0.597614 36
2 0.52749 0.510044 0.0496514 0.0504189 0.717766 42
9 0.293091 0.425909 0.0147141 0.0519722 0.591854 44
9 0.255173 0.428831 0.015856 0.0554946 0.136503 45
0 0.252995 0.551389 0.0190954 0.0984803 0.148146 46
2 0.639191 0.656542 0.114014 0.220358 0.830329 1
0 0.238525 0.549416 0.0201347 0.109264 0.542466 49
0 0.0766873 0.582726 0.0252087 0.124835 0.602013 50
0 0.884001 0.609512 0.0379079 0.173467 0.677339 51
