2 0.580876 0.506684 0.0312559 0.043903 0.613433 261
2 0.532753 0.501742 0.0284695 0.0504105 0.577005 210
2 0.580493 0.503216 0.0298794 0.0448601 0.530005 280
2 0.532749 0.505833 0.0299663 0.0557205 0.732507 290
2 0.941195 0.702578 0.10084 0.191198 0.720049 254
0 0.32839 0.580653 0.0256478 0.117857 0.510944 294
2 0.942905 0.683335 0.114189 0.147938 0.824608 236
1 0.947226 0.827701 0.0751801 0.170466 0.670003 255
0 0.443834 0.512526 0.0145206 0.0542335 0.631061 301
0 0.32933 0.581832 0.0233827 0.116121 0.762317 302
2 0.580876 0.506684 0.0312559 0.043903 0.613433 261
2 0.532753 0.501742 0.0284695 0.0504105 0.577005 210
2 0.580493 0.503216 0.0298794 0.0448601 0.530005 280
2 0.532749 0.505833 0.0299663 0.0557205 0.732507 290
2 0.941195 0.702578 0.10084 0.191198 0.720049 254
0 0.32839 0.580653 0.0256478 0.117857 0.510944 294
2 0.942905 0.683335 0.114189 0.147938 0.824608 236
1 0.947226 0.827701 0.0751801 0.170466 0.670003 255
0 0.443834 0.512526 0.0145206 0.0542335 0.631061 301
0 0.32933 0.581832 0.0233827 0.116121 0.762317 302
