2 0.649428 0.63288 0.105178 0.191056 0.797916 1
2 0.529087 0.585952 0.0668486 0.0906214 0.885945 2
0 0.188066 0.570311 0.0279872 0.129424 0.671108 19
0 0.857244 0.593485 0.0300639 0.139263 0.771337 5
0 0.215385 0.580872 0.0260852 0.108487 0.552414 23
0 0.895275 0.531277 0.0185034 0.0892394 0.648712 12
0 0.894517 0.532149 0.01616 0.0825038 0.379561 32
0 0.214967 0.574237 0.0269418 0.121278 0.739506 35
0 0.188712 0.576906 0.0265971 0.122573 0.623118 36
2 0.649428 0.63288 0.105178 0.191056 0.797916 1
2 0.529087 0.585952 0.0668486 0.0906214 0.885945 2
0 0.188066 0.570311 0.0279872 0.129424 0.671108 19
0 0.857244 0.593485 0.0300639 0.139263 0.771337 5
0 0.215385 0.580872 0.0260852 0.108487 0.552414 23
0 0.895275 0.531277 0.0185034 0.0892394 0.648712 12
0 0.894517 0.532149 0.01616 0.0825038 0.379561 32
0 0.214967 0.574237 0.0269418 0.121278 0.739506 35
0 0.188712 0.576906 0.0265971 0.122573 0.623118 36
