2 0.487995 0.607169 0.0741107 0.102587 0.848325 2
0 0.109281 0.58724 0.0308504 0.14848 0.542691 19
0 0.898349 0.645617 0.0402603 0.178081 0.778814 5
0 0.138767 0.598366 0.0274058 0.126712 0.708012 23
0 0.894724 0.536071 0.0216117 0.0644477 0.347207 32
0 0.109608 0.589166 0.0267293 0.144474 0.678179 36
2 0.503893 0.516367 0.042338 0.0545484 0.699948 42
9 0.265042 0.439568 0.016555 0.0625476 0.357106 44
0 0.221203 0.57807 0.0218149 0.10755 0.685289 46
2 0.627365 0.685635 0.126354 0.24332 0.864835 1
0 0.204593 0.572099 0.0192805 0.116166 0.567889 49
0 0.0424266 0.598708 0.0313001 0.131188 0.467864 50
0 0.141366 0.598492 0.0306197 0.121961 0.657483 52
2 0.506362 0.514157 0.0433485 0.0525535 0.516976 55
0 0.222344 0.57513 0.0192704 0.106831 0.513863 56
2 0.487995 0.607169 0.0741107 0.102587 0.848325 2
0 0.109281 0.58724 0.0308504 0.14848 0.542691 19
0 0.898349 0.645617 0.0402603 0.178081 0.778814 5
0 0.138767 0.598366 0.0274058 0.126712 0.708012 23
0 0.894724 0.536071 0.0216117 0.0644477 0.347207 32
0 0.109608 0.589166 0.0267293 0.144474 0.678179 36
2 0.503893 0.516367 0.042338 0.0545484 0.699948 42
9 0.265042 0.439568 0.016555 0.0625476 0.357106 44
0 0.221203 0.57807 0.0218149 0.10755 0.685289 46
2 0.627365 0.685635 0.126354 0.24332 0.864835 1
0 0.204593 0.572099 0.0192805 0.116166 0.567889 49
0 0.0424266 0.598708 0.0313001 0.131188 0.467864 50
0 0.141366 0.598492 0.0306197 0.121961 0.657483 52
2 0.506362 0.514157 0.0433485 0.0525535 0.516976 55
0 0.222344 0.57513 0.0192704 0.106831 0.513863 56
