2 0.535244 0.486448 0.030248 0.0438951 0.521767 261
2 0.493619 0.496583 0.0352951 0.0560377 0.324917 210
2 0.536945 0.488206 0.0292815 0.0415252 0.668963 280
2 0.490995 0.497867 0.0303392 0.0571532 0.734797 290
0 0.649541 0.670937 0.0581755 0.180152 0.694102 254
0 0.314026 0.555082 0.0205068 0.0938528 0.669755 294
2 0.940587 0.653237 0.118826 0.179517 0.751044 253
2 0.84291 0.614019 0.112062 0.116878 0.862212 236
2 0.955812 0.656205 0.0883755 0.173177 0.286527 279
2 0.535244 0.486448 0.030248 0.0438951 0.521767 261
2 0.493619 0.496583 0.0352951 0.0560377 0.324917 210
2 0.536945 0.488206 0.0292815 0.0415252 0.668963 280
2 0.490995 0.497867 0.0303392 0.0571532 0.734797 290
0 0.649541 0.670937 0.0581755 0.180152 0.694102 254
0 0.314026 0.555082 0.0205068 0.0938528 0.669755 294
2 0.940587 0.653237 0.118826 0.179517 0.751044 253
2 0.84291 0.614019 0.112062 0.116878 0.862212 236
2 0.955812 0.656205 0.0883755 0.173177 0.286527 279
