0 0.130331 0.583008 0.0252745 0.117421 0.475901 156
0 0.49756 0.6837 0.0450098 0.223062 0.674653 164
0 0.497057 0.693623 0.0416054 0.196584 0.48222 165
0 0.417767 0.770174 0.0532108 0.253054 0.794688 170
9 0.705264 0.406209 0.0767521 0.307872 0.695874 172
2 0.0410042 0.643364 0.0820084 0.144185 0.795142 134
2 0.0172104 0.586589 0.0344209 0.105764 0.146092 140
2 0.0183629 0.574784 0.0367259 0.0805506 0.105292 116
2 0.159788 0.754949 0.219448 0.225304 0.928373 177
2 0.0880142 0.50792 0.0431616 0.0815395 0.218062 180
0 0.939132 0.857512 0.0956437 0.28233 0.893812 181
2 0.0431828 0.64178 0.0863657 0.134813 0.582281 182
0 0.130331 0.583008 0.0252745 0.117421 0.475901 156
0 0.49756 0.6837 0.0450098 0.223062 0.674653 164
0 0.497057 0.693623 0.0416054 0.196584 0.48222 165
0 0.417767 0.770174 0.0532108 0.253054 0.794688 170
9 0.705264 0.406209 0.0767521 0.307872 0.695874 172
2 0.0410042 0.643364 0.0820084 0.144185 0.795142 134
2 0.0172104 0.586589 0.0344209 0.105764 0.146092 140
2 0.0183629 0.574784 0.0367259 0.0805506 0.105292 116
2 0.159788 0.754949 0.219448 0.225304 0.928373 177
2 0.0880142 0.50792 0.0431616 0.0815395 0.218062 180
0 0.939132 0.857512 0.0956437 0.28233 0.893812 181
2 0.0431828 0.64178 0.0863657 0.134813 0.582281 182
