0 0.145238 0.582036 0.0259452 0.115548 0.50962 156
0 0.52814 0.67152 0.0278981 0.219386 0.155633 163
0 0.512629 0.679123 0.0442193 0.223065 0.693395 164
0 0.510158 0.693264 0.0388562 0.190977 0.512409 165
0 0.436692 0.764045 0.0546775 0.24491 0.820785 170
9 0.723877 0.405478 0.0758579 0.304454 0.799909 172
2 0.0560787 0.641754 0.0898061 0.133543 0.782173 134
2 0.0243498 0.576927 0.0486996 0.0883003 0.757591 140
2 0.0269434 0.578937 0.0538868 0.0858523 0.658972 116
2 0.179591 0.750004 0.219605 0.224326 0.953854 177
2 0.101815 0.510051 0.0428044 0.0771734 0.603774 180
0 0.951305 0.854275 0.0875085 0.281922 0.904569 181
0 0.145238 0.582036 0.0259452 0.115548 0.50962 156
0 0.52814 0.67152 0.0278981 0.219386 0.155633 163
0 0.512629 0.679123 0.0442193 0.223065 0.693395 164
0 0.510158 0.693264 0.0388562 0.190977 0.512409 165
0 0.436692 0.764045 0.0546775 0.24491 0.820785 170
9 0.723877 0.405478 0.0758579 0.304454 0.799909 172
2 0.0560787 0.641754 0.0898061 0.133543 0.782173 134
2 0.0243498 0.576927 0.0486996 0.0883003 0.757591 140
2 0.0269434 0.578937 0.0538868 0.0858523 0.658972 116
2 0.179591 0.750004 0.219605 0.224326 0.953854 177
2 0.101815 0.510051 0.0428044 0.0771734 0.603774 180
0 0.951305 0.854275 0.0875085 0.281922 0.904569 181
