2 0.715791 0.598038 0.0721813 0.0958699 0.798345 253
0 0.299861 0.584571 0.035126 0.12467 0.422017 254
0 0.30065 0.587035 0.0401076 0.132093 0.412269 255
2 0.419065 0.461604 0.0291076 0.0430662 0.645707 261
2 0.638392 0.558028 0.0656962 0.0794409 0.535981 236
2 0.375982 0.476489 0.031516 0.0584667 0.72193 210
2 0.376652 0.472474 0.0343903 0.0534813 0.158431 275
2 0.637507 0.561809 0.0713579 0.0833617 0.827017 278
2 0.419606 0.465483 0.0276901 0.0408802 0.683775 280
2 0.759029 0.558634 0.0344694 0.0471415 0.743792 283
2 0.707222 0.597661 0.0918234 0.0982544 0.879991 279
2 0.705714 0.595455 0.0828234 0.0926574 0.687003 285
2 0.715791 0.598038 0.0721813 0.0958699 0.798345 253
0 0.299861 0.584571 0.035126 0.12467 0.422017 254
0 0.30065 0.587035 0.0401076 0.132093 0.412269 255
2 0.419065 0.461604 0.0291076 0.0430662 0.645707 261
2 0.638392 0.558028 0.0656962 0.0794409 0.535981 236
2 0.375982 0.476489 0.031516 0.0584667 0.72193 210
2 0.376652 0.472474 0.0343903 0.0534813 0.158431 275
2 0.637507 0.561809 0.0713579 0.0833617 0.827017 278
2 0.419606 0.465483 0.0276901 0.0408802 0.683775 280
2 0.759029 0.558634 0.0344694 0.0471415 0.743792 283
2 0.707222 0.597661 0.0918234 0.0982544 0.879991 279
2 0.705714 0.595455 0.0828234 0.0926574 0.687003 285
