2 0.485666 0.609191 0.0746001 0.103599 0.829706 2
0 0.106728 0.59351 0.031521 0.144369 0.5095 19
0 0.899419 0.648519 0.0393117 0.178545 0.784668 5
0 0.136171 0.601521 0.0276851 0.12685 0.720117 23
0 0.894152 0.540159 0.021756 0.0717133 0.522811 32
0 0.10681 0.594009 0.0273397 0.146119 0.63791 36
2 0.501683 0.517759 0.0424214 0.0534278 0.753689 42
9 0.26153 0.442483 0.0168425 0.0638839 0.454642 44
0 0.217835 0.584164 0.0212725 0.104001 0.602381 46
2 0.62278 0.68963 0.128756 0.238545 0.819114 1
0 0.199597 0.575419 0.0190447 0.113676 0.5034 49
0 0.0386635 0.601744 0.03261 0.13771 0.290663 50
0 0.138808 0.600673 0.0298572 0.118019 0.224393 52
2 0.503696 0.513651 0.043605 0.0530089 0.493547 55
0 0.218163 0.577595 0.0209688 0.110649 0.152085 56
2 0.485666 0.609191 0.0746001 0.103599 0.829706 2
0 0.106728 0.59351 0.031521 0.144369 0.5095 19
0 0.899419 0.648519 0.0393117 0.178545 0.784668 5
0 0.136171 0.601521 0.0276851 0.12685 0.720117 23
0 0.894152 0.540159 0.021756 0.0717133 0.522811 32
0 0.10681 0.594009 0.0273397 0.146119 0.63791 36
2 0.501683 0.517759 0.0424214 0.0534278 0.753689 42
9 0.26153 0.442483 0.0168425 0.0638839 0.454642 44
0 0.217835 0.584164 0.0212725 0.104001 0.602381 46
2 0.62278 0.68963 0.128756 0.238545 0.819114 1
0 0.199597 0.575419 0.0190447 0.113676 0.5034 49
0 0.0386635 0.601744 0.03261 0.13771 0.290663 50
0 0.138808 0.600673 0.0298572 0.118019 0.224393 52
2 0.503696 0.513651 0.043605 0.0530089 0.493547 55
0 0.218163 0.577595 0.0209688 0.110649 0.152085 56
