2 0.639295 0.619843 0.0900256 0.164098 0.798203 1
2 0.532324 0.580128 0.0584531 0.0803598 0.857625 2
0 0.218287 0.567352 0.022179 0.115503 0.168346 19
0 0.820568 0.582912 0.0262199 0.130633 0.168366 5
0 0.237073 0.577795 0.0214786 0.100409 0.541389 23
0 0.866536 0.534966 0.0141169 0.0794795 0.227386 12
0 0.823027 0.584345 0.0272392 0.137365 0.746269 29
0 0.867086 0.537671 0.0167807 0.0821099 0.648319 32
0 0.23726 0.575705 0.0237538 0.105481 0.526394 35
0 0.214372 0.569762 0.0241129 0.117274 0.582137 36
2 0.639295 0.619843 0.0900256 0.164098 0.798203 1
2 0.532324 0.580128 0.0584531 0.0803598 0.857625 2
0 0.218287 0.567352 0.022179 0.115503 0.168346 19
0 0.820568 0.582912 0.0262199 0.130633 0.168366 5
0 0.237073 0.577795 0.0214786 0.100409 0.541389 23
0 0.866536 0.534966 0.0141169 0.0794795 0.227386 12
0 0.823027 0.584345 0.0272392 0.137365 0.746269 29
0 0.867086 0.537671 0.0167807 0.0821099 0.648319 32
0 0.23726 0.575705 0.0237538 0.105481 0.526394 35
0 0.214372 0.569762 0.0241129 0.117274 0.582137 36
