0 0.340404 0.906333 0.0911275 0.183196 0.85137 181
0 0.934369 0.717874 0.053588 0.218011 0.689597 195
0 0.340404 0.906333 0.0911275 0.183196 0.85137 181
0 0.934369 0.717874 0.053588 0.218011 0.689597 195
