2 0.482632 0.610277 0.0741674 0.10555 0.79622 2
0 0.10246 0.593268 0.0307616 0.139385 0.640898 19
0 0.90135 0.651757 0.0402814 0.177541 0.801912 5
0 0.131597 0.601441 0.0278043 0.129698 0.6047 23
0 0.893474 0.544162 0.0214298 0.0744766 0.632139 32
0 0.102885 0.597241 0.0276237 0.141409 0.507696 36
2 0.4991 0.518525 0.0421299 0.0530013 0.732024 42
9 0.258202 0.443676 0.0159683 0.0654814 0.610479 44
0 0.214688 0.585364 0.0219029 0.105183 0.631212 46
2 0.623833 0.692536 0.129373 0.249153 0.854611 1
0 0.195734 0.580024 0.0192129 0.109968 0.642052 49
0 0.0337418 0.599342 0.0309603 0.131996 0.606546 50
0 0.134269 0.601158 0.0294089 0.121422 0.351737 52
2 0.501718 0.51496 0.0441857 0.0562126 0.686339 55
0 0.213535 0.578104 0.0200854 0.113732 0.528033 56
2 0.482632 0.610277 0.0741674 0.10555 0.79622 2
0 0.10246 0.593268 0.0307616 0.139385 0.640898 19
0 0.90135 0.651757 0.0402814 0.177541 0.801912 5
0 0.131597 0.601441 0.0278043 0.129698 0.6047 23
0 0.893474 0.544162 0.0214298 0.0744766 0.632139 32
0 0.102885 0.597241 0.0276237 0.141409 0.507696 36
2 0.4991 0.518525 0.0421299 0.0530013 0.732024 42
9 0.258202 0.443676 0.0159683 0.0654814 0.610479 44
0 0.214688 0.585364 0.0219029 0.105183 0.631212 46
2 0.623833 0.692536 0.129373 0.249153 0.854611 1
0 0.195734 0.580024 0.0192129 0.109968 0.642052 49
0 0.0337418 0.599342 0.0309603 0.131996 0.606546 50
0 0.134269 0.601158 0.0294089 0.121422 0.351737 52
2 0.501718 0.51496 0.0441857 0.0562126 0.686339 55
0 0.213535 0.578104 0.0200854 0.113732 0.528033 56
