0 0.0117105 0.757544 0.023421 0.168385 0.468545 80
0 0.785263 0.777674 0.0485439 0.218979 0.703367 129
2 0.503281 0.539133 0.0285816 0.0368928 0.736147 2
2 0.614816 0.566674 0.0425942 0.0619915 0.402301 134
0 0.698403 0.677298 0.0319661 0.162765 0.34986 109
2 0.504152 0.542478 0.0265828 0.0329117 0.624117 136
2 0.614326 0.571288 0.0442122 0.0629287 0.713989 139
2 0.591194 0.546401 0.0288366 0.04371 0.612812 140
2 0.781769 0.646831 0.108146 0.114644 0.299071 141
9 0.686614 0.48541 0.0383017 0.135547 0.675136 143
2 0.786562 0.654766 0.101883 0.121445 0.633739 144
0 0.725568 0.700071 0.0412374 0.202179 0.569062 145
0 0.726013 0.706758 0.0362761 0.196035 0.447686 148
0 0.842363 0.740016 0.0612062 0.219043 0.742285 131
0 0.0117105 0.757544 0.023421 0.168385 0.468545 80
0 0.785263 0.777674 0.0485439 0.218979 0.703367 129
2 0.503281 0.539133 0.0285816 0.0368928 0.736147 2
2 0.614816 0.566674 0.0425942 0.0619915 0.402301 134
0 0.698403 0.677298 0.0319661 0.162765 0.34986 109
2 0.504152 0.542478 0.0265828 0.0329117 0.624117 136
2 0.614326 0.571288 0.0442122 0.0629287 0.713989 139
2 0.591194 0.546401 0.0288366 0.04371 0.612812 140
2 0.781769 0.646831 0.108146 0.114644 0.299071 141
9 0.686614 0.48541 0.0383017 0.135547 0.675136 143
2 0.786562 0.654766 0.101883 0.121445 0.633739 144
0 0.725568 0.700071 0.0412374 0.202179 0.569062 145
0 0.726013 0.706758 0.0362761 0.196035 0.447686 148
0 0.842363 0.740016 0.0612062 0.219043 0.742285 131
