0 0.779758 0.797897 0.0504786 0.253947 0.668774 129
2 0.498067 0.527848 0.0279946 0.0356452 0.491887 2
2 0.612247 0.567946 0.0492704 0.058267 0.57365 134
0 0.680679 0.67503 0.0296296 0.183673 0.27809 109
2 0.49874 0.527866 0.0252375 0.0322669 0.6911 136
2 0.611588 0.566284 0.0452185 0.0641228 0.660561 139
2 0.584486 0.537689 0.0314387 0.0523101 0.159043 140
2 0.784434 0.642264 0.106405 0.116599 0.611028 141
9 0.684204 0.472359 0.0405613 0.143529 0.831271 143
2 0.783602 0.651692 0.103138 0.120724 0.124977 144
0 0.705528 0.690612 0.032971 0.173598 0.402537 145
0 0.70335 0.687608 0.0299321 0.171296 0.677949 148
0 0.818606 0.747302 0.0505292 0.24395 0.531029 131
2 0.857837 0.671298 0.05634 0.0878333 0.611511 152
0 0.818759 0.746385 0.0450353 0.234679 0.732955 153
2 0.830077 0.671566 0.113177 0.0918919 0.146208 154
2 0.584703 0.540045 0.0293683 0.0445567 0.679746 116
0 0.777866 0.798926 0.0439927 0.252278 0.75463 151
0 0.779758 0.797897 0.0504786 0.253947 0.668774 129
2 0.498067 0.527848 0.0279946 0.0356452 0.491887 2
2 0.612247 0.567946 0.0492704 0.058267 0.57365 134
0 0.680679 0.67503 0.0296296 0.183673 0.27809 109
2 0.49874 0.527866 0.0252375 0.0322669 0.6911 136
2 0.611588 0.566284 0.0452185 0.0641228 0.660561 139
2 0.584486 0.537689 0.0314387 0.0523101 0.159043 140
2 0.784434 0.642264 0.106405 0.116599 0.611028 141
9 0.684204 0.472359 0.0405613 0.143529 0.831271 143
2 0.783602 0.651692 0.103138 0.120724 0.124977 144
0 0.705528 0.690612 0.032971 0.173598 0.402537 145
0 0.70335 0.687608 0.0299321 0.171296 0.677949 148
0 0.818606 0.747302 0.0505292 0.24395 0.531029 131
2 0.857837 0.671298 0.05634 0.0878333 0.611511 152
0 0.818759 0.746385 0.0450353 0.234679 0.732955 153
2 0.830077 0.671566 0.113177 0.0918919 0.146208 154
2 0.584703 0.540045 0.0293683 0.0445567 0.679746 116
0 0.777866 0.798926 0.0439927 0.252278 0.75463 151
