2 0.504402 0.593012 0.0718874 0.102219 0.813275 2
0 0.137034 0.569517 0.0291168 0.1361 0.699036 19
0 0.887164 0.621666 0.0368099 0.160965 0.78 5
0 0.165597 0.58202 0.0265106 0.124012 0.663523 23
0 0.900279 0.533844 0.0228654 0.0832903 0.16411 12
0 0.900254 0.539471 0.0208321 0.0873046 0.539486 32
0 0.137763 0.576771 0.0267961 0.125707 0.692198 36
2 0.525062 0.510832 0.0476047 0.0513445 0.673213 42
9 0.29048 0.428397 0.014631 0.0538578 0.617112 44
9 0.252996 0.427132 0.0147783 0.0525395 0.120104 45
0 0.249988 0.555706 0.0184266 0.0969273 0.410627 46
2 0.636611 0.65907 0.115772 0.224134 0.856393 1
0 0.233343 0.556926 0.0200377 0.099752 0.559535 49
0 0.0726737 0.58549 0.0269444 0.126178 0.527808 50
0 0.885404 0.61233 0.0374011 0.173121 0.701609 51
2 0.504402 0.593012 0.0718874 0.102219 0.813275 2
0 0.137034 0.569517 0.0291168 0.1361 0.699036 19
0 0.887164 0.621666 0.0368099 0.160965 0.78 5
0 0.165597 0.58202 0.0265106 0.124012 0.663523 23
0 0.900279 0.533844 0.0228654 0.0832903 0.16411 12
0 0.900254 0.539471 0.0208321 0.0873046 0.539486 32
0 0.137763 0.576771 0.0267961 0.125707 0.692198 36
2 0.525062 0.510832 0.0476047 0.0513445 0.673213 42
9 0.29048 0.428397 0.014631 0.0538578 0.617112 44
9 0.252996 0.427132 0.0147783 0.0525395 0.120104 45
0 0.249988 0.555706 0.0184266 0.0969273 0.410627 46
2 0.636611 0.65907 0.115772 0.224134 0.856393 1
0 0.233343 0.556926 0.0200377 0.099752 0.559535 49
0 0.0726737 0.58549 0.0269444 0.126178 0.527808 50
0 0.885404 0.61233 0.0374011 0.173121 0.701609 51
