0 0.304196 0.779464 0.0470559 0.258077 0.738379 195
0 0.886697 0.689942 0.0345238 0.157881 0.699352 198
0 0.343036 0.792834 0.0527404 0.259569 0.226956 199
0 0.929743 0.697777 0.0393348 0.165889 0.704773 201
0 0.341089 0.813502 0.0581861 0.296978 0.792417 202
0 0.926352 0.697153 0.0366526 0.16299 0.657197 203
0 0.888702 0.69327 0.0412015 0.157585 0.713189 200
0 0.304196 0.779464 0.0470559 0.258077 0.738379 195
0 0.886697 0.689942 0.0345238 0.157881 0.699352 198
0 0.343036 0.792834 0.0527404 0.259569 0.226956 199
0 0.929743 0.697777 0.0393348 0.165889 0.704773 201
0 0.341089 0.813502 0.0581861 0.296978 0.792417 202
0 0.926352 0.697153 0.0366526 0.16299 0.657197 203
0 0.888702 0.69327 0.0412015 0.157585 0.713189 200
