2 0.515881 0.474256 0.0289145 0.0494326 0.350319 261
2 0.473381 0.48787 0.0317984 0.0565305 0.6041 210
2 0.51781 0.484516 0.027306 0.0361147 0.567117 280
2 0.963463 0.61604 0.0730741 0.0872966 0.519685 283
2 0.899063 0.675052 0.134705 0.144346 0.893708 279
0 0.555369 0.647741 0.0617227 0.162886 0.673072 255
2 0.800328 0.613738 0.0923883 0.104327 0.650236 236
2 0.473893 0.489114 0.0328804 0.0551225 0.339891 290
2 0.96484 0.608862 0.0700157 0.0756105 0.65884 292
0 0.560086 0.644869 0.051488 0.16358 0.594473 254
0 0.304973 0.528713 0.0186504 0.089154 0.695343 294
2 0.800109 0.618417 0.100588 0.11313 0.828554 295
2 0.899119 0.66735 0.129878 0.144374 0.731068 253
2 0.515881 0.474256 0.0289145 0.0494326 0.350319 261
2 0.473381 0.48787 0.0317984 0.0565305 0.6041 210
2 0.51781 0.484516 0.027306 0.0361147 0.567117 280
2 0.963463 0.61604 0.0730741 0.0872966 0.519685 283
2 0.899063 0.675052 0.134705 0.144346 0.893708 279
0 0.555369 0.647741 0.0617227 0.162886 0.673072 255
2 0.800328 0.613738 0.0923883 0.104327 0.650236 236
2 0.473893 0.489114 0.0328804 0.0551225 0.339891 290
2 0.96484 0.608862 0.0700157 0.0756105 0.65884 292
0 0.560086 0.644869 0.051488 0.16358 0.594473 254
0 0.304973 0.528713 0.0186504 0.089154 0.695343 294
2 0.800109 0.618417 0.100588 0.11313 0.828554 295
2 0.899119 0.66735 0.129878 0.144374 0.731068 253
