2 0.251125 0.588741 0.0600906 0.0796234 0.787253 2
2 0.308924 0.504681 0.0258622 0.0350554 0.426618 42
2 0.387559 0.518744 0.0222367 0.0511162 0.171027 74
2 0.386282 0.604764 0.0974099 0.118345 0.846338 77
0 0.0979947 0.571208 0.0210045 0.0845201 0.602403 80
0 0.706108 0.568302 0.0233298 0.116887 0.740493 84
0 0.866122 0.573624 0.0278486 0.117294 0.511284 85
0 0.867583 0.572964 0.0225776 0.116477 0.656164 87
2 0.298856 0.730566 0.139751 0.257871 0.88196 1
0 0.0987245 0.56796 0.0198398 0.0849806 0.638198 91
2 0.251125 0.588741 0.0600906 0.0796234 0.787253 2
2 0.308924 0.504681 0.0258622 0.0350554 0.426618 42
2 0.387559 0.518744 0.0222367 0.0511162 0.171027 74
2 0.386282 0.604764 0.0974099 0.118345 0.846338 77
0 0.0979947 0.571208 0.0210045 0.0845201 0.602403 80
0 0.706108 0.568302 0.0233298 0.116887 0.740493 84
0 0.866122 0.573624 0.0278486 0.117294 0.511284 85
0 0.867583 0.572964 0.0225776 0.116477 0.656164 87
2 0.298856 0.730566 0.139751 0.257871 0.88196 1
0 0.0987245 0.56796 0.0198398 0.0849806 0.638198 91
