2 0.433345 0.614698 0.0762937 0.104481 0.804113 2
0 0.012137 0.61259 0.024274 0.148009 0.55517 19
0 0.930705 0.700418 0.0489925 0.213058 0.829332 5
0 0.0382505 0.606142 0.033301 0.158682 0.697474 23
2 0.454486 0.513566 0.0336452 0.0479201 0.724267 42
9 0.181389 0.442021 0.0195632 0.0720463 0.630009 44
0 0.120737 0.592088 0.0218216 0.132669 0.105392 46
2 0.58125 0.738965 0.144153 0.289173 0.769566 1
0 0.116335 0.600703 0.0288402 0.125901 0.529841 49
0 0.0379199 0.614227 0.0314391 0.148844 0.682099 52
2 0.454653 0.511031 0.035399 0.055148 0.555848 55
0 0.118929 0.599171 0.0275179 0.122978 0.63992 56
0 0.0979558 0.596387 0.0203905 0.115563 0.267604 57
0 0.0776586 0.603924 0.017514 0.0952487 0.502219 59
9 0.181006 0.438499 0.0210302 0.0674182 0.471198 60
0 0.15503 0.594125 0.0240889 0.136471 0.243314 62
0 0.150898 0.597007 0.0223284 0.133091 0.662939 65
0 0.791103 0.520275 0.0124266 0.0575734 0.184504 66
0 0.179199 0.574146 0.0198617 0.103578 0.652221 67
0 0.0109104 0.613516 0.0218208 0.146761 0.6295 69
0 0.180713 0.57288 0.0173954 0.103909 0.668379 70
2 0.433345 0.614698 0.0762937 0.104481 0.804113 2
0 0.012137 0.61259 0.024274 0.148009 0.55517 19
0 0.930705 0.700418 0.0489925 0.213058 0.829332 5
0 0.0382505 0.606142 0.033301 0.158682 0.697474 23
2 0.454486 0.513566 0.0336452 0.0479201 0.724267 42
9 0.181389 0.442021 0.0195632 0.0720463 0.630009 44
0 0.120737 0.592088 0.0218216 0.132669 0.105392 46
2 0.58125 0.738965 0.144153 0.289173 0.769566 1
0 0.116335 0.600703 0.0288402 0.125901 0.529841 49
0 0.0379199 0.614227 0.0314391 0.148844 0.682099 52
2 0.454653 0.511031 0.035399 0.055148 0.555848 55
0 0.118929 0.599171 0.0275179 0.122978 0.63992 56
0 0.0979558 0.596387 0.0203905 0.115563 0.267604 57
0 0.0776586 0.603924 0.017514 0.0952487 0.502219 59
9 0.181006 0.438499 0.0210302 0.0674182 0.471198 60
0 0.15503 0.594125 0.0240889 0.136471 0.243314 62
0 0.150898 0.597007 0.0223284 0.133091 0.662939 65
0 0.791103 0.520275 0.0124266 0.0575734 0.184504 66
0 0.179199 0.574146 0.0198617 0.103578 0.652221 67
0 0.0109104 0.613516 0.0218208 0.146761 0.6295 69
0 0.180713 0.57288 0.0173954 0.103909 0.668379 70
