2 0.326955 0.597978 0.0724584 0.0964844 0.807573 2
2 0.368986 0.505715 0.0277703 0.0394995 0.524159 42
2 0.45531 0.76026 0.157232 0.294776 0.86495 1
2 0.445769 0.487944 0.0234592 0.0293169 0.445098 74
0 0.782772 0.564033 0.0219447 0.104395 0.728994 75
2 0.456356 0.595294 0.0867963 0.0671031 0.580222 77
2 0.45498 0.589043 0.0894407 0.0630442 0.653765 78
0 0.214812 0.531056 0.0145104 0.0709042 0.581189 80
2 0.326955 0.597978 0.0724584 0.0964844 0.807573 2
2 0.368986 0.505715 0.0277703 0.0394995 0.524159 42
2 0.45531 0.76026 0.157232 0.294776 0.86495 1
2 0.445769 0.487944 0.0234592 0.0293169 0.445098 74
0 0.782772 0.564033 0.0219447 0.104395 0.728994 75
2 0.456356 0.595294 0.0867963 0.0671031 0.580222 77
2 0.45498 0.589043 0.0894407 0.0630442 0.653765 78
0 0.214812 0.531056 0.0145104 0.0709042 0.581189 80
