0 0.489072 0.901549 0.10085 0.195812 0.836829 181
0 0.0375071 0.786462 0.0522571 0.245486 0.164383 164
0 0.0398895 0.777098 0.0483597 0.229204 0.342946 163
0 0.489072 0.901549 0.10085 0.195812 0.836829 181
0 0.0375071 0.786462 0.0522571 0.245486 0.164383 164
0 0.0398895 0.777098 0.0483597 0.229204 0.342946 163
