2 0.690971 0.593887 0.0839007 0.0948436 0.791908 253
0 0.274858 0.576129 0.0452563 0.129562 0.279221 254
0 0.278406 0.577777 0.0396847 0.129114 0.173455 255
2 0.407529 0.462332 0.029027 0.0410465 0.539342 261
2 0.623735 0.557992 0.0693857 0.0798466 0.744141 236
2 0.364384 0.473116 0.0307052 0.056449 0.736205 210
2 0.365764 0.472549 0.0366381 0.0573688 0.350465 275
2 0.621202 0.554224 0.0689667 0.0821986 0.824455 278
2 0.408253 0.463049 0.0273638 0.0408843 0.705025 280
2 0.741747 0.556359 0.032475 0.0455959 0.584943 283
2 0.687206 0.588996 0.0876328 0.0986484 0.627967 279
2 0.690971 0.593887 0.0839007 0.0948436 0.791908 253
0 0.274858 0.576129 0.0452563 0.129562 0.279221 254
0 0.278406 0.577777 0.0396847 0.129114 0.173455 255
2 0.407529 0.462332 0.029027 0.0410465 0.539342 261
2 0.623735 0.557992 0.0693857 0.0798466 0.744141 236
2 0.364384 0.473116 0.0307052 0.056449 0.736205 210
2 0.365764 0.472549 0.0366381 0.0573688 0.350465 275
2 0.621202 0.554224 0.0689667 0.0821986 0.824455 278
2 0.408253 0.463049 0.0273638 0.0408843 0.705025 280
2 0.741747 0.556359 0.032475 0.0455959 0.584943 283
2 0.687206 0.588996 0.0876328 0.0986484 0.627967 279
