0 0.576605 0.893283 0.0963856 0.21194 0.853417 181
0 0.0855961 0.740286 0.0435974 0.252873 0.593183 186
0 0.141003 0.772928 0.0564759 0.245574 0.668695 164
0 0.141084 0.770431 0.048399 0.239986 0.409702 163
0 0.0928438 0.743266 0.0573957 0.267599 0.567017 193
0 0.576605 0.893283 0.0963856 0.21194 0.853417 181
0 0.0855961 0.740286 0.0435974 0.252873 0.593183 186
0 0.141003 0.772928 0.0564759 0.245574 0.668695 164
0 0.141084 0.770431 0.048399 0.239986 0.409702 163
0 0.0928438 0.743266 0.0573957 0.267599 0.567017 193
