0 0.63002 0.87344 0.0759338 0.248708 0.783886 129
2 0.393801 0.496876 0.023731 0.0344787 0.455551 2
2 0.511767 0.582334 0.064162 0.0872402 0.541193 139
2 0.479682 0.53982 0.0464857 0.0680764 0.744856 140
2 0.699885 0.67639 0.180354 0.158003 0.879441 141
9 0.546229 0.461997 0.0457174 0.182721 0.671928 143
0 0.626943 0.716292 0.0329877 0.101027 0.207561 131
0 0.621417 0.841909 0.0916898 0.292837 0.119388 151
2 0.477486 0.540052 0.041503 0.0594594 0.653925 116
0 0.613497 0.562339 0.02379 0.124456 0.50421 156
0 0.504948 0.760244 0.0668196 0.271622 0.726814 145
9 0.544112 0.457424 0.0535777 0.188542 0.627497 160
0 0.503202 0.755439 0.0572811 0.274501 0.710706 148
0 0.644065 0.553784 0.0252334 0.105572 0.591418 162
0 0.63002 0.87344 0.0759338 0.248708 0.783886 129
2 0.393801 0.496876 0.023731 0.0344787 0.455551 2
2 0.511767 0.582334 0.064162 0.0872402 0.541193 139
2 0.479682 0.53982 0.0464857 0.0680764 0.744856 140
2 0.699885 0.67639 0.180354 0.158003 0.879441 141
9 0.546229 0.461997 0.0457174 0.182721 0.671928 143
0 0.626943 0.716292 0.0329877 0.101027 0.207561 131
0 0.621417 0.841909 0.0916898 0.292837 0.119388 151
2 0.477486 0.540052 0.041503 0.0594594 0.653925 116
0 0.613497 0.562339 0.02379 0.124456 0.50421 156
0 0.504948 0.760244 0.0668196 0.271622 0.726814 145
9 0.544112 0.457424 0.0535777 0.188542 0.627497 160
0 0.503202 0.755439 0.0572811 0.274501 0.710706 148
0 0.644065 0.553784 0.0252334 0.105572 0.591418 162
