0 0.382084 0.762376 0.052486 0.255874 0.710906 195
72 0.0414529 0.677937 0.0829059 0.428239 0.115071 196
0 0.939969 0.686362 0.0397185 0.156429 0.6715 198
0 0.425324 0.780818 0.045065 0.270883 0.74127 199
0 0.940442 0.683798 0.0343414 0.149017 0.508977 200
0 0.382084 0.762376 0.052486 0.255874 0.710906 195
72 0.0414529 0.677937 0.0829059 0.428239 0.115071 196
0 0.939969 0.686362 0.0397185 0.156429 0.6715 198
0 0.425324 0.780818 0.045065 0.270883 0.74127 199
0 0.940442 0.683798 0.0343414 0.149017 0.508977 200
