2 0.25473 0.574425 0.0573846 0.071541 0.36055 2
2 0.316875 0.501107 0.0218437 0.0305952 0.44036 42
2 0.4816 0.596288 0.12991 0.114747 0.82952 77
0 0.0656215 0.58782 0.0201193 0.0915074 0.59582 80
0 0.95539 0.574672 0.0318606 0.126588 0.544467 85
0 0.956963 0.57367 0.0357332 0.126865 0.676656 87
0 0.0722032 0.582659 0.0249071 0.0984447 0.119661 91
9 0.48747 0.459663 0.0337678 0.144173 0.456883 93
0 0.958681 0.573006 0.0309292 0.122265 0.612233 96
0 0.729027 0.57403 0.0265705 0.126119 0.721283 75
2 0.274434 0.714513 0.140541 0.245744 0.866654 1
2 0.25473 0.574425 0.0573846 0.071541 0.36055 2
2 0.316875 0.501107 0.0218437 0.0305952 0.44036 42
2 0.4816 0.596288 0.12991 0.114747 0.82952 77
0 0.0656215 0.58782 0.0201193 0.0915074 0.59582 80
0 0.95539 0.574672 0.0318606 0.126588 0.544467 85
0 0.956963 0.57367 0.0357332 0.126865 0.676656 87
0 0.0722032 0.582659 0.0249071 0.0984447 0.119661 91
9 0.48747 0.459663 0.0337678 0.144173 0.456883 93
0 0.958681 0.573006 0.0309292 0.122265 0.612233 96
0 0.729027 0.57403 0.0265705 0.126119 0.721283 75
2 0.274434 0.714513 0.140541 0.245744 0.866654 1
