0 0.321957 0.72536 0.0583996 0.253884 0.762984 165
0 0.186851 0.846512 0.0802307 0.306976 0.843397 170
2 0.01629 0.826367 0.03258 0.184178 0.629534 177
0 0.744053 0.873577 0.097828 0.245194 0.886196 181
0 0.121968 0.602018 0.0306907 0.150398 0.467245 183
0 0.0516567 0.620689 0.0316133 0.165096 0.506001 185
0 0.274722 0.72042 0.0415009 0.225524 0.600585 186
0 0.272077 0.719017 0.0429866 0.22405 0.662608 189
0 0.316838 0.723699 0.0548214 0.242065 0.739957 163
2 0.0166693 0.835031 0.0333386 0.156986 0.679205 190
0 0.317395 0.732682 0.0506414 0.231399 0.637953 164
0 0.321957 0.72536 0.0583996 0.253884 0.762984 165
0 0.186851 0.846512 0.0802307 0.306976 0.843397 170
2 0.01629 0.826367 0.03258 0.184178 0.629534 177
0 0.744053 0.873577 0.097828 0.245194 0.886196 181
0 0.121968 0.602018 0.0306907 0.150398 0.467245 183
0 0.0516567 0.620689 0.0316133 0.165096 0.506001 185
0 0.274722 0.72042 0.0415009 0.225524 0.600585 186
0 0.272077 0.719017 0.0429866 0.22405 0.662608 189
0 0.316838 0.723699 0.0548214 0.242065 0.739957 163
2 0.0166693 0.835031 0.0333386 0.156986 0.679205 190
0 0.317395 0.732682 0.0506414 0.231399 0.637953 164
