0 0.125665 0.650258 0.0306379 0.141285 0.558105 80
0 0.122791 0.65244 0.0300351 0.139542 0.557232 91
2 0.965581 0.697036 0.0684886 0.226684 0.858914 1
2 0.584805 0.509611 0.0366742 0.046362 0.641507 116
2 0.483806 0.527344 0.030929 0.0413279 0.759387 113
0 0.0189227 0.66291 0.0289991 0.125221 0.576211 117
2 0.708356 0.581417 0.0439538 0.0880823 0.422822 109
0 0.752028 0.619084 0.0462699 0.149346 0.44309 129
2 0.484607 0.524229 0.0331227 0.0464563 0.493838 2
2 0.58426 0.509318 0.0411758 0.0503649 0.737288 130
0 0.826246 0.606906 0.0350185 0.155286 0.520038 131
0 0.125665 0.650258 0.0306379 0.141285 0.558105 80
0 0.122791 0.65244 0.0300351 0.139542 0.557232 91
2 0.965581 0.697036 0.0684886 0.226684 0.858914 1
2 0.584805 0.509611 0.0366742 0.046362 0.641507 116
2 0.483806 0.527344 0.030929 0.0413279 0.759387 113
0 0.0189227 0.66291 0.0289991 0.125221 0.576211 117
2 0.708356 0.581417 0.0439538 0.0880823 0.422822 109
0 0.752028 0.619084 0.0462699 0.149346 0.44309 129
2 0.484607 0.524229 0.0331227 0.0464563 0.493838 2
2 0.58426 0.509318 0.0411758 0.0503649 0.737288 130
0 0.826246 0.606906 0.0350185 0.155286 0.520038 131
