2 0.61287 0.589964 0.124755 0.145532 0.891542 220
2 0.900838 0.736949 0.198325 0.227272 0.924835 229
2 0.495996 0.530346 0.0617552 0.0669867 0.806467 253
0 0.13591 0.55645 0.0260537 0.115158 0.700916 254
0 0.134304 0.559739 0.0236461 0.110164 0.652267 255
2 0.266807 0.460365 0.0254174 0.0385867 0.577112 261
2 0.23082 0.484373 0.0388065 0.0653025 0.758509 210
2 0.425965 0.501699 0.0612883 0.060008 0.786388 259
2 0.424827 0.505433 0.0584088 0.059517 0.346486 236
2 0.61287 0.589964 0.124755 0.145532 0.891542 220
2 0.900838 0.736949 0.198325 0.227272 0.924835 229
2 0.495996 0.530346 0.0617552 0.0669867 0.806467 253
0 0.13591 0.55645 0.0260537 0.115158 0.700916 254
0 0.134304 0.559739 0.0236461 0.110164 0.652267 255
2 0.266807 0.460365 0.0254174 0.0385867 0.577112 261
2 0.23082 0.484373 0.0388065 0.0653025 0.758509 210
2 0.425965 0.501699 0.0612883 0.060008 0.786388 259
2 0.424827 0.505433 0.0584088 0.059517 0.346486 236
