0 0.713341 0.860221 0.0623641 0.271936 0.772984 129
2 0.444933 0.500511 0.0270751 0.0355434 0.348727 2
2 0.559845 0.569117 0.0466057 0.0839203 0.659316 134
0 0.586276 0.724414 0.0355041 0.228763 0.415127 109
2 0.444894 0.502642 0.0248037 0.0321551 0.579674 136
2 0.560942 0.572721 0.0507902 0.0785671 0.617555 139
2 0.532583 0.537118 0.0409033 0.0560073 0.660209 140
2 0.758743 0.668161 0.176904 0.147978 0.837641 141
9 0.623321 0.46025 0.0437724 0.164567 0.721997 143
0 0.584641 0.722315 0.0476487 0.233464 0.503505 148
0 0.725449 0.73134 0.034325 0.150252 0.299756 131
2 0.769903 0.672837 0.150873 0.140998 0.570986 152
0 0.725055 0.740035 0.0393 0.191114 0.169514 153
0 0.71543 0.851521 0.0661462 0.296349 0.591235 151
2 0.532634 0.534921 0.0370753 0.053452 0.448184 116
0 0.672878 0.569593 0.0248149 0.118263 0.653283 156
0 0.713341 0.860221 0.0623641 0.271936 0.772984 129
2 0.444933 0.500511 0.0270751 0.0355434 0.348727 2
2 0.559845 0.569117 0.0466057 0.0839203 0.659316 134
0 0.586276 0.724414 0.0355041 0.228763 0.415127 109
2 0.444894 0.502642 0.0248037 0.0321551 0.579674 136
2 0.560942 0.572721 0.0507902 0.0785671 0.617555 139
2 0.532583 0.537118 0.0409033 0.0560073 0.660209 140
2 0.758743 0.668161 0.176904 0.147978 0.837641 141
9 0.623321 0.46025 0.0437724 0.164567 0.721997 143
0 0.584641 0.722315 0.0476487 0.233464 0.503505 148
0 0.725449 0.73134 0.034325 0.150252 0.299756 131
2 0.769903 0.672837 0.150873 0.140998 0.570986 152
0 0.725055 0.740035 0.0393 0.191114 0.169514 153
0 0.71543 0.851521 0.0661462 0.296349 0.591235 151
2 0.532634 0.534921 0.0370753 0.053452 0.448184 116
0 0.672878 0.569593 0.0248149 0.118263 0.653283 156
