2 0.598521 0.565603 0.0618858 0.10748 0.793627 1
2 0.522694 0.548032 0.0441353 0.0657647 0.826344 2
0 0.880412 0.592536 0.0316984 0.123393 0.770546 3
0 0.734839 0.539685 0.0184545 0.0996736 0.642823 5
0 0.831384 0.593631 0.0265017 0.110254 0.481652 7
0 0.772391 0.511797 0.0153557 0.0832383 0.60316 9
2 0.598521 0.565603 0.0618858 0.10748 0.793627 1
2 0.522694 0.548032 0.0441353 0.0657647 0.826344 2
0 0.880412 0.592536 0.0316984 0.123393 0.770546 3
0 0.734839 0.539685 0.0184545 0.0996736 0.642823 5
0 0.831384 0.593631 0.0265017 0.110254 0.481652 7
0 0.772391 0.511797 0.0153557 0.0832383 0.60316 9
