0 0.0966187 0.686493 0.0253303 0.141311 0.671041 80
0 0.0750717 0.698207 0.0293472 0.156539 0.603837 91
2 0.601389 0.526073 0.0380568 0.0534713 0.571786 116
0 0.771063 0.671541 0.0364037 0.170842 0.636319 129
2 0.497414 0.524688 0.0309504 0.0429645 0.72553 2
1 0.846202 0.643206 0.0558386 0.204782 0.106929 131
0 0.768205 0.667726 0.0375483 0.178691 0.686644 133
2 0.597499 0.523491 0.0464496 0.059005 0.75514 134
0 0.731672 0.628087 0.0452361 0.187184 0.508668 109
2 0.496377 0.525325 0.0340632 0.0481978 0.117053 136
0 0.843913 0.648637 0.0438942 0.176226 0.548273 138
2 0.60291 0.528439 0.0347212 0.0469751 0.613587 139
0 0.0966187 0.686493 0.0253303 0.141311 0.671041 80
0 0.0750717 0.698207 0.0293472 0.156539 0.603837 91
2 0.601389 0.526073 0.0380568 0.0534713 0.571786 116
0 0.771063 0.671541 0.0364037 0.170842 0.636319 129
2 0.497414 0.524688 0.0309504 0.0429645 0.72553 2
1 0.846202 0.643206 0.0558386 0.204782 0.106929 131
0 0.768205 0.667726 0.0375483 0.178691 0.686644 133
2 0.597499 0.523491 0.0464496 0.059005 0.75514 134
0 0.731672 0.628087 0.0452361 0.187184 0.508668 109
2 0.496377 0.525325 0.0340632 0.0481978 0.117053 136
0 0.843913 0.648637 0.0438942 0.176226 0.548273 138
2 0.60291 0.528439 0.0347212 0.0469751 0.613587 139
