0 0.635342 0.89498 0.0898436 0.209516 0.842478 181
0 0.0226176 0.619882 0.0404753 0.203836 0.290755 183
0 0.151484 0.735845 0.042074 0.245284 0.576382 186
0 0.203753 0.762007 0.0581874 0.237605 0.715541 164
0 0.0334033 0.859334 0.0668065 0.270753 0.673854 191
0 0.203344 0.762388 0.0518741 0.22557 0.550944 163
0 0.635342 0.89498 0.0898436 0.209516 0.842478 181
0 0.0226176 0.619882 0.0404753 0.203836 0.290755 183
0 0.151484 0.735845 0.042074 0.245284 0.576382 186
0 0.203753 0.762007 0.0581874 0.237605 0.715541 164
0 0.0334033 0.859334 0.0668065 0.270753 0.673854 191
0 0.203344 0.762388 0.0518741 0.22557 0.550944 163
