0 0.250282 0.799086 0.0478672 0.273544 0.604304 195
0 0.852144 0.698478 0.0354158 0.156105 0.738567 198
0 0.286835 0.820509 0.0607818 0.300153 0.744642 199
0 0.891123 0.702566 0.0386262 0.172616 0.395064 201
0 0.283964 0.833569 0.0660886 0.29687 0.452907 202
0 0.892292 0.703606 0.0391111 0.167649 0.805568 203
0 0.852081 0.699591 0.0412587 0.160331 0.727939 200
0 0.250282 0.799086 0.0478672 0.273544 0.604304 195
0 0.852144 0.698478 0.0354158 0.156105 0.738567 198
0 0.286835 0.820509 0.0607818 0.300153 0.744642 199
0 0.891123 0.702566 0.0386262 0.172616 0.395064 201
0 0.283964 0.833569 0.0660886 0.29687 0.452907 202
0 0.892292 0.703606 0.0391111 0.167649 0.805568 203
0 0.852081 0.699591 0.0412587 0.160331 0.727939 200
