0 0.119815 0.841029 0.0772574 0.297466 0.557433 195
0 0.817973 0.712477 0.0342031 0.182217 0.520397 201
0 0.822159 0.714663 0.0380424 0.184606 0.810006 203
0 0.172889 0.851542 0.0605953 0.296915 0.587747 205
28 0.259323 0.922325 0.0753865 0.155349 0.602651 206
0 0.824483 0.587362 0.0217863 0.113242 0.569849 208
0 0.780437 0.709124 0.0391059 0.171535 0.730235 198
0 0.168273 0.849723 0.0675066 0.300554 0.749262 199
0 0.119815 0.841029 0.0772574 0.297466 0.557433 195
0 0.817973 0.712477 0.0342031 0.182217 0.520397 201
0 0.822159 0.714663 0.0380424 0.184606 0.810006 203
0 0.172889 0.851542 0.0605953 0.296915 0.587747 205
28 0.259323 0.922325 0.0753865 0.155349 0.602651 206
0 0.824483 0.587362 0.0217863 0.113242 0.569849 208
0 0.780437 0.709124 0.0391059 0.171535 0.730235 198
0 0.168273 0.849723 0.0675066 0.300554 0.749262 199
