0 0.467327 0.693235 0.0447802 0.197673 0.117827 164
0 0.46779 0.693691 0.0434762 0.219877 0.705432 165
0 0.38113 0.778237 0.052776 0.266073 0.783689 170
9 0.666254 0.40894 0.0776384 0.311345 0.591096 172
2 0.0233533 0.640766 0.0467065 0.126015 0.446355 134
2 0.118474 0.765145 0.226412 0.229699 0.894928 177
2 0.0576395 0.51046 0.043296 0.0816185 0.79666 180
0 0.907682 0.85358 0.0994637 0.287494 0.904782 181
2 0.0249422 0.648931 0.0498843 0.146617 0.71308 182
0 0.25782 0.583478 0.0253704 0.137828 0.635486 183
0 0.204967 0.60055 0.0230622 0.15151 0.58818 185
0 0.467327 0.693235 0.0447802 0.197673 0.117827 164
0 0.46779 0.693691 0.0434762 0.219877 0.705432 165
0 0.38113 0.778237 0.052776 0.266073 0.783689 170
9 0.666254 0.40894 0.0776384 0.311345 0.591096 172
2 0.0233533 0.640766 0.0467065 0.126015 0.446355 134
2 0.118474 0.765145 0.226412 0.229699 0.894928 177
2 0.0576395 0.51046 0.043296 0.0816185 0.79666 180
0 0.907682 0.85358 0.0994637 0.287494 0.904782 181
2 0.0249422 0.648931 0.0498843 0.146617 0.71308 182
0 0.25782 0.583478 0.0253704 0.137828 0.635486 183
0 0.204967 0.60055 0.0230622 0.15151 0.58818 185
