2 0.316188 0.559894 0.0464231 0.0614158 0.676162 2
2 0.712589 0.578842 0.114927 0.128733 0.555013 77
0 0.0829823 0.604514 0.0217793 0.102391 0.524479 80
0 0.0841189 0.600376 0.0240657 0.106069 0.548267 91
9 0.57248 0.451524 0.062397 0.22978 0.867371 93
12 0.820249 0.582657 0.0317478 0.129968 0.106351 75
2 0.356201 0.697552 0.162379 0.236575 0.913246 1
0 0.818236 0.583324 0.0386815 0.13131 0.329149 100
0 0.215311 0.509862 0.0205511 0.097127 0.291259 102
9 0.916073 0.384501 0.0306492 0.0905822 0.718001 103
0 0.0368548 0.536517 0.0285753 0.143893 0.534596 105
2 0.4763 0.54082 0.0401201 0.0518968 0.738389 109
2 0.316188 0.559894 0.0464231 0.0614158 0.676162 2
2 0.712589 0.578842 0.114927 0.128733 0.555013 77
0 0.0829823 0.604514 0.0217793 0.102391 0.524479 80
0 0.0841189 0.600376 0.0240657 0.106069 0.548267 91
9 0.57248 0.451524 0.062397 0.22978 0.867371 93
12 0.820249 0.582657 0.0317478 0.129968 0.106351 75
2 0.356201 0.697552 0.162379 0.236575 0.913246 1
0 0.818236 0.583324 0.0386815 0.13131 0.329149 100
0 0.215311 0.509862 0.0205511 0.097127 0.291259 102
9 0.916073 0.384501 0.0306492 0.0905822 0.718001 103
0 0.0368548 0.536517 0.0285753 0.143893 0.534596 105
2 0.4763 0.54082 0.0401201 0.0518968 0.738389 109
