2 0.502894 0.467241 0.0306207 0.045141 0.380592 261
2 0.461117 0.482471 0.0353564 0.0606843 0.385564 210
2 0.504591 0.473373 0.0275053 0.0375775 0.520028 280
2 0.93211 0.611314 0.0610353 0.0701213 0.649851 283
2 0.866414 0.668903 0.126047 0.142702 0.851713 279
0 0.517033 0.635548 0.0342045 0.13965 0.418806 255
2 0.77452 0.617595 0.0942603 0.11191 0.804438 236
2 0.461371 0.483559 0.0317965 0.0590023 0.747782 290
2 0.926907 0.614689 0.0699322 0.0729613 0.628224 292
12 0.518361 0.627748 0.0318468 0.130725 0.169916 254
0 0.299025 0.51063 0.0183747 0.0871994 0.360343 294
2 0.502894 0.467241 0.0306207 0.045141 0.380592 261
2 0.461117 0.482471 0.0353564 0.0606843 0.385564 210
2 0.504591 0.473373 0.0275053 0.0375775 0.520028 280
2 0.93211 0.611314 0.0610353 0.0701213 0.649851 283
2 0.866414 0.668903 0.126047 0.142702 0.851713 279
0 0.517033 0.635548 0.0342045 0.13965 0.418806 255
2 0.77452 0.617595 0.0942603 0.11191 0.804438 236
2 0.461371 0.483559 0.0317965 0.0590023 0.747782 290
2 0.926907 0.614689 0.0699322 0.0729613 0.628224 292
12 0.518361 0.627748 0.0318468 0.130725 0.169916 254
0 0.299025 0.51063 0.0183747 0.0871994 0.360343 294
