0 0.12063 0.648152 0.035242 0.147282 0.569422 80
0 0.113166 0.658161 0.0246836 0.138198 0.575305 91
2 0.981642 0.696573 0.0364972 0.256103 0.751615 1
2 0.586026 0.507892 0.0376078 0.0479879 0.722633 116
2 0.486136 0.52254 0.0316947 0.041968 0.829087 113
0 0.0160258 0.659723 0.0277259 0.12798 0.600231 117
2 0.722744 0.573954 0.0657715 0.0942158 0.159472 109
0 0.756683 0.619413 0.0389716 0.151684 0.565242 129
2 0.4872 0.519367 0.0354674 0.0476483 0.409468 2
0 0.830401 0.605105 0.0333568 0.160337 0.625686 131
0 0.12063 0.648152 0.035242 0.147282 0.569422 80
0 0.113166 0.658161 0.0246836 0.138198 0.575305 91
2 0.981642 0.696573 0.0364972 0.256103 0.751615 1
2 0.586026 0.507892 0.0376078 0.0479879 0.722633 116
2 0.486136 0.52254 0.0316947 0.041968 0.829087 113
0 0.0160258 0.659723 0.0277259 0.12798 0.600231 117
2 0.722744 0.573954 0.0657715 0.0942158 0.159472 109
0 0.756683 0.619413 0.0389716 0.151684 0.565242 129
2 0.4872 0.519367 0.0354674 0.0476483 0.409468 2
0 0.830401 0.605105 0.0333568 0.160337 0.625686 131
