2 0.286655 0.585663 0.0659842 0.0895438 0.852635 2
2 0.335295 0.501149 0.0255155 0.0334247 0.416899 42
2 0.381323 0.745713 0.147168 0.285623 0.862298 1
2 0.41495 0.493826 0.0231682 0.0318832 0.195895 74
0 0.734249 0.557047 0.0288181 0.119681 0.694671 75
2 0.404536 0.600881 0.0871551 0.103301 0.648449 77
2 0.405559 0.604995 0.0881754 0.113067 0.522018 78
0 0.161857 0.537494 0.0176085 0.0766907 0.572564 80
2 0.286655 0.585663 0.0659842 0.0895438 0.852635 2
2 0.335295 0.501149 0.0255155 0.0334247 0.416899 42
2 0.381323 0.745713 0.147168 0.285623 0.862298 1
2 0.41495 0.493826 0.0231682 0.0318832 0.195895 74
0 0.734249 0.557047 0.0288181 0.119681 0.694671 75
2 0.404536 0.600881 0.0871551 0.103301 0.648449 77
2 0.405559 0.604995 0.0881754 0.113067 0.522018 78
0 0.161857 0.537494 0.0176085 0.0766907 0.572564 80
