2 0.277869 0.559428 0.0511362 0.0624465 0.516404 2
2 0.581299 0.582878 0.132787 0.116605 0.726031 77
0 0.066211 0.588782 0.021425 0.0992181 0.63916 80
0 0.0671056 0.588596 0.0285207 0.100931 0.108172 91
9 0.515379 0.450926 0.0469272 0.181933 0.692173 93
0 0.761201 0.576145 0.0285219 0.136851 0.49645 75
2 0.296279 0.698805 0.146787 0.238937 0.904616 1
0 0.763175 0.580273 0.0260322 0.133004 0.776857 100
0 0.185848 0.503098 0.0223935 0.0966614 0.562928 102
2 0.277869 0.559428 0.0511362 0.0624465 0.516404 2
2 0.581299 0.582878 0.132787 0.116605 0.726031 77
0 0.066211 0.588782 0.021425 0.0992181 0.63916 80
0 0.0671056 0.588596 0.0285207 0.100931 0.108172 91
9 0.515379 0.450926 0.0469272 0.181933 0.692173 93
0 0.761201 0.576145 0.0285219 0.136851 0.49645 75
2 0.296279 0.698805 0.146787 0.238937 0.904616 1
0 0.763175 0.580273 0.0260322 0.133004 0.776857 100
0 0.185848 0.503098 0.0223935 0.0966614 0.562928 102
