0 0.339717 0.721675 0.055241 0.243636 0.697169 165
0 0.210852 0.846033 0.0736613 0.303643 0.83015 170
2 0.0290328 0.815897 0.0580656 0.210239 0.773808 177
0 0.762024 0.866925 0.0987663 0.260896 0.838696 181
0 0.137681 0.602544 0.0304322 0.140685 0.501608 183
0 0.0708774 0.619537 0.030644 0.160937 0.471211 185
0 0.291654 0.715185 0.0395071 0.21455 0.51446 186
0 0.291845 0.714688 0.0443192 0.223692 0.660771 189
0 0.335033 0.721281 0.0503863 0.23734 0.654089 163
0 0.335956 0.731448 0.0482422 0.22356 0.500666 164
0 0.339717 0.721675 0.055241 0.243636 0.697169 165
0 0.210852 0.846033 0.0736613 0.303643 0.83015 170
2 0.0290328 0.815897 0.0580656 0.210239 0.773808 177
0 0.762024 0.866925 0.0987663 0.260896 0.838696 181
0 0.137681 0.602544 0.0304322 0.140685 0.501608 183
0 0.0708774 0.619537 0.030644 0.160937 0.471211 185
0 0.291654 0.715185 0.0395071 0.21455 0.51446 186
0 0.291845 0.714688 0.0443192 0.223692 0.660771 189
0 0.335033 0.721281 0.0503863 0.23734 0.654089 163
0 0.335956 0.731448 0.0482422 0.22356 0.500666 164
