2 0.607632 0.573181 0.0670783 0.115611 0.800399 1
2 0.52507 0.548125 0.0484682 0.0673455 0.820215 2
0 0.923163 0.614178 0.0326698 0.130692 0.797733 3
0 0.874359 0.610412 0.0290857 0.12581 0.783709 7
0 0.921357 0.613516 0.0330311 0.124573 0.581226 18
0 0.256391 0.548577 0.02135 0.103707 0.670664 19
0 0.750473 0.541659 0.0219853 0.105843 0.745807 5
2 0.607632 0.573181 0.0670783 0.115611 0.800399 1
2 0.52507 0.548125 0.0484682 0.0673455 0.820215 2
0 0.923163 0.614178 0.0326698 0.130692 0.797733 3
0 0.874359 0.610412 0.0290857 0.12581 0.783709 7
0 0.921357 0.613516 0.0330311 0.124573 0.581226 18
0 0.256391 0.548577 0.02135 0.103707 0.670664 19
0 0.750473 0.541659 0.0219853 0.105843 0.745807 5
