2 0.450941 0.462381 0.0301091 0.0432835 0.13144 261
2 0.408054 0.473517 0.030119 0.0555173 0.737355 210
2 0.451343 0.459962 0.0272939 0.0401428 0.587248 280
2 0.819909 0.541168 0.0449956 0.0591886 0.539452 283
2 0.765407 0.594572 0.101362 0.109033 0.863603 279
2 0.776496 0.593711 0.0773131 0.105691 0.792647 253
2 0.450941 0.462381 0.0301091 0.0432835 0.13144 261
2 0.408054 0.473517 0.030119 0.0555173 0.737355 210
2 0.451343 0.459962 0.0272939 0.0401428 0.587248 280
2 0.819909 0.541168 0.0449956 0.0591886 0.539452 283
2 0.765407 0.594572 0.101362 0.109033 0.863603 279
2 0.776496 0.593711 0.0773131 0.105691 0.792647 253
