2 0.373393 0.543412 0.0420207 0.0460883 0.469465 2
0 0.10911 0.607814 0.0251179 0.110254 0.588565 80
0 0.107273 0.60665 0.0218001 0.108364 0.279358 91
9 0.720569 0.45451 0.0969283 0.341183 0.916216 93
2 0.486177 0.690699 0.190019 0.234574 0.927508 1
2 0.549246 0.547676 0.0583534 0.0628265 0.780682 109
0 0.934798 0.673284 0.0539266 0.219909 0.610803 115
2 0.481673 0.494293 0.0276171 0.0371623 0.537934 116
2 0.373436 0.544579 0.0394363 0.0500539 0.728116 113
0 0.0276157 0.612726 0.0259586 0.104299 0.585332 117
0 0.931764 0.658511 0.0540296 0.255351 0.197218 100
2 0.373393 0.543412 0.0420207 0.0460883 0.469465 2
0 0.10911 0.607814 0.0251179 0.110254 0.588565 80
0 0.107273 0.60665 0.0218001 0.108364 0.279358 91
9 0.720569 0.45451 0.0969283 0.341183 0.916216 93
2 0.486177 0.690699 0.190019 0.234574 0.927508 1
2 0.549246 0.547676 0.0583534 0.0628265 0.780682 109
0 0.934798 0.673284 0.0539266 0.219909 0.610803 115
2 0.481673 0.494293 0.0276171 0.0371623 0.537934 116
2 0.373436 0.544579 0.0394363 0.0500539 0.728116 113
0 0.0276157 0.612726 0.0259586 0.104299 0.585332 117
0 0.931764 0.658511 0.0540296 0.255351 0.197218 100
