0 0.321891 0.849475 0.0640727 0.30105 0.817589 211
2 0.617778 0.514934 0.0362875 0.0554245 0.401851 219
2 0.585136 0.516735 0.0621645 0.0728884 0.819206 220
2 0.711311 0.593768 0.104156 0.1094 0.870327 224
0 0.323672 0.881784 0.049869 0.235107 0.127984 228
2 0.876178 0.624177 0.129913 0.125114 0.907432 229
2 0.614634 0.516019 0.0435711 0.0641563 0.209752 233
24 0.322247 0.826686 0.0351669 0.115705 0.23383 235
2 0.488781 0.475729 0.0295882 0.0351289 0.689399 236
2 0.422141 0.510429 0.0455925 0.0764837 0.765606 210
2 0.421434 0.505048 0.048982 0.0916321 0.711653 218
0 0.30922 0.598451 0.0273273 0.123239 0.798977 208
2 0.593415 0.516158 0.0801469 0.0706451 0.649878 239
2 0.489259 0.475284 0.0340128 0.0385279 0.319721 237
1 0.371448 0.684402 0.0362706 0.103758 0.544112 241
0 0.321891 0.849475 0.0640727 0.30105 0.817589 211
2 0.617778 0.514934 0.0362875 0.0554245 0.401851 219
2 0.585136 0.516735 0.0621645 0.0728884 0.819206 220
2 0.711311 0.593768 0.104156 0.1094 0.870327 224
0 0.323672 0.881784 0.049869 0.235107 0.127984 228
2 0.876178 0.624177 0.129913 0.125114 0.907432 229
2 0.614634 0.516019 0.0435711 0.0641563 0.209752 233
24 0.322247 0.826686 0.0351669 0.115705 0.23383 235
2 0.488781 0.475729 0.0295882 0.0351289 0.689399 236
2 0.422141 0.510429 0.0455925 0.0764837 0.765606 210
2 0.421434 0.505048 0.048982 0.0916321 0.711653 218
0 0.30922 0.598451 0.0273273 0.123239 0.798977 208
2 0.593415 0.516158 0.0801469 0.0706451 0.649878 239
2 0.489259 0.475284 0.0340128 0.0385279 0.319721 237
1 0.371448 0.684402 0.0362706 0.103758 0.544112 241
