2 0.321855 0.596946 0.0708543 0.0953128 0.828919 2
2 0.365823 0.507475 0.028095 0.0389595 0.412609 42
2 0.446442 0.762217 0.153338 0.299813 0.883075 1
2 0.441424 0.488195 0.0234364 0.0307274 0.435503 74
0 0.777477 0.559293 0.0213652 0.106294 0.68478 75
2 0.449945 0.596697 0.0869278 0.0700042 0.677514 77
2 0.45015 0.589987 0.0885358 0.0650534 0.706923 78
0 0.210124 0.533012 0.0161198 0.0695757 0.570914 80
2 0.321855 0.596946 0.0708543 0.0953128 0.828919 2
2 0.365823 0.507475 0.028095 0.0389595 0.412609 42
2 0.446442 0.762217 0.153338 0.299813 0.883075 1
2 0.441424 0.488195 0.0234364 0.0307274 0.435503 74
0 0.777477 0.559293 0.0213652 0.106294 0.68478 75
2 0.449945 0.596697 0.0869278 0.0700042 0.677514 77
2 0.45015 0.589987 0.0885358 0.0650534 0.706923 78
0 0.210124 0.533012 0.0161198 0.0695757 0.570914 80
