0 0.0287199 0.740025 0.0284138 0.16558 0.581078 80
0 0.011002 0.747512 0.022004 0.168174 0.406627 91
0 0.78314 0.758627 0.048235 0.214912 0.769898 129
2 0.50333 0.537697 0.0295805 0.0373498 0.776157 2
0 0.841589 0.727599 0.0426167 0.206373 0.324141 131
2 0.611732 0.560871 0.0450689 0.063775 0.533094 134
0 0.706409 0.677614 0.0266538 0.159381 0.391508 109
2 0.504207 0.541158 0.0272486 0.0355331 0.640303 136
0 0.841773 0.728 0.0463784 0.215153 0.684815 138
2 0.613869 0.566565 0.0432264 0.0575003 0.744074 139
2 0.592731 0.542356 0.0297527 0.0407854 0.612052 140
2 0.776934 0.64883 0.11615 0.122161 0.186839 141
9 0.684738 0.483371 0.0351645 0.126083 0.692084 143
2 0.787659 0.649542 0.0975231 0.117808 0.640159 144
0 0.731504 0.693351 0.0372907 0.202417 0.618843 145
0 0.719967 0.694411 0.0546279 0.208715 0.409043 148
0 0.0287199 0.740025 0.0284138 0.16558 0.581078 80
0 0.011002 0.747512 0.022004 0.168174 0.406627 91
0 0.78314 0.758627 0.048235 0.214912 0.769898 129
2 0.50333 0.537697 0.0295805 0.0373498 0.776157 2
0 0.841589 0.727599 0.0426167 0.206373 0.324141 131
2 0.611732 0.560871 0.0450689 0.063775 0.533094 134
0 0.706409 0.677614 0.0266538 0.159381 0.391508 109
2 0.504207 0.541158 0.0272486 0.0355331 0.640303 136
0 0.841773 0.728 0.0463784 0.215153 0.684815 138
2 0.613869 0.566565 0.0432264 0.0575003 0.744074 139
2 0.592731 0.542356 0.0297527 0.0407854 0.612052 140
2 0.776934 0.64883 0.11615 0.122161 0.186839 141
9 0.684738 0.483371 0.0351645 0.126083 0.692084 143
2 0.787659 0.649542 0.0975231 0.117808 0.640159 144
0 0.731504 0.693351 0.0372907 0.202417 0.618843 145
0 0.719967 0.694411 0.0546279 0.208715 0.409043 148
