2 0.334918 0.557475 0.0448476 0.0561842 0.759626 2
2 0.814575 0.57938 0.164661 0.123516 0.678508 77
0 0.0913505 0.604821 0.0215684 0.103688 0.510715 80
0 0.0931148 0.603651 0.0244829 0.107563 0.576718 91
9 0.609162 0.456302 0.0720484 0.254951 0.774931 93
2 0.391505 0.698342 0.170934 0.239277 0.898993 1
9 0.962146 0.389758 0.0281399 0.0974262 0.620105 103
2 0.497356 0.54163 0.0438494 0.0619185 0.690681 109
2 0.334651 0.557685 0.044281 0.0642523 0.242762 113
2 0.334918 0.557475 0.0448476 0.0561842 0.759626 2
2 0.814575 0.57938 0.164661 0.123516 0.678508 77
0 0.0913505 0.604821 0.0215684 0.103688 0.510715 80
0 0.0931148 0.603651 0.0244829 0.107563 0.576718 91
9 0.609162 0.456302 0.0720484 0.254951 0.774931 93
2 0.391505 0.698342 0.170934 0.239277 0.898993 1
9 0.962146 0.389758 0.0281399 0.0974262 0.620105 103
2 0.497356 0.54163 0.0438494 0.0619185 0.690681 109
2 0.334651 0.557685 0.044281 0.0642523 0.242762 113
