2 0.304828 0.595627 0.0699071 0.0972118 0.804683 2
2 0.351238 0.505708 0.0258291 0.0355789 0.33584 42
2 0.418361 0.758531 0.152364 0.293256 0.887347 1
2 0.4268 0.493176 0.0230172 0.0309041 0.445296 74
0 0.758091 0.559677 0.0215436 0.107074 0.71255 75
2 0.428066 0.588819 0.0849938 0.0639912 0.590795 77
2 0.426665 0.595176 0.083766 0.0725727 0.65139 78
0 0.187767 0.540993 0.0156634 0.0713761 0.471249 80
2 0.304828 0.595627 0.0699071 0.0972118 0.804683 2
2 0.351238 0.505708 0.0258291 0.0355789 0.33584 42
2 0.418361 0.758531 0.152364 0.293256 0.887347 1
2 0.4268 0.493176 0.0230172 0.0309041 0.445296 74
0 0.758091 0.559677 0.0215436 0.107074 0.71255 75
2 0.428066 0.588819 0.0849938 0.0639912 0.590795 77
2 0.426665 0.595176 0.083766 0.0725727 0.65139 78
0 0.187767 0.540993 0.0156634 0.0713761 0.471249 80
