2 0.463113 0.455537 0.0279799 0.0399127 0.414116 261
2 0.418079 0.469807 0.0308641 0.0532767 0.617549 210
2 0.461651 0.454091 0.029091 0.0413048 0.606272 280
2 0.839557 0.541816 0.0489263 0.0654092 0.803432 283
2 0.783406 0.596536 0.106382 0.113516 0.921123 279
0 0.405509 0.592786 0.0266921 0.133664 0.216601 255
2 0.702454 0.553777 0.0749469 0.090916 0.783948 236
2 0.418583 0.466476 0.0326524 0.0572582 0.654531 290
0 0.390174 0.592751 0.0569718 0.138112 0.13076 254
2 0.463113 0.455537 0.0279799 0.0399127 0.414116 261
2 0.418079 0.469807 0.0308641 0.0532767 0.617549 210
2 0.461651 0.454091 0.029091 0.0413048 0.606272 280
2 0.839557 0.541816 0.0489263 0.0654092 0.803432 283
2 0.783406 0.596536 0.106382 0.113516 0.921123 279
0 0.405509 0.592786 0.0266921 0.133664 0.216601 255
2 0.702454 0.553777 0.0749469 0.090916 0.783948 236
2 0.418583 0.466476 0.0326524 0.0572582 0.654531 290
0 0.390174 0.592751 0.0569718 0.138112 0.13076 254
