0 0.147362 0.934908 0.0786959 0.126818 0.883348 181
0 0.735162 0.72531 0.05773 0.224542 0.670376 195
72 0.391683 0.646938 0.101597 0.35264 0.530935 196
0 0.147362 0.934908 0.0786959 0.126818 0.883348 181
0 0.735162 0.72531 0.05773 0.224542 0.670376 195
72 0.391683 0.646938 0.101597 0.35264 0.530935 196
