0 0.085258 0.874295 0.0869083 0.242209 0.787596 211
2 0.531774 0.529378 0.0747401 0.0846809 0.843474 220
2 0.662788 0.629174 0.115889 0.135597 0.84444 224
2 0.806988 0.638539 0.139854 0.140651 0.902954 229
24 0.0797973 0.920568 0.0506574 0.14419 0.581116 235
2 0.416797 0.479575 0.0361385 0.0446136 0.657103 236
2 0.315685 0.496005 0.045746 0.0830463 0.171564 210
2 0.317607 0.500804 0.0413443 0.0722242 0.706953 218
0 0.164649 0.623868 0.038571 0.1372 0.809753 208
1 0.230031 0.725825 0.0418581 0.126451 0.682766 241
2 0.415691 0.481738 0.0357983 0.0402039 0.708638 237
0 0.0865529 0.870928 0.0785809 0.215797 0.515322 228
0 0.962323 0.624377 0.0318991 0.176568 0.657948 246
0 0.085258 0.874295 0.0869083 0.242209 0.787596 211
2 0.531774 0.529378 0.0747401 0.0846809 0.843474 220
2 0.662788 0.629174 0.115889 0.135597 0.84444 224
2 0.806988 0.638539 0.139854 0.140651 0.902954 229
24 0.0797973 0.920568 0.0506574 0.14419 0.581116 235
2 0.416797 0.479575 0.0361385 0.0446136 0.657103 236
2 0.315685 0.496005 0.045746 0.0830463 0.171564 210
2 0.317607 0.500804 0.0413443 0.0722242 0.706953 218
0 0.164649 0.623868 0.038571 0.1372 0.809753 208
1 0.230031 0.725825 0.0418581 0.126451 0.682766 241
2 0.415691 0.481738 0.0357983 0.0402039 0.708638 237
0 0.0865529 0.870928 0.0785809 0.215797 0.515322 228
0 0.962323 0.624377 0.0318991 0.176568 0.657948 246
