2 0.472437 0.616111 0.0752194 0.103221 0.844117 2
0 0.0824219 0.605775 0.0276014 0.135091 0.688115 19
0 0.910209 0.661703 0.0410441 0.181898 0.857589 5
0 0.112639 0.606311 0.0313079 0.134196 0.715141 23
0 0.889218 0.556153 0.0212177 0.0942726 0.633154 32
2 0.48911 0.518488 0.0383499 0.0555222 0.432869 42
9 0.240794 0.445477 0.0169558 0.0656222 0.644915 44
0 0.195285 0.591979 0.02326 0.108255 0.692901 46
2 0.61644 0.704116 0.130263 0.263455 0.840876 1
0 0.175433 0.577809 0.0204554 0.122856 0.567817 49
0 0.0146204 0.582393 0.0292408 0.194279 0.310256 50
0 0.111793 0.609059 0.0291526 0.140018 0.33593 52
2 0.488985 0.519282 0.0376716 0.0501954 0.561975 55
0 0.196434 0.582643 0.0236804 0.119771 0.64343 56
0 0.177346 0.577583 0.0218762 0.120293 0.547622 57
2 0.472437 0.616111 0.0752194 0.103221 0.844117 2
0 0.0824219 0.605775 0.0276014 0.135091 0.688115 19
0 0.910209 0.661703 0.0410441 0.181898 0.857589 5
0 0.112639 0.606311 0.0313079 0.134196 0.715141 23
0 0.889218 0.556153 0.0212177 0.0942726 0.633154 32
2 0.48911 0.518488 0.0383499 0.0555222 0.432869 42
9 0.240794 0.445477 0.0169558 0.0656222 0.644915 44
0 0.195285 0.591979 0.02326 0.108255 0.692901 46
2 0.61644 0.704116 0.130263 0.263455 0.840876 1
0 0.175433 0.577809 0.0204554 0.122856 0.567817 49
0 0.0146204 0.582393 0.0292408 0.194279 0.310256 50
0 0.111793 0.609059 0.0291526 0.140018 0.33593 52
2 0.488985 0.519282 0.0376716 0.0501954 0.561975 55
0 0.196434 0.582643 0.0236804 0.119771 0.64343 56
0 0.177346 0.577583 0.0218762 0.120293 0.547622 57
