2 0.716871 0.650028 0.164736 0.199731 0.882581 220
2 0.967095 0.80212 0.0646596 0.213769 0.863171 229
2 0.53482 0.549864 0.0660655 0.0789532 0.823934 253
0 0.148398 0.576892 0.0266413 0.128669 0.585601 254
0 0.1476 0.569061 0.0292924 0.139918 0.216096 255
2 0.29578 0.476793 0.0272628 0.0335797 0.589015 261
2 0.472561 0.522288 0.0631664 0.0662571 0.811833 236
0 0.765632 0.569865 0.022296 0.101129 0.595749 265
2 0.253711 0.493299 0.0356654 0.060605 0.772005 210
2 0.716871 0.650028 0.164736 0.199731 0.882581 220
2 0.967095 0.80212 0.0646596 0.213769 0.863171 229
2 0.53482 0.549864 0.0660655 0.0789532 0.823934 253
0 0.148398 0.576892 0.0266413 0.128669 0.585601 254
0 0.1476 0.569061 0.0292924 0.139918 0.216096 255
2 0.29578 0.476793 0.0272628 0.0335797 0.589015 261
2 0.472561 0.522288 0.0631664 0.0662571 0.811833 236
0 0.765632 0.569865 0.022296 0.101129 0.595749 265
2 0.253711 0.493299 0.0356654 0.060605 0.772005 210
