2 0.521777 0.586861 0.0676945 0.09278 0.846454 2
0 0.174172 0.563539 0.0301657 0.136574 0.713168 19
0 0.870815 0.604165 0.0311256 0.15517 0.768513 5
0 0.201695 0.56416 0.0237636 0.128791 0.224266 23
0 0.900929 0.536837 0.0195102 0.0877052 0.568108 12
0 0.900426 0.541047 0.0202044 0.0879562 0.640397 32
0 0.201302 0.571954 0.0244616 0.123232 0.665098 35
0 0.176462 0.568635 0.0262952 0.130902 0.393237 36
2 0.560146 0.513718 0.065569 0.0573678 0.65023 42
2 0.521777 0.586861 0.0676945 0.09278 0.846454 2
0 0.174172 0.563539 0.0301657 0.136574 0.713168 19
0 0.870815 0.604165 0.0311256 0.15517 0.768513 5
0 0.201695 0.56416 0.0237636 0.128791 0.224266 23
0 0.900929 0.536837 0.0195102 0.0877052 0.568108 12
0 0.900426 0.541047 0.0202044 0.0879562 0.640397 32
0 0.201302 0.571954 0.0244616 0.123232 0.665098 35
0 0.176462 0.568635 0.0262952 0.130902 0.393237 36
2 0.560146 0.513718 0.065569 0.0573678 0.65023 42
