0 0.0804778 0.697645 0.0271654 0.144328 0.548639 80
0 0.0564696 0.70903 0.0331191 0.161412 0.530134 91
2 0.604387 0.532268 0.0445655 0.0572212 0.610684 116
0 0.770218 0.694569 0.0515502 0.179401 0.68717 129
2 0.501161 0.525896 0.0301531 0.0422409 0.631008 2
0 0.844755 0.663939 0.0469938 0.197797 0.397726 131
0 0.773704 0.693246 0.0451677 0.190124 0.345964 133
2 0.60163 0.529369 0.0495767 0.0598681 0.555297 134
0 0.72031 0.627866 0.0375125 0.211599 0.501447 109
2 0.500719 0.52645 0.0291755 0.03652 0.698491 136
0 0.844331 0.660968 0.0404789 0.18262 0.669516 138
2 0.607077 0.536033 0.040587 0.0509902 0.699273 139
2 0.590038 0.515605 0.027402 0.0385403 0.430018 140
2 0.781774 0.615855 0.0974697 0.112243 0.726471 141
0 0.0804778 0.697645 0.0271654 0.144328 0.548639 80
0 0.0564696 0.70903 0.0331191 0.161412 0.530134 91
2 0.604387 0.532268 0.0445655 0.0572212 0.610684 116
0 0.770218 0.694569 0.0515502 0.179401 0.68717 129
2 0.501161 0.525896 0.0301531 0.0422409 0.631008 2
0 0.844755 0.663939 0.0469938 0.197797 0.397726 131
0 0.773704 0.693246 0.0451677 0.190124 0.345964 133
2 0.60163 0.529369 0.0495767 0.0598681 0.555297 134
0 0.72031 0.627866 0.0375125 0.211599 0.501447 109
2 0.500719 0.52645 0.0291755 0.03652 0.698491 136
0 0.844331 0.660968 0.0404789 0.18262 0.669516 138
2 0.607077 0.536033 0.040587 0.0509902 0.699273 139
2 0.590038 0.515605 0.027402 0.0385403 0.430018 140
2 0.781774 0.615855 0.0974697 0.112243 0.726471 141
