2 0.383283 0.542992 0.0395193 0.0493699 0.775508 2
0 0.113765 0.613448 0.024875 0.108375 0.539287 80
0 0.112568 0.61004 0.0224571 0.110785 0.398343 91
9 0.752824 0.453075 0.104757 0.373662 0.871158 93
2 0.512783 0.692028 0.195106 0.236404 0.935477 1
2 0.562914 0.549708 0.0609006 0.0670974 0.725567 109
0 0.97423 0.676151 0.0511183 0.225974 0.811689 115
2 0.489678 0.494558 0.0261791 0.0370443 0.565181 116
2 0.382207 0.540088 0.0406927 0.052709 0.406776 113
0 0.032348 0.616409 0.025198 0.107484 0.637036 117
0 0.936162 0.594624 0.0317279 0.171697 0.717043 119
2 0.383283 0.542992 0.0395193 0.0493699 0.775508 2
0 0.113765 0.613448 0.024875 0.108375 0.539287 80
0 0.112568 0.61004 0.0224571 0.110785 0.398343 91
9 0.752824 0.453075 0.104757 0.373662 0.871158 93
2 0.512783 0.692028 0.195106 0.236404 0.935477 1
2 0.562914 0.549708 0.0609006 0.0670974 0.725567 109
0 0.97423 0.676151 0.0511183 0.225974 0.811689 115
2 0.489678 0.494558 0.0261791 0.0370443 0.565181 116
2 0.382207 0.540088 0.0406927 0.052709 0.406776 113
0 0.032348 0.616409 0.025198 0.107484 0.637036 117
0 0.936162 0.594624 0.0317279 0.171697 0.717043 119
