0 0.325959 0.927979 0.0567294 0.1429 0.681103 129
2 0.498434 0.701009 0.191328 0.179441 0.892659 141
0 0.293825 0.798572 0.0484948 0.108778 0.204357 131
0 0.270626 0.901679 0.0718601 0.196604 0.689016 151
0 0.423714 0.554598 0.0341393 0.123179 0.549354 156
0 0.169443 0.811825 0.0713063 0.291417 0.300362 145
9 0.265502 0.458905 0.0632469 0.230609 0.877421 160
0 0.459156 0.55047 0.0280617 0.114192 0.128243 162
0 0.814147 0.641702 0.0410972 0.188182 0.78346 163
0 0.814824 0.642695 0.0491295 0.198707 0.636802 164
0 0.746912 0.655641 0.0354251 0.169473 0.586451 165
0 0.173337 0.825875 0.0810786 0.319356 0.555232 166
2 0.342585 0.599096 0.0776894 0.104597 0.817563 139
0 0.527736 0.578005 0.0271655 0.118396 0.583391 169
0 0.712767 0.671143 0.0393857 0.226426 0.655932 170
0 0.325959 0.927979 0.0567294 0.1429 0.681103 129
2 0.498434 0.701009 0.191328 0.179441 0.892659 141
0 0.293825 0.798572 0.0484948 0.108778 0.204357 131
0 0.270626 0.901679 0.0718601 0.196604 0.689016 151
0 0.423714 0.554598 0.0341393 0.123179 0.549354 156
0 0.169443 0.811825 0.0713063 0.291417 0.300362 145
9 0.265502 0.458905 0.0632469 0.230609 0.877421 160
0 0.459156 0.55047 0.0280617 0.114192 0.128243 162
0 0.814147 0.641702 0.0410972 0.188182 0.78346 163
0 0.814824 0.642695 0.0491295 0.198707 0.636802 164
0 0.746912 0.655641 0.0354251 0.169473 0.586451 165
0 0.173337 0.825875 0.0810786 0.319356 0.555232 166
2 0.342585 0.599096 0.0776894 0.104597 0.817563 139
0 0.527736 0.578005 0.0271655 0.118396 0.583391 169
0 0.712767 0.671143 0.0393857 0.226426 0.655932 170
