0 0.0615897 0.946502 0.077099 0.105156 0.861045 181
0 0.670274 0.734583 0.0427663 0.231651 0.596059 195
72 0.324128 0.657521 0.106708 0.360151 0.402932 196
0 0.0615897 0.946502 0.077099 0.105156 0.861045 181
0 0.670274 0.734583 0.0427663 0.231651 0.596059 195
72 0.324128 0.657521 0.106708 0.360151 0.402932 196
