2 0.283551 0.583318 0.0666475 0.0906751 0.863331 2
2 0.332715 0.500694 0.0266292 0.0337876 0.542074 42
2 0.374436 0.74509 0.14436 0.28902 0.906631 1
2 0.413139 0.495098 0.0248409 0.0308063 0.466786 74
0 0.733243 0.559054 0.0279121 0.118023 0.706005 75
2 0.401393 0.599554 0.0844094 0.10163 0.725087 77
2 0.402544 0.606093 0.0843907 0.118305 0.66144 78
0 0.157388 0.540183 0.0175189 0.0774723 0.620646 80
2 0.283551 0.583318 0.0666475 0.0906751 0.863331 2
2 0.332715 0.500694 0.0266292 0.0337876 0.542074 42
2 0.374436 0.74509 0.14436 0.28902 0.906631 1
2 0.413139 0.495098 0.0248409 0.0308063 0.466786 74
0 0.733243 0.559054 0.0279121 0.118023 0.706005 75
2 0.401393 0.599554 0.0844094 0.10163 0.725087 77
2 0.402544 0.606093 0.0843907 0.118305 0.66144 78
0 0.157388 0.540183 0.0175189 0.0774723 0.620646 80
