2 0.241255 0.308979 0.037169 0.0716665 0.554899 212
2 0.217612 0.898244 0.259058 0.19437 0.693997 194
2 0.643768 0.780701 0.153487 0.239447 0.678161 199
2 0.270423 0.30122 0.0294391 0.0296958 0.460407 217
2 0.15883 0.320295 0.0626507 0.0919941 0.386584 220
2 0.247182 0.311143 0.0495043 0.0722596 0.303773 202
2 0.202569 0.295642 0.0539947 0.0955289 0.312963 225
7 0.593563 0.343064 0.104319 0.168686 0.448102 233
2 0.34815 0.508725 0.129375 0.140205 0.467461 237
2 0.305599 0.697501 0.152517 0.246534 0.63428 250
2 0.20317 0.32042 0.0505125 0.0763867 0.347177 254
2 0.170129 0.320242 0.0424595 0.0849143 0.193772 255
2 0.599037 0.486224 0.104543 0.150331 0.166722 219
2 0.0740585 0.36854 0.0645024 0.115224 0.868904 257
2 0.147437 0.327601 0.0398674 0.0961212 0.240465 234
2 0.204236 0.312912 0.0530467 0.0837945 0.218771 228
2 0.287239 0.792766 0.177249 0.286337 0.770337 263
2 0.361052 0.607895 0.131814 0.193661 0.815379 266
2 0.14603 0.333938 0.0411095 0.0957656 0.484102 258
2 0.305742 0.673451 0.152925 0.197 0.610565 267
2 0.682171 0.890581 0.243234 0.204563 0.617696 269
2 0.0190978 0.430893 0.0376975 0.135082 0.776982 270
2 0.637905 0.423746 0.0842234 0.0967629 0.688716 271
2 0.307979 0.653769 0.147582 0.157711 0.571189 265
2 0.029656 0.417921 0.0586113 0.133092 0.504241 272
2 0.0309848 0.389033 0.0612997 0.145481 0.565059 273
2 0.24559 0.895246 0.203168 0.193461 0.828777 275
2 0.628731 0.423869 0.100738 0.0955216 0.690165 277
2 0.112636 0.340177 0.0631493 0.10806 0.576022 248
2 0.622922 0.605026 0.159155 0.289488 0.783376 223
2 0.703678 0.892416 0.270011 0.205951 0.624577 280
2 0.682212 0.827669 0.244298 0.327782 0.609063 281
