2 0.584012 0.498891 0.104759 0.166131 0.865418 1
2 0.271581 0.825694 0.185551 0.300369 0.872849 2
2 0.0670509 0.374517 0.0917946 0.132409 0.827492 3
2 0.355126 0.761218 0.136712 0.239279 0.856843 4
2 0.65275 0.704728 0.158532 0.283009 0.826573 5
2 0.381982 0.585336 0.136762 0.200901 0.853167 7
2 0.385689 0.451023 0.0978119 0.104829 0.71765 8
2 0.641356 0.589766 0.122342 0.173455 0.70078 9
2 0.192313 0.312401 0.0522705 0.0844664 0.603819 10
2 0.626379 0.443418 0.087948 0.128288 0.560714 11
2 0.742227 0.913972 0.277132 0.156656 0.689954 12
5 0.128728 0.318168 0.0822876 0.14796 0.339403 13
5 0.593879 0.271628 0.0790861 0.121963 0.484263 16
2 0.642551 0.582521 0.128823 0.155281 0.487675 17
2 0.63957 0.567112 0.12712 0.122942 0.571892 19
