2 0.236369 0.308565 0.0390648 0.0748076 0.303833 212
2 0.232533 0.874318 0.247833 0.237313 0.747148 194
2 0.671817 0.815675 0.221465 0.358278 0.547644 199
2 0.26428 0.30314 0.0283353 0.0340938 0.291125 217
2 0.147582 0.3237 0.0712461 0.094245 0.587361 220
2 0.239621 0.308758 0.0465544 0.0705529 0.25511 202
7 0.194891 0.302275 0.0542247 0.111062 0.252101 225
2 0.622856 0.551417 0.150057 0.187871 0.163978 227
5 0.592528 0.344854 0.099504 0.188045 0.47998 233
2 0.356322 0.473607 0.129317 0.158504 0.451649 237
2 0.319056 0.651663 0.139843 0.199458 0.63406 250
2 0.194016 0.31549 0.0527685 0.0887142 0.478597 254
2 0.159677 0.320953 0.0484471 0.0879216 0.359536 255
2 0.593887 0.478792 0.102005 0.15166 0.10553 219
2 0.0567527 0.37816 0.0741524 0.119089 0.831442 257
2 0.134192 0.332058 0.0462408 0.109442 0.492596 234
2 0.193813 0.302975 0.0546875 0.110964 0.320032 228
2 0.36118 0.585945 0.133473 0.193331 0.748679 261
2 0.29595 0.760866 0.176112 0.275976 0.732515 263
2 0.372585 0.586543 0.116211 0.192954 0.77767 266
2 0.0963924 0.348228 0.0668842 0.111531 0.726377 260
2 0.133346 0.339317 0.0441261 0.096979 0.536752 258
2 0.319823 0.625802 0.130288 0.146725 0.575952 267
2 0.671101 0.868165 0.221663 0.256327 0.646147 269
2 0.0223631 0.430425 0.0428449 0.104187 0.565479 270
2 0.637394 0.416682 0.0764728 0.091513 0.676217 271
2 0.618079 0.579853 0.148954 0.279971 0.737077 223
2 0.320873 0.634461 0.135865 0.169969 0.591517 265
2 0.0218759 0.418283 0.0437518 0.127829 0.626294 272
2 0.0226383 0.405171 0.0452765 0.154156 0.706148 273
