2 0.261705 0.29567 0.0320477 0.0417749 0.177338 3
2 0.257715 0.292226 0.0343905 0.0523365 0.178411 13
2 0.19572 0.312202 0.0548213 0.0753145 0.410967 21
2 0.709296 0.799962 0.176718 0.281648 0.892925 22
2 0.739876 0.975103 0.145891 0.0392097 0.14245 23
2 0.393886 0.474274 0.106237 0.186435 0.649571 55
2 0.635957 0.67143 0.135127 0.21068 0.805091 57
2 0.226086 0.306109 0.0619613 0.076941 0.146706 52
2 0.227549 0.304498 0.0525287 0.0719194 0.261572 32
7 0.652579 0.486119 0.151776 0.303241 0.597636 16
2 0.143726 0.329167 0.0782319 0.10074 0.909446 70
2 0.284842 0.926885 0.214377 0.136368 0.809518 8
2 0.339656 0.830621 0.182268 0.277027 0.839608 26
2 0.720124 0.362416 0.0739715 0.115211 0.638362 74
2 0.36611 0.5598 0.107827 0.157112 0.698965 80
2 0.579038 0.397353 0.0466541 0.121908 0.65718 92
2 0.369118 0.572546 0.100948 0.159458 0.666147 97
2 0.574148 0.34261 0.0690903 0.112479 0.45828 98
2 0.0471412 0.384323 0.0942825 0.160239 0.786933 99
2 0.3417 0.634618 0.13706 0.161663 0.699675 100
2 0.188312 0.310745 0.0489838 0.0775397 0.461647 53
2 0.338528 0.643078 0.13918 0.187684 0.74256 107
2 0.737149 0.977094 0.141687 0.045813 0.195827 108
2 0.431723 0.339601 0.0730225 0.122427 0.584901 110
2 0.285824 0.923372 0.191967 0.137306 0.809527 111
