2 0.58894 0.515256 0.109561 0.175379 0.849127 1
2 0.258582 0.863255 0.196861 0.257738 0.897761 2
2 0.0874672 0.361383 0.0869032 0.124619 0.790233 3
2 0.33957 0.817465 0.147064 0.257986 0.857515 4
2 0.66104 0.750054 0.166812 0.304712 0.853627 5
2 0.375586 0.615501 0.143002 0.207875 0.844081 7
2 0.384832 0.471706 0.103647 0.117469 0.542725 8
2 0.64317 0.623637 0.13669 0.189728 0.726039 9
2 0.204468 0.308275 0.0553213 0.0819525 0.468812 10
2 0.629088 0.442434 0.0869974 0.106698 0.599468 11
2 0.729167 0.946293 0.202027 0.0926454 0.287713 12
7 0.141293 0.314103 0.0805814 0.13968 0.351375 13
5 0.600351 0.271541 0.0794354 0.116034 0.511135 16
2 0.643181 0.611813 0.12921 0.164883 0.452427 17
2 0.0246629 0.408376 0.0485898 0.15006 0.793502 21
2 0.597188 0.38081 0.0834586 0.0912299 0.509797 22
2 0.630691 0.46168 0.0875838 0.141532 0.594294 23
2 0.727722 0.946343 0.186362 0.0840655 0.706957 24
