2 0.310226 0.74638 0.163034 0.253984 0.912061 110
2 0.680813 0.808868 0.162517 0.257431 0.882985 166
2 0.359045 0.645114 0.137543 0.2147 0.870554 168
2 0.258894 0.945299 0.187306 0.0932864 0.687617 178
7 0.161182 0.297012 0.087681 0.135759 0.246712 190
2 0.275668 0.300216 0.0280387 0.0336694 0.179699 140
2 0.667593 0.620873 0.139962 0.189293 0.858205 98
2 0.242793 0.308825 0.0407777 0.0634303 0.525549 200
2 0.120243 0.331063 0.0749136 0.0988673 0.749542 202
2 0.0696056 0.374048 0.086618 0.118179 0.890436 212
2 0.382946 0.507974 0.149396 0.347889 0.281213 194
2 0.360966 0.634208 0.141903 0.19611 0.437307 215
2 0.619597 0.46493 0.119392 0.211931 0.524945 199
2 0.123321 0.334236 0.0652799 0.0963702 0.809118 217
2 0.248909 0.946431 0.205081 0.0990448 0.619327 218
2 0.542739 0.357167 0.0388963 0.102957 0.573993 219
2 0.0198902 0.391349 0.0397804 0.165018 0.103985 220
2 0.0164593 0.413493 0.0329186 0.175304 0.84128 221
