2 0.316686 0.775775 0.175221 0.292111 0.873515 55
2 0.772548 0.924881 0.288684 0.141982 0.723001 16
2 0.259716 0.302122 0.0405403 0.0286718 0.325564 70
2 0.2647 0.943576 0.175428 0.0941287 0.738826 80
2 0.617515 0.44701 0.0959808 0.130267 0.51551 98
2 0.216098 0.286108 0.0524409 0.06579 0.178744 99
2 0.388675 0.441443 0.104196 0.158088 0.155323 110
2 0.636134 0.594532 0.123416 0.192035 0.839751 120
2 0.368972 0.521297 0.119989 0.177159 0.596593 123
2 0.851362 0.556901 0.132142 0.195923 0.858366 74
2 0.603303 0.394091 0.0878222 0.123611 0.654942 148
2 0.259253 0.30392 0.0392744 0.0353567 0.4242 144
2 0.022681 0.327429 0.0452262 0.106835 0.684033 157
2 0.341903 0.676403 0.143913 0.225193 0.689473 158
2 0.0899045 0.350893 0.0781448 0.114266 0.894378 156
2 0.618747 0.453996 0.0884974 0.139759 0.788606 166
2 0.679318 0.706459 0.14656 0.229617 0.864613 164
2 0.154972 0.319356 0.0598577 0.10676 0.743321 160
5 0.425736 0.301866 0.0879502 0.153425 0.582566 168
2 0.097452 0.348014 0.0949844 0.118683 0.85959 171
2 0.11458 0.336674 0.0591214 0.108037 0.565052 140
2 0.344558 0.657098 0.136106 0.202099 0.656389 173
2 0.267568 0.948055 0.16044 0.0954493 0.746968 174
