2 0.316765 0.778707 0.17557 0.292681 0.867375 55
2 0.775429 0.927739 0.28947 0.136081 0.760364 16
2 0.26007 0.302807 0.0401679 0.0287306 0.332491 70
2 0.26583 0.945012 0.170678 0.0884207 0.742522 80
2 0.617094 0.446466 0.0940547 0.129049 0.413997 98
2 0.217138 0.284529 0.0513388 0.06225 0.203749 99
2 0.388483 0.442286 0.104097 0.148135 0.199311 110
2 0.636344 0.595779 0.122559 0.192974 0.826019 120
2 0.370694 0.521162 0.116125 0.176604 0.605358 123
2 0.852193 0.558019 0.132995 0.196647 0.859058 74
2 0.603319 0.394936 0.0879546 0.124877 0.626159 148
2 0.259498 0.304163 0.0390357 0.0352824 0.422006 144
2 0.0232411 0.327027 0.046264 0.106427 0.709144 157
2 0.340359 0.679304 0.14651 0.227115 0.656866 158
2 0.0903441 0.350302 0.0777487 0.114683 0.90787 156
2 0.618557 0.454377 0.0882495 0.139764 0.797173 166
2 0.678813 0.707998 0.145467 0.230189 0.872103 164
2 0.155926 0.320001 0.0594995 0.106416 0.702702 160
5 0.425553 0.30188 0.0877649 0.153147 0.563036 168
2 0.094889 0.346083 0.087988 0.117828 0.560945 171
2 0.114316 0.335923 0.0617691 0.107526 0.513354 140
2 0.343742 0.651877 0.136571 0.192055 0.570189 173
2 0.2668 0.950805 0.163292 0.0917587 0.754052 174
