2 0.277433 0.305319 0.0448302 0.0386631 0.31766 220
2 0.277585 0.301418 0.043206 0.0349008 0.312982 272
2 0.210211 0.308834 0.0476059 0.0783715 0.425151 298
2 0.427747 0.438043 0.0821845 0.143616 0.471946 304
2 0.196554 0.311343 0.0743636 0.0803522 0.253408 307
2 0.231115 0.950418 0.229869 0.0869626 0.575325 350
2 0.285412 0.836092 0.198597 0.298249 0.652054 306
2 0.375286 0.434164 0.103346 0.113903 0.724374 353
2 0.175576 0.311619 0.0562286 0.0811492 0.318661 356
2 0.277283 0.31225 0.0448369 0.0482178 0.224743 362
2 0.618433 0.456467 0.105389 0.160717 0.529692 365
2 0.240261 0.302813 0.0336639 0.0649409 0.214573 371
2 0.64611 0.519027 0.119209 0.16451 0.490078 376
2 0.37347 0.451862 0.10576 0.161249 0.54134 392
2 0.18954 0.313659 0.0811143 0.0876007 0.20093 345
2 0.371281 0.677017 0.141128 0.226533 0.804549 399
2 0.221305 0.30312 0.0712511 0.0717169 0.151215 328
2 0.377819 0.566807 0.133979 0.175732 0.622174 352
2 0.653159 0.517926 0.0997487 0.164912 0.587951 402
2 0.433719 0.440573 0.0714255 0.141272 0.64473 404
7 0.0777909 0.318198 0.0956762 0.209175 0.829481 395
2 0.285084 0.810208 0.208391 0.248369 0.653181 405
2 0.13685 0.333834 0.0348789 0.108434 0.750846 369
2 0.719929 0.911587 0.194877 0.172072 0.757246 233
2 0.737565 0.91287 0.229203 0.167134 0.823568 407
