2 0.269904 0.301132 0.0300817 0.0445168 0.205825 220
2 0.638922 0.682579 0.14419 0.249132 0.819481 233
2 0.256124 0.297011 0.0398588 0.0585843 0.260401 272
2 0.252133 0.293444 0.0332271 0.057671 0.197515 290
2 0.187232 0.315225 0.050345 0.090797 0.65581 298
2 0.399733 0.379404 0.087601 0.133129 0.468366 304
2 0.273961 0.887837 0.200939 0.205999 0.870294 288
2 0.0673885 0.359283 0.0864546 0.113263 0.511946 340
2 0.114188 0.343204 0.0527014 0.100948 0.300716 345
2 0.158906 0.317906 0.083398 0.0967762 0.166128 307
2 0.332792 0.66176 0.177889 0.30773 0.615328 350
2 0.368948 0.511504 0.127703 0.154192 0.454348 306
2 0.398386 0.49825 0.0954888 0.180977 0.593856 352
2 0.452738 0.378093 0.0531375 0.119568 0.629375 353
2 0.711035 0.817181 0.158933 0.199942 0.643344 354
2 0.099957 0.339029 0.0792217 0.114909 0.334984 356
2 0.712898 0.845114 0.169299 0.249967 0.875279 271
2 0.072821 0.357232 0.0756549 0.108609 0.717727 328
2 0.120191 0.353443 0.0405198 0.0767041 0.434009 361
2 0.225216 0.30673 0.042105 0.0737415 0.45796 362
2 0.616889 0.397732 0.0954922 0.0798226 0.642464 365
2 0.0202123 0.393331 0.039602 0.124788 0.506198 369
2 0.149511 0.322364 0.0555317 0.0966489 0.790303 371
2 0.0200365 0.400971 0.0395152 0.120888 0.797109 372
2 0.692655 0.947671 0.188129 0.0997533 0.742484 374
2 0.59669 0.370509 0.0876413 0.113419 0.62798 376
2 0.697551 0.951537 0.186541 0.0885024 0.861697 219
2 0.712667 0.848955 0.182446 0.266944 0.192372 377
