2 0.299588 0.853085 0.188985 0.278582 0.858885 55
2 0.271098 0.302218 0.0376822 0.0286167 0.245498 70
2 0.609752 0.408005 0.0919001 0.11215 0.271217 98
2 0.232031 0.290635 0.052262 0.0633853 0.296891 99
2 0.390447 0.463723 0.0994623 0.166665 0.502462 110
2 0.339877 0.604951 0.122563 0.123368 0.647971 123
2 0.884972 0.615019 0.148391 0.216991 0.841377 74
2 0.607445 0.412198 0.087875 0.12742 0.695862 148
2 0.0433613 0.319206 0.0679139 0.104364 0.728944 157
2 0.323886 0.751678 0.148284 0.169307 0.138969 158
2 0.626836 0.479305 0.0962602 0.149391 0.779157 166
2 0.68882 0.78576 0.161742 0.247868 0.883444 164
7 0.419454 0.351495 0.0968888 0.236495 0.528449 168
2 0.324043 0.717209 0.157549 0.19469 0.591176 173
2 0.324064 0.726405 0.154633 0.223063 0.67696 177
2 0.367147 0.560615 0.114076 0.191301 0.718542 178
2 0.621409 0.465177 0.0986812 0.201978 0.200339 180
2 0.125605 0.330198 0.0845604 0.11002 0.848791 171
2 0.176573 0.313113 0.0585233 0.100196 0.667581 150
2 0.147782 0.324194 0.0453537 0.100073 0.11956 140
2 0.640931 0.643255 0.124805 0.208061 0.837014 120
2 0.123762 0.333934 0.0763334 0.106064 0.855379 156
