2 0.221731 0.310836 0.0354648 0.0721096 0.361785 220
2 0.252668 0.301629 0.0393614 0.0665142 0.212256 225
7 0.61095 0.399881 0.115908 0.197157 0.525662 233
2 0.291904 0.696422 0.153352 0.189325 0.39607 237
2 0.61843 0.622428 0.136103 0.19647 0.883108 219
2 0.300766 0.85826 0.182679 0.272275 0.845085 266
2 0.116731 0.347206 0.0707414 0.106391 0.877842 270
2 0.143872 0.325562 0.0752811 0.112297 0.513684 272
2 0.659302 0.524902 0.101568 0.139963 0.59974 277
2 0.672515 0.821447 0.216069 0.329492 0.825209 285
2 0.194968 0.310392 0.0535717 0.0861888 0.397484 283
2 0.369891 0.53661 0.116955 0.166762 0.653985 288
2 0.146069 0.32286 0.0678906 0.107098 0.54305 290
2 0.660484 0.540226 0.103722 0.169095 0.728701 271
2 0.190928 0.310985 0.0466215 0.0842582 0.479242 248
2 0.344818 0.572404 0.117027 0.109207 0.607571 297
2 0.0402403 0.379143 0.0777916 0.121572 0.843424 298
2 0.291331 0.704772 0.162767 0.21028 0.71452 302
2 0.211331 0.935159 0.212703 0.110886 0.776968 261
2 0.37452 0.703714 0.0879738 0.220152 0.386841 265
2 0.433327 0.326621 0.100761 0.105828 0.539078 304
2 0.387239 0.442982 0.117846 0.226317 0.617164 306
2 0.0124619 0.420974 0.0249238 0.167479 0.766936 307
2 0.219905 0.940808 0.199487 0.115409 0.615331 267
