2 0.251815 0.309104 0.0448739 0.0505321 0.536546 220
2 0.687479 0.834729 0.183958 0.292916 0.858058 233
2 0.254401 0.301117 0.0418769 0.0428043 0.404127 272
2 0.197188 0.311573 0.0703454 0.0903712 0.37802 298
2 0.441271 0.40638 0.0592327 0.13553 0.504201 304
2 0.184114 0.313357 0.0945941 0.0950899 0.154682 307
2 0.280862 0.835799 0.222753 0.305156 0.634697 350
2 0.319611 0.707892 0.168564 0.299318 0.623378 306
2 0.389176 0.41011 0.10112 0.13193 0.411407 353
2 0.134201 0.325828 0.0584478 0.0882726 0.698792 356
2 0.254039 0.311498 0.0515871 0.0596472 0.147828 362
2 0.607613 0.409229 0.0944202 0.119612 0.543848 365
2 0.0865165 0.36114 0.0612409 0.12329 0.658911 369
2 0.202093 0.308977 0.0557132 0.0798938 0.39682 371
2 0.0885274 0.350974 0.0624795 0.111557 0.615594 372
2 0.635653 0.450524 0.100306 0.107309 0.527978 376
2 0.765994 0.982269 0.148335 0.0340052 0.314983 388
2 0.385914 0.418907 0.0975424 0.144735 0.674469 392
2 0.768404 0.979116 0.148884 0.0345825 0.235987 271
2 0.149626 0.321671 0.0936666 0.0942399 0.403034 345
7 0.0323461 0.353599 0.0646923 0.237382 0.757097 395
2 0.0820897 0.365873 0.0521825 0.116923 0.625922 387
2 0.033855 0.356255 0.0643013 0.233417 0.418836 397
2 0.383025 0.595209 0.121031 0.192309 0.766551 399
2 0.135424 0.322872 0.0647305 0.093906 0.525932 328
