2 0.278824 0.302095 0.0252703 0.0285381 0.289065 212
2 0.205786 0.313527 0.0349752 0.08047 0.253374 220
2 0.241648 0.306152 0.0471203 0.0732524 0.261453 225
7 0.606324 0.368489 0.109157 0.168975 0.366477 233
2 0.304775 0.659399 0.152161 0.229671 0.631573 237
2 0.61512 0.58129 0.126143 0.186676 0.808772 219
2 0.155675 0.332609 0.0247291 0.0781414 0.138836 257
2 0.238566 0.310819 0.052397 0.0792864 0.24355 228
2 0.238134 0.952413 0.197033 0.090734 0.141674 263
2 0.324221 0.780813 0.159449 0.251049 0.822805 266
2 0.22131 0.938546 0.191388 0.114514 0.145656 267
2 0.0922104 0.363337 0.0801194 0.113881 0.866677 270
2 0.241544 0.869233 0.197918 0.184062 0.166069 265
2 0.119106 0.340633 0.0679238 0.0974197 0.3086 272
2 0.110065 0.347399 0.0883304 0.0987204 0.254816 273
2 0.654231 0.488307 0.0994262 0.115728 0.418015 277
2 0.244567 0.885928 0.197595 0.217131 0.790256 261
2 0.658775 0.770542 0.206837 0.34477 0.792608 285
2 0.177542 0.317604 0.0496136 0.0928114 0.469423 283
2 0.372368 0.511464 0.114429 0.169211 0.396504 288
2 0.124019 0.329954 0.0881791 0.111556 0.521528 290
2 0.65418 0.512319 0.102103 0.166536 0.650645 271
2 0.187417 0.315381 0.0726014 0.0891979 0.230559 248
2 0.364223 0.512328 0.126689 0.161436 0.605118 297
2 0.613597 0.57366 0.122454 0.163248 0.49799 223
2 0.0264415 0.40116 0.0527635 0.129779 0.788961 298
2 0.710281 0.971988 0.152288 0.0493205 0.587971 296
2 0.709901 0.96413 0.152822 0.0675732 0.563697 199
2 0.332541 0.64939 0.170162 0.209647 0.590072 302
2 0.70814 0.971615 0.15199 0.0567704 0.483268 303
