2 0.283174 0.298279 0.0399114 0.0342166 0.223402 220
2 0.281854 0.29615 0.0399077 0.0416282 0.118615 272
2 0.217534 0.308895 0.0486169 0.0792408 0.305023 298
2 0.434819 0.452634 0.0717787 0.146864 0.654375 304
2 0.181884 0.301824 0.0475186 0.0660883 0.126356 307
2 0.269237 0.864572 0.215636 0.247202 0.877317 306
2 0.370432 0.457828 0.106633 0.140012 0.492233 353
2 0.201062 0.308987 0.082931 0.0815817 0.409676 356
2 0.624229 0.466754 0.10627 0.158954 0.573534 365
2 0.243978 0.301283 0.0306298 0.0526525 0.104883 371
2 0.628927 0.566866 0.128101 0.136522 0.521716 376
2 0.373189 0.468359 0.112357 0.162842 0.773836 392
2 0.187266 0.308883 0.059921 0.0773676 0.300752 345
2 0.221617 0.305948 0.0423659 0.0689053 0.211852 328
2 0.368365 0.566271 0.125735 0.125212 0.148808 352
2 0.652523 0.537848 0.113475 0.174114 0.712225 402
2 0.429143 0.452502 0.0806694 0.153864 0.6423 404
7 0.0980226 0.308156 0.0910266 0.199571 0.768778 395
2 0.148986 0.327211 0.0319141 0.104683 0.585032 369
2 0.74628 0.946596 0.184267 0.106107 0.646603 233
2 0.588939 0.37777 0.0894199 0.121753 0.58883 410
2 0.0191881 0.425754 0.0380363 0.133432 0.790304 414
2 0.367871 0.588122 0.136179 0.171589 0.691931 415
2 0.359547 0.725121 0.157585 0.236472 0.852948 399
2 0.617841 0.579433 0.132019 0.113445 0.654359 416
2 0.608354 0.704818 0.131649 0.181829 0.608487 417
2 0.753405 0.942632 0.193517 0.101504 0.813025 407
