2 0.355218 0.641401 0.147822 0.246871 0.776609 55
2 0.269359 0.300325 0.0256677 0.0411343 0.199253 52
2 0.267143 0.305566 0.0208644 0.0319544 0.231814 32
7 0.704765 0.78197 0.222631 0.41486 0.475078 16
2 0.23472 0.306261 0.0523006 0.0660682 0.432932 70
2 0.295843 0.797787 0.15154 0.203338 0.899038 80
2 0.60593 0.415545 0.0800236 0.14586 0.631887 98
2 0.178138 0.307838 0.0651517 0.109704 0.392678 99
2 0.404017 0.378403 0.0832838 0.108463 0.128086 110
2 0.625484 0.513569 0.105501 0.166906 0.855198 120
2 0.390943 0.444597 0.0936954 0.109453 0.526327 123
2 0.092726 0.349246 0.0759536 0.121025 0.673493 140
2 0.796334 0.469893 0.10987 0.161302 0.825979 74
2 0.606937 0.401749 0.0777662 0.116756 0.657775 148
2 0.236071 0.29973 0.0500522 0.0532283 0.348529 144
2 0.590513 0.807414 0.0308575 0.176723 0.114615 149
2 0.0502588 0.37446 0.0778677 0.112031 0.532076 150
2 0.622611 0.525161 0.101207 0.139193 0.194287 92
2 0.0372522 0.388528 0.0745044 0.134097 0.620903 156
2 0.0342125 0.393917 0.0684249 0.131483 0.82607 157
2 0.363281 0.507009 0.111819 0.108336 0.49048 158
2 0.0433242 0.383334 0.0866154 0.121907 0.599521 160
2 0.0971016 0.348293 0.0675123 0.11304 0.610152 162
