2 0.220364 0.308804 0.051098 0.079879 0.251534 298
2 0.42989 0.464526 0.0776675 0.150543 0.617216 304
2 0.191896 0.29944 0.0451739 0.0646809 0.123252 307
2 0.259658 0.894155 0.229953 0.194357 0.830243 306
2 0.365798 0.470382 0.110534 0.138313 0.443821 353
2 0.20875 0.310191 0.0814073 0.0853099 0.605063 356
2 0.62623 0.486493 0.111154 0.185232 0.604509 365
2 0.25392 0.294058 0.0386279 0.049944 0.20622 371
2 0.624991 0.610463 0.129691 0.135237 0.570959 376
2 0.366846 0.480175 0.113626 0.165953 0.726516 392
2 0.211999 0.308319 0.0700472 0.0784311 0.360274 328
2 0.357661 0.619332 0.142294 0.175614 0.709513 352
2 0.652296 0.558553 0.11855 0.176636 0.662967 402
2 0.425355 0.460842 0.0884051 0.159645 0.687731 404
7 0.113425 0.299936 0.0882421 0.193562 0.827165 395
2 0.161103 0.329076 0.0239347 0.0899165 0.186769 369
2 0.591275 0.389435 0.0889189 0.117953 0.560223 410
2 0.0303853 0.405888 0.0607623 0.125701 0.855441 414
2 0.359985 0.631516 0.151044 0.198427 0.59569 415
2 0.35296 0.758594 0.15841 0.245022 0.809453 399
2 0.651947 0.544916 0.125396 0.152671 0.557232 416
2 0.618286 0.740297 0.147025 0.189347 0.632398 417
