2 0.322904 0.753628 0.166081 0.277153 0.870264 55
7 0.752072 0.894957 0.287924 0.194744 0.47254 16
2 0.258768 0.301481 0.0419365 0.0298057 0.284459 70
2 0.268966 0.930076 0.177828 0.131881 0.815615 80
2 0.617698 0.436807 0.0868747 0.118574 0.655692 98
7 0.21136 0.294061 0.0548558 0.0818777 0.116875 99
2 0.395766 0.434475 0.0903083 0.175812 0.471738 110
2 0.631952 0.58147 0.117072 0.186322 0.81164 120
2 0.372294 0.510625 0.114625 0.173379 0.633062 123
2 0.842276 0.544152 0.126724 0.183618 0.873775 74
2 0.598444 0.394702 0.0791321 0.119949 0.571282 148
2 0.257462 0.3033 0.0416601 0.0350315 0.193139 144
2 0.0187785 0.327802 0.0372517 0.109048 0.666598 157
2 0.350726 0.65349 0.135712 0.231125 0.599238 158
2 0.0809146 0.35525 0.0815204 0.115967 0.90037 156
2 0.617081 0.447082 0.0893077 0.135806 0.811864 166
2 0.67884 0.688574 0.146887 0.21947 0.854948 164
2 0.14642 0.321166 0.0628367 0.107044 0.666296 160
5 0.426605 0.331408 0.0900953 0.217339 0.510774 168
2 0.754553 0.896726 0.285121 0.194185 0.436258 169
2 0.145883 0.326332 0.0705271 0.108338 0.388244 150
