2 0.241135 0.305323 0.0307321 0.0656492 0.124497 220
2 0.265408 0.300207 0.0273461 0.0365778 0.302575 225
7 0.611506 0.404542 0.11622 0.187529 0.476119 233
2 0.619972 0.671459 0.153719 0.214956 0.901296 219
2 0.272513 0.907148 0.197806 0.171368 0.89678 266
2 0.140634 0.332675 0.0670661 0.0986714 0.81326 270
2 0.176202 0.317106 0.048339 0.0951129 0.280346 272
2 0.704227 0.870055 0.245607 0.244942 0.798682 285
2 0.222189 0.307324 0.0682701 0.0739775 0.219816 283
2 0.365706 0.576211 0.12417 0.165245 0.137067 288
2 0.171803 0.316807 0.0600805 0.101422 0.463703 290
2 0.659257 0.580326 0.114881 0.182442 0.678693 271
2 0.217535 0.309313 0.0632197 0.0831876 0.48999 248
2 0.337792 0.64809 0.136815 0.153905 0.694779 297
2 0.0758044 0.360229 0.0685515 0.115662 0.850753 298
2 0.272608 0.795947 0.183377 0.238659 0.721993 302
2 0.345901 0.789394 0.129024 0.242631 0.600303 265
2 0.427971 0.330025 0.103071 0.111647 0.273125 304
2 0.391785 0.40457 0.118971 0.146287 0.186639 306
2 0.0325868 0.392437 0.0648827 0.138544 0.775817 307
2 0.378843 0.419199 0.117463 0.158694 0.642739 313
2 0.642165 0.489929 0.103857 0.146722 0.591072 314
2 0.358633 0.790737 0.113152 0.242844 0.596407 237
2 0.364492 0.580963 0.129668 0.186256 0.728603 319
