2 0.65028 0.875859 0.196588 0.236184 0.897592 1
2 0.217064 0.30674 0.040839 0.0822303 0.351461 3
2 0.213337 0.307969 0.0405768 0.0806324 0.552456 13
2 0.170863 0.316215 0.0742391 0.0970404 0.591956 21
2 0.660832 0.539134 0.121968 0.138119 0.680638 22
2 0.663304 0.701905 0.149577 0.220195 0.796323 23
2 0.306984 0.806824 0.167844 0.255851 0.892472 29
2 0.397761 0.39127 0.0963464 0.133134 0.574679 55
2 0.614115 0.520859 0.105974 0.161762 0.670211 57
2 0.154838 0.324683 0.0574309 0.0848594 0.715491 52
2 0.0573511 0.369488 0.0783398 0.119923 0.810009 60
2 0.660195 0.543578 0.123609 0.152823 0.127657 66
2 0.16076 0.320595 0.0699662 0.0934671 0.580223 32
2 0.66423 0.554875 0.131526 0.170749 0.714149 67
2 0.107298 0.330257 0.0845906 0.107433 0.604451 68
5 0.63754 0.368196 0.11879 0.204293 0.721719 16
2 0.0328619 0.3934 0.0657239 0.121188 0.900377 70
2 0.353368 0.673624 0.137617 0.223979 0.817286 8
2 0.381671 0.594773 0.117649 0.208115 0.71992 26
2 0.611004 0.515306 0.0985219 0.14848 0.147836 73
2 0.706429 0.333532 0.0451747 0.099649 0.520405 74
2 0.112144 0.335351 0.0724112 0.0979991 0.640325 53
2 0.0635941 0.368829 0.0697339 0.102251 0.296893 75
