2 0.214693 0.312085 0.0576483 0.0814154 0.350238 212
2 0.299073 0.79972 0.266103 0.38221 0.572775 194
2 0.633315 0.739186 0.194875 0.342116 0.73446 199
2 0.236327 0.303264 0.0339256 0.0564831 0.379642 217
2 0.103284 0.337033 0.0748608 0.109898 0.631348 220
2 0.208668 0.311467 0.0453492 0.0816866 0.455951 202
2 0.588817 0.430709 0.0991865 0.139526 0.446854 223
2 0.147694 0.334254 0.0590409 0.0968931 0.449366 225
2 0.625931 0.488824 0.138413 0.190594 0.754681 227
7 0.585253 0.308388 0.0858201 0.1342 0.463346 233
2 0.380918 0.412874 0.113994 0.0999903 0.414493 237
2 0.0383712 0.39018 0.0750552 0.131813 0.778604 248
2 0.336705 0.584907 0.139454 0.135312 0.525216 250
2 0.151072 0.347084 0.0511974 0.0664354 0.121241 228
2 0.147968 0.327882 0.0585374 0.0957156 0.596903 254
2 0.104677 0.343352 0.0706545 0.108089 0.656101 255
2 0.764171 0.983989 0.150738 0.0313525 0.100814 98
2 0.585132 0.425761 0.0961803 0.118622 0.556763 219
2 0.0163358 0.439058 0.0318062 0.138504 0.772799 257
2 0.0800489 0.370618 0.0673451 0.113881 0.677975 234
2 0.0830749 0.372139 0.0578573 0.104229 0.294486 258
