2 0.291324 0.298502 0.0353535 0.0310043 0.251874 99
2 0.351521 0.614773 0.137281 0.210526 0.783904 110
2 0.253284 0.960496 0.16142 0.0720109 0.778707 123
2 0.661658 0.655077 0.126889 0.21528 0.889058 166
7 0.389383 0.381286 0.128806 0.178648 0.163429 168
2 0.311638 0.810967 0.176074 0.267429 0.902875 178
2 0.707964 0.922562 0.213401 0.146462 0.836015 120
2 0.213228 0.30802 0.0570822 0.0648534 0.274146 156
2 0.10434 0.325869 0.0991957 0.143456 0.567705 190
2 0.249825 0.297095 0.0372255 0.0500845 0.465762 140
2 0.647454 0.531882 0.117134 0.175726 0.785762 98
2 0.29202 0.300642 0.0387946 0.0305001 0.191983 197
2 0.5968 0.408965 0.102787 0.187515 0.483505 199
2 0.211521 0.308229 0.0535689 0.0820815 0.57831 200
2 0.0589632 0.370854 0.0818529 0.115023 0.843482 202
2 0.643611 0.528431 0.110562 0.173143 0.588967 207
7 0.595585 0.406046 0.106555 0.19338 0.37883 209
2 0.16447 0.317617 0.0298489 0.059829 0.512203 210
2 0.0191953 0.436244 0.0383905 0.13754 0.767472 212
2 0.167031 0.311924 0.0325036 0.0631545 0.181793 213
2 0.369049 0.528851 0.115992 0.133551 0.519457 194
