2 0.270393 0.298733 0.0270225 0.038857 0.169802 220
2 0.639409 0.660435 0.142953 0.234882 0.837869 233
2 0.684334 0.92142 0.220418 0.146329 0.840213 219
2 0.250065 0.296359 0.0383394 0.0582267 0.33445 272
2 0.273036 0.301416 0.0276169 0.0349099 0.150627 283
2 0.244419 0.294505 0.0455768 0.0631945 0.370561 290
2 0.179394 0.318581 0.0534735 0.0913188 0.741123 298
2 0.402607 0.370103 0.0837266 0.121822 0.440463 304
2 0.283258 0.866471 0.18576 0.251783 0.82896 288
2 0.058227 0.370298 0.0788229 0.117642 0.823055 340
2 0.0989566 0.348252 0.0612947 0.104941 0.442937 345
2 0.136116 0.323985 0.0573172 0.098497 0.741353 307
2 0.218149 0.309128 0.0426278 0.0799537 0.655857 270
2 0.339874 0.631676 0.165688 0.303479 0.661655 350
2 0.37479 0.494641 0.127236 0.146829 0.505889 306
2 0.395679 0.487473 0.0941427 0.166134 0.285187 352
2 0.458075 0.370541 0.0466097 0.117509 0.426576 353
2 0.702041 0.769576 0.154998 0.172997 0.803899 354
2 0.248574 0.964815 0.154651 0.066936 0.195929 297
2 0.0923695 0.349739 0.0723705 0.111938 0.47306 356
2 0.702341 0.801543 0.157352 0.237775 0.605732 271
2 0.702333 0.782176 0.156517 0.19736 0.718252 360
2 0.0530716 0.365872 0.091406 0.116305 0.624974 328
2 0.104672 0.360696 0.0494695 0.0782038 0.248071 361
2 0.217506 0.303459 0.0437766 0.0698264 0.474128 362
2 0.138364 0.330662 0.0552537 0.104842 0.63851 357
2 0.614927 0.382694 0.0817313 0.0647164 0.579157 365
2 0.282484 0.865104 0.212797 0.262977 0.713288 366
