2 0.306584 0.824862 0.183823 0.309924 0.869503 55
2 0.735703 0.975347 0.145266 0.0389598 0.269123 16
2 0.265813 0.299429 0.0327754 0.0291625 0.115457 70
2 0.604813 0.406318 0.0873707 0.124105 0.509485 98
2 0.227631 0.289182 0.0527429 0.0641474 0.230406 99
2 0.39028 0.461603 0.101069 0.155538 0.505616 110
2 0.639597 0.621292 0.13101 0.20436 0.811565 120
2 0.371838 0.55168 0.107875 0.165981 0.593664 123
2 0.871711 0.592976 0.1429 0.205699 0.867952 74
2 0.611245 0.41095 0.0885423 0.116629 0.528609 148
2 0.033225 0.320324 0.0627534 0.105998 0.723607 157
2 0.333817 0.702699 0.149852 0.221961 0.50133 158
2 0.110699 0.339341 0.0791912 0.113627 0.855544 156
2 0.6229 0.469299 0.0962358 0.147223 0.753895 166
2 0.685601 0.748991 0.155222 0.242825 0.863151 164
2 0.168734 0.313827 0.0639078 0.0982748 0.623258 160
5 0.42311 0.34316 0.0946622 0.226799 0.442058 168
2 0.113004 0.335729 0.0894174 0.115293 0.811504 171
2 0.141594 0.327346 0.0360167 0.0993977 0.125149 140
2 0.333793 0.670981 0.147376 0.155507 0.545474 173
7 0.165626 0.313517 0.061484 0.104901 0.155682 150
2 0.336897 0.688203 0.144955 0.199251 0.546208 177
2 0.374267 0.544262 0.109713 0.18694 0.603987 178
2 0.623472 0.459614 0.0928202 0.132464 0.678305 180
