2 0.247975 0.296416 0.0313619 0.0478462 0.240827 3
2 0.247634 0.298788 0.0359964 0.0493836 0.310838 13
2 0.18988 0.31544 0.0819652 0.0840027 0.155838 21
2 0.691989 0.710754 0.160249 0.248453 0.826101 22
2 0.704882 0.89937 0.195315 0.186835 0.90356 23
2 0.396309 0.449839 0.0981186 0.177413 0.489678 55
2 0.630312 0.6157 0.12467 0.199184 0.833283 57
2 0.209641 0.309747 0.0481658 0.0819687 0.514165 52
2 0.116488 0.339082 0.0892427 0.11216 0.719851 60
2 0.209287 0.302736 0.0485548 0.077558 0.2128 32
7 0.644791 0.442106 0.140295 0.269453 0.587606 16
2 0.113494 0.345469 0.0816819 0.104631 0.776433 70
2 0.308465 0.867899 0.174689 0.249071 0.90838 8
2 0.358092 0.741415 0.165053 0.254801 0.855721 26
2 0.627256 0.608035 0.118743 0.174027 0.392275 73
2 0.711195 0.349428 0.0632132 0.111992 0.40506 74
2 0.172713 0.315002 0.0591403 0.0904362 0.116823 53
2 0.350392 0.57594 0.125982 0.143988 0.684532 80
2 0.171642 0.3141 0.052448 0.0851483 0.542036 68
2 0.573831 0.382262 0.0471398 0.120775 0.367948 92
2 0.378733 0.522787 0.096173 0.137089 0.594082 97
2 0.574926 0.377352 0.0569054 0.128189 0.279203 98
2 0.027588 0.412828 0.0544976 0.172567 0.818944 99
2 0.349455 0.59441 0.127785 0.180246 0.55253 100
2 0.351651 0.752116 0.149509 0.242548 0.784294 95
