2 0.59197 0.528084 0.111096 0.176961 0.884842 1
2 0.249081 0.880035 0.211081 0.2259 0.8794 2
2 0.097026 0.355232 0.0824701 0.12054 0.792854 3
2 0.334512 0.853437 0.154143 0.262131 0.85086 4
2 0.667189 0.773228 0.175048 0.322979 0.888111 5
2 0.371134 0.631772 0.150933 0.210423 0.861108 7
2 0.381892 0.484574 0.107605 0.133487 0.635143 8
2 0.642737 0.642845 0.133845 0.204517 0.729549 9
2 0.207206 0.308489 0.050164 0.0836089 0.591643 10
2 0.628898 0.451716 0.0904082 0.11433 0.456353 11
2 0.736284 0.970517 0.168347 0.0568798 0.639324 12
7 0.148042 0.309887 0.0831526 0.136041 0.558885 13
5 0.602472 0.283721 0.0826352 0.139287 0.438182 16
2 0.64552 0.627039 0.1329 0.167691 0.358819 17
2 0.0311005 0.399688 0.0616982 0.14814 0.778484 21
2 0.599283 0.390369 0.0944481 0.102287 0.538359 22
2 0.630143 0.466273 0.0906807 0.142265 0.610726 23
2 0.735369 0.971343 0.165942 0.0537054 0.441908 24
2 0.411156 0.449579 0.100757 0.146074 0.671235 26
2 0.331104 0.833352 0.147446 0.229104 0.674591 15
