2 0.589504 0.5197 0.110666 0.173476 0.859641 1
2 0.25531 0.869254 0.199894 0.249055 0.870131 2
2 0.0914401 0.357688 0.086302 0.123014 0.761875 3
2 0.338277 0.82844 0.149165 0.253406 0.845511 4
2 0.662001 0.759068 0.168504 0.309168 0.854837 5
2 0.374851 0.616979 0.143383 0.208183 0.811455 7
2 0.383854 0.47923 0.103826 0.130888 0.591969 8
2 0.641364 0.630078 0.128423 0.187487 0.727863 9
2 0.204132 0.309552 0.0489349 0.0844727 0.420368 10
2 0.629274 0.448975 0.0895969 0.117089 0.595767 11
2 0.729613 0.956241 0.18256 0.0727098 0.775951 12
7 0.143569 0.312568 0.0829445 0.139076 0.534007 13
7 0.599741 0.275689 0.0815179 0.123361 0.505748 16
2 0.64651 0.621929 0.141446 0.174365 0.56256 17
2 0.0269616 0.405486 0.0532935 0.150492 0.747765 21
2 0.59768 0.383068 0.088865 0.0972405 0.574038 22
2 0.630917 0.460669 0.0877862 0.137035 0.632945 23
2 0.729497 0.957031 0.172263 0.0854019 0.670883 24
2 0.40947 0.444501 0.105971 0.142954 0.653972 26
