2 0.23094 0.309055 0.0493394 0.0750887 0.553165 212
2 0.252252 0.864112 0.253526 0.259983 0.494188 194
2 0.663281 0.802114 0.209914 0.375015 0.707615 199
2 0.257526 0.304201 0.0297387 0.0397664 0.617069 217
2 0.14033 0.322846 0.0640236 0.0946528 0.533051 220
2 0.227879 0.307354 0.041551 0.0767973 0.584775 202
2 0.180315 0.313857 0.0582593 0.0882044 0.293312 225
2 0.618391 0.562714 0.149178 0.256658 0.789047 227
7 0.591622 0.334493 0.0973324 0.162775 0.459848 233
2 0.355716 0.466881 0.121156 0.129695 0.534858 237
2 0.0764812 0.360669 0.0733203 0.120893 0.651586 248
2 0.316726 0.718256 0.156385 0.264829 0.608555 250
2 0.182979 0.318836 0.0555835 0.0901736 0.612949 254
2 0.15079 0.335558 0.0443228 0.0792402 0.55905 255
2 0.593011 0.461953 0.101908 0.14617 0.189949 219
2 0.0379274 0.393028 0.075744 0.122679 0.883148 257
2 0.117 0.346146 0.0497953 0.10116 0.542247 234
7 0.18399 0.286724 0.0567926 0.0718024 0.140599 228
2 0.377002 0.565872 0.110763 0.185432 0.785883 261
2 0.304327 0.720511 0.180157 0.272999 0.673056 263
2 0.311069 0.695024 0.166689 0.220261 0.307275 265
2 0.337484 0.600072 0.125343 0.137166 0.537723 266
2 0.0867818 0.353816 0.0902198 0.117015 0.287052 260
2 0.140266 0.32872 0.0649042 0.0921243 0.539069 258
2 0.332159 0.601158 0.127543 0.149054 0.587148 267
2 0.613384 0.550266 0.141295 0.287138 0.545617 268
