2 0.275329 0.844233 0.186546 0.27488 0.900121 110
2 0.690249 0.890068 0.176045 0.212916 0.890783 166
2 0.347048 0.711229 0.151516 0.24054 0.879047 168
2 0.672809 0.68328 0.151744 0.211784 0.878002 98
2 0.260211 0.302717 0.0418536 0.0420704 0.538076 200
2 0.106611 0.353049 0.077267 0.106331 0.856922 212
7 0.386062 0.554519 0.164406 0.376535 0.553207 194
7 0.631088 0.501033 0.128679 0.230748 0.635289 199
2 0.144792 0.318814 0.0648864 0.0900061 0.20394 217
2 0.547257 0.367028 0.0415699 0.114498 0.472993 219
2 0.0383445 0.378177 0.076689 0.164072 0.702121 220
2 0.139324 0.319685 0.075 0.0878894 0.670296 202
2 0.598789 0.399491 0.103926 0.182181 0.538541 223
