2 0.265488 0.302005 0.0361699 0.0408529 0.204382 298
2 0.247442 0.305505 0.0348419 0.0470342 0.35524 356
2 0.646632 0.614316 0.141754 0.245736 0.739059 365
2 0.659399 0.854058 0.17949 0.246109 0.642321 376
2 0.395438 0.567026 0.107466 0.194603 0.794521 404
7 0.186193 0.278139 0.068574 0.155884 0.648035 395
2 0.140263 0.336695 0.0494595 0.0998966 0.442768 414
2 0.275332 0.866393 0.193803 0.254794 0.818631 415
2 0.688306 0.722822 0.146464 0.235248 0.847533 416
2 0.611745 0.446757 0.0991108 0.127338 0.782409 422
2 0.109311 0.349964 0.0801061 0.111586 0.672158 423
2 0.615695 0.430911 0.0991865 0.166563 0.155792 410
2 0.132336 0.338935 0.0645752 0.102577 0.310219 433
2 0.330641 0.625205 0.143771 0.240005 0.842657 353
2 0.656636 0.837085 0.167406 0.218484 0.636188 434
2 0.667568 0.935643 0.209139 0.127483 0.711299 417
2 0.569241 0.379068 0.0673894 0.11569 0.512128 436
2 0.0334122 0.385516 0.0658206 0.141375 0.781727 441
2 0.373476 0.448773 0.0993679 0.0925899 0.586071 442
2 0.118996 0.345226 0.0932054 0.110721 0.652307 444
2 0.332764 0.602727 0.140537 0.201459 0.411694 448
2 0.669784 0.938363 0.204353 0.108331 0.549247 440
2 0.657444 0.828811 0.164406 0.186443 0.670453 450
