2 0.273319 0.300902 0.0461378 0.0511433 0.598801 99
2 0.369425 0.549002 0.115634 0.188726 0.586626 110
2 0.302553 0.857724 0.172684 0.273138 0.852756 123
2 0.953718 0.848577 0.0925631 0.280085 0.846952 74
2 0.113732 0.313145 0.0362932 0.0760578 0.251257 157
2 0.222534 0.918593 0.211775 0.148288 0.866153 158
2 0.645425 0.574343 0.11382 0.182731 0.839094 166
5 0.399881 0.397388 0.114905 0.269015 0.633261 168
2 0.341928 0.681356 0.144402 0.22972 0.864264 178
2 0.677205 0.8105 0.181249 0.262646 0.888669 120
2 0.181836 0.310719 0.0684378 0.0862118 0.681906 156
2 0.0499342 0.360047 0.0998684 0.169038 0.844586 190
2 0.221726 0.300515 0.0494709 0.0770461 0.675932 140
2 0.625615 0.470308 0.0995186 0.146026 0.732032 98
2 0.366651 0.530016 0.119337 0.233115 0.607647 194
2 0.273666 0.296702 0.0454347 0.0468879 0.24584 197
5 0.574068 0.368387 0.0893572 0.182504 0.531668 199
2 0.1775 0.312492 0.0611372 0.0860463 0.705444 200
2 0.724705 0.964681 0.155292 0.0661433 0.81015 164
2 0.722435 0.963072 0.154986 0.0738564 0.135727 201
2 0.0133139 0.418166 0.0266278 0.134173 0.69989 202
