2 0.249328 0.307038 0.0538897 0.0595054 0.340493 220
2 0.676688 0.795768 0.172543 0.285219 0.82477 233
2 0.246248 0.303842 0.0455966 0.0527297 0.50223 272
2 0.192467 0.311924 0.0551499 0.0830354 0.268015 298
2 0.447204 0.401861 0.0503198 0.117999 0.565354 304
2 0.185323 0.310714 0.0717866 0.0864802 0.424235 307
2 0.292254 0.814067 0.209063 0.352173 0.722519 350
2 0.330777 0.667815 0.157521 0.27985 0.565337 306
2 0.386714 0.565443 0.111952 0.187018 0.588673 352
2 0.4282 0.397823 0.0867076 0.130082 0.286187 353
2 0.121744 0.326869 0.0625939 0.0967996 0.594039 356
2 0.127329 0.327144 0.0733465 0.0988542 0.499399 328
2 0.244537 0.307153 0.0451079 0.0566231 0.449358 362
2 0.601831 0.41528 0.0974813 0.158681 0.385046 365
2 0.0686764 0.372298 0.0697824 0.129266 0.777901 369
2 0.190184 0.312579 0.0594384 0.0926241 0.490265 371
2 0.0720635 0.354869 0.0678954 0.113302 0.40522 372
2 0.626649 0.441112 0.113873 0.10953 0.332995 376
2 0.0632025 0.375032 0.0621441 0.123059 0.218257 387
2 0.757477 0.945917 0.183765 0.0922894 0.76717 388
2 0.061545 0.380333 0.0548503 0.121749 0.723799 391
2 0.389819 0.407966 0.0962421 0.142009 0.400511 392
2 0.385793 0.549337 0.113323 0.21409 0.681467 393
2 0.746859 0.949215 0.165133 0.097501 0.689677 271
2 0.135102 0.325835 0.0882038 0.100538 0.649929 345
7 0.0199696 0.372958 0.0397478 0.250841 0.616659 395
