2 0.257883 0.308732 0.0425051 0.0491356 0.564284 220
2 0.690904 0.854108 0.180102 0.273849 0.871306 233
2 0.25727 0.305129 0.0411916 0.0413457 0.367767 272
2 0.178048 0.318675 0.047962 0.0927731 0.4286 298
2 0.443931 0.416423 0.0546209 0.130617 0.51862 304
2 0.178916 0.315778 0.0639094 0.0936142 0.141352 307
2 0.268379 0.854657 0.245435 0.274333 0.735721 350
2 0.315967 0.737206 0.166051 0.312409 0.608907 306
2 0.382049 0.404262 0.0919326 0.105303 0.320201 353
2 0.142852 0.321845 0.0549939 0.0919181 0.513931 356
2 0.262473 0.301716 0.0489952 0.0433319 0.111374 362
2 0.610645 0.422169 0.100809 0.139919 0.580091 365
2 0.0959625 0.354811 0.0524123 0.118103 0.56603 369
2 0.212596 0.309199 0.0463942 0.0801542 0.442485 371
2 0.0992693 0.351784 0.0559435 0.121482 0.608136 372
2 0.633125 0.462204 0.113938 0.118029 0.557824 376
2 0.384436 0.420514 0.0959375 0.137966 0.556604 392
2 0.160256 0.317858 0.0877749 0.0962985 0.549881 345
2 0.0416333 0.344667 0.0794296 0.229155 0.340537 395
2 0.0937002 0.357571 0.044873 0.11469 0.646672 387
7 0.0401328 0.343349 0.0800975 0.232889 0.673579 397
2 0.383846 0.60837 0.123171 0.204803 0.689449 399
2 0.150211 0.320177 0.0665488 0.0932537 0.368835 328
2 0.381947 0.581337 0.127613 0.249483 0.676079 352
2 0.649322 0.738529 0.207775 0.404397 0.504024 401
2 0.615789 0.497349 0.100659 0.0838868 0.579299 402
