2 0.709357 0.962335 0.160938 0.0694943 0.802316 166
2 0.323488 0.812984 0.180265 0.268249 0.875922 168
2 0.683125 0.764611 0.168345 0.236749 0.89977 98
2 0.271591 0.310627 0.0384076 0.0392372 0.261248 200
2 0.142778 0.334037 0.0684286 0.099006 0.847063 212
2 0.368794 0.613413 0.185463 0.41162 0.478876 194
2 0.634629 0.545371 0.140666 0.254621 0.62942 199
2 0.1744 0.310902 0.0466442 0.0831238 0.424097 217
2 0.554377 0.38256 0.0454782 0.115854 0.515778 219
2 0.0745934 0.348903 0.0821809 0.150576 0.382118 220
2 0.178314 0.308235 0.0582056 0.0826596 0.351983 202
2 0.611397 0.39708 0.108235 0.141958 0.407821 223
2 0.0361015 0.390455 0.0721039 0.128245 0.846064 225
2 0.610625 0.429184 0.11557 0.207488 0.493372 227
2 0.231387 0.9125 0.233851 0.159364 0.837884 110
2 0.707277 0.95946 0.159183 0.0808964 0.559379 230
7 0.629735 0.548662 0.145086 0.258188 0.553259 232
7 0.581084 0.277131 0.0799592 0.0961851 0.571366 233
2 0.014554 0.429669 0.029108 0.124965 0.68653 234
2 0.0169553 0.41832 0.0337451 0.150375 0.65995 228
2 0.143857 0.329342 0.0735332 0.103927 0.618562 235
