2 0.261637 0.303135 0.0577197 0.0467413 0.297314 298
2 0.25735 0.304105 0.0432069 0.0446495 0.36738 356
2 0.646885 0.639992 0.143871 0.249215 0.787064 365
2 0.661894 0.875183 0.173365 0.216175 0.853278 376
2 0.390503 0.58858 0.117282 0.196328 0.81254 404
7 0.193425 0.274718 0.063268 0.15062 0.663525 395
2 0.251961 0.885999 0.20697 0.21969 0.875283 415
2 0.696257 0.754143 0.149592 0.24223 0.823425 416
2 0.618433 0.453622 0.10246 0.126847 0.265279 422
2 0.615879 0.46209 0.100625 0.145417 0.807104 410
2 0.325136 0.653858 0.151405 0.250405 0.852575 353
2 0.669119 0.880623 0.204992 0.238068 0.252601 434
2 0.677716 0.954989 0.201542 0.0806645 0.184584 417
2 0.56966 0.382889 0.0705481 0.116164 0.587148 436
2 0.0421127 0.376223 0.0842255 0.139222 0.800311 441
2 0.370542 0.462726 0.102598 0.0862507 0.532659 442
2 0.67271 0.960056 0.210193 0.0798889 0.187919 440
2 0.660338 0.863346 0.169312 0.182638 0.449387 450
2 0.380007 0.582584 0.136485 0.196442 0.791128 304
2 0.127243 0.33797 0.0871472 0.108699 0.736364 423
2 0.141127 0.334068 0.0629706 0.104869 0.1557 433
2 0.0642063 0.312072 0.0514324 0.0887503 0.505433 452
