2 0.255255 0.295035 0.0295244 0.0448654 0.263223 3
2 0.254079 0.290038 0.0300945 0.0475839 0.147684 13
2 0.199348 0.310456 0.0851456 0.0838623 0.194503 21
2 0.702481 0.75921 0.170237 0.267289 0.838982 22
2 0.720097 0.944618 0.181927 0.096818 0.792417 23
2 0.392216 0.464727 0.112389 0.186239 0.593988 55
2 0.633724 0.649181 0.1301 0.204791 0.82778 57
2 0.218576 0.306451 0.0447332 0.0753362 0.475247 52
2 0.219465 0.302922 0.049856 0.0771715 0.215498 32
5 0.649401 0.44931 0.14502 0.258254 0.41686 16
2 0.134021 0.333456 0.0814963 0.103629 0.851252 70
2 0.295568 0.903852 0.192833 0.183897 0.911964 8
2 0.344844 0.793795 0.186658 0.268536 0.857552 26
2 0.715215 0.355777 0.0686637 0.122829 0.647044 74
2 0.374086 0.540307 0.0987145 0.147468 0.740058 80
2 0.580085 0.391439 0.052076 0.124999 0.638307 92
2 0.372624 0.552876 0.0980554 0.147856 0.594339 97
2 0.573161 0.338932 0.0687358 0.113141 0.477858 98
2 0.0408658 0.393335 0.0815613 0.163695 0.806934 99
2 0.34631 0.617378 0.135388 0.176298 0.626675 100
2 0.182801 0.31269 0.0513071 0.0811373 0.53479 53
2 0.3444 0.607034 0.134533 0.15255 0.76081 107
2 0.348503 0.791644 0.159401 0.278506 0.777006 95
