2 0.739053 0.920799 0.225 0.146134 0.876906 98
2 0.204139 0.314934 0.0703861 0.0894411 0.518071 212
2 0.327492 0.764188 0.222701 0.445263 0.65044 194
2 0.62911 0.661887 0.169785 0.320399 0.696416 199
2 0.220528 0.307451 0.038134 0.0785739 0.284671 217
2 0.609667 0.429011 0.113365 0.135285 0.674833 219
2 0.10448 0.352791 0.0899754 0.11299 0.315213 220
2 0.193763 0.315959 0.0524483 0.0865741 0.521923 202
2 0.585576 0.412593 0.0944869 0.132209 0.720435 223
2 0.117308 0.346057 0.0634496 0.103985 0.776636 225
2 0.624765 0.448242 0.131801 0.155688 0.775927 227
7 0.579167 0.288405 0.0814728 0.0984053 0.436553 233
2 0.0713089 0.362199 0.0768267 0.113044 0.603791 234
2 0.393236 0.3836 0.113458 0.0916424 0.373424 237
2 0.0505502 0.397891 0.0778096 0.125895 0.795397 240
2 0.246867 0.963775 0.174596 0.0669084 0.7299 246
2 0.0178736 0.424022 0.0357471 0.142229 0.814016 248
2 0.246574 0.962157 0.169078 0.0756857 0.120719 168
2 0.341367 0.518073 0.104348 0.0744483 0.579467 250
2 0.725263 0.919518 0.200093 0.154703 0.728194 252
