2 0.21675 0.308378 0.0621187 0.0786476 0.396151 298
2 0.432462 0.469935 0.0711369 0.149664 0.493569 304
2 0.193972 0.299379 0.0416328 0.0627964 0.105351 307
2 0.365872 0.476431 0.11247 0.155459 0.241476 353
2 0.210658 0.308591 0.0748482 0.0822923 0.480312 356
2 0.627729 0.49368 0.113673 0.182783 0.545027 365
2 0.258488 0.297896 0.0329877 0.0492672 0.337619 371
2 0.629104 0.621657 0.127928 0.14389 0.556026 376
2 0.365994 0.493129 0.113699 0.186114 0.742765 392
2 0.194848 0.305837 0.046652 0.0729679 0.247344 328
2 0.353479 0.627181 0.13939 0.164599 0.709843 352
2 0.652965 0.565901 0.116158 0.183384 0.655773 402
2 0.427841 0.468156 0.0795141 0.158857 0.68619 404
7 0.121182 0.29706 0.0895023 0.190642 0.818605 395
2 0.164918 0.325183 0.0240187 0.0937427 0.10765 369
2 0.589519 0.391654 0.0829875 0.118474 0.572681 410
2 0.0348771 0.396463 0.0696459 0.128268 0.839837 414
2 0.354833 0.639984 0.144676 0.198448 0.417349 415
2 0.349109 0.782942 0.165877 0.249593 0.834203 399
2 0.652332 0.551827 0.120607 0.155181 0.574235 416
2 0.632172 0.75065 0.171264 0.193658 0.32491 417
2 0.692391 0.84492 0.252383 0.287724 0.425985 421
2 0.593553 0.390044 0.0917535 0.127199 0.565266 422
2 0.0178393 0.434963 0.0356785 0.142406 0.728505 423
2 0.245575 0.907767 0.234009 0.16979 0.824407 306
