2 0.289361 0.875744 0.198668 0.227248 0.872088 55
2 0.279744 0.300233 0.0372477 0.0256561 0.160256 70
2 0.243335 0.288908 0.0529273 0.0601182 0.442263 99
2 0.385543 0.490692 0.102983 0.178605 0.586617 110
2 0.333073 0.674356 0.132079 0.192881 0.630013 123
2 0.906201 0.663946 0.151891 0.208895 0.835945 74
2 0.614312 0.427517 0.0927397 0.132148 0.773343 148
2 0.0569891 0.315656 0.0682473 0.100252 0.651536 157
2 0.306005 0.749505 0.163377 0.192288 0.790477 158
2 0.634136 0.498812 0.101302 0.154603 0.813355 166
2 0.696404 0.835326 0.174288 0.260197 0.879468 164
7 0.413812 0.363285 0.101354 0.244117 0.618582 168
2 0.310739 0.728299 0.164686 0.160577 0.531484 173
2 0.303901 0.7649 0.168366 0.223171 0.650028 177
2 0.363217 0.583744 0.121837 0.198765 0.754038 178
2 0.623208 0.466472 0.109406 0.213548 0.10929 180
2 0.187684 0.306349 0.0616854 0.0938808 0.225848 150
2 0.652758 0.67302 0.145674 0.219575 0.819872 120
2 0.141271 0.325519 0.0787454 0.105117 0.835673 156
2 0.331298 0.684365 0.13089 0.228268 0.692483 186
2 0.013878 0.340279 0.0272097 0.122696 0.577724 187
2 0.0154422 0.334602 0.0275662 0.115348 0.20818 190
2 0.187873 0.308183 0.0546327 0.0932171 0.647769 140
