2 0.24113 0.298462 0.0595392 0.0535604 0.188496 220
2 0.663666 0.754267 0.164159 0.267802 0.841689 233
2 0.244367 0.300429 0.0525118 0.0578397 0.341267 272
2 0.204662 0.311823 0.0274767 0.079172 0.167066 298
2 0.41632 0.384522 0.115627 0.135887 0.454198 304
2 0.10735 0.332534 0.0676995 0.104439 0.551682 340
2 0.108939 0.335589 0.0914733 0.105008 0.279317 345
2 0.175667 0.315345 0.059796 0.0900746 0.625908 307
2 0.306012 0.761702 0.197087 0.348714 0.688313 350
2 0.35025 0.632183 0.133621 0.267113 0.578886 306
2 0.391165 0.539801 0.105036 0.193099 0.538878 352
2 0.445578 0.391986 0.058574 0.125106 0.594412 353
2 0.117114 0.33168 0.0867414 0.105891 0.456834 356
2 0.100043 0.336174 0.0808487 0.0996367 0.546509 328
2 0.235298 0.30801 0.0419774 0.0664818 0.597207 362
2 0.620615 0.431555 0.103855 0.10768 0.627582 365
2 0.0330964 0.395664 0.0608923 0.124875 0.785753 369
2 0.180515 0.314468 0.0714213 0.0882693 0.491511 371
2 0.046595 0.365077 0.0761419 0.1061 0.611032 372
2 0.62155 0.44289 0.105294 0.0878231 0.5513 376
2 0.749304 0.912014 0.217886 0.164333 0.585472 271
2 0.0444593 0.381027 0.0835726 0.12182 0.651181 387
2 0.7433 0.913249 0.19284 0.160728 0.794251 388
2 0.245068 0.968438 0.161738 0.0631245 0.510047 288
