2 0.709124 0.870937 0.214761 0.246233 0.793486 365
7 0.251422 0.275253 0.0591504 0.105748 0.491412 395
2 0.651032 0.592778 0.12709 0.176472 0.884076 410
2 0.255385 0.89272 0.230115 0.195416 0.848997 353
7 0.161369 0.311255 0.0588031 0.0995165 0.147021 441
2 0.307202 0.693884 0.158334 0.197985 0.607934 442
5 0.250537 0.275056 0.0563899 0.10159 0.303514 453
2 0.206435 0.309469 0.0489103 0.0817015 0.605451 423
2 0.137662 0.334211 0.0395293 0.108242 0.296755 456
2 0.140233 0.33567 0.0350463 0.100458 0.491186 462
2 0.0919341 0.333144 0.0822541 0.143971 0.495209 471
2 0.417326 0.40963 0.0857972 0.141384 0.694259 476
2 0.575035 0.353779 0.0879134 0.147026 0.568623 478
2 0.0648238 0.372128 0.0829617 0.124134 0.84188 480
2 0.650313 0.551003 0.117791 0.219386 0.520172 482
2 0.100875 0.327312 0.112052 0.141311 0.489284 483
2 0.329418 0.854271 0.165262 0.274266 0.867719 304
2 0.791806 0.977307 0.140154 0.0447635 0.214247 486
2 0.352012 0.647428 0.129579 0.21223 0.685505 488
2 0.793187 0.96715 0.141883 0.0517617 0.476119 416
2 0.326573 0.819375 0.155844 0.218674 0.164055 490
7 0.557034 0.239198 0.0782807 0.182411 0.550477 491
2 0.648692 0.578893 0.123308 0.195818 0.692409 492
2 0.601571 0.459923 0.110632 0.160457 0.648902 436
2 0.350318 0.614451 0.128122 0.154681 0.627635 493
2 0.596276 0.464213 0.100881 0.147323 0.510222 484
