2 0.679437 0.799951 0.180132 0.306818 0.793242 365
7 0.227892 0.276464 0.0555327 0.12564 0.570221 395
2 0.752591 0.908581 0.190969 0.167486 0.868248 416
2 0.640037 0.534162 0.115962 0.161146 0.797413 410
2 0.286232 0.828633 0.180582 0.290667 0.893939 353
2 0.130774 0.324155 0.0639576 0.109871 0.517455 441
2 0.333477 0.604674 0.135645 0.158322 0.590152 442
5 0.227727 0.269552 0.0554166 0.119384 0.25532 453
2 0.181456 0.311177 0.0587442 0.083058 0.495377 423
2 0.0913603 0.356516 0.0450157 0.115601 0.283962 456
2 0.0934976 0.360395 0.0379934 0.111157 0.394202 462
2 0.355266 0.735608 0.147471 0.252725 0.835394 465
2 0.0450931 0.365268 0.0897395 0.157427 0.435659 471
2 0.423297 0.38466 0.0826631 0.128855 0.620082 476
2 0.577252 0.339093 0.0865422 0.131782 0.504501 478
2 0.0277378 0.414595 0.0553066 0.140899 0.851534 480
2 0.639329 0.550764 0.117235 0.128997 0.648196 482
2 0.0546344 0.363215 0.109095 0.170716 0.544001 483
2 0.583451 0.432123 0.0872172 0.13721 0.752759 436
2 0.761188 0.910908 0.211617 0.17529 0.747252 479
