2 0.25057 0.298961 0.0321726 0.0447879 0.305473 13
2 0.232128 0.311472 0.049655 0.0765757 0.221747 21
2 0.758984 0.923237 0.212849 0.132339 0.811523 22
2 0.38653 0.520523 0.119667 0.207715 0.73154 55
2 0.661326 0.822166 0.174143 0.252944 0.882146 57
2 0.234361 0.30785 0.0561186 0.0670959 0.154525 52
2 0.250032 0.295861 0.0301058 0.0446417 0.280249 32
5 0.673046 0.579959 0.182023 0.388377 0.319188 16
2 0.186076 0.314969 0.0656794 0.0903431 0.698662 70
2 0.742719 0.390476 0.0822405 0.130212 0.698103 74
2 0.344778 0.615074 0.122711 0.159312 0.823674 80
2 0.597732 0.431734 0.0704439 0.136215 0.343167 92
2 0.579344 0.364014 0.0697981 0.117376 0.5537 98
2 0.0973437 0.343369 0.0894987 0.139241 0.755189 99
2 0.226307 0.310915 0.0394089 0.0766105 0.470956 53
2 0.425729 0.342184 0.0964108 0.099706 0.168504 110
2 0.604614 0.433391 0.0803199 0.139047 0.686209 120
2 0.397999 0.404017 0.0933928 0.0905552 0.52867 123
2 0.303852 0.811541 0.176125 0.274672 0.861127 100
2 0.288066 0.947955 0.177129 0.0928194 0.855154 128
2 0.696937 0.696187 0.126344 0.169616 0.152413 130
7 0.674352 0.542396 0.170719 0.315714 0.253231 131
2 0.0167999 0.430119 0.0335999 0.157826 0.728878 132
2 0.387784 0.495765 0.117133 0.140065 0.601943 134
2 0.75241 0.928243 0.232 0.134159 0.798615 135
2 0.0176024 0.419641 0.0333749 0.17757 0.717479 133
