2 0.60484 0.657113 0.14169 0.216126 0.865377 1
2 0.169907 0.316214 0.0727353 0.0957558 0.718273 3
2 0.73595 0.969712 0.169311 0.0524039 0.694866 5
2 0.325016 0.862069 0.202597 0.262826 0.86264 7
2 0.255276 0.295059 0.0312454 0.0387161 0.173526 10
7 0.191028 0.287412 0.0562101 0.0957617 0.127898 13
5 0.62429 0.311246 0.0921516 0.158942 0.826993 16
2 0.108148 0.337744 0.0688675 0.119337 0.577838 21
2 0.627067 0.458279 0.102257 0.13461 0.57311 22
2 0.646425 0.555768 0.113658 0.174485 0.77248 23
2 0.397132 0.536522 0.0964899 0.185729 0.701428 26
2 0.357143 0.605089 0.128696 0.198279 0.853256 29
2 0.0586244 0.36521 0.0861038 0.116155 0.737323 32
2 0.38584 0.530746 0.116259 0.176824 0.671833 8
2 0.677372 0.872154 0.189494 0.254882 0.903834 9
2 0.39285 0.526802 0.106044 0.187861 0.491272 42
2 0.377272 0.424625 0.0966686 0.117897 0.455909 47
2 0.0218787 0.385167 0.0437575 0.129812 0.210244 50
2 0.734825 0.974261 0.168468 0.0514781 0.338199 41
7 0.626179 0.314301 0.0953261 0.16881 0.490227 51
2 0.0567098 0.361251 0.091278 0.127284 0.476287 52
2 0.0212788 0.390961 0.0422993 0.133655 0.750748 53
2 0.356369 0.586605 0.130794 0.163471 0.597128 45
