2 0.276429 0.300983 0.0325043 0.0258712 0.128037 298
2 0.271282 0.304218 0.0324042 0.0279123 0.149776 356
2 0.659506 0.70885 0.161795 0.27959 0.827615 365
7 0.213335 0.279173 0.0583513 0.145452 0.51026 395
2 0.207275 0.945654 0.193634 0.0905576 0.714347 415
2 0.720999 0.859946 0.173718 0.269437 0.8299 416
2 0.629063 0.495081 0.109895 0.15331 0.806946 410
2 0.307117 0.738196 0.166865 0.27301 0.902359 353
2 0.579388 0.402808 0.0797445 0.119762 0.500438 436
2 0.0867896 0.341521 0.0857948 0.126872 0.704946 441
2 0.372115 0.496964 0.128059 0.145213 0.422985 442
5 0.213299 0.26478 0.0597725 0.123697 0.192938 453
2 0.157617 0.321758 0.070991 0.0977759 0.735939 423
2 0.0334375 0.371 0.0640123 0.16465 0.465844 456
2 0.580201 0.405593 0.0896524 0.125538 0.795879 461
2 0.669242 0.938338 0.191174 0.110274 0.825036 434
2 0.0346396 0.388384 0.0601519 0.13116 0.674382 462
2 0.365223 0.651732 0.148608 0.221508 0.762833 304
2 0.376108 0.659565 0.131493 0.21561 0.799763 465
2 0.0165954 0.408679 0.0325957 0.180168 0.718296 471
