2 0.357964 0.626974 0.141748 0.23602 0.813331 55
2 0.267064 0.302767 0.0254038 0.0337019 0.151252 52
2 0.272874 0.297822 0.028737 0.0417551 0.113827 32
7 0.702534 0.77059 0.218095 0.433655 0.414043 16
2 0.232884 0.308845 0.0622116 0.0730073 0.580635 70
2 0.30022 0.77581 0.148847 0.199792 0.916248 80
2 0.60335 0.409563 0.0799588 0.145097 0.596115 98
7 0.171853 0.307948 0.0670308 0.113955 0.354836 99
2 0.40597 0.348129 0.0730335 0.0667798 0.144074 110
2 0.622124 0.503099 0.0985662 0.168029 0.859873 120
2 0.39126 0.43226 0.0870966 0.0915476 0.253292 123
2 0.0861106 0.356562 0.0767088 0.124874 0.844445 140
2 0.791734 0.462391 0.108799 0.164712 0.842077 74
2 0.603187 0.400632 0.0789347 0.120106 0.528955 148
2 0.233345 0.301947 0.0552773 0.0622541 0.407847 144
2 0.590921 0.800072 0.0322325 0.167571 0.136232 149
2 0.0411016 0.382627 0.077282 0.123638 0.660633 150
2 0.623885 0.518536 0.104042 0.135316 0.137525 92
2 0.0339578 0.393232 0.0671158 0.134171 0.684246 156
2 0.0293256 0.401415 0.0586512 0.135266 0.805884 157
2 0.363715 0.488293 0.109084 0.104645 0.526372 158
2 0.0484802 0.377091 0.0656182 0.118288 0.287408 160
