2 0.232552 0.307754 0.0466272 0.0742603 0.502071 212
2 0.250187 0.864407 0.251779 0.258851 0.561327 194
2 0.660888 0.792547 0.205726 0.386111 0.706063 199
2 0.258293 0.302 0.0318229 0.0417284 0.568763 217
2 0.145263 0.323143 0.0567883 0.093589 0.522822 220
2 0.229196 0.306859 0.0415052 0.0752004 0.561112 202
2 0.184328 0.308298 0.0578782 0.107911 0.268146 225
2 0.6176 0.559639 0.148127 0.266234 0.755726 227
7 0.591762 0.336503 0.0973829 0.161637 0.385395 233
2 0.358071 0.466375 0.121015 0.133628 0.519541 237
2 0.0773746 0.359416 0.0751227 0.11961 0.655599 248
2 0.316149 0.712484 0.148944 0.252772 0.376627 250
2 0.184109 0.318962 0.0563238 0.0896792 0.56376 254
2 0.153475 0.33418 0.0416238 0.0797353 0.439571 255
2 0.591853 0.462855 0.0995396 0.143418 0.145674 219
2 0.0397974 0.392067 0.0779276 0.121309 0.863379 257
2 0.120017 0.345169 0.0490085 0.099607 0.519438 234
7 0.186165 0.289068 0.0570808 0.0863564 0.129431 228
2 0.374225 0.567381 0.115266 0.181739 0.717508 261
2 0.311454 0.722164 0.170415 0.265816 0.659387 263
2 0.309603 0.694011 0.167951 0.214409 0.193189 265
2 0.334674 0.602864 0.129665 0.132476 0.470006 266
2 0.0819737 0.359175 0.0753053 0.107543 0.393202 260
2 0.140311 0.326735 0.065795 0.0919062 0.520039 258
2 0.332027 0.605801 0.130248 0.153534 0.61586 267
