2 0.666631 0.900577 0.197473 0.175757 0.923336 1
2 0.219493 0.30767 0.0376325 0.0823004 0.126988 3
2 0.218975 0.301858 0.0361178 0.0741541 0.231646 13
2 0.177459 0.317482 0.0698026 0.0916177 0.352041 21
2 0.666994 0.561293 0.128093 0.143342 0.637013 22
2 0.663826 0.728426 0.151593 0.212618 0.787264 23
2 0.289959 0.85314 0.170398 0.260941 0.887005 29
2 0.395832 0.392286 0.0950168 0.12398 0.530328 55
2 0.616683 0.540498 0.105364 0.168714 0.815095 57
2 0.167514 0.318846 0.0574393 0.0862295 0.694022 52
2 0.0784679 0.360003 0.0629433 0.10798 0.276902 60
2 0.66911 0.574439 0.134857 0.169475 0.561527 66
2 0.172224 0.31965 0.0647968 0.0909218 0.53751 32
7 0.639785 0.382936 0.126573 0.222021 0.466353 16
2 0.0424996 0.384173 0.0837864 0.121713 0.835965 70
2 0.348586 0.709135 0.141842 0.237069 0.823063 8
2 0.380334 0.620018 0.127926 0.217442 0.751547 26
2 0.605967 0.538563 0.0838259 0.159731 0.104623 73
2 0.709281 0.329433 0.0440207 0.102366 0.551858 74
2 0.125774 0.330203 0.0677198 0.0948582 0.782959 53
2 0.0748678 0.358429 0.0702671 0.112845 0.719029 75
2 0.380272 0.593592 0.127868 0.166705 0.133076 79
2 0.362805 0.507727 0.116794 0.134721 0.546007 80
2 0.12026 0.325429 0.0793142 0.0983658 0.531175 68
2 0.348206 0.688581 0.146816 0.198671 0.637755 77
