2 0.250179 0.302027 0.0429481 0.0515175 0.274848 220
2 0.288794 0.295681 0.0395459 0.0312138 0.204623 225
2 0.643629 0.548627 0.127096 0.171551 0.13412 233
2 0.638327 0.785331 0.178628 0.254067 0.888434 219
2 0.171116 0.318409 0.0534685 0.0847939 0.546169 270
2 0.206556 0.301456 0.0489629 0.0889222 0.538604 272
2 0.744988 0.971082 0.224258 0.057835 0.411991 285
2 0.249202 0.306941 0.0492274 0.0669622 0.245564 283
2 0.209372 0.314413 0.0448367 0.069403 0.514764 290
2 0.671406 0.653133 0.134745 0.213877 0.621967 271
2 0.24249 0.307683 0.0324975 0.0710968 0.162 248
2 0.299364 0.778063 0.160276 0.170472 0.750505 297
2 0.124741 0.337392 0.0607119 0.0962121 0.746392 298
2 0.227954 0.915667 0.209288 0.157898 0.800727 302
2 0.311828 0.905422 0.159397 0.181838 0.762844 265
2 0.424579 0.344875 0.106349 0.110614 0.256162 304
2 0.370625 0.469676 0.132507 0.204172 0.441103 306
2 0.36717 0.515914 0.139409 0.267223 0.722757 313
2 0.647962 0.553042 0.135656 0.189543 0.66326 314
2 0.287853 0.898529 0.190089 0.190343 0.635201 237
2 0.668578 0.642614 0.133984 0.190278 0.782634 322
2 0.347389 0.67564 0.151441 0.218504 0.861701 288
2 0.30108 0.764774 0.155952 0.134776 0.627058 327
2 0.0366939 0.393599 0.0733879 0.137008 0.738094 328
2 0.0812424 0.360178 0.0669853 0.120922 0.837691 307
2 0.551751 0.448449 0.0320185 0.127402 0.240048 334
2 0.0827655 0.365049 0.0650585 0.105561 0.278424 337
2 0.300796 0.786833 0.163959 0.191371 0.716924 339
2 0.163373 0.315872 0.0710693 0.0922222 0.599777 336
2 0.0121017 0.430994 0.0242034 0.142264 0.58795 340
