2 0.24332 0.299953 0.0418181 0.0537162 0.131683 13
2 0.237517 0.306288 0.0439713 0.0642906 0.373535 21
2 0.384617 0.539076 0.121432 0.203532 0.780228 55
2 0.67141 0.866461 0.18878 0.246487 0.867585 57
2 0.240926 0.306049 0.0489296 0.0593011 0.336892 52
2 0.257761 0.29652 0.0325777 0.0374757 0.211089 32
7 0.677569 0.609242 0.19169 0.415093 0.512242 16
2 0.19524 0.312067 0.0640485 0.0841039 0.680911 70
2 0.338048 0.635707 0.127413 0.169751 0.857371 80
2 0.609653 0.436337 0.0816698 0.135923 0.361505 92
2 0.583804 0.363881 0.0694305 0.129825 0.549649 98
2 0.109232 0.333935 0.0901726 0.136742 0.55709 99
2 0.237693 0.308091 0.045996 0.0714132 0.105532 53
2 0.409657 0.368283 0.0890196 0.122109 0.522897 110
2 0.608945 0.446182 0.0819217 0.144755 0.744187 120
2 0.399297 0.387616 0.0835374 0.073743 0.205527 123
2 0.283773 0.854819 0.182479 0.280795 0.882231 100
2 0.0265171 0.412325 0.0530341 0.157854 0.873119 140
2 0.751037 0.398058 0.0890492 0.133481 0.763589 74
2 0.764129 0.959516 0.173083 0.070726 0.721519 22
2 0.215222 0.3123 0.102258 0.0838681 0.206606 144
2 0.381957 0.503204 0.120027 0.15107 0.661278 134
