2 0.6028 0.631662 0.135165 0.213832 0.874862 1
2 0.162207 0.321299 0.0706257 0.10139 0.640773 3
2 0.721336 0.941926 0.189959 0.100913 0.806604 5
2 0.333212 0.828546 0.190758 0.274227 0.892942 7
2 0.249447 0.296567 0.0290876 0.0475432 0.160536 10
7 0.194192 0.289616 0.0752598 0.100366 0.229385 13
5 0.622281 0.308618 0.0891781 0.159809 0.715457 16
2 0.0994106 0.342383 0.0700467 0.117342 0.668181 21
2 0.622782 0.454241 0.0985489 0.14763 0.593285 22
2 0.644761 0.542278 0.106237 0.180348 0.685516 23
2 0.397096 0.523164 0.0998672 0.181782 0.694345 26
2 0.360636 0.588758 0.123031 0.191241 0.851399 29
2 0.0450718 0.372965 0.0872661 0.118073 0.857029 32
2 0.389394 0.522139 0.112027 0.175541 0.587699 8
2 0.672994 0.829299 0.178959 0.247541 0.903867 9
2 0.390076 0.500657 0.110751 0.149425 0.271979 42
2 0.382333 0.414699 0.0936788 0.112771 0.489594 47
2 0.0144988 0.400152 0.0289975 0.130547 0.687073 50
2 0.737645 0.941309 0.225368 0.111502 0.338824 41
