2 0.265794 0.297212 0.0391734 0.047744 0.439765 220
2 0.638589 0.616559 0.137786 0.227167 0.745724 233
2 0.661043 0.869176 0.197881 0.235582 0.9056 219
2 0.23741 0.305442 0.0514239 0.0693106 0.150101 272
2 0.26304 0.297289 0.0322904 0.0497509 0.310082 283
2 0.232859 0.301701 0.0454388 0.0787914 0.440979 290
2 0.260492 0.297909 0.0381378 0.0583581 0.117703 248
2 0.159888 0.320013 0.0551455 0.0891655 0.784973 298
2 0.407118 0.362203 0.0934305 0.116741 0.526265 304
2 0.633654 0.605487 0.119899 0.205914 0.440023 314
2 0.68731 0.728814 0.147554 0.221515 0.799354 322
2 0.314062 0.771433 0.168219 0.245988 0.851619 288
2 0.0683184 0.367255 0.0764129 0.124999 0.626348 328
2 0.0343114 0.388306 0.0686228 0.126013 0.797861 340
2 0.0742219 0.366795 0.0658781 0.115866 0.657481 345
2 0.117054 0.339876 0.0603531 0.105967 0.807718 307
2 0.273508 0.906434 0.192047 0.187132 0.854661 346
2 0.197993 0.309837 0.0488087 0.0867878 0.625954 270
2 0.686943 0.695793 0.145981 0.159442 0.791955 271
2 0.356999 0.557459 0.157368 0.326711 0.612697 350
2 0.354867 0.580064 0.153384 0.275282 0.571613 306
2 0.382961 0.465345 0.12288 0.163155 0.597216 352
2 0.156743 0.323421 0.0570746 0.0961854 0.324692 347
2 0.67852 0.723572 0.150661 0.214769 0.678087 341
2 0.457829 0.362942 0.047509 0.107065 0.663532 353
