2 0.72413 0.898015 0.207009 0.184693 0.903364 98
2 0.196823 0.313819 0.0721094 0.0849879 0.316774 212
2 0.339258 0.752197 0.205181 0.473178 0.36724 194
2 0.628689 0.63727 0.162457 0.308057 0.724243 199
2 0.216425 0.310433 0.0348269 0.0781651 0.286927 217
2 0.570372 0.407721 0.0668899 0.13385 0.518461 219
2 0.103692 0.349932 0.0656696 0.101182 0.777799 220
2 0.187166 0.316979 0.0542368 0.0887625 0.45935 202
2 0.585178 0.407001 0.0955109 0.138024 0.686425 223
2 0.102655 0.351489 0.0702052 0.113327 0.835786 225
2 0.620597 0.431028 0.121047 0.141785 0.72042 227
7 0.580064 0.289659 0.0809288 0.105275 0.341341 233
2 0.0576989 0.369459 0.0814042 0.119267 0.571261 234
2 0.0615988 0.36339 0.0825442 0.124183 0.58893 228
2 0.39086 0.382979 0.110197 0.0927 0.358568 237
2 0.0411965 0.409498 0.0799185 0.12649 0.824808 240
2 0.262122 0.93002 0.233828 0.113833 0.81152 168
2 0.246131 0.933159 0.226625 0.119702 0.717684 246
