2 0.34639 0.666014 0.153697 0.251412 0.847546 55
2 0.262706 0.298845 0.028016 0.0419972 0.111212 52
2 0.26666 0.30249 0.0186827 0.0337616 0.176101 32
7 0.724274 0.804772 0.262089 0.369341 0.456225 16
2 0.244796 0.304539 0.0545376 0.0588934 0.319291 70
2 0.290971 0.839246 0.157769 0.213131 0.907342 80
2 0.607668 0.415771 0.0869391 0.134393 0.62403 98
2 0.188933 0.305475 0.0655735 0.110441 0.336453 99
2 0.399788 0.380928 0.0865752 0.12086 0.482158 110
2 0.628183 0.528278 0.11175 0.176186 0.810268 120
2 0.378808 0.470687 0.116588 0.151211 0.550984 123
2 0.109335 0.338989 0.0700067 0.114248 0.640786 140
2 0.807479 0.486013 0.114365 0.164785 0.860551 74
2 0.610095 0.411706 0.0800157 0.1205 0.713653 148
2 0.239196 0.300694 0.0441893 0.0510231 0.295891 144
2 0.0490856 0.380993 0.0979072 0.130341 0.641015 156
2 0.041855 0.383185 0.08371 0.130933 0.854929 157
2 0.362723 0.519713 0.119047 0.132315 0.539399 158
2 0.0690912 0.362142 0.0674232 0.11776 0.577558 160
2 0.105572 0.346455 0.0774298 0.115053 0.441667 162
2 0.670665 0.621394 0.142854 0.200618 0.713661 164
