2 0.246564 0.292913 0.034695 0.0371683 0.219527 298
2 0.398851 0.494875 0.122922 0.166317 0.255384 304
2 0.229933 0.309293 0.0746284 0.0827544 0.499844 356
2 0.638271 0.54385 0.127937 0.214032 0.607922 365
2 0.642354 0.696352 0.137383 0.172611 0.792878 376
2 0.328407 0.696541 0.153473 0.165029 0.680075 352
2 0.661711 0.609248 0.124966 0.182274 0.619271 402
2 0.413699 0.499887 0.0946566 0.170431 0.734435 404
7 0.151055 0.287875 0.0790154 0.173007 0.780353 395
2 0.0772213 0.368068 0.0700551 0.110309 0.735183 414
2 0.332068 0.71336 0.158902 0.198545 0.892624 415
2 0.323621 0.87034 0.19461 0.246319 0.867213 399
2 0.658836 0.606392 0.135054 0.174595 0.539874 416
2 0.651155 0.847426 0.185614 0.209418 0.456548 417
2 0.717875 0.911579 0.265411 0.158176 0.51296 421
2 0.595976 0.410759 0.0886584 0.123834 0.654348 422
2 0.0435455 0.391881 0.087091 0.131237 0.825796 423
2 0.602201 0.395579 0.0923954 0.143681 0.395409 410
2 0.641564 0.840915 0.167692 0.216365 0.76169 430
2 0.714953 0.902159 0.258131 0.170552 0.603667 432
2 0.0836604 0.369161 0.0535772 0.106612 0.381962 433
2 0.353897 0.542799 0.120143 0.211692 0.804053 353
