2 0.266717 0.297434 0.0329102 0.0397463 0.305859 298
2 0.396766 0.556287 0.109875 0.178785 0.573401 304
2 0.244172 0.298835 0.0404672 0.0441606 0.263649 356
2 0.648816 0.599636 0.150497 0.235923 0.738544 365
2 0.653487 0.800318 0.154762 0.186052 0.757 376
2 0.398348 0.551683 0.108098 0.186911 0.80678 404
7 0.180137 0.277017 0.0699254 0.153113 0.578714 395
2 0.124311 0.340717 0.0659353 0.102168 0.28567 414
2 0.286897 0.847443 0.187735 0.270218 0.801214 415
2 0.683727 0.701515 0.136366 0.225273 0.808631 416
2 0.609194 0.442567 0.0985582 0.135705 0.766219 422
2 0.0975857 0.354691 0.0809235 0.115156 0.701594 423
2 0.613018 0.437003 0.0984212 0.156143 0.305218 410
2 0.134638 0.340393 0.0448204 0.0986034 0.51098 433
2 0.336746 0.609008 0.140569 0.23358 0.859459 353
2 0.656636 0.806587 0.171432 0.202754 0.562136 434
2 0.665118 0.923049 0.203714 0.14222 0.807743 417
2 0.678636 0.693446 0.145037 0.218228 0.472296 435
2 0.567088 0.374456 0.0674582 0.109541 0.603127 436
2 0.0266974 0.398022 0.0527339 0.152603 0.81558 441
2 0.385316 0.433795 0.107933 0.0777397 0.11934 442
2 0.101647 0.354098 0.082203 0.106082 0.156297 444
2 0.28733 0.820473 0.182223 0.2239 0.674802 445
2 0.289657 0.952299 0.178195 0.0880633 0.80164 352
