2 0.272527 0.30316 0.0238341 0.0342532 0.140183 3
2 0.255111 0.298897 0.0330964 0.0485283 0.108704 13
2 0.234572 0.309044 0.060204 0.0711335 0.222781 21
2 0.755543 0.908958 0.216119 0.16395 0.826977 22
2 0.386871 0.5172 0.114499 0.205522 0.680502 55
2 0.658978 0.801165 0.174376 0.251448 0.850801 57
2 0.236062 0.306665 0.0546682 0.0639344 0.323503 52
2 0.24587 0.296018 0.0352407 0.0475593 0.170077 32
7 0.668795 0.568551 0.176612 0.383749 0.553263 16
2 0.181944 0.316121 0.0643678 0.0912379 0.752951 70
2 0.739465 0.38389 0.0819054 0.126178 0.743944 74
2 0.347666 0.606228 0.120133 0.156142 0.823622 80
2 0.594786 0.427143 0.0659698 0.133858 0.356932 92
2 0.577491 0.36103 0.0668255 0.11291 0.499725 98
2 0.0923153 0.349167 0.0864705 0.139009 0.78258 99
2 0.229594 0.310424 0.0508015 0.0741628 0.487781 53
2 0.425838 0.351101 0.0891416 0.104867 0.249418 110
2 0.602624 0.429243 0.0801122 0.139574 0.760727 120
2 0.398837 0.415451 0.0952752 0.111188 0.562153 123
2 0.346506 0.620782 0.119056 0.127453 0.625065 97
2 0.310134 0.792341 0.170544 0.261976 0.917007 100
2 0.291793 0.929128 0.192593 0.132319 0.833874 128
2 0.697613 0.686694 0.118503 0.148495 0.183423 130
5 0.67208 0.549265 0.172481 0.339252 0.527368 131
2 0.0132702 0.436107 0.0265381 0.168409 0.631121 132
2 0.0122646 0.426923 0.0245293 0.188394 0.58134 133
