2 0.30957 0.806257 0.181638 0.301158 0.889395 55
2 0.793145 0.957026 0.294561 0.0702407 0.655532 16
2 0.262828 0.302689 0.0334427 0.0336559 0.272239 70
2 0.249343 0.973205 0.137541 0.0499838 0.708958 80
2 0.616298 0.458523 0.0953377 0.183506 0.126673 98
2 0.224286 0.286097 0.0522529 0.0633987 0.251952 99
2 0.392505 0.450402 0.101232 0.14983 0.469371 110
2 0.634444 0.610541 0.119998 0.200409 0.823427 120
2 0.374687 0.537866 0.108056 0.180281 0.629906 123
2 0.863826 0.575341 0.13696 0.200059 0.83766 74
2 0.604611 0.403919 0.0860348 0.120867 0.474337 148
2 0.261244 0.304606 0.0330084 0.0331387 0.344911 144
2 0.029146 0.323217 0.058292 0.107462 0.70814 157
2 0.334984 0.69481 0.15009 0.231162 0.650214 158
2 0.103204 0.344498 0.0791675 0.112449 0.875022 156
2 0.619913 0.463015 0.0952013 0.147696 0.74926 166
2 0.681949 0.732141 0.153278 0.232075 0.85421 164
2 0.163077 0.316217 0.0626903 0.0983259 0.718454 160
7 0.424148 0.333127 0.0926559 0.21236 0.480889 168
2 0.105523 0.339346 0.0882356 0.114438 0.764197 171
2 0.129269 0.331954 0.0494033 0.102606 0.165182 140
2 0.337773 0.657982 0.142181 0.145979 0.466082 173
2 0.248854 0.976005 0.140691 0.0479895 0.534364 174
2 0.160466 0.316452 0.060156 0.107284 0.574241 150
2 0.790856 0.959495 0.285504 0.0810093 0.501596 176
2 0.334985 0.659164 0.14842 0.155539 0.645539 177
2 0.365376 0.534868 0.121189 0.187059 0.618872 178
