2 0.244999 0.306302 0.0305211 0.0576027 0.229622 3
2 0.245188 0.298045 0.0355699 0.0595737 0.118476 13
2 0.20293 0.313794 0.052893 0.0850705 0.202911 21
2 0.685887 0.690688 0.149856 0.247322 0.842685 22
2 0.695183 0.886096 0.188713 0.21759 0.865909 23
2 0.397506 0.436341 0.0978429 0.164684 0.471415 55
2 0.628654 0.600914 0.121491 0.192714 0.819494 57
2 0.205988 0.310484 0.0480337 0.0848474 0.495902 52
2 0.106223 0.343406 0.0912503 0.1117 0.736149 60
2 0.204537 0.302844 0.0510208 0.0759137 0.302495 32
5 0.644235 0.437525 0.145153 0.27315 0.486504 16
2 0.101262 0.349951 0.0789663 0.107077 0.846452 70
2 0.315065 0.850636 0.17206 0.269968 0.868563 8
2 0.365227 0.716883 0.148397 0.251716 0.809179 26
2 0.625238 0.598283 0.118021 0.172781 0.58109 73
2 0.710837 0.343945 0.0601403 0.112153 0.500247 74
2 0.166648 0.318485 0.0664837 0.0877275 0.196836 53
2 0.351382 0.582405 0.122747 0.176311 0.612467 80
2 0.165595 0.318168 0.0538274 0.0897827 0.807047 68
2 0.571591 0.376587 0.0487879 0.117294 0.442694 92
2 0.238583 0.963388 0.170068 0.0668751 0.720754 29
2 0.234257 0.962606 0.182792 0.0747879 0.151057 90
2 0.380746 0.525392 0.0924875 0.138703 0.533781 97
2 0.571917 0.373781 0.0555918 0.125104 0.406223 98
2 0.0196163 0.417489 0.0381457 0.18651 0.786158 99
2 0.353584 0.55856 0.127166 0.130482 0.294475 100
2 0.311262 0.836252 0.168551 0.246724 0.706143 95
