2 0.242402 0.301372 0.0439291 0.0560029 0.113605 13
2 0.237308 0.307766 0.0437309 0.0659651 0.27348 21
2 0.384606 0.540826 0.121769 0.201091 0.776671 55
2 0.672305 0.869583 0.188166 0.244849 0.884028 57
2 0.240268 0.305424 0.0462701 0.06191 0.290762 52
2 0.258164 0.296341 0.0364508 0.0381698 0.21968 32
7 0.677388 0.610971 0.193161 0.415658 0.488293 16
2 0.196098 0.312402 0.0647269 0.0840516 0.712042 70
2 0.337836 0.63717 0.12824 0.170149 0.837888 80
2 0.608605 0.435717 0.0834508 0.132344 0.204927 92
2 0.5843 0.36534 0.0697674 0.132419 0.563127 98
2 0.110243 0.333198 0.0902587 0.136883 0.534031 99
2 0.236239 0.308678 0.052339 0.0739582 0.100889 53
2 0.410689 0.368478 0.08685 0.123557 0.553076 110
2 0.608948 0.446776 0.0821279 0.145134 0.758766 120
2 0.399355 0.388938 0.0836037 0.0743098 0.222154 123
2 0.282795 0.856985 0.181615 0.277711 0.892476 100
2 0.0275604 0.410886 0.0547915 0.157708 0.863025 140
2 0.751906 0.399591 0.0880964 0.134125 0.752925 74
2 0.766168 0.962335 0.172223 0.0654084 0.700372 22
2 0.215229 0.312482 0.100375 0.0831932 0.289753 144
2 0.382158 0.50543 0.119828 0.148319 0.632637 134
