2 0.615898 0.711606 0.154502 0.23933 0.859148 1
2 0.183211 0.307146 0.0660886 0.0762905 0.528727 3
2 0.299767 0.91929 0.222898 0.14886 0.87605 7
2 0.263881 0.292532 0.0230596 0.0426974 0.136394 10
2 0.182304 0.312846 0.0606205 0.0931243 0.580557 13
5 0.629912 0.324154 0.102201 0.170959 0.752336 16
2 0.133274 0.326154 0.0633246 0.108511 0.769533 21
2 0.640885 0.477749 0.109886 0.139928 0.620534 22
2 0.652946 0.594317 0.123064 0.190181 0.782617 23
2 0.389262 0.573762 0.0989523 0.186092 0.144793 26
2 0.342229 0.649837 0.135874 0.206554 0.843891 29
2 0.382295 0.567751 0.118386 0.199714 0.672715 8
2 0.694349 0.918531 0.204053 0.156542 0.888952 9
2 0.375252 0.439163 0.106449 0.118536 0.386959 47
2 0.0390995 0.370061 0.0781085 0.116225 0.80833 53
2 0.383332 0.53987 0.114179 0.129258 0.256594 45
2 0.412134 0.364659 0.0904826 0.14157 0.587774 55
7 0.62753 0.326905 0.10625 0.174112 0.582201 56
2 0.588616 0.462502 0.0858934 0.142191 0.485118 57
2 0.0939365 0.347001 0.0719845 0.107238 0.827227 52
2 0.0132962 0.426425 0.0265923 0.143305 0.752853 60
