2 0.261263 0.300792 0.031053 0.0535435 0.155186 220
2 0.655689 0.72865 0.159903 0.262682 0.79794 233
2 0.255474 0.302285 0.0359117 0.0617709 0.118155 272
2 0.25799 0.30197 0.0261328 0.050153 0.214173 290
2 0.198757 0.309906 0.0384004 0.0774148 0.437061 298
2 0.394324 0.384598 0.0929902 0.123887 0.561994 304
2 0.244443 0.935596 0.234332 0.115481 0.657206 288
2 0.0980686 0.339922 0.067203 0.106068 0.536928 340
2 0.11314 0.333361 0.0917028 0.110384 0.289699 345
2 0.166944 0.315644 0.0597589 0.090238 0.779555 307
2 0.315081 0.730727 0.189226 0.339655 0.626687 350
2 0.355035 0.607026 0.131259 0.252214 0.496148 306
2 0.391378 0.518045 0.103009 0.172582 0.561496 352
2 0.446896 0.387824 0.0601326 0.12407 0.499609 353
2 0.108402 0.328688 0.101345 0.110418 0.343418 356
2 0.0913235 0.339994 0.0905455 0.104215 0.513294 328
2 0.23214 0.30745 0.0387538 0.06884 0.296701 362
2 0.617531 0.42052 0.0979646 0.0941939 0.588075 365
2 0.0229147 0.40927 0.0451535 0.128508 0.762498 369
2 0.179943 0.317027 0.0775498 0.0871179 0.30078 371
2 0.037505 0.383716 0.073249 0.132663 0.842251 372
2 0.617038 0.440446 0.0970069 0.0670786 0.54641 376
2 0.727348 0.893665 0.184909 0.198341 0.876203 271
2 0.24211 0.939155 0.212034 0.1041 0.619102 382
