2 0.593864 0.535231 0.113359 0.177855 0.863834 1
2 0.244409 0.893528 0.218772 0.194103 0.888922 2
2 0.103275 0.351956 0.0875105 0.116959 0.683391 3
2 0.327691 0.871344 0.158142 0.248245 0.869129 4
2 0.66957 0.802173 0.177166 0.318821 0.846928 5
2 0.36888 0.645733 0.149832 0.215543 0.875894 7
2 0.38027 0.498499 0.106902 0.151447 0.691526 8
2 0.644969 0.658297 0.140651 0.21018 0.600116 9
2 0.211453 0.307119 0.0447558 0.0797486 0.430202 10
2 0.631509 0.463459 0.0896136 0.127705 0.270601 11
7 0.150636 0.306895 0.0830263 0.134473 0.504345 13
5 0.605553 0.297762 0.0860468 0.166604 0.40352 16
2 0.649611 0.645478 0.136718 0.184753 0.809209 17
2 0.0346375 0.387156 0.069275 0.143257 0.656537 21
2 0.603964 0.393563 0.084594 0.0978208 0.587777 22
2 0.633236 0.478058 0.0931691 0.152083 0.601107 23
2 0.412998 0.458515 0.0926839 0.151041 0.586739 26
