2 0.250267 0.298584 0.0320334 0.0451659 0.345606 13
2 0.233235 0.311858 0.0461629 0.076623 0.198574 21
2 0.75704 0.925764 0.22685 0.124193 0.790585 22
2 0.3868 0.524953 0.120072 0.201896 0.778365 55
2 0.661779 0.824878 0.173402 0.253569 0.872753 57
2 0.233378 0.308749 0.0530309 0.0693945 0.223945 52
2 0.249742 0.29781 0.0294164 0.0486194 0.167073 32
7 0.673593 0.583658 0.184192 0.390745 0.422757 16
2 0.186381 0.31478 0.0666315 0.0899034 0.6788 70
2 0.742938 0.390916 0.0823157 0.131032 0.751812 74
2 0.34398 0.615457 0.12355 0.164786 0.820574 80
2 0.597737 0.431996 0.0707003 0.136181 0.319828 92
2 0.580103 0.365192 0.0708111 0.117693 0.553063 98
2 0.0974287 0.34197 0.0907146 0.137423 0.72624 99
2 0.227555 0.310761 0.0405836 0.0760671 0.493394 53
2 0.425075 0.342852 0.0950518 0.0972927 0.150268 110
2 0.605242 0.43439 0.0811935 0.140424 0.708145 120
2 0.398258 0.40354 0.0945427 0.0887464 0.502298 123
2 0.301702 0.816079 0.176094 0.275366 0.869557 100
2 0.287044 0.950318 0.174511 0.0864188 0.853248 128
2 0.697841 0.700142 0.129024 0.171959 0.249861 130
5 0.673221 0.542655 0.17159 0.310369 0.344925 131
2 0.0173298 0.429029 0.0346597 0.15919 0.746324 132
2 0.386822 0.502357 0.119052 0.151727 0.543782 134
2 0.746727 0.929849 0.223296 0.126187 0.752168 135
2 0.74418 0.386277 0.0909904 0.133321 0.756144 136
2 0.299617 0.802918 0.166685 0.246963 0.764846 137
2 0.0179816 0.416772 0.0348703 0.178339 0.765549 133
2 0.28595 0.951403 0.171536 0.0971936 0.61931 26
