2 0.303018 0.842974 0.18689 0.300559 0.85839 55
2 0.27098 0.30302 0.0375617 0.0304478 0.298778 70
2 0.606723 0.399792 0.0887313 0.107863 0.279078 98
2 0.2311 0.289568 0.0506819 0.063802 0.304937 99
2 0.390316 0.46434 0.099806 0.154956 0.58825 110
2 0.63842 0.634315 0.124069 0.211221 0.822256 120
2 0.340625 0.591777 0.123028 0.114139 0.411399 123
2 0.877393 0.605684 0.143751 0.208151 0.874641 74
2 0.606435 0.411374 0.0863387 0.125956 0.730339 148
2 0.0367314 0.320282 0.0669053 0.105733 0.792462 157
2 0.329193 0.740566 0.153617 0.209645 0.18799 158
2 0.117777 0.335956 0.0780944 0.109827 0.836761 156
2 0.624972 0.474298 0.0959395 0.141656 0.744764 166
2 0.687337 0.768208 0.15893 0.245804 0.870761 164
7 0.42137 0.347474 0.0944335 0.23543 0.478832 168
2 0.328964 0.692038 0.152486 0.169116 0.58445 173
2 0.330881 0.721155 0.146468 0.232559 0.570656 177
2 0.368188 0.550922 0.117021 0.186946 0.701713 178
2 0.621698 0.475608 0.0945279 0.163985 0.273494 180
2 0.12151 0.334014 0.0841244 0.113253 0.810417 171
