2 0.356978 0.627957 0.142716 0.246564 0.775339 55
2 0.268429 0.302591 0.0255831 0.0375469 0.174134 52
2 0.269941 0.298731 0.0268215 0.040655 0.11994 32
2 0.702733 0.773363 0.218786 0.426737 0.394907 16
2 0.232534 0.307592 0.0563107 0.0697811 0.438046 70
2 0.298648 0.782594 0.149399 0.19715 0.919242 80
2 0.605172 0.405435 0.0787991 0.131307 0.652538 98
7 0.174015 0.307636 0.0664047 0.114667 0.333775 99
2 0.405078 0.34866 0.0722851 0.0663399 0.13637 110
2 0.624914 0.50613 0.103979 0.169809 0.840775 120
2 0.392119 0.44372 0.0897109 0.111864 0.295919 123
2 0.0866887 0.351817 0.0795259 0.120249 0.805244 140
2 0.793796 0.463911 0.108691 0.166235 0.824364 74
2 0.603897 0.397467 0.0785739 0.113509 0.543541 148
2 0.235559 0.300537 0.0514685 0.0591853 0.40102 144
2 0.590914 0.80337 0.0317079 0.170456 0.154281 149
2 0.0444879 0.379547 0.0771179 0.122292 0.508531 150
2 0.623214 0.522629 0.0993446 0.134726 0.139029 92
2 0.0348457 0.392872 0.0696914 0.133119 0.558466 156
2 0.0309046 0.398556 0.0618092 0.132757 0.843563 157
2 0.363854 0.494265 0.112214 0.106315 0.518694 158
2 0.055327 0.376625 0.058196 0.114627 0.555587 160
