2 0.749498 0.92857 0.228052 0.125426 0.577363 98
2 0.207068 0.313429 0.0686489 0.0854541 0.505894 212
2 0.316069 0.764433 0.242807 0.420977 0.572142 194
2 0.626372 0.67008 0.176726 0.33254 0.621584 199
2 0.223019 0.307663 0.0364789 0.0776723 0.342619 217
2 0.617247 0.44982 0.123579 0.152824 0.354069 219
2 0.0797556 0.358262 0.0776766 0.111247 0.671531 220
2 0.19587 0.315114 0.0510218 0.0877927 0.587274 202
2 0.586962 0.41655 0.0964928 0.137006 0.684669 223
2 0.122875 0.339414 0.065761 0.102163 0.693246 225
2 0.622509 0.455862 0.12903 0.160465 0.768427 227
7 0.578349 0.312575 0.0877646 0.15304 0.467837 233
2 0.0615066 0.391521 0.0741395 0.118993 0.516604 234
2 0.385919 0.386049 0.126819 0.0947971 0.254072 237
2 0.0575819 0.389562 0.0722823 0.123954 0.731594 240
2 0.240308 0.976348 0.162546 0.0398842 0.471071 246
2 0.0227949 0.414872 0.0455128 0.141572 0.825069 248
2 0.24284 0.977249 0.165662 0.0453269 0.219412 168
2 0.342353 0.525313 0.103397 0.0803734 0.61568 250
2 0.736315 0.931226 0.217208 0.125123 0.788121 252
2 0.123976 0.341988 0.0594428 0.102978 0.62716 228
