2 0.604829 0.645379 0.139914 0.217444 0.898775 1
2 0.168749 0.317314 0.076567 0.0978902 0.718679 3
2 0.731782 0.955613 0.176586 0.0765643 0.703918 5
2 0.328054 0.849699 0.203363 0.270998 0.893801 7
2 0.252803 0.294455 0.0279543 0.0395707 0.307364 10
7 0.192895 0.28976 0.0689469 0.107252 0.139876 13
5 0.622728 0.31168 0.0902674 0.16086 0.806377 16
2 0.104519 0.338769 0.068865 0.119027 0.799395 21
2 0.624073 0.457124 0.0984058 0.146049 0.205979 22
2 0.644873 0.548597 0.108623 0.175663 0.705187 23
2 0.397984 0.530606 0.0978675 0.182592 0.745297 26
2 0.359253 0.596681 0.126495 0.196229 0.8122 29
2 0.050364 0.369437 0.090513 0.115041 0.835582 32
2 0.387041 0.524562 0.115789 0.172941 0.638931 8
2 0.672623 0.853694 0.182107 0.253352 0.887487 9
2 0.389419 0.511126 0.109547 0.152088 0.452795 42
2 0.377544 0.419157 0.0922038 0.115615 0.377445 47
2 0.01786 0.397957 0.0353614 0.12253 0.770653 50
2 0.743481 0.958313 0.210276 0.0803483 0.172795 41
7 0.624622 0.311864 0.0950184 0.165096 0.584088 51
