2 0.242199 0.304549 0.0318483 0.0645183 0.183263 220
2 0.267578 0.2996 0.0255187 0.0371634 0.257034 225
7 0.613488 0.407029 0.115939 0.192691 0.503401 233
2 0.619533 0.679136 0.154483 0.219281 0.89131 219
2 0.26995 0.914043 0.212235 0.160468 0.854625 266
2 0.142259 0.330898 0.0657155 0.101735 0.788325 270
2 0.178706 0.315095 0.0526535 0.0999776 0.625189 272
2 0.714537 0.876269 0.251026 0.229194 0.753011 285
2 0.224603 0.312366 0.0670753 0.0855752 0.414372 283
2 0.174901 0.312751 0.0594591 0.100014 0.193336 290
2 0.660358 0.58529 0.113966 0.183018 0.646549 271
2 0.227906 0.309282 0.0663461 0.0818784 0.514956 248
2 0.334198 0.666496 0.14095 0.154371 0.652366 297
2 0.0806188 0.357719 0.0659519 0.111133 0.791144 298
2 0.268956 0.809638 0.192331 0.237344 0.845924 302
2 0.340819 0.797256 0.138746 0.250191 0.64973 265
2 0.430287 0.331602 0.103295 0.114845 0.297605 304
2 0.379474 0.448705 0.122756 0.214026 0.548147 306
2 0.0359132 0.390365 0.071165 0.136058 0.788835 307
2 0.380229 0.424086 0.12118 0.162429 0.644537 313
2 0.642245 0.493666 0.10843 0.155072 0.457162 314
2 0.353997 0.800256 0.109308 0.244688 0.564864 237
2 0.659221 0.561408 0.115212 0.132613 0.569817 322
2 0.269963 0.839837 0.19516 0.284223 0.311833 323
2 0.365438 0.590396 0.125596 0.188884 0.731532 288
