2 0.238602 0.304058 0.0361438 0.0653957 0.561579 3
2 0.239925 0.298252 0.0344159 0.061233 0.32208 13
2 0.195416 0.296092 0.0558072 0.0632495 0.194312 21
2 0.682149 0.661967 0.150326 0.231252 0.81106 22
2 0.681635 0.856904 0.176469 0.258911 0.906886 23
2 0.395495 0.421809 0.103815 0.152716 0.493775 55
2 0.625176 0.585144 0.120585 0.181922 0.878064 57
2 0.196605 0.30974 0.0548464 0.0911594 0.349243 52
2 0.0862175 0.352611 0.0908124 0.10917 0.306861 60
2 0.679394 0.637682 0.143921 0.181128 0.431916 66
2 0.19708 0.317 0.0502031 0.0858265 0.171697 32
7 0.641743 0.421921 0.139949 0.258017 0.570113 16
2 0.0856339 0.357903 0.0832562 0.110754 0.90286 70
2 0.325627 0.803697 0.160139 0.263383 0.865869 8
2 0.368293 0.687143 0.145494 0.241715 0.820867 26
2 0.617913 0.57765 0.103126 0.171713 0.173874 73
2 0.7175 0.346266 0.0367338 0.101029 0.391991 74
2 0.148599 0.318376 0.0733123 0.0901626 0.602551 53
2 0.352951 0.558215 0.118871 0.160903 0.622986 80
2 0.153956 0.318536 0.0612329 0.0887078 0.64506 68
2 0.569548 0.374139 0.0509774 0.109847 0.573883 92
2 0.263454 0.926781 0.207106 0.130226 0.767362 29
2 0.250596 0.927869 0.229372 0.134111 0.793249 90
5 0.644872 0.41797 0.137523 0.249792 0.457663 94
2 0.324973 0.772325 0.160683 0.200871 0.62238 95
