2 0.582111 0.487257 0.100033 0.161061 0.894659 1
2 0.284037 0.776895 0.177726 0.281782 0.888176 2
2 0.0465675 0.387286 0.0914156 0.137848 0.86692 3
2 0.363924 0.718443 0.128847 0.230456 0.843411 4
2 0.650344 0.670316 0.15572 0.263492 0.819133 5
2 0.217435 0.951945 0.18134 0.0911033 0.783827 6
2 0.391681 0.559335 0.130553 0.18725 0.772746 7
2 0.386953 0.440543 0.100016 0.102763 0.657132 8
2 0.632962 0.565224 0.130072 0.148153 0.652588 9
2 0.182825 0.314381 0.0547969 0.0880536 0.609804 10
2 0.623635 0.431747 0.082678 0.113898 0.60858 11
2 0.724522 0.888304 0.274752 0.209447 0.602057 12
