2 0.317203 0.768375 0.176661 0.28881 0.872041 55
2 0.767749 0.912255 0.281323 0.162451 0.624431 16
2 0.259648 0.301918 0.0417102 0.0293183 0.301624 70
2 0.263936 0.937332 0.174555 0.106121 0.771648 80
2 0.616922 0.436572 0.0975849 0.113839 0.136135 98
2 0.215067 0.286842 0.0520812 0.0665363 0.202306 99
2 0.391112 0.438961 0.099015 0.152345 0.396982 110
2 0.634517 0.592133 0.121899 0.19316 0.796321 120
2 0.371057 0.519476 0.119408 0.178708 0.650328 123
2 0.848808 0.555089 0.130612 0.189323 0.841863 74
2 0.602568 0.393027 0.0861936 0.122901 0.595151 148
2 0.258851 0.303993 0.0402076 0.0356778 0.353697 144
2 0.0211846 0.328078 0.0421621 0.107769 0.566099 157
2 0.342653 0.669536 0.145363 0.216165 0.612288 158
2 0.087083 0.352201 0.0780529 0.114168 0.904586 156
2 0.618606 0.452764 0.0912772 0.139416 0.772095 166
2 0.679785 0.702118 0.146427 0.225879 0.874321 164
2 0.151569 0.319067 0.0585448 0.106448 0.734657 160
5 0.426231 0.304564 0.0882299 0.161284 0.575957 168
2 0.151719 0.32865 0.0686481 0.107173 0.534655 150
2 0.0943277 0.347438 0.0958541 0.121028 0.736486 171
2 0.11479 0.33686 0.0558655 0.105202 0.68716 140
