2 0.231798 0.311326 0.0560019 0.0737233 0.387176 212
2 0.253768 0.864078 0.258723 0.262336 0.61569 194
2 0.654114 0.788061 0.201023 0.406027 0.7173 199
2 0.253561 0.303505 0.0297402 0.039912 0.371978 217
2 0.13781 0.328624 0.0608011 0.0937988 0.545438 220
2 0.225513 0.310076 0.0426614 0.0787985 0.459911 202
2 0.179435 0.313608 0.05324 0.100291 0.261325 225
2 0.619962 0.553524 0.148129 0.24446 0.773197 227
7 0.589965 0.335145 0.094 0.16235 0.389862 233
2 0.360227 0.459664 0.122452 0.12804 0.590687 237
2 0.0713112 0.365347 0.0751908 0.120875 0.828093 248
2 0.320558 0.704379 0.15714 0.265118 0.643792 250
2 0.178084 0.320361 0.0557912 0.0907629 0.530557 254
2 0.143939 0.336891 0.0489483 0.0792242 0.31301 255
2 0.589441 0.463231 0.0962553 0.148074 0.360486 219
2 0.0360948 0.397265 0.0721896 0.126307 0.786387 257
2 0.113984 0.346439 0.0510482 0.102863 0.629002 234
2 0.178267 0.307161 0.0520061 0.0693799 0.199828 228
2 0.377694 0.561288 0.107989 0.185249 0.708852 261
2 0.310173 0.708711 0.164498 0.283849 0.382412 263
2 0.319477 0.677616 0.156728 0.203678 0.54468 265
2 0.366011 0.563901 0.130214 0.180266 0.315316 266
2 0.0755873 0.364969 0.0690079 0.110519 0.695103 260
2 0.136012 0.323012 0.0676251 0.0989963 0.584017 258
2 0.335611 0.590658 0.128199 0.135802 0.536193 267
2 0.61553 0.55151 0.145234 0.274427 0.573793 268
