2 0.670641 0.769278 0.171788 0.30514 0.794275 365
7 0.2227 0.276975 0.0555108 0.132469 0.569506 395
2 0.738954 0.889092 0.194521 0.203997 0.7831 416
2 0.635127 0.520325 0.113466 0.160644 0.763639 410
2 0.28908 0.798557 0.187135 0.294751 0.85626 353
2 0.586681 0.420621 0.0947057 0.128947 0.45579 436
2 0.116125 0.329669 0.0704188 0.113072 0.594795 441
2 0.340804 0.580448 0.141457 0.145869 0.358594 442
7 0.224033 0.266463 0.0599002 0.114738 0.200162 453
2 0.173429 0.312719 0.0586674 0.087419 0.553854 423
2 0.0738941 0.367431 0.0471297 0.122925 0.200623 456
2 0.581569 0.425168 0.0847418 0.130447 0.667863 461
2 0.0771618 0.368762 0.0398447 0.116925 0.464603 462
2 0.365692 0.70428 0.146859 0.245716 0.819725 465
2 0.0371732 0.375997 0.0743464 0.172469 0.800442 471
2 0.42886 0.378736 0.0747094 0.121045 0.778588 476
2 0.354905 0.70261 0.154234 0.242763 0.681258 304
2 0.576645 0.336577 0.0844274 0.128751 0.621502 478
2 0.752931 0.882694 0.220605 0.229007 0.214943 479
2 0.0167326 0.436346 0.0334651 0.142775 0.811343 480
