2 0.257204 0.295998 0.0304885 0.0389583 0.132721 298
2 0.402964 0.525867 0.105054 0.175267 0.618773 304
2 0.229993 0.307292 0.0443073 0.0686718 0.345659 356
2 0.647499 0.559113 0.137848 0.197632 0.485918 365
2 0.654403 0.731526 0.149595 0.144049 0.616438 376
2 0.302199 0.912634 0.188462 0.174732 0.831557 352
2 0.646568 0.572316 0.143158 0.230022 0.613583 402
2 0.407393 0.525422 0.100219 0.18062 0.813843 404
7 0.166591 0.280356 0.071066 0.163769 0.713701 395
2 0.105462 0.34762 0.0615375 0.103169 0.690594 414
2 0.308465 0.77047 0.167842 0.21522 0.881377 415
2 0.669805 0.655481 0.140637 0.207229 0.740832 416
2 0.606513 0.427797 0.0971474 0.131543 0.684441 422
2 0.0717596 0.373415 0.0855643 0.114503 0.829176 423
2 0.608042 0.407336 0.106148 0.141393 0.541504 410
2 0.102751 0.35306 0.0658097 0.106459 0.718232 433
2 0.343805 0.574709 0.132937 0.221795 0.824294 353
2 0.650288 0.751273 0.152678 0.18511 0.656413 434
2 0.654283 0.892102 0.18559 0.195672 0.794502 417
2 0.666295 0.636095 0.140101 0.199419 0.218187 435
2 0.716522 0.946522 0.206524 0.0832505 0.571982 421
2 0.570228 0.36756 0.0743762 0.106609 0.649127 436
2 0.31269 0.907568 0.206359 0.170392 0.810415 399
