2 0.630101 0.797182 0.171409 0.262867 0.913956 1
2 0.200454 0.306911 0.054758 0.0826853 0.50126 3
2 0.27477 0.295909 0.0213144 0.0441635 0.135974 10
2 0.196846 0.302657 0.0499598 0.0774072 0.389187 13
2 0.157267 0.318509 0.0632536 0.101552 0.525347 21
2 0.652735 0.517873 0.120549 0.1607 0.739223 22
2 0.652723 0.645756 0.143719 0.212545 0.775974 23
2 0.329573 0.715732 0.147713 0.228534 0.879289 29
2 0.382866 0.515835 0.111057 0.104264 0.430799 47
2 0.0786727 0.341952 0.0746221 0.11417 0.410282 53
2 0.405433 0.381935 0.0959936 0.135188 0.528349 55
2 0.599724 0.489991 0.0959213 0.149863 0.718088 57
2 0.128814 0.335493 0.0593515 0.0978479 0.767839 52
2 0.0331207 0.394611 0.0662413 0.1277 0.854363 60
2 0.648935 0.508469 0.116855 0.13922 0.663199 66
2 0.126871 0.331628 0.0665107 0.101003 0.65665 32
2 0.651537 0.494746 0.113215 0.110958 0.55026 67
2 0.0802736 0.349958 0.0731966 0.106848 0.771979 68
7 0.625418 0.344425 0.121016 0.182794 0.563995 16
2 0.656318 0.606783 0.132068 0.133094 0.590171 69
2 0.0120741 0.440787 0.0241481 0.108509 0.675058 70
2 0.371107 0.610009 0.123628 0.201706 0.754891 8
2 0.368581 0.617211 0.136152 0.209475 0.665439 26
