2 0.23447 0.305706 0.037486 0.0764264 0.425306 3
2 0.233483 0.301042 0.0398761 0.0691092 0.310712 13
2 0.19367 0.298089 0.0502583 0.0655164 0.131921 21
2 0.678355 0.647155 0.146347 0.227264 0.645313 22
2 0.679338 0.830124 0.172737 0.249452 0.864309 23
2 0.396223 0.419533 0.102597 0.150117 0.516806 55
2 0.623494 0.577448 0.114208 0.181724 0.811277 57
2 0.194366 0.311538 0.0492462 0.0836867 0.36919 52
2 0.100773 0.343642 0.0695296 0.104806 0.557189 60
2 0.678916 0.630626 0.144189 0.194554 0.725564 66
2 0.193204 0.316239 0.0471947 0.0853847 0.481943 32
7 0.643766 0.413207 0.133166 0.250293 0.607007 16
2 0.0761629 0.363533 0.0827282 0.111919 0.882787 70
2 0.328425 0.787063 0.161773 0.255323 0.893979 8
2 0.368889 0.670512 0.137838 0.237653 0.79078 26
2 0.614077 0.575218 0.097492 0.174484 0.285229 73
2 0.712142 0.338892 0.0473255 0.105105 0.272019 74
2 0.135891 0.319805 0.0861876 0.0918316 0.683914 53
2 0.35878 0.546112 0.121519 0.148707 0.583473 80
2 0.67662 0.616801 0.143949 0.166115 0.565619 84
2 0.143194 0.318572 0.0707058 0.0900415 0.600397 68
2 0.569302 0.370623 0.0505795 0.111266 0.619287 92
2 0.269176 0.915276 0.200303 0.162289 0.874456 29
2 0.258948 0.913802 0.205654 0.169224 0.849791 90
2 0.693527 0.975621 0.151576 0.0478971 0.477691 1
5 0.644396 0.407834 0.129248 0.238406 0.667797 94
2 0.329956 0.770962 0.154315 0.230483 0.808684 95
