2 0.262976 0.295863 0.0420326 0.0441227 0.242901 220
2 0.638982 0.592773 0.126458 0.215602 0.712467 233
2 0.651386 0.852429 0.189002 0.267684 0.904545 219
2 0.186465 0.311499 0.0505036 0.0875282 0.595963 270
2 0.224117 0.300589 0.0466385 0.0818086 0.514188 272
2 0.256855 0.295809 0.0324728 0.0470481 0.226581 283
2 0.225815 0.313111 0.0454132 0.0697274 0.550917 290
2 0.680784 0.708115 0.140934 0.23181 0.707981 271
2 0.264551 0.297623 0.0378121 0.0396949 0.240349 248
2 0.286166 0.875894 0.186706 0.215318 0.80017 297
2 0.148111 0.327101 0.0582129 0.0901773 0.765269 298
2 0.206986 0.973486 0.167582 0.0476179 0.309476 302
2 0.24473 0.962636 0.247328 0.0737567 0.170266 265
2 0.406337 0.35372 0.0868883 0.110194 0.514013 304
2 0.357903 0.561472 0.152973 0.27386 0.721362 313
2 0.619012 0.510304 0.147599 0.287646 0.462103 314
2 0.284354 0.951854 0.168097 0.0911513 0.514938 237
2 0.680224 0.674736 0.139964 0.16491 0.535327 322
2 0.328555 0.736719 0.159917 0.240535 0.824485 288
2 0.0560545 0.374637 0.0779012 0.127773 0.791219 328
2 0.0276871 0.396934 0.0553742 0.135995 0.836161 340
2 0.678247 0.66323 0.137737 0.139453 0.726299 341
2 0.250268 0.954775 0.235055 0.0903747 0.333657 342
2 0.0622204 0.374564 0.0663103 0.123052 0.739546 345
2 0.361576 0.542805 0.15571 0.305051 0.637638 306
2 0.103407 0.345839 0.0676687 0.109687 0.850216 307
