2 0.277046 0.304696 0.0414608 0.0341333 0.323111 220
2 0.278177 0.301342 0.0431528 0.0326062 0.353346 272
2 0.211489 0.309972 0.0478195 0.0807374 0.33289 298
2 0.437787 0.443129 0.0671866 0.141697 0.570252 304
2 0.195376 0.310813 0.0797087 0.0835612 0.393197 307
2 0.226284 0.955403 0.231584 0.072813 0.264572 350
2 0.282164 0.84581 0.216805 0.297285 0.671908 306
2 0.373672 0.434646 0.102511 0.121386 0.573718 353
2 0.18437 0.310537 0.0680509 0.0830742 0.22495 356
2 0.277841 0.310328 0.0441502 0.0494293 0.103347 362
2 0.617446 0.466547 0.104147 0.182223 0.321615 365
2 0.241404 0.302445 0.0308463 0.0575967 0.230295 371
2 0.64763 0.520476 0.108165 0.162942 0.517074 376
2 0.375576 0.446904 0.108243 0.139112 0.56802 392
2 0.190242 0.317492 0.0777223 0.0937413 0.260496 345
2 0.366735 0.692942 0.148286 0.227216 0.787267 399
2 0.223963 0.30237 0.0734922 0.070018 0.121626 328
2 0.376156 0.571275 0.129437 0.173532 0.613792 352
2 0.654188 0.524188 0.097407 0.170739 0.553363 402
2 0.431169 0.442786 0.0767218 0.142666 0.789555 404
7 0.0807918 0.316504 0.0956245 0.206362 0.851217 395
2 0.267022 0.835656 0.24332 0.280038 0.601127 405
2 0.139702 0.331739 0.0345217 0.108056 0.763584 369
2 0.727934 0.917405 0.192006 0.162321 0.764358 233
2 0.738436 0.91594 0.230658 0.156976 0.796937 407
