2 0.643348 0.865435 0.194301 0.258932 0.887282 1
2 0.209777 0.308368 0.0434956 0.0867802 0.361527 3
2 0.207131 0.306345 0.0438946 0.0797985 0.291093 13
2 0.173426 0.312481 0.0745468 0.0927103 0.298475 21
2 0.659356 0.529103 0.125021 0.139847 0.704571 22
2 0.66122 0.686096 0.145211 0.218331 0.767457 23
2 0.311752 0.781836 0.166865 0.244774 0.89578 29
2 0.360628 0.646459 0.129711 0.195375 0.750318 47
2 0.39803 0.390803 0.098065 0.14198 0.577559 55
2 0.611674 0.511551 0.106601 0.160032 0.772377 57
2 0.148421 0.325193 0.0641857 0.0977698 0.594627 52
2 0.0541684 0.376559 0.0770182 0.113207 0.642319 60
2 0.661425 0.523957 0.114222 0.123616 0.599038 66
2 0.148681 0.327469 0.0589559 0.0884073 0.773642 32
2 0.659773 0.540775 0.127682 0.158265 0.660445 67
2 0.103983 0.339346 0.0736381 0.096487 0.62568 68
5 0.635473 0.363074 0.121254 0.203784 0.507083 16
2 0.659439 0.663841 0.143539 0.172287 0.34023 69
2 0.0282903 0.400875 0.0565807 0.12689 0.84089 70
2 0.357855 0.65843 0.133556 0.222588 0.780243 8
2 0.385061 0.584424 0.111133 0.204889 0.612744 26
2 0.601759 0.510219 0.0889106 0.159558 0.361587 73
2 0.70667 0.323066 0.0429725 0.097008 0.530938 74
2 0.102423 0.334471 0.0786562 0.108747 0.663307 53
2 0.0496907 0.375036 0.0783618 0.120121 0.760993 75
