2 0.236235 0.308462 0.0446301 0.0699653 0.309777 298
2 0.427956 0.482906 0.0726155 0.159162 0.277773 304
2 0.360642 0.504614 0.115568 0.17314 0.373996 353
2 0.219081 0.311 0.0799992 0.0859237 0.407482 356
2 0.633276 0.512267 0.116244 0.192593 0.550889 365
2 0.264841 0.301123 0.0285549 0.0331715 0.253636 371
2 0.634563 0.65444 0.132918 0.157159 0.658378 376
2 0.360957 0.516738 0.117116 0.211579 0.758129 392
2 0.342419 0.643127 0.143152 0.153603 0.227379 352
2 0.656841 0.592822 0.117888 0.187791 0.705165 402
2 0.419936 0.479952 0.0867841 0.163292 0.745785 404
7 0.134401 0.292505 0.0832078 0.186681 0.737884 395
2 0.0475591 0.383657 0.0847856 0.120305 0.733039 414
2 0.342879 0.656108 0.146818 0.177001 0.756359 415
2 0.341528 0.825581 0.174789 0.264196 0.860948 399
2 0.652274 0.559398 0.125282 0.124355 0.597051 416
2 0.637441 0.790307 0.16487 0.20427 0.622553 417
2 0.710268 0.88016 0.283333 0.223181 0.58985 421
2 0.593578 0.399128 0.0866672 0.115294 0.676216 422
2 0.0309384 0.414203 0.0614295 0.130721 0.805973 423
2 0.240679 0.946839 0.193029 0.0985678 0.758262 306
2 0.0526874 0.384044 0.0748763 0.115981 0.65834 427
