2 0.316059 0.727193 0.158231 0.240508 0.894519 110
2 0.678373 0.789611 0.155699 0.250447 0.892895 166
2 0.363667 0.631963 0.129322 0.215013 0.835048 168
2 0.270246 0.927093 0.213577 0.12194 0.673958 178
7 0.15225 0.306206 0.0951772 0.130929 0.255704 190
2 0.273593 0.29884 0.031918 0.0418723 0.211065 140
2 0.66679 0.608732 0.138984 0.189821 0.842386 98
2 0.240837 0.307663 0.0450531 0.0675813 0.490098 200
2 0.111771 0.334374 0.0786562 0.103864 0.229135 202
2 0.0625595 0.377857 0.0876202 0.120383 0.920683 212
2 0.381168 0.53826 0.143556 0.263594 0.152874 194
2 0.357102 0.60962 0.145727 0.17202 0.268271 215
2 0.618274 0.457994 0.119332 0.209415 0.540105 199
2 0.118339 0.335617 0.0651643 0.0976156 0.577056 217
2 0.256255 0.92751 0.230676 0.130238 0.777035 218
2 0.540925 0.354647 0.038909 0.103175 0.54144 219
2 0.0110734 0.419441 0.0219567 0.178603 0.629473 220
