2 0.711589 0.966884 0.154995 0.059471 0.725643 166
2 0.3237 0.820569 0.178099 0.271891 0.857921 168
2 0.683474 0.773462 0.168793 0.235605 0.903385 98
2 0.271834 0.310155 0.0376787 0.0391519 0.305433 200
2 0.145373 0.332871 0.0706226 0.0969178 0.839376 212
2 0.369138 0.61751 0.181202 0.417392 0.565306 194
2 0.635114 0.549551 0.143059 0.253286 0.558333 199
2 0.176032 0.312316 0.0482025 0.0847385 0.213834 217
2 0.555097 0.384858 0.0454678 0.117667 0.530265 219
2 0.0794879 0.348193 0.0794981 0.148018 0.509197 220
2 0.178162 0.308312 0.054233 0.0806725 0.337302 202
2 0.612154 0.398892 0.109384 0.137046 0.527761 223
2 0.0381471 0.389945 0.0760908 0.128156 0.847471 225
2 0.610954 0.431184 0.113206 0.205233 0.42635 227
2 0.710587 0.967826 0.155662 0.0626942 0.390071 230
7 0.630772 0.552046 0.149259 0.259207 0.487361 232
7 0.580068 0.276374 0.0793658 0.0957244 0.584105 233
2 0.0162546 0.431054 0.0323741 0.11235 0.363857 234
2 0.0163931 0.419052 0.0306718 0.140275 0.642092 228
2 0.387767 0.37252 0.105371 0.103714 0.601725 237
2 0.235389 0.919583 0.224944 0.149561 0.856898 110
