2 0.260392 0.303096 0.057372 0.046089 0.265327 298
2 0.258012 0.304706 0.0449112 0.0462698 0.360964 356
2 0.648052 0.634964 0.14121 0.243645 0.792675 365
2 0.662946 0.871933 0.175715 0.220519 0.86213 376
2 0.390423 0.587257 0.118041 0.197261 0.820781 404
7 0.193059 0.274703 0.0633859 0.150166 0.659922 395
2 0.254268 0.88445 0.201256 0.219874 0.901839 415
2 0.695882 0.751185 0.15082 0.240913 0.872433 416
2 0.616917 0.451382 0.101364 0.12963 0.660276 422
2 0.615213 0.461591 0.0996814 0.146307 0.787916 410
2 0.324873 0.652556 0.152328 0.2502 0.851566 353
2 0.669948 0.881208 0.206696 0.237583 0.247641 434
2 0.681129 0.953817 0.20783 0.0827352 0.24909 417
2 0.569525 0.383694 0.0707052 0.117393 0.588092 436
2 0.0417647 0.376577 0.0832186 0.139812 0.785029 441
2 0.371116 0.461626 0.102653 0.0867427 0.54588 442
2 0.672781 0.958061 0.211933 0.0838781 0.141896 440
2 0.659668 0.865966 0.170341 0.191372 0.527647 450
2 0.683026 0.748771 0.166406 0.257515 0.210459 451
2 0.382965 0.582594 0.131378 0.193639 0.7759 304
2 0.126442 0.338871 0.0879895 0.110234 0.680904 423
2 0.132637 0.334186 0.0762833 0.105982 0.440746 433
2 0.0632561 0.31133 0.0519526 0.0875791 0.590848 452
