2 0.680636 0.811123 0.178911 0.309252 0.772373 365
7 0.233821 0.277766 0.0600049 0.131719 0.491459 395
2 0.641145 0.541338 0.118005 0.16212 0.80828 410
2 0.281461 0.841644 0.185877 0.292325 0.878465 353
2 0.135152 0.321603 0.0640848 0.106807 0.803714 441
2 0.328742 0.616123 0.136613 0.163714 0.682175 442
7 0.229575 0.271353 0.0538874 0.111681 0.251026 453
2 0.186179 0.31103 0.0560679 0.0898235 0.52485 423
2 0.094549 0.348475 0.0523212 0.12279 0.330583 456
2 0.0986579 0.353548 0.0424902 0.112705 0.511095 462
2 0.0527559 0.35064 0.0993642 0.146701 0.280265 471
2 0.423482 0.387493 0.08142 0.130348 0.582951 476
2 0.576644 0.341203 0.0852316 0.134739 0.572021 478
2 0.0311799 0.408699 0.0620645 0.136007 0.839678 480
2 0.639969 0.489054 0.113891 0.160367 0.158837 482
2 0.0488258 0.357589 0.0913138 0.162041 0.49318 483
2 0.584604 0.435137 0.0878298 0.142446 0.754743 436
2 0.765837 0.917792 0.215744 0.156754 0.904537 416
2 0.35144 0.75558 0.152613 0.251577 0.837136 304
