2 0.265862 0.302537 0.0409942 0.0426832 0.297148 298
2 0.263062 0.30638 0.034598 0.0374785 0.401903 356
2 0.653078 0.672541 0.150397 0.264488 0.810398 365
2 0.669076 0.90636 0.179657 0.174012 0.913593 376
2 0.384273 0.618439 0.124261 0.210826 0.82743 404
7 0.205733 0.271841 0.0642323 0.142743 0.665572 395
2 0.231402 0.914142 0.213919 0.156667 0.861405 415
2 0.705891 0.802351 0.165312 0.254683 0.851226 416
2 0.6232 0.474941 0.106052 0.141931 0.747722 410
2 0.314307 0.690242 0.166546 0.257935 0.877235 353
2 0.57403 0.395921 0.0767207 0.124106 0.652843 436
2 0.0654082 0.360309 0.0831409 0.126803 0.760391 441
2 0.376393 0.494048 0.118693 0.1149 0.216461 442
2 0.38873 0.619692 0.108401 0.198557 0.649759 304
2 0.0802668 0.29224 0.0495903 0.0474467 0.191033 452
7 0.202087 0.264207 0.0602371 0.124438 0.509682 453
2 0.329929 0.645479 0.132436 0.192651 0.111496 448
2 0.143846 0.329794 0.0811669 0.105688 0.816699 423
2 0.0181877 0.41308 0.0363755 0.132671 0.798662 456
