2 0.213316 0.312656 0.0721421 0.0868498 0.310203 212
2 0.310306 0.78381 0.251567 0.412619 0.465853 194
2 0.628301 0.693016 0.181034 0.360709 0.714636 199
2 0.230484 0.309638 0.0350811 0.0753523 0.389467 217
2 0.0914072 0.347905 0.0747511 0.111556 0.731463 220
2 0.20176 0.311321 0.0488889 0.0842593 0.505084 202
2 0.585093 0.430867 0.0941671 0.132995 0.566095 223
2 0.140186 0.33204 0.0586317 0.102686 0.244968 225
2 0.623751 0.47102 0.133301 0.177704 0.788043 227
7 0.581512 0.310238 0.0861783 0.142371 0.530995 233
2 0.0726602 0.373538 0.0599433 0.1033 0.185741 234
2 0.398805 0.389546 0.0968406 0.0982651 0.18282 237
2 0.0714701 0.383661 0.0633691 0.119074 0.705947 240
2 0.0306978 0.401776 0.0613956 0.141322 0.788304 248
2 0.339759 0.548688 0.118533 0.0970671 0.644922 250
2 0.752627 0.957247 0.190472 0.0756266 0.720595 252
2 0.135403 0.336169 0.0605513 0.106073 0.684683 228
2 0.136815 0.342053 0.05512 0.0844322 0.270743 254
2 0.094159 0.354145 0.0706961 0.092765 0.441218 255
2 0.746702 0.956466 0.171559 0.08104 0.41573 98
2 0.591977 0.427414 0.105009 0.139828 0.510697 219
