2 0.249313 0.919856 0.215376 0.151632 0.325066 55
2 0.29147 0.284772 0.0360523 0.046402 0.12692 70
2 0.255482 0.300823 0.0511378 0.0676058 0.571978 99
2 0.379726 0.507656 0.108243 0.175541 0.615314 110
2 0.323394 0.756373 0.144391 0.242922 0.828594 123
2 0.9305 0.733082 0.138309 0.251738 0.898349 74
2 0.0836165 0.309352 0.0588517 0.0927563 0.605771 157
2 0.269695 0.854911 0.186691 0.247966 0.770318 158
2 0.640081 0.53116 0.10478 0.172398 0.795383 166
2 0.705407 0.894676 0.198716 0.191433 0.889297 164
7 0.405855 0.376583 0.107724 0.249475 0.55251 168
2 0.272107 0.836669 0.185324 0.210375 0.670737 173
2 0.271768 0.814408 0.18119 0.168547 0.720902 177
2 0.354371 0.622379 0.134737 0.213184 0.808161 178
2 0.660959 0.7321 0.161441 0.235386 0.84293 120
2 0.159821 0.317422 0.0716488 0.0967549 0.775444 156
2 0.266237 0.878996 0.192714 0.235687 0.195082 186
2 0.0313996 0.382138 0.0600307 0.206295 0.516445 187
2 0.0291997 0.393212 0.0579852 0.184357 0.744301 190
2 0.20426 0.305048 0.0540403 0.0889242 0.718498 140
2 0.264129 0.937182 0.188278 0.119168 0.732011 193
2 0.618435 0.450033 0.0950657 0.142407 0.673205 98
2 0.376886 0.492308 0.115663 0.208269 0.50099 194
2 0.264038 0.926882 0.190698 0.140143 0.553416 196
2 0.256568 0.294382 0.0505094 0.0556075 0.627207 197
