2 0.271541 0.300976 0.0336533 0.0411399 0.336 3
2 0.270272 0.299723 0.0316247 0.0508033 0.181071 13
2 0.212064 0.312871 0.0418932 0.0773782 0.326969 21
2 0.738 0.878715 0.201249 0.221908 0.869039 22
2 0.391415 0.501178 0.110708 0.193962 0.726184 55
2 0.651529 0.753325 0.159929 0.233298 0.854036 57
2 0.237676 0.309821 0.038152 0.0701309 0.317165 52
2 0.23764 0.305119 0.0377366 0.0627037 0.313653 32
5 0.66472 0.521715 0.165503 0.320135 0.510148 16
2 0.168852 0.318289 0.0683609 0.0931591 0.839825 70
2 0.307251 0.896182 0.213115 0.189645 0.878118 26
2 0.727961 0.37018 0.0786163 0.131465 0.344581 74
2 0.354232 0.58802 0.116967 0.152015 0.816657 80
2 0.597338 0.415572 0.072305 0.137271 0.683776 92
2 0.576553 0.350412 0.0686551 0.124688 0.444357 98
2 0.0786086 0.357523 0.0895594 0.145387 0.865533 99
2 0.208552 0.300903 0.0362764 0.0550324 0.220179 53
2 0.322765 0.742481 0.159193 0.242119 0.847157 107
2 0.421018 0.346578 0.0887136 0.113756 0.485599 110
2 0.593137 0.415481 0.0682648 0.128517 0.461473 120
2 0.391214 0.487866 0.106983 0.155892 0.147996 123
2 0.732007 0.37708 0.0778191 0.122171 0.767945 125
2 0.356906 0.581149 0.114723 0.148508 0.465741 97
