2 0.251166 0.297489 0.0363955 0.0426243 0.463418 212
2 0.236444 0.916911 0.217057 0.147965 0.713353 194
2 0.658057 0.846805 0.171137 0.255641 0.820393 199
2 0.279618 0.302489 0.0252895 0.0260945 0.203344 217
2 0.177835 0.315577 0.04427 0.086429 0.12703 220
2 0.213173 0.300973 0.0536549 0.0947052 0.396178 225
7 0.597274 0.348591 0.104335 0.165436 0.342396 233
2 0.337236 0.538538 0.130573 0.1579 0.557437 237
2 0.269131 0.805019 0.18045 0.200907 0.718526 250
2 0.214785 0.316669 0.0490438 0.0711008 0.319306 254
2 0.175289 0.31743 0.0514709 0.0872058 0.102487 255
2 0.606564 0.515365 0.112062 0.169237 0.5369 219
2 0.0928103 0.355809 0.0602839 0.107707 0.814014 257
2 0.172353 0.32016 0.0576915 0.0947878 0.438534 234
2 0.213712 0.308539 0.0534627 0.0843944 0.309746 228
2 0.276015 0.813159 0.178487 0.234051 0.354389 263
2 0.357331 0.646103 0.130952 0.205712 0.848608 266
2 0.164142 0.323094 0.0385916 0.0892118 0.429804 258
2 0.270465 0.84386 0.185971 0.284911 0.686038 267
2 0.0330638 0.408346 0.0651821 0.134363 0.820824 270
2 0.645658 0.443871 0.0866749 0.111336 0.546398 271
2 0.295312 0.736851 0.152402 0.248617 0.698012 265
2 0.0433713 0.376242 0.0842023 0.140393 0.483179 272
2 0.0380394 0.405223 0.0722215 0.122476 0.319381 273
2 0.235616 0.928522 0.220123 0.128062 0.791843 275
2 0.631155 0.439511 0.109979 0.106875 0.667627 277
2 0.626636 0.617418 0.159548 0.32387 0.562294 223
2 0.722765 0.933481 0.258854 0.122644 0.736666 280
2 0.293327 0.721126 0.153814 0.208279 0.613163 261
2 0.641032 0.439696 0.0885211 0.108429 0.710948 284
2 0.632607 0.630259 0.166211 0.288888 0.770517 285
2 0.133233 0.333954 0.060187 0.10585 0.742181 283
2 0.707471 0.929714 0.247844 0.130695 0.49951 269
2 0.399725 0.390862 0.111218 0.194316 0.522512 288
2 0.660709 0.801847 0.169152 0.166434 0.522601 281
