2 0.67677 0.940388 0.197842 0.116617 0.566187 1
2 0.228132 0.307514 0.0377883 0.0792265 0.477556 3
2 0.232527 0.309855 0.042552 0.0741854 0.255473 13
2 0.185613 0.315996 0.0564203 0.0944084 0.283943 21
2 0.671157 0.627768 0.141238 0.232151 0.307592 22
2 0.672903 0.781146 0.167057 0.233594 0.801823 23
2 0.395498 0.407072 0.0963334 0.125631 0.506046 55
2 0.620331 0.559793 0.111293 0.181852 0.796798 57
2 0.179517 0.31842 0.0561939 0.0872737 0.358697 52
2 0.0889324 0.35092 0.0683708 0.106686 0.630355 60
2 0.670945 0.609388 0.141456 0.20015 0.581228 66
2 0.183236 0.320692 0.053857 0.0875698 0.501424 32
7 0.640252 0.400597 0.136677 0.237408 0.641245 16
2 0.0601377 0.373738 0.0862328 0.112911 0.896095 70
2 0.337775 0.745792 0.145789 0.241513 0.85842 8
2 0.375778 0.646157 0.129594 0.228683 0.801638 26
2 0.609984 0.558915 0.0893979 0.173502 0.240386 73
2 0.710245 0.340758 0.0487294 0.0985283 0.40846 74
2 0.134265 0.319532 0.0706744 0.0893886 0.38899 53
2 0.0606852 0.362748 0.0849326 0.117065 0.505206 75
2 0.356276 0.538622 0.118538 0.164516 0.550208 80
2 0.66792 0.587345 0.133995 0.155852 0.624432 84
2 0.128998 0.324005 0.0818005 0.0918133 0.572329 68
2 0.673642 0.940154 0.182129 0.106001 0.842369 89
2 0.281578 0.884922 0.197468 0.216051 0.886949 90
2 0.352428 0.666125 0.146923 0.214494 0.511156 77
