2 0.262161 0.295197 0.0293252 0.0366813 0.225608 298
2 0.395667 0.530828 0.116188 0.17717 0.667061 304
2 0.236775 0.304929 0.0480898 0.0628875 0.29904 356
2 0.652232 0.572964 0.150437 0.213684 0.464404 365
2 0.653001 0.768053 0.151764 0.201512 0.682844 376
2 0.299878 0.922763 0.193543 0.154474 0.662176 352
2 0.64329 0.575603 0.138126 0.219078 0.562701 402
2 0.404638 0.53422 0.102607 0.18017 0.749543 404
7 0.170045 0.278757 0.0704371 0.160074 0.745792 395
2 0.112862 0.346875 0.062796 0.103898 0.556459 414
2 0.303572 0.796089 0.177238 0.231207 0.827604 415
2 0.673446 0.672226 0.141037 0.222795 0.78391 416
2 0.606838 0.433307 0.0984368 0.13537 0.689646 422
2 0.0790819 0.366893 0.0855392 0.11494 0.868274 423
2 0.610143 0.417874 0.106435 0.144871 0.501803 410
2 0.106919 0.347756 0.0721887 0.100942 0.513996 433
2 0.341725 0.586379 0.132699 0.222683 0.844836 353
2 0.655206 0.762876 0.152724 0.174333 0.801982 434
2 0.652072 0.904221 0.178082 0.18377 0.826447 417
2 0.665266 0.659688 0.146452 0.21469 0.344872 435
2 0.716847 0.961254 0.179325 0.0628519 0.621739 421
2 0.56795 0.368241 0.0712898 0.116338 0.576476 436
2 0.30702 0.921611 0.212301 0.145273 0.869881 399
2 0.016434 0.41079 0.032003 0.160956 0.769623 441
2 0.378046 0.429712 0.0950008 0.0810945 0.507135 442
