2 0.241205 0.298073 0.0581671 0.0546122 0.222257 220
2 0.663908 0.756726 0.162747 0.268807 0.828526 233
2 0.242711 0.301711 0.0547907 0.060096 0.42071 272
2 0.205383 0.31138 0.0270946 0.0788663 0.178724 298
2 0.438287 0.388356 0.0747874 0.130491 0.507517 304
2 0.108247 0.332168 0.0657074 0.104444 0.632106 340
2 0.112559 0.33642 0.0958177 0.103868 0.330958 345
2 0.175955 0.315173 0.0578433 0.0904854 0.537376 307
2 0.305283 0.763703 0.195855 0.347926 0.676042 350
2 0.348381 0.634059 0.136554 0.266546 0.593291 306
2 0.390045 0.545095 0.106743 0.187876 0.459881 352
2 0.445357 0.392276 0.0588127 0.125653 0.571086 353
2 0.120972 0.330384 0.0894102 0.109226 0.416917 356
2 0.101593 0.335804 0.0786113 0.100414 0.598557 328
2 0.236245 0.30734 0.0420814 0.0656574 0.486379 362
2 0.620755 0.43164 0.104491 0.107314 0.758971 365
2 0.0348709 0.394152 0.0609178 0.125202 0.724554 369
2 0.1789 0.314723 0.0683662 0.089879 0.662014 371
2 0.0498353 0.368676 0.0745843 0.108696 0.685499 372
2 0.621791 0.44232 0.104973 0.0898356 0.574766 376
2 0.749757 0.915556 0.216756 0.165159 0.824365 271
2 0.0458804 0.382063 0.0838279 0.121646 0.594072 387
2 0.745518 0.914964 0.195514 0.153296 0.720617 388
2 0.243844 0.971369 0.159697 0.0572624 0.458615 288
