2 0.278199 0.307219 0.0396599 0.0339431 0.152544 220
2 0.279865 0.30436 0.0406817 0.0313029 0.249656 272
2 0.212695 0.310397 0.0450063 0.0775975 0.414747 298
2 0.436203 0.448351 0.0675375 0.141237 0.74271 304
2 0.178402 0.307435 0.0506015 0.0759744 0.373734 307
2 0.278612 0.851178 0.214071 0.273561 0.872392 306
2 0.371554 0.440476 0.101324 0.120945 0.542023 353
2 0.188624 0.311529 0.0683012 0.0809586 0.194287 356
2 0.620706 0.464016 0.101902 0.16711 0.597468 365
2 0.243528 0.303626 0.0296109 0.051679 0.290182 371
2 0.645496 0.527498 0.1224 0.168243 0.497526 376
2 0.37394 0.450195 0.106133 0.135084 0.588863 392
2 0.193753 0.31502 0.0789625 0.0875107 0.29753 345
2 0.361052 0.706695 0.155456 0.229643 0.807134 399
2 0.217338 0.311664 0.0444551 0.0671647 0.212825 328
2 0.374051 0.578696 0.130696 0.171738 0.618926 352
2 0.652687 0.531089 0.10315 0.173652 0.688614 402
2 0.423605 0.447416 0.0930699 0.144364 0.397139 404
7 0.0901923 0.313027 0.094883 0.20406 0.807691 395
2 0.144469 0.329349 0.0319666 0.108226 0.667779 369
2 0.735537 0.931901 0.17643 0.131446 0.609543 233
2 0.739762 0.930474 0.215658 0.128097 0.762849 407
2 0.587562 0.378784 0.088979 0.122321 0.620252 410
2 0.0139612 0.42995 0.0262549 0.137762 0.127185 412
2 0.749105 0.923744 0.214043 0.135578 0.705022 413
2 0.0121379 0.431563 0.0242759 0.142079 0.740606 414
2 0.374123 0.560514 0.122005 0.132091 0.543935 415
