2 0.348014 0.664319 0.151562 0.249278 0.847186 55
2 0.263312 0.299255 0.0270181 0.0416343 0.116057 52
2 0.266792 0.303383 0.0182464 0.0323011 0.161149 32
7 0.725453 0.80244 0.265053 0.373603 0.501782 16
2 0.243615 0.30679 0.0535365 0.0629098 0.317941 70
2 0.291557 0.835095 0.157137 0.211076 0.90104 80
2 0.60824 0.417168 0.0856731 0.138631 0.537108 98
2 0.188625 0.306204 0.0656656 0.110102 0.497847 99
2 0.400003 0.380891 0.0868789 0.121864 0.492903 110
2 0.627453 0.527122 0.109651 0.174111 0.810625 120
2 0.378712 0.469525 0.117996 0.153273 0.501805 123
2 0.108486 0.338457 0.0699486 0.116692 0.640193 140
2 0.806074 0.484548 0.111869 0.166897 0.865895 74
2 0.609855 0.411482 0.0801866 0.122277 0.73407 148
2 0.238325 0.300867 0.045307 0.0536996 0.338617 144
2 0.0492322 0.380432 0.098464 0.13024 0.690401 156
2 0.0415844 0.383835 0.0828986 0.131588 0.852436 157
2 0.363846 0.526577 0.118919 0.132648 0.515018 158
2 0.0671299 0.363051 0.069629 0.118823 0.582072 160
2 0.104278 0.351122 0.0796309 0.109176 0.12647 162
2 0.668463 0.619418 0.136696 0.204262 0.668071 164
