2 0.606169 0.676799 0.150011 0.221235 0.865199 1
2 0.175626 0.314398 0.0670887 0.0942083 0.54136 3
2 0.315222 0.885461 0.212517 0.224908 0.898488 7
2 0.258356 0.296251 0.0277504 0.0430598 0.365123 10
2 0.181624 0.311958 0.076892 0.0935531 0.635722 13
5 0.625361 0.319106 0.0913881 0.161256 0.839665 16
2 0.120232 0.333129 0.0681033 0.115535 0.814612 21
2 0.633909 0.465613 0.106981 0.138228 0.509578 22
2 0.647991 0.570713 0.119136 0.179801 0.770592 23
2 0.388128 0.549847 0.11124 0.17628 0.714582 26
2 0.353191 0.622635 0.134208 0.205396 0.802336 29
2 0.073093 0.353908 0.0792968 0.117903 0.804021 32
2 0.385044 0.538924 0.108782 0.189234 0.202866 8
2 0.682597 0.887772 0.192897 0.217255 0.885143 9
2 0.378678 0.432982 0.101481 0.115681 0.366352 47
2 0.0291288 0.383127 0.0581303 0.120969 0.853368 53
2 0.352832 0.605144 0.125437 0.165612 0.518149 45
2 0.415759 0.35858 0.0859133 0.131514 0.636364 55
7 0.626873 0.320564 0.0987531 0.16777 0.483405 56
2 0.584394 0.454026 0.0804537 0.134547 0.659751 57
2 0.0743506 0.360223 0.0808387 0.114454 0.585505 52
