2 0.238442 0.310158 0.0418777 0.0656563 0.301797 13
2 0.240546 0.307646 0.0447001 0.0616832 0.277889 21
2 0.382866 0.545747 0.122691 0.205415 0.800794 55
2 0.675814 0.875948 0.18608 0.226124 0.873336 57
2 0.235169 0.297546 0.0336736 0.0453894 0.226151 52
2 0.26 0.295094 0.0383254 0.0392546 0.126873 32
7 0.684209 0.620579 0.192229 0.41905 0.315284 16
2 0.197619 0.312077 0.0632578 0.079082 0.561469 70
2 0.334816 0.644278 0.131487 0.16596 0.856899 80
2 0.583944 0.369771 0.0722581 0.127722 0.548902 98
2 0.112798 0.331605 0.0925248 0.129907 0.575118 99
2 0.237568 0.303536 0.0529801 0.0648048 0.110654 53
2 0.412181 0.368471 0.0841811 0.12319 0.539843 110
2 0.609573 0.449702 0.0830341 0.145711 0.749974 120
2 0.399487 0.387396 0.083757 0.0689999 0.201251 123
2 0.276602 0.866337 0.19439 0.254386 0.909519 100
2 0.0306914 0.404483 0.0602288 0.154803 0.836267 140
2 0.753139 0.403887 0.0902753 0.13683 0.786441 74
2 0.770776 0.97243 0.160231 0.043443 0.195106 22
2 0.38144 0.508128 0.122821 0.138612 0.108072 147
2 0.202583 0.31086 0.0655806 0.0834734 0.610745 144
