2 0.265875 0.298477 0.0457703 0.0547783 0.584777 99
2 0.37545 0.538006 0.112371 0.185997 0.609911 110
2 0.312456 0.811065 0.158269 0.256806 0.842199 123
2 0.942758 0.796943 0.114484 0.267131 0.889543 74
2 0.0982452 0.30872 0.0490099 0.0896778 0.647862 157
2 0.245282 0.894615 0.196372 0.200398 0.897744 158
2 0.642565 0.552873 0.108792 0.182454 0.838875 166
2 0.705666 0.935549 0.197723 0.128901 0.520604 164
7 0.40365 0.38682 0.108234 0.258312 0.509078 168
2 0.349931 0.656813 0.13751 0.219875 0.817704 178
2 0.668514 0.777535 0.174336 0.250679 0.878555 120
2 0.172468 0.315908 0.0698121 0.095764 0.755252 156
2 0.0419599 0.371826 0.0839197 0.172708 0.859098 190
2 0.212992 0.30279 0.0498775 0.0819159 0.58779 140
2 0.624241 0.460945 0.0997072 0.140368 0.717691 98
2 0.37116 0.508985 0.114635 0.208746 0.594756 194
2 0.265435 0.295471 0.0501012 0.054498 0.152746 197
2 0.711195 0.929491 0.212704 0.127393 0.837465 198
7 0.573135 0.360338 0.0906093 0.183366 0.330433 199
