2 0.270293 0.861573 0.184068 0.250737 0.87855 110
2 0.694987 0.901764 0.181067 0.180539 0.902273 166
2 0.343043 0.730747 0.155876 0.246279 0.863516 168
2 0.676123 0.701342 0.161404 0.221864 0.897316 98
2 0.264033 0.300895 0.0386528 0.0331395 0.396916 200
2 0.11646 0.348515 0.0765263 0.100409 0.835451 212
2 0.378212 0.567466 0.158608 0.375986 0.339721 194
7 0.631594 0.513299 0.129839 0.236284 0.528546 199
2 0.154364 0.317253 0.0577356 0.0877476 0.541924 217
2 0.547627 0.371406 0.0389128 0.109555 0.556845 219
2 0.0447253 0.373327 0.0817746 0.149721 0.692635 220
2 0.146585 0.316898 0.0711616 0.089625 0.524889 202
2 0.601953 0.392574 0.107988 0.164406 0.678582 223
2 0.0160451 0.417654 0.0318393 0.138122 0.731934 225
