2 0.292076 0.874407 0.200458 0.239417 0.885058 55
2 0.277459 0.300026 0.0365148 0.0259518 0.201954 70
2 0.611907 0.416637 0.0865239 0.116425 0.263034 98
2 0.241593 0.291226 0.0517776 0.0659471 0.464305 99
2 0.386313 0.48601 0.101913 0.179982 0.558805 110
2 0.334891 0.651913 0.127791 0.165586 0.40771 123
2 0.901731 0.650316 0.152603 0.221472 0.833525 74
2 0.612276 0.424097 0.0919399 0.130766 0.698475 148
2 0.0546095 0.316159 0.068527 0.100402 0.723379 157
2 0.316355 0.718815 0.153998 0.14447 0.523205 158
2 0.63261 0.495058 0.098074 0.152537 0.800071 166
2 0.692713 0.828543 0.163508 0.261181 0.884836 164
7 0.414802 0.361477 0.100812 0.243883 0.684323 168
2 0.309433 0.732768 0.166531 0.17309 0.630064 173
2 0.308119 0.751372 0.16508 0.207621 0.777057 177
2 0.363378 0.579239 0.12304 0.19205 0.777639 178
2 0.620861 0.460795 0.107757 0.204602 0.156507 180
2 0.186245 0.307845 0.0598094 0.0975566 0.668122 150
2 0.648744 0.667651 0.141766 0.220084 0.825819 120
2 0.137225 0.325355 0.0803064 0.104195 0.767362 156
2 0.333974 0.68021 0.128617 0.188936 0.589124 186
2 0.0133673 0.341472 0.024977 0.124954 0.555923 187
2 0.0121041 0.342895 0.0241173 0.124906 0.721752 190
2 0.136337 0.329195 0.0723971 0.100626 0.821202 191
