2 0.313098 0.789571 0.177033 0.294534 0.873285 55
2 0.771694 0.941442 0.313708 0.105074 0.694559 16
2 0.260981 0.306056 0.0365056 0.030569 0.360708 70
2 0.257348 0.96175 0.155529 0.0673119 0.704289 80
2 0.619089 0.475533 0.0941832 0.169557 0.298934 98
2 0.220829 0.282996 0.049163 0.0570331 0.192347 99
2 0.393729 0.438224 0.0960187 0.172777 0.483685 110
2 0.63373 0.602669 0.117138 0.194852 0.81094 120
2 0.371915 0.529207 0.113678 0.177783 0.561563 123
2 0.859204 0.567006 0.138013 0.204848 0.869116 74
2 0.603778 0.400071 0.087432 0.122279 0.595102 148
2 0.25984 0.305618 0.0341884 0.0364913 0.532188 144
2 0.0260455 0.323935 0.0515297 0.105275 0.701628 157
2 0.339137 0.686305 0.144935 0.226033 0.577894 158
2 0.0949722 0.346434 0.0783627 0.111704 0.834847 156
2 0.619239 0.455431 0.0896203 0.139939 0.780567 166
2 0.681933 0.7174 0.148331 0.23606 0.876906 164
2 0.160702 0.317043 0.0625091 0.100252 0.711847 160
5 0.425867 0.308994 0.0918981 0.162195 0.332291 168
2 0.099437 0.344777 0.0876835 0.114296 0.865876 171
2 0.123357 0.335024 0.0527152 0.103926 0.522418 140
2 0.340245 0.663916 0.142328 0.183141 0.581649 173
2 0.254131 0.961415 0.151903 0.0763809 0.706213 174
