2 0.354066 0.63619 0.145416 0.251584 0.790368 55
2 0.269872 0.301184 0.025344 0.0399844 0.181822 52
2 0.267554 0.304604 0.020604 0.0320961 0.170688 32
7 0.704183 0.780725 0.222769 0.418537 0.509958 16
2 0.234254 0.306562 0.0522635 0.0660529 0.433843 70
2 0.296278 0.793485 0.150891 0.201404 0.897748 80
2 0.606192 0.412776 0.0796328 0.142671 0.642116 98
7 0.177557 0.307452 0.0657836 0.110709 0.448197 99
2 0.403592 0.375886 0.0827471 0.10921 0.401978 110
2 0.626323 0.511488 0.10751 0.168584 0.857605 120
2 0.391002 0.443876 0.0924789 0.109519 0.560037 123
2 0.0916769 0.349813 0.0764266 0.119735 0.747566 140
2 0.795893 0.468812 0.1103 0.159184 0.816331 74
2 0.606588 0.399981 0.077439 0.116315 0.662113 148
2 0.235977 0.300164 0.0515346 0.0558003 0.339893 144
2 0.590156 0.808856 0.0320674 0.178364 0.155809 149
2 0.0504964 0.374988 0.0727329 0.115372 0.63637 150
2 0.623493 0.531966 0.102201 0.123791 0.133271 92
2 0.0365907 0.388854 0.0725161 0.130622 0.529741 156
2 0.033776 0.394959 0.0674779 0.130543 0.869139 157
2 0.364388 0.506434 0.113623 0.0996516 0.509998 158
2 0.0457739 0.382243 0.087426 0.120729 0.557194 160
