2 0.628876 0.789567 0.167202 0.260105 0.894097 1
2 0.198683 0.307594 0.0530608 0.0836798 0.505289 3
2 0.274411 0.295346 0.0230896 0.0448897 0.16641 10
7 0.197895 0.307253 0.0567993 0.0898724 0.126065 13
2 0.157256 0.320983 0.0586809 0.104793 0.54268 21
2 0.647884 0.516453 0.122942 0.162293 0.577404 22
2 0.657375 0.640545 0.132802 0.211433 0.773887 23
2 0.372531 0.609285 0.131258 0.200702 0.736906 26
2 0.330728 0.709822 0.146866 0.222374 0.870427 29
2 0.716167 0.972703 0.150326 0.0407214 0.179214 9
2 0.377212 0.503689 0.106339 0.0905534 0.32424 47
2 0.0770143 0.340917 0.0761161 0.130886 0.533315 53
2 0.405756 0.375956 0.0951307 0.132007 0.54816 55
2 0.599993 0.489039 0.0976702 0.151315 0.72119 57
2 0.126368 0.336151 0.0580713 0.0973422 0.673998 52
2 0.0312252 0.398362 0.062175 0.129648 0.780141 60
2 0.373827 0.601222 0.119222 0.190921 0.533149 45
2 0.714693 0.982281 0.147564 0.0350889 0.178116 65
2 0.653108 0.501468 0.114668 0.135903 0.66176 66
2 0.128074 0.33216 0.0678599 0.101323 0.610269 32
2 0.655872 0.488905 0.105831 0.108007 0.617264 67
2 0.0761567 0.351589 0.0763019 0.111427 0.789351 68
7 0.625248 0.343459 0.116594 0.182338 0.772054 16
