2 0.245107 0.305402 0.0304999 0.0580011 0.251075 3
2 0.244327 0.300614 0.0349739 0.0585469 0.313593 13
2 0.202265 0.313581 0.056196 0.0871826 0.190141 21
2 0.686207 0.692767 0.151489 0.245603 0.838126 22
2 0.69654 0.889851 0.189487 0.213751 0.897039 23
2 0.397264 0.44165 0.0987308 0.175345 0.508798 55
2 0.628239 0.60283 0.122215 0.195612 0.82558 57
2 0.206084 0.310397 0.0498272 0.0857413 0.465326 52
2 0.110439 0.336413 0.0867657 0.106762 0.128738 60
2 0.204616 0.301189 0.050902 0.073477 0.348055 32
5 0.6445 0.439256 0.14475 0.276154 0.543468 16
2 0.10375 0.348159 0.0808959 0.105996 0.833429 70
2 0.313807 0.854608 0.173206 0.274789 0.880292 8
2 0.365067 0.719986 0.148456 0.25297 0.824794 26
2 0.623626 0.598972 0.114806 0.175282 0.569136 73
2 0.710759 0.342454 0.0607761 0.114921 0.422142 74
2 0.165941 0.32143 0.0597976 0.0965055 0.235593 53
2 0.351002 0.585673 0.123957 0.18503 0.626038 80
2 0.166455 0.318731 0.0534375 0.0898442 0.653111 68
2 0.572101 0.37804 0.0495182 0.118933 0.446296 92
2 0.236254 0.966957 0.166786 0.0616213 0.711416 29
2 0.232518 0.96593 0.184121 0.0681405 0.118986 90
2 0.379146 0.519412 0.093332 0.131339 0.606446 97
2 0.571256 0.364622 0.0544592 0.121572 0.145824 98
2 0.0202689 0.416569 0.0397813 0.184395 0.797847 99
2 0.351865 0.557144 0.125168 0.125314 0.133395 100
2 0.310126 0.839322 0.169742 0.248373 0.817156 95
2 0.0212098 0.424888 0.0424195 0.167722 0.747321 104
