2 0.24549 0.301963 0.0308753 0.0586929 0.279782 3
2 0.244613 0.300684 0.0352627 0.0557014 0.275123 13
2 0.20319 0.313839 0.0577398 0.0879402 0.202533 21
2 0.689349 0.697091 0.158182 0.245693 0.827714 22
2 0.696402 0.893319 0.191132 0.207944 0.898759 23
2 0.396733 0.447067 0.0990124 0.177957 0.495512 55
2 0.629105 0.605701 0.123667 0.196846 0.81697 57
2 0.207052 0.310774 0.0502951 0.08501 0.483202 52
2 0.111032 0.339352 0.0912436 0.113435 0.442414 60
2 0.206372 0.300197 0.0496896 0.0709175 0.277689 32
5 0.6453 0.441375 0.143183 0.280589 0.648285 16
2 0.107887 0.346748 0.0861951 0.105262 0.79366 70
2 0.310712 0.86027 0.175378 0.272586 0.893906 8
2 0.360773 0.724389 0.149307 0.250979 0.815397 26
2 0.622955 0.60295 0.113327 0.180303 0.512252 73
2 0.7101 0.343587 0.0622709 0.117113 0.479736 74
2 0.165212 0.321567 0.059817 0.0951101 0.527222 53
2 0.351274 0.584565 0.1274 0.175966 0.605975 80
2 0.167334 0.316724 0.0548474 0.0891014 0.602037 68
2 0.572658 0.379549 0.0491053 0.119018 0.535395 92
2 0.234214 0.970051 0.161753 0.0532755 0.638421 29
2 0.228988 0.970149 0.180528 0.059191 0.101348 90
2 0.378451 0.524071 0.0959288 0.144216 0.574354 97
2 0.571874 0.372852 0.0548855 0.12766 0.29922 98
2 0.0226893 0.415123 0.0424483 0.180755 0.803484 99
2 0.352313 0.567276 0.128621 0.143491 0.54491 100
2 0.308333 0.843578 0.172318 0.244894 0.610327 95
2 0.0216235 0.424999 0.043247 0.169831 0.70416 104
