2 0.230876 0.310268 0.0343728 0.0733726 0.345524 220
2 0.261619 0.294868 0.0349393 0.0363954 0.291985 225
7 0.610877 0.39653 0.115304 0.184412 0.579854 233
2 0.619671 0.649709 0.14152 0.213042 0.902955 219
2 0.283361 0.88324 0.18828 0.220123 0.876829 266
2 0.130029 0.337626 0.0699938 0.102623 0.801739 270
2 0.16349 0.31853 0.0615805 0.104533 0.626156 272
2 0.692976 0.849288 0.235995 0.293118 0.89355 285
2 0.215268 0.309031 0.0700102 0.0849332 0.541544 283
2 0.369589 0.560643 0.115991 0.173313 0.718013 288
2 0.168067 0.320812 0.0516951 0.0960698 0.399889 290
2 0.658296 0.560839 0.109712 0.175172 0.696833 271
2 0.20905 0.312159 0.0629358 0.0876572 0.17999 248
2 0.342378 0.612892 0.125703 0.128562 0.572126 297
2 0.0587079 0.368596 0.07402 0.117782 0.833369 298
2 0.281518 0.753739 0.178695 0.232874 0.693559 302
2 0.364145 0.747343 0.103208 0.233598 0.585659 265
2 0.432548 0.326999 0.0993945 0.113474 0.527255 304
2 0.386435 0.404522 0.127345 0.146425 0.435246 306
2 0.0230801 0.407801 0.0456977 0.143211 0.789556 307
2 0.205581 0.975675 0.156742 0.0368828 0.219443 312
2 0.385037 0.420576 0.119026 0.174514 0.38759 313
2 0.6401 0.475078 0.104734 0.140524 0.571089 314
2 0.206491 0.97966 0.157594 0.0355951 0.221233 261
2 0.297179 0.756786 0.203055 0.252086 0.179295 237
2 0.022762 0.417274 0.0455239 0.129108 0.710559 318
