2 0.683448 0.820325 0.186969 0.31066 0.837053 365
7 0.236774 0.276698 0.061999 0.12599 0.530709 395
2 0.642605 0.545208 0.118755 0.166859 0.82429 410
2 0.280263 0.844022 0.186233 0.291342 0.867503 353
2 0.137588 0.319627 0.0641564 0.103702 0.684921 441
2 0.329247 0.622893 0.141422 0.16666 0.722766 442
7 0.231632 0.2806 0.0552846 0.130145 0.533418 453
2 0.187774 0.313923 0.0573058 0.0953418 0.509525 423
2 0.100202 0.346705 0.0476711 0.118331 0.266669 456
2 0.101982 0.354003 0.0418031 0.113593 0.316224 462
2 0.0611893 0.350922 0.111626 0.152257 0.472689 471
2 0.423479 0.389527 0.0811667 0.129274 0.553829 476
2 0.576894 0.341787 0.0865592 0.135712 0.55886 478
2 0.0332268 0.405895 0.0661362 0.134443 0.806745 480
2 0.64324 0.471216 0.113201 0.123331 0.17322 482
2 0.05437 0.356311 0.0968262 0.15802 0.616313 483
2 0.585947 0.438707 0.0906123 0.142308 0.731158 436
2 0.765469 0.923998 0.211408 0.144207 0.874901 416
2 0.349555 0.765527 0.157318 0.252112 0.805686 304
