2 0.599153 0.588545 0.125339 0.19745 0.888452 1
2 0.140173 0.33193 0.0752533 0.108196 0.757692 3
2 0.304867 0.959502 0.169771 0.0704051 0.811398 4
2 0.697404 0.881359 0.195532 0.227505 0.855654 5
2 0.347619 0.737796 0.164829 0.233913 0.90926 7
2 0.23424 0.304648 0.0351393 0.0680163 0.540103 10
2 0.635156 0.460081 0.0895292 0.0661743 0.199738 11
7 0.178861 0.301556 0.0827469 0.12459 0.565739 13
5 0.616201 0.314256 0.0877595 0.183558 0.559146 16
2 0.0705528 0.361368 0.075941 0.131234 0.729016 21
2 0.614578 0.428491 0.0948218 0.121153 0.593218 22
2 0.638416 0.50899 0.101991 0.165251 0.677053 23
2 0.403038 0.496615 0.0985269 0.169035 0.694603 26
2 0.369702 0.549192 0.114127 0.178364 0.779753 29
2 0.0291598 0.39222 0.0578907 0.128946 0.858533 32
2 0.394681 0.475789 0.105189 0.140319 0.624228 8
2 0.660451 0.741455 0.15488 0.225766 0.803175 9
