2 0.251508 0.299183 0.0325937 0.0441566 0.356869 13
2 0.231625 0.30958 0.0464442 0.0709743 0.273449 21
2 0.761328 0.934313 0.216358 0.115597 0.208932 22
2 0.386196 0.529399 0.120969 0.198315 0.797042 55
2 0.665453 0.836041 0.178173 0.256183 0.882082 57
2 0.237309 0.306518 0.0400459 0.0653993 0.13432 52
2 0.252933 0.297453 0.029278 0.0446132 0.189542 32
7 0.673399 0.586453 0.184351 0.391492 0.451346 16
2 0.188389 0.313716 0.0646735 0.0897903 0.814977 70
2 0.342631 0.618831 0.124027 0.16575 0.832308 80
2 0.597859 0.433516 0.0704728 0.138128 0.329212 92
2 0.581559 0.366029 0.0722708 0.117256 0.540757 98
2 0.101797 0.340144 0.0889521 0.1375 0.749936 99
2 0.229203 0.310547 0.0432803 0.0739764 0.543 53
2 0.427691 0.349931 0.0941881 0.103609 0.147113 110
2 0.606195 0.437049 0.082803 0.144214 0.729712 120
2 0.400548 0.400502 0.0936252 0.0866935 0.318817 123
2 0.298403 0.826507 0.175662 0.281094 0.896492 100
2 0.283534 0.95569 0.166054 0.0737049 0.826036 128
2 0.702368 0.706519 0.124302 0.168216 0.161049 130
2 0.676806 0.577714 0.174511 0.375803 0.24619 131
2 0.0196548 0.416821 0.0385604 0.169903 0.774901 132
2 0.384355 0.483807 0.121137 0.115108 0.100049 134
2 0.745389 0.935454 0.219276 0.116305 0.786958 135
2 0.746021 0.388926 0.0879087 0.134447 0.76136 136
2 0.282199 0.960632 0.165814 0.0735824 0.748496 26
