2 0.260369 0.296074 0.0315278 0.0358077 0.141715 3
2 0.259616 0.297814 0.0321412 0.0429507 0.198367 13
2 0.195737 0.312567 0.0480369 0.0739625 0.390612 21
2 0.711159 0.810186 0.175259 0.285514 0.888183 22
2 0.392763 0.476413 0.107282 0.173018 0.634936 55
2 0.638144 0.677437 0.138861 0.208214 0.821464 57
2 0.226338 0.307014 0.0573133 0.0794972 0.157008 52
2 0.227187 0.306617 0.0507779 0.0738491 0.290119 32
7 0.654167 0.486434 0.1534 0.29733 0.559524 16
2 0.146351 0.328318 0.0762569 0.0996213 0.860681 70
2 0.277967 0.931893 0.189786 0.116351 0.800813 8
2 0.340016 0.843325 0.181206 0.284544 0.838803 26
2 0.719668 0.36403 0.0744973 0.113448 0.756661 74
2 0.366771 0.569073 0.104965 0.168621 0.686785 80
2 0.579004 0.396906 0.0462624 0.124479 0.720107 92
2 0.369144 0.57745 0.102433 0.134952 0.58613 97
2 0.574421 0.344105 0.0663542 0.109803 0.527723 98
2 0.0502139 0.38177 0.0954302 0.155661 0.836075 99
2 0.339147 0.634426 0.134789 0.154192 0.503005 100
2 0.189102 0.311593 0.0489942 0.0762115 0.37652 53
2 0.337451 0.644856 0.138176 0.179189 0.779803 107
2 0.427985 0.337428 0.078521 0.118445 0.502663 110
2 0.267543 0.941381 0.205488 0.105862 0.142342 111
