2 0.271995 0.302295 0.031938 0.0395012 0.319373 3
2 0.269444 0.300739 0.02963 0.0495131 0.19872 13
2 0.212559 0.312609 0.0399007 0.0780992 0.379617 21
2 0.741899 0.882605 0.207127 0.220251 0.816236 22
2 0.390407 0.501733 0.113077 0.198753 0.747364 55
2 0.65202 0.759026 0.161204 0.239141 0.857125 57
2 0.238794 0.309219 0.0384124 0.072712 0.369753 52
2 0.237833 0.300667 0.0387316 0.0587844 0.259407 32
5 0.665212 0.523559 0.166503 0.319988 0.482453 16
2 0.170731 0.317889 0.068214 0.0929734 0.769149 70
2 0.310956 0.896942 0.201225 0.180443 0.87043 26
2 0.73037 0.376682 0.083499 0.132601 0.687044 74
2 0.3542 0.587307 0.117389 0.160095 0.758233 80
2 0.599279 0.417462 0.0747031 0.137111 0.699833 92
2 0.575787 0.351766 0.0686299 0.120267 0.450797 98
2 0.0804365 0.355878 0.0900299 0.147244 0.763255 99
2 0.209176 0.30635 0.0352696 0.0666168 0.216941 53
2 0.319573 0.748687 0.161145 0.248256 0.845254 107
2 0.421445 0.346173 0.0920147 0.115046 0.436205 110
2 0.599614 0.412907 0.0812161 0.132783 0.568767 120
2 0.389406 0.482189 0.109068 0.141236 0.172385 123
2 0.732817 0.378808 0.0775047 0.123314 0.745853 125
2 0.354045 0.587204 0.111142 0.139663 0.308685 97
2 0.300766 0.902389 0.196479 0.192227 0.856112 121
