2 0.310104 0.862402 0.188715 0.264712 0.878162 168
2 0.692296 0.819681 0.181525 0.253655 0.881634 98
2 0.160393 0.326217 0.060582 0.0939436 0.566597 212
5 0.365198 0.648612 0.19111 0.444843 0.583537 194
2 0.632441 0.572991 0.150055 0.267962 0.616752 199
2 0.185351 0.308396 0.0475552 0.0760491 0.256628 217
2 0.567767 0.389465 0.0652724 0.120262 0.515533 219
2 0.0975922 0.337866 0.0728674 0.136181 0.54428 220
2 0.187538 0.310109 0.0597627 0.0819483 0.168015 202
2 0.582158 0.382865 0.0920863 0.13143 0.512028 223
2 0.0567268 0.373997 0.0771529 0.122621 0.854858 225
2 0.616101 0.404253 0.11584 0.131345 0.602149 227
7 0.57948 0.279137 0.0803635 0.10239 0.55982 233
2 0.0287895 0.410637 0.057579 0.120143 0.599599 234
2 0.0271516 0.403485 0.0543033 0.130078 0.685132 228
2 0.389669 0.375711 0.103506 0.0961886 0.201705 237
2 0.218284 0.959611 0.17736 0.0765291 0.73315 110
2 0.0162207 0.453419 0.0324415 0.139055 0.685587 240
