2 0.233261 0.305473 0.0473933 0.0688133 0.169214 212
2 0.243083 0.880507 0.253245 0.226118 0.54779 194
2 0.665895 0.80008 0.208695 0.374334 0.603727 199
2 0.259747 0.302714 0.0321087 0.0393445 0.521007 217
2 0.149735 0.324808 0.0612228 0.0968167 0.57886 220
2 0.231029 0.308457 0.0406662 0.0732063 0.491038 202
2 0.18792 0.305842 0.0580259 0.111095 0.407054 225
2 0.617995 0.571114 0.149035 0.257038 0.783287 227
7 0.590287 0.343084 0.0992177 0.182808 0.203043 233
2 0.358324 0.47258 0.128869 0.144167 0.517663 237
2 0.0820112 0.357867 0.0750603 0.119143 0.69515 248
2 0.316878 0.727823 0.152402 0.256154 0.401775 250
2 0.188244 0.319051 0.0561674 0.0881357 0.66197 254
2 0.152109 0.324613 0.0513758 0.0951245 0.612215 255
2 0.597308 0.470253 0.115094 0.150839 0.244935 219
2 0.0434405 0.389837 0.0808341 0.121396 0.813027 257
2 0.12537 0.336412 0.0454137 0.102529 0.686209 234
2 0.188191 0.287984 0.0570687 0.0779551 0.113856 228
2 0.371511 0.575679 0.118384 0.185657 0.808285 261
2 0.307892 0.734098 0.173301 0.271299 0.762212 263
2 0.331796 0.606249 0.124437 0.139877 0.211619 266
2 0.0858226 0.353485 0.0699444 0.111763 0.415698 260
2 0.139363 0.325027 0.0738928 0.0900013 0.501674 258
2 0.32823 0.612913 0.128227 0.151147 0.65327 267
2 0.668296 0.843147 0.214002 0.286725 0.602208 269
2 0.0138239 0.419622 0.0262249 0.144447 0.706495 270
