2 0.228614 0.309396 0.0347753 0.0740254 0.282739 220
2 0.258423 0.295226 0.0361105 0.0512292 0.11568 225
7 0.612116 0.414956 0.117566 0.224395 0.52452 233
2 0.290676 0.723535 0.162502 0.199206 0.565259 237
2 0.619024 0.639472 0.141104 0.208156 0.868827 219
2 0.289823 0.874389 0.188256 0.236185 0.817019 266
2 0.127221 0.34224 0.0702649 0.104448 0.862053 270
2 0.152756 0.318933 0.0675778 0.105575 0.53674 272
2 0.68476 0.83951 0.230105 0.300338 0.807013 285
2 0.20755 0.310902 0.0678018 0.0884425 0.514847 283
2 0.367777 0.556532 0.11942 0.171617 0.683253 288
2 0.168636 0.32381 0.03795 0.0968901 0.129629 290
2 0.659839 0.554435 0.107376 0.172222 0.75049 271
2 0.198214 0.312586 0.047484 0.0867359 0.451344 248
2 0.344231 0.598176 0.12081 0.111346 0.135329 297
2 0.0525854 0.372262 0.0732597 0.117464 0.835385 298
2 0.284448 0.737389 0.17012 0.222291 0.727879 302
2 0.348031 0.734007 0.129689 0.232725 0.50248 265
2 0.434039 0.326766 0.103934 0.112496 0.571776 304
2 0.38643 0.401651 0.122375 0.141689 0.583645 306
2 0.0190645 0.414983 0.038129 0.144509 0.828205 307
2 0.210816 0.9652 0.170024 0.0632858 0.574525 312
2 0.385785 0.420132 0.116931 0.180431 0.358944 313
2 0.640626 0.463675 0.0988791 0.12576 0.517076 314
