2 0.303777 0.872838 0.197097 0.247677 0.898941 168
2 0.700806 0.832238 0.191574 0.257297 0.914107 98
2 0.164032 0.324956 0.0622466 0.0881586 0.639649 212
7 0.361167 0.660174 0.195539 0.446795 0.503865 194
2 0.631273 0.579087 0.152789 0.2723 0.572399 199
2 0.18516 0.307878 0.0514725 0.0770744 0.25267 217
2 0.577749 0.391568 0.0837506 0.122667 0.446245 219
2 0.100739 0.337971 0.0746732 0.137538 0.344591 220
2 0.173492 0.318088 0.0680266 0.0944713 0.242183 202
2 0.582745 0.385906 0.0926037 0.131514 0.510009 223
2 0.06253 0.371701 0.076392 0.12071 0.882696 225
2 0.615976 0.40633 0.113329 0.13159 0.656202 227
7 0.580065 0.279759 0.080916 0.103434 0.534297 233
2 0.0307556 0.41626 0.0615112 0.14089 0.17173 234
2 0.0312695 0.394847 0.0625389 0.125915 0.786014 228
2 0.388035 0.377162 0.106798 0.0951253 0.213225 237
2 0.21307 0.970875 0.166397 0.0571364 0.446058 110
2 0.0197099 0.447293 0.0394199 0.140131 0.747078 240
