2 0.265891 0.301411 0.0402323 0.0419831 0.290941 298
2 0.26302 0.306829 0.0338177 0.0381501 0.31794 356
2 0.655599 0.673907 0.154023 0.266223 0.809419 365
2 0.66928 0.908128 0.179809 0.169961 0.903513 376
2 0.38302 0.620543 0.125135 0.210441 0.824876 404
7 0.206212 0.272378 0.0645084 0.142295 0.649999 395
2 0.229514 0.916345 0.215233 0.156601 0.844025 415
2 0.707561 0.806399 0.165015 0.258519 0.852371 416
2 0.623229 0.477996 0.105846 0.143483 0.793776 410
2 0.314467 0.691183 0.164484 0.258965 0.86309 353
2 0.575214 0.396337 0.0788556 0.124215 0.608385 436
2 0.0667144 0.359405 0.0829624 0.126851 0.791219 441
2 0.374144 0.490729 0.112088 0.129227 0.102434 442
2 0.389247 0.620583 0.105402 0.202284 0.564054 304
2 0.0804272 0.293081 0.0493236 0.0472022 0.115337 452
7 0.20248 0.264865 0.060584 0.123657 0.462955 453
2 0.333969 0.642069 0.126018 0.183599 0.123242 448
2 0.144352 0.329703 0.0812826 0.105112 0.796926 423
2 0.0190011 0.411069 0.0375049 0.133117 0.792306 456
