2 0.671661 0.779061 0.170416 0.305106 0.809869 365
7 0.224412 0.283526 0.055898 0.142515 0.57249 395
2 0.745933 0.895099 0.196819 0.184271 0.876447 416
2 0.637752 0.519437 0.115095 0.162915 0.779046 410
2 0.288824 0.809628 0.183268 0.299888 0.880469 353
2 0.120531 0.326445 0.069195 0.116268 0.702181 441
2 0.337093 0.588133 0.135783 0.147535 0.524293 442
7 0.22648 0.264839 0.0594633 0.111716 0.239142 453
2 0.174964 0.313151 0.0592706 0.0871441 0.527548 423
2 0.0793757 0.366915 0.0445739 0.110661 0.17479 456
2 0.582343 0.42703 0.0841033 0.129394 0.715037 461
2 0.0818962 0.366599 0.0403273 0.116701 0.557437 462
2 0.3558 0.716679 0.150345 0.234702 0.285096 465
2 0.0390706 0.375225 0.0781413 0.17325 0.665489 471
2 0.426363 0.380759 0.0802154 0.12205 0.747872 476
2 0.36185 0.715798 0.141151 0.247096 0.820494 304
2 0.577256 0.336242 0.0863515 0.128235 0.558945 478
2 0.758012 0.894278 0.214627 0.198541 0.544226 479
2 0.0202363 0.427274 0.0404727 0.145595 0.78377 480
2 0.637594 0.529054 0.114823 0.15492 0.72215 482
