2 0.272646 0.303573 0.0291115 0.03654 0.233914 3
2 0.266562 0.302143 0.0276903 0.0476928 0.145328 13
2 0.221727 0.312299 0.0536824 0.0791436 0.140774 21
2 0.748218 0.89424 0.212735 0.202256 0.838668 22
2 0.39006 0.503179 0.115829 0.203895 0.671728 55
2 0.654766 0.773024 0.164922 0.242659 0.847602 57
2 0.236042 0.305119 0.0464855 0.0629166 0.221619 52
2 0.241334 0.295939 0.0351028 0.0483705 0.196487 32
5 0.666604 0.519216 0.168411 0.305102 0.776407 16
2 0.174745 0.317972 0.0665685 0.0913964 0.715833 70
2 0.303743 0.914189 0.21873 0.161296 0.893865 26
2 0.733593 0.376568 0.0831835 0.135549 0.615572 74
2 0.351836 0.597591 0.118227 0.158074 0.805883 80
2 0.60116 0.411325 0.0801174 0.123135 0.11077 92
2 0.575608 0.353679 0.0669893 0.123577 0.410572 98
2 0.0836443 0.353214 0.0872845 0.146716 0.697199 99
2 0.21646 0.302722 0.0422081 0.0603292 0.145844 53
2 0.422128 0.351978 0.0862913 0.105116 0.242637 110
2 0.6013 0.419064 0.0777482 0.136341 0.690156 120
2 0.388974 0.476242 0.111634 0.13755 0.219197 123
2 0.733057 0.373058 0.0845835 0.133265 0.323877 125
2 0.349753 0.610697 0.120823 0.129951 0.613943 97
2 0.313353 0.764535 0.164524 0.253018 0.851474 100
2 0.296854 0.915148 0.191613 0.169502 0.803387 128
