2 0.253425 0.298743 0.0346794 0.0458314 0.215146 220
2 0.282913 0.291751 0.0212646 0.0262414 0.17121 225
2 0.641454 0.585017 0.127035 0.210669 0.714889 233
2 0.645892 0.833129 0.188098 0.264943 0.919917 219
2 0.181272 0.313136 0.0554622 0.0898066 0.735632 270
2 0.220431 0.299604 0.0476742 0.0797981 0.456666 272
2 0.249826 0.296885 0.0281599 0.0469916 0.260403 283
2 0.220138 0.313829 0.0419929 0.0669311 0.498353 290
2 0.677386 0.682065 0.136102 0.207108 0.804228 271
2 0.261996 0.296272 0.0464044 0.041194 0.142978 248
2 0.291704 0.847516 0.177068 0.21372 0.724612 297
2 0.138837 0.327501 0.0588569 0.0922183 0.784455 298
2 0.214996 0.955548 0.180255 0.0852472 0.668472 302
2 0.305698 0.933987 0.186745 0.127449 0.753527 265
2 0.427178 0.352273 0.115215 0.120372 0.145095 304
2 0.366177 0.526585 0.144096 0.298645 0.162016 306
2 0.361267 0.543674 0.147894 0.265035 0.706856 313
2 0.64533 0.576079 0.147542 0.204767 0.429708 314
2 0.280872 0.934796 0.203343 0.120692 0.372218 237
2 0.674091 0.672334 0.137902 0.184621 0.674956 322
2 0.335761 0.713989 0.156788 0.23472 0.851575 288
2 0.0474795 0.381352 0.0825912 0.132702 0.777366 328
2 0.097084 0.353321 0.0662972 0.111572 0.77355 307
2 0.548968 0.483966 0.0227429 0.0885019 0.105833 334
2 0.290607 0.832048 0.177506 0.184492 0.754139 339
2 0.0227365 0.411788 0.0454729 0.131307 0.852649 340
2 0.673166 0.648648 0.12938 0.130098 0.526476 341
2 0.285362 0.943039 0.229788 0.106203 0.280856 342
2 0.0962185 0.347671 0.066756 0.110963 0.701201 337
