2 0.249357 0.291805 0.0315293 0.0336992 0.342276 298
2 0.398082 0.505967 0.122539 0.174974 0.431773 304
2 0.220457 0.311492 0.0433316 0.0756518 0.430802 356
2 0.641598 0.544295 0.130808 0.200563 0.540953 365
2 0.646764 0.714036 0.144981 0.16979 0.829215 376
2 0.323078 0.73137 0.16291 0.204871 0.644122 352
2 0.663464 0.614051 0.128968 0.165907 0.498067 402
2 0.410828 0.507505 0.0983554 0.175028 0.779247 404
7 0.157715 0.284743 0.0811396 0.172717 0.726437 395
2 0.0864049 0.36239 0.0694137 0.116527 0.752814 414
2 0.323972 0.73358 0.158415 0.212877 0.803988 415
2 0.320174 0.882676 0.195157 0.227293 0.844785 399
2 0.661532 0.62968 0.130706 0.196329 0.654338 416
2 0.596882 0.414177 0.0919624 0.128737 0.611683 422
2 0.0500711 0.387947 0.0910182 0.128582 0.829818 423
2 0.60087 0.406709 0.0929215 0.132046 0.173776 410
2 0.720356 0.914149 0.256354 0.146686 0.71646 432
2 0.0889178 0.361484 0.0619545 0.104529 0.591528 433
2 0.350096 0.552611 0.127143 0.220498 0.841936 353
2 0.648157 0.692989 0.139027 0.146814 0.649424 434
2 0.651537 0.856425 0.184912 0.214846 0.684407 417
