2 0.298397 0.790752 0.168861 0.257438 0.915408 110
2 0.684496 0.857232 0.165418 0.265322 0.887605 166
2 0.352599 0.66938 0.149377 0.226455 0.836317 168
7 0.172749 0.295664 0.0818483 0.13299 0.332607 190
2 0.282644 0.301149 0.025477 0.0292868 0.194996 140
2 0.671537 0.645669 0.145654 0.19893 0.894776 98
2 0.254376 0.305385 0.0448198 0.0442891 0.358782 200
2 0.0867151 0.363912 0.0840707 0.112637 0.816353 212
7 0.382302 0.529412 0.155919 0.361642 0.492612 194
7 0.628516 0.479706 0.124498 0.220899 0.647858 199
2 0.133046 0.326775 0.0648831 0.0938171 0.678246 217
2 0.545544 0.361238 0.0410757 0.107218 0.309955 219
2 0.0280549 0.395141 0.0546213 0.171268 0.84747 220
2 0.128549 0.323955 0.0742567 0.0955751 0.346696 202
