2 0.322418 0.755355 0.165531 0.276351 0.866831 55
7 0.753672 0.896698 0.287741 0.190846 0.476678 16
2 0.259747 0.302194 0.0419056 0.0294312 0.269684 70
2 0.267796 0.931327 0.178216 0.129595 0.825677 80
2 0.618132 0.43703 0.0870278 0.117768 0.683797 98
7 0.211742 0.291759 0.054296 0.0778909 0.135289 99
2 0.395672 0.434243 0.0904896 0.177395 0.514045 110
2 0.631432 0.582389 0.115631 0.187226 0.810645 120
2 0.372662 0.509904 0.113944 0.176503 0.62069 123
2 0.842973 0.544125 0.127842 0.184641 0.85964 74
2 0.598541 0.394628 0.0793124 0.118932 0.590249 148
2 0.257606 0.30289 0.0413221 0.0385305 0.264568 144
2 0.0188264 0.326804 0.0373768 0.108823 0.610715 157
2 0.35018 0.654164 0.133947 0.216139 0.579311 158
2 0.0816012 0.354837 0.0804325 0.115131 0.902384 156
2 0.617103 0.447135 0.0893607 0.135401 0.839031 166
2 0.678011 0.689787 0.145078 0.221029 0.862299 164
2 0.147005 0.320697 0.0624243 0.106992 0.665087 160
7 0.426532 0.333532 0.0894243 0.22384 0.417033 168
2 0.754074 0.897669 0.285634 0.190584 0.495261 169
2 0.147693 0.327037 0.0700998 0.109002 0.440842 150
2 0.0872507 0.348604 0.0929322 0.123533 0.620541 171
