2 0.218866 0.30897 0.0537559 0.076702 0.28076 298
2 0.429929 0.462013 0.0774688 0.151808 0.615804 304
2 0.191831 0.295544 0.0468932 0.0577883 0.110231 307
2 0.251981 0.887117 0.239948 0.202946 0.83776 306
2 0.36734 0.463906 0.109218 0.135172 0.48138 353
2 0.207348 0.310319 0.079965 0.081947 0.565202 356
2 0.625833 0.482647 0.109636 0.180847 0.63711 365
2 0.251497 0.292852 0.0397215 0.0505947 0.171672 371
2 0.623252 0.604597 0.128179 0.132627 0.594643 376
2 0.368272 0.478735 0.111875 0.166019 0.727732 392
2 0.193525 0.311099 0.0558248 0.0780272 0.178383 345
2 0.223122 0.309353 0.0442788 0.078144 0.257946 328
2 0.361124 0.610549 0.137943 0.17066 0.651845 352
2 0.652867 0.554092 0.116541 0.179699 0.713631 402
2 0.425614 0.459999 0.0894015 0.157768 0.709638 404
7 0.110333 0.30168 0.0879542 0.19312 0.763377 395
2 0.161524 0.330413 0.0202767 0.0888516 0.137765 369
2 0.767421 0.968375 0.167933 0.0508104 0.156313 233
2 0.590238 0.386954 0.0858946 0.119471 0.523834 410
2 0.0279119 0.410176 0.055287 0.12715 0.801787 414
2 0.360732 0.621249 0.147365 0.190799 0.373542 415
2 0.354097 0.751349 0.15836 0.245527 0.815621 399
2 0.646701 0.54969 0.133569 0.177261 0.142334 416
2 0.615952 0.723472 0.139372 0.199376 0.434034 417
2 0.767809 0.96899 0.161448 0.0620195 0.211496 407
2 0.262286 0.890904 0.209907 0.211911 0.739986 420
