2 0.670135 0.763708 0.169893 0.298682 0.822694 365
7 0.222229 0.274641 0.0557072 0.129895 0.530119 395
2 0.735985 0.888711 0.187637 0.208092 0.818445 416
2 0.634236 0.519909 0.112183 0.15881 0.803422 410
2 0.292668 0.794243 0.182083 0.293118 0.856572 353
2 0.587377 0.417438 0.0998042 0.140712 0.101496 436
2 0.114173 0.330033 0.0720346 0.112804 0.705048 441
2 0.341997 0.577567 0.141892 0.146049 0.510314 442
7 0.223195 0.265603 0.0598165 0.114807 0.160905 453
2 0.172928 0.312714 0.0588968 0.0873566 0.540126 423
2 0.0757718 0.367873 0.0397334 0.118958 0.169794 456
2 0.583984 0.419795 0.0895716 0.131845 0.654299 461
2 0.0742865 0.373128 0.0415342 0.113046 0.353278 462
2 0.367399 0.701188 0.140575 0.242245 0.83637 465
2 0.0360601 0.377141 0.0711516 0.167446 0.775111 471
2 0.429813 0.377901 0.0727806 0.120844 0.798867 476
2 0.35731 0.711365 0.14846 0.216451 0.195532 304
2 0.576401 0.336627 0.0834827 0.126969 0.621344 478
2 0.743265 0.888845 0.217524 0.208578 0.655081 479
2 0.015337 0.440016 0.0305459 0.140114 0.707461 480
