2 0.212745 0.311554 0.0600533 0.0808507 0.193328 212
2 0.305459 0.797668 0.26163 0.381841 0.653003 194
2 0.633204 0.725344 0.193185 0.359336 0.635769 199
2 0.234948 0.307657 0.0341788 0.0639377 0.150482 217
2 0.100442 0.339887 0.0771406 0.104369 0.671736 220
2 0.207905 0.312337 0.0486021 0.0819955 0.46444 202
2 0.586907 0.432963 0.096424 0.143257 0.539022 223
2 0.143255 0.332147 0.0623378 0.0998404 0.142462 225
2 0.626007 0.487003 0.138983 0.186666 0.768297 227
7 0.585238 0.303082 0.0860448 0.124519 0.429092 233
2 0.378313 0.410628 0.124872 0.100956 0.454089 237
2 0.037095 0.391372 0.07419 0.132728 0.800439 248
2 0.339425 0.596419 0.139824 0.162274 0.56014 250
2 0.145024 0.338069 0.058446 0.0908322 0.353536 228
2 0.146802 0.32903 0.0558789 0.095988 0.621234 254
2 0.102173 0.344918 0.0705473 0.104402 0.574028 255
2 0.760877 0.981339 0.147803 0.0373228 0.301998 98
2 0.583254 0.424759 0.0946748 0.118261 0.582937 219
2 0.764127 0.977354 0.153791 0.0355315 0.288773 256
2 0.0148573 0.441739 0.0297146 0.139434 0.739272 257
2 0.0756688 0.371341 0.0693712 0.114416 0.72889 234
2 0.0795433 0.37361 0.0605372 0.113728 0.64984 258
