2 0.340761 0.689434 0.159928 0.260873 0.864533 55
2 0.263983 0.302437 0.0285139 0.0317698 0.136773 52
7 0.726694 0.825414 0.26452 0.323305 0.558282 16
2 0.250347 0.301148 0.0543058 0.0495622 0.113283 70
2 0.286037 0.880609 0.164532 0.220926 0.894356 80
2 0.611894 0.424872 0.0850929 0.14023 0.690781 98
2 0.19843 0.300115 0.0624987 0.10377 0.605974 99
2 0.398525 0.391961 0.0892802 0.130421 0.556865 110
2 0.624062 0.542946 0.106703 0.175588 0.823928 120
2 0.380435 0.492615 0.109511 0.16322 0.54458 123
2 0.116551 0.335502 0.0754999 0.114172 0.548113 140
2 0.816178 0.500566 0.118024 0.173086 0.855243 74
2 0.613302 0.416503 0.0815361 0.116549 0.326046 148
2 0.243348 0.300169 0.0386959 0.0423379 0.261573 144
2 0.0339633 0.338533 0.0675317 0.129593 0.423494 157
2 0.359544 0.576366 0.128064 0.123188 0.498077 158
2 0.0921808 0.351269 0.0472506 0.105745 0.501995 160
2 0.111482 0.335507 0.087568 0.11981 0.453186 162
2 0.670246 0.64288 0.145551 0.210908 0.773587 164
2 0.678985 0.641332 0.153251 0.216611 0.784231 165
2 0.0523893 0.373713 0.0841116 0.127752 0.903273 156
2 0.0889476 0.355595 0.0516247 0.1065 0.531656 150
