2 0.273194 0.303834 0.0282768 0.0356986 0.197903 3
2 0.264584 0.301924 0.0261309 0.0461557 0.113953 13
2 0.227546 0.311286 0.0581372 0.0762066 0.388044 21
2 0.745301 0.899089 0.208869 0.191043 0.861843 22
2 0.38778 0.510651 0.114502 0.196437 0.669273 55
2 0.65419 0.779688 0.163752 0.241528 0.857925 57
2 0.234891 0.303418 0.0489818 0.0636161 0.112926 52
2 0.242701 0.295549 0.0358283 0.0457722 0.165971 32
5 0.669631 0.526026 0.167513 0.31331 0.644229 16
2 0.176328 0.316519 0.0657588 0.0935779 0.640209 70
2 0.301253 0.918205 0.21823 0.152832 0.855827 26
2 0.735473 0.381644 0.0807927 0.126592 0.737947 74
2 0.35142 0.60066 0.118899 0.156687 0.815353 80
2 0.597253 0.419375 0.0733621 0.127127 0.255466 92
2 0.576335 0.35358 0.0681411 0.121167 0.381068 98
2 0.0864844 0.35194 0.0861423 0.14101 0.675511 99
2 0.221506 0.311709 0.0485344 0.0767475 0.301341 53
2 0.428199 0.35294 0.0785598 0.10481 0.118231 110
2 0.601864 0.421127 0.0789093 0.137039 0.688932 120
2 0.388554 0.477537 0.11095 0.141233 0.176391 123
2 0.349618 0.610736 0.118919 0.134636 0.555011 97
2 0.310992 0.770748 0.163583 0.25553 0.851729 100
2 0.294092 0.917165 0.195707 0.16567 0.795864 128
