2 0.318528 0.766981 0.174306 0.284321 0.870875 55
2 0.768824 0.911153 0.277117 0.163842 0.585836 16
2 0.259678 0.301669 0.0417345 0.0307387 0.315506 70
2 0.264015 0.936727 0.176505 0.109656 0.781666 80
2 0.616736 0.435925 0.0970979 0.112464 0.105441 98
2 0.214351 0.287963 0.0529147 0.0679864 0.162056 99
2 0.392029 0.439277 0.0970693 0.153903 0.394711 110
2 0.634056 0.591116 0.120831 0.192633 0.788696 120
2 0.370994 0.518682 0.119674 0.176618 0.663678 123
2 0.848049 0.554938 0.130098 0.186053 0.848383 74
2 0.601855 0.393668 0.0843744 0.12247 0.59459 148
2 0.2589 0.303905 0.0406382 0.0364825 0.32295 144
2 0.0208529 0.328447 0.0416866 0.108575 0.619708 157
2 0.341535 0.669042 0.148581 0.217065 0.627839 158
2 0.086161 0.352366 0.0787588 0.114798 0.89678 156
2 0.618561 0.451829 0.0912689 0.138596 0.767193 166
2 0.67979 0.70023 0.146701 0.22484 0.877642 164
2 0.150993 0.319304 0.0579871 0.106975 0.709527 160
5 0.426722 0.312926 0.0890192 0.178951 0.533278 168
7 0.758109 0.908641 0.299438 0.164601 0.369763 169
2 0.151465 0.328405 0.0681664 0.107105 0.548546 150
2 0.0935318 0.347309 0.0955788 0.121199 0.73995 171
2 0.114799 0.336974 0.05601 0.104424 0.707404 140
