2 0.301218 0.875889 0.200537 0.239595 0.901997 168
2 0.699296 0.83993 0.184358 0.25991 0.9352 98
2 0.165881 0.321736 0.0609982 0.086566 0.793993 212
5 0.357628 0.666103 0.202934 0.455558 0.725144 194
2 0.62965 0.583364 0.151611 0.275494 0.586222 199
2 0.193263 0.307991 0.0423107 0.0804417 0.27785 217
2 0.612935 0.399788 0.111728 0.118646 0.449516 219
7 0.104641 0.330851 0.0755552 0.130199 0.293861 220
2 0.170114 0.320245 0.0699145 0.0964661 0.164138 202
2 0.582853 0.387302 0.0919945 0.136674 0.561982 223
2 0.0673976 0.370079 0.0738758 0.12038 0.806794 225
2 0.616881 0.41034 0.113445 0.136184 0.605409 227
7 0.580756 0.280596 0.0801162 0.100957 0.465221 233
2 0.030308 0.409864 0.0601605 0.150117 0.35293 234
2 0.0334094 0.389725 0.0663378 0.120715 0.785332 228
2 0.385442 0.372658 0.101825 0.0884973 0.100026 237
2 0.210256 0.975803 0.160589 0.0426736 0.329165 110
2 0.0220549 0.444209 0.0435175 0.136599 0.773755 240
