2 0.380705 0.558771 0.125681 0.21298 0.818924 55
2 0.68603 0.897636 0.19244 0.184218 0.935769 57
2 0.262695 0.297265 0.041524 0.0379079 0.19864 52
2 0.261722 0.297757 0.0304151 0.0408394 0.197574 32
2 0.687871 0.6459 0.194276 0.436007 0.328295 16
2 0.207269 0.307627 0.0545458 0.0693098 0.279666 70
2 0.328861 0.662149 0.133528 0.178663 0.919192 80
2 0.587111 0.372445 0.0733643 0.119234 0.638479 98
2 0.128544 0.327354 0.0819254 0.12645 0.666084 99
2 0.248888 0.298837 0.0394757 0.0432275 0.274187 53
2 0.427041 0.347919 0.0935921 0.110618 0.493679 110
2 0.612978 0.453623 0.0874542 0.153351 0.768572 120
2 0.396471 0.392673 0.0769434 0.0662047 0.237419 123
2 0.265143 0.886703 0.195356 0.212851 0.897364 100
2 0.0365212 0.394415 0.0723243 0.144454 0.796719 140
2 0.758464 0.409177 0.0944296 0.140535 0.764802 74
2 0.587449 0.364262 0.0700699 0.124522 0.456797 148
2 0.20608 0.307719 0.0634567 0.0772481 0.695769 144
