2 0.295149 0.293543 0.0414348 0.0345764 0.328748 99
2 0.348621 0.623931 0.135081 0.210442 0.861369 110
2 0.247304 0.970722 0.153031 0.0515218 0.553638 123
2 0.663243 0.662288 0.12831 0.219583 0.88901 166
7 0.386229 0.399288 0.130901 0.20742 0.263102 168
2 0.310685 0.825525 0.17663 0.268317 0.915986 178
2 0.707979 0.929366 0.213297 0.123033 0.816954 120
2 0.214457 0.30797 0.0536732 0.0634448 0.237375 156
7 0.107011 0.324464 0.101451 0.1434 0.377536 190
2 0.252943 0.29491 0.0364463 0.0478543 0.354887 140
2 0.649277 0.53455 0.119681 0.16913 0.810699 98
2 0.291692 0.299299 0.0399431 0.0298059 0.178009 197
7 0.598384 0.409659 0.104365 0.192495 0.40559 199
2 0.213878 0.306267 0.0536627 0.0769242 0.49352 200
2 0.0648122 0.366919 0.0770675 0.114896 0.756115 202
2 0.645664 0.545284 0.114821 0.19318 0.603018 207
2 0.599671 0.413169 0.105768 0.185052 0.547061 209
2 0.167848 0.318167 0.0300408 0.0592374 0.488017 210
2 0.0223255 0.428008 0.0421431 0.14058 0.853738 212
2 0.168485 0.314395 0.0301867 0.0517329 0.284894 213
2 0.368434 0.533653 0.118115 0.135464 0.6398 194
2 0.713588 0.931226 0.234681 0.126793 0.160656 214
2 0.248434 0.966513 0.151292 0.0498482 0.617181 211
