2 0.279635 0.30225 0.0251074 0.0273476 0.282919 212
2 0.207353 0.312705 0.0355876 0.0806101 0.346153 220
2 0.242927 0.308265 0.0434933 0.0719179 0.365691 225
7 0.606176 0.370312 0.109932 0.167489 0.437487 233
2 0.304793 0.661505 0.152688 0.226939 0.611327 237
2 0.614766 0.584571 0.126156 0.186613 0.84435 219
2 0.156846 0.335621 0.0229504 0.0735384 0.167387 257
2 0.239091 0.310684 0.0493546 0.0776268 0.308413 228
2 0.319006 0.785171 0.168112 0.25746 0.859453 266
2 0.0952054 0.361689 0.0781791 0.114601 0.841955 270
2 0.260081 0.840015 0.201312 0.159922 0.141613 265
2 0.117081 0.341706 0.0735723 0.093626 0.177924 272
2 0.10911 0.350386 0.0901653 0.094446 0.144064 273
2 0.654639 0.500822 0.100355 0.138926 0.560222 277
2 0.242191 0.894232 0.200476 0.209334 0.838665 261
2 0.658594 0.775075 0.200889 0.347871 0.796666 285
2 0.178887 0.316102 0.0512106 0.0948529 0.536721 283
2 0.368629 0.516873 0.12251 0.169125 0.583062 288
2 0.126198 0.331303 0.0879573 0.11335 0.523 290
2 0.654496 0.516513 0.0986718 0.164966 0.615517 271
2 0.184223 0.315605 0.0649473 0.091024 0.442805 248
2 0.363039 0.53015 0.133353 0.183835 0.518877 297
2 0.616691 0.554196 0.119288 0.127236 0.178759 223
2 0.0279571 0.398938 0.0559142 0.127764 0.811186 298
2 0.711772 0.97799 0.148187 0.0423837 0.309326 296
2 0.714847 0.96372 0.151076 0.0590886 0.455735 199
2 0.313857 0.649612 0.157011 0.201181 0.682943 302
2 0.711698 0.974754 0.148448 0.0504928 0.211551 303
