2 0.319324 0.7194 0.157677 0.242342 0.908055 110
2 0.675186 0.779051 0.155758 0.248442 0.889216 166
2 0.362131 0.622283 0.132727 0.208237 0.77819 168
2 0.276361 0.920715 0.188778 0.145415 0.769811 178
2 0.152841 0.312755 0.092484 0.117961 0.118698 190
2 0.273412 0.29682 0.0315488 0.0443557 0.20787 140
2 0.666421 0.600289 0.13716 0.185376 0.827748 98
2 0.239349 0.30666 0.0483961 0.0676292 0.55988 200
2 0.109269 0.335635 0.0773915 0.103223 0.175409 202
2 0.0565008 0.382654 0.091913 0.123198 0.874336 212
2 0.379682 0.537782 0.143225 0.251597 0.283215 194
2 0.36226 0.606704 0.135518 0.176743 0.410947 215
2 0.6173 0.454982 0.11841 0.209916 0.581976 199
2 0.115114 0.336801 0.069192 0.100271 0.590893 217
2 0.261411 0.923164 0.239199 0.146921 0.776516 218
2 0.538167 0.354108 0.0320407 0.0995666 0.623833 219
