2 0.695454 0.919542 0.185852 0.148143 0.871632 166
2 0.338023 0.753645 0.164306 0.250849 0.900117 168
2 0.67805 0.719492 0.161428 0.225097 0.915554 98
2 0.263847 0.302853 0.0387588 0.0364922 0.380235 200
2 0.125569 0.33948 0.073098 0.102812 0.705764 212
2 0.377559 0.575324 0.163835 0.382988 0.56475 194
2 0.630921 0.519987 0.130064 0.243438 0.642453 199
2 0.16062 0.315131 0.0556057 0.0861224 0.536957 217
2 0.549367 0.375218 0.0381915 0.114905 0.663472 219
2 0.050527 0.359581 0.0899853 0.165518 0.606838 220
2 0.148646 0.316655 0.0769415 0.0873544 0.313756 202
2 0.603535 0.37486 0.106806 0.123019 0.411799 223
2 0.0228138 0.408797 0.0446835 0.135593 0.821035 225
2 0.603586 0.412141 0.107271 0.196455 0.623945 227
2 0.261062 0.875099 0.195896 0.231054 0.859383 110
2 0.0218878 0.416752 0.0433934 0.117809 0.725135 228
