2 0.250671 0.303934 0.050022 0.0547051 0.190804 220
2 0.675653 0.810831 0.171016 0.287926 0.833276 233
2 0.246233 0.299085 0.0395093 0.0445947 0.472663 272
2 0.191827 0.310565 0.0697735 0.0863133 0.463944 298
2 0.444624 0.40302 0.0563417 0.124424 0.593315 304
2 0.183215 0.314257 0.0906679 0.0913715 0.417172 307
2 0.288695 0.818951 0.20725 0.335354 0.751791 350
2 0.329286 0.677907 0.155277 0.283833 0.663435 306
2 0.384244 0.577298 0.117015 0.185867 0.767489 352
2 0.41985 0.392092 0.105681 0.127609 0.196798 353
2 0.126037 0.329135 0.0590499 0.0956103 0.702199 356
2 0.126473 0.324958 0.0669302 0.0973256 0.556168 328
2 0.246162 0.310188 0.0421754 0.0571474 0.523834 362
2 0.602394 0.420168 0.0986082 0.165073 0.371905 365
2 0.0692616 0.369586 0.0597951 0.127336 0.699481 369
2 0.194338 0.310496 0.0552829 0.0850159 0.235149 371
2 0.0759058 0.355351 0.0675764 0.1171 0.526495 372
2 0.630653 0.447649 0.112936 0.109689 0.386586 376
2 0.763911 0.96 0.180585 0.0767907 0.77695 388
2 0.389841 0.406544 0.0973814 0.14464 0.339311 392
2 0.38401 0.561696 0.116637 0.205866 0.679663 393
2 0.758863 0.955935 0.170153 0.0781052 0.429869 271
2 0.132721 0.32373 0.0785806 0.0975482 0.508494 345
2 0.0247259 0.365132 0.0493361 0.245294 0.621257 395
2 0.0671514 0.375866 0.0544537 0.121588 0.789778 387
