2 0.219673 0.309599 0.0527828 0.077718 0.279669 298
2 0.429236 0.462087 0.0789649 0.152537 0.562632 304
2 0.190871 0.295322 0.0449219 0.0570122 0.119786 307
2 0.251335 0.888833 0.237203 0.199821 0.83609 306
2 0.36713 0.464895 0.110297 0.135574 0.464929 353
2 0.207587 0.310404 0.0812016 0.0826721 0.608657 356
2 0.626009 0.484693 0.110742 0.18543 0.6189 365
2 0.25223 0.292687 0.0396218 0.0503989 0.180402 371
2 0.623707 0.605334 0.128763 0.135334 0.581325 376
2 0.368088 0.480757 0.1119 0.169129 0.714449 392
2 0.195509 0.31091 0.0594706 0.0779659 0.151756 345
2 0.223704 0.309144 0.0437634 0.0786382 0.265062 328
2 0.360448 0.610585 0.137505 0.170295 0.670938 352
2 0.652881 0.554589 0.117179 0.180242 0.707984 402
2 0.425226 0.459726 0.0898124 0.158805 0.712775 404
7 0.111277 0.301037 0.0886397 0.194578 0.828395 395
2 0.161647 0.329641 0.0215108 0.0902129 0.226063 369
2 0.770068 0.968453 0.16336 0.0507989 0.126913 233
2 0.589295 0.387751 0.0854375 0.115873 0.552402 410
2 0.028375 0.409114 0.0563968 0.126668 0.814274 414
2 0.359721 0.621029 0.147013 0.189667 0.461953 415
2 0.35373 0.753247 0.157227 0.246086 0.81797 399
2 0.648584 0.54909 0.130743 0.171896 0.590418 416
2 0.616608 0.721067 0.13958 0.203083 0.305131 417
2 0.768641 0.969477 0.160547 0.0609209 0.186316 407
