2 0.267298 0.303756 0.0290932 0.0380211 0.387201 212
2 0.678188 0.916579 0.197519 0.166843 0.837267 199
2 0.193086 0.316171 0.0452676 0.0901456 0.266751 220
2 0.23372 0.306176 0.0459076 0.0765813 0.389109 225
7 0.606526 0.384869 0.112162 0.219257 0.510263 233
2 0.322668 0.605272 0.149005 0.205682 0.64287 237
2 0.613524 0.55439 0.124478 0.179484 0.41739 219
2 0.124324 0.33419 0.0581332 0.0976402 0.253284 257
2 0.230007 0.307665 0.0528782 0.0832274 0.110911 228
2 0.235166 0.896794 0.219129 0.199662 0.589198 263
2 0.339927 0.719648 0.145465 0.228407 0.834823 266
2 0.245715 0.905196 0.227759 0.182309 0.789228 267
2 0.0685854 0.380439 0.0801145 0.117973 0.864707 270
2 0.262946 0.829 0.187209 0.249157 0.629143 265
2 0.109273 0.37104 0.0343673 0.0847942 0.477189 272
2 0.10791 0.338252 0.0914569 0.104773 0.523303 273
2 0.644987 0.482873 0.107541 0.141522 0.699008 277
2 0.26754 0.804676 0.173389 0.203102 0.53989 261
2 0.644799 0.7125 0.185232 0.314586 0.689529 285
2 0.160662 0.318651 0.0579637 0.0916542 0.634037 283
2 0.378084 0.488865 0.105768 0.156214 0.511729 288
2 0.119367 0.332119 0.0672055 0.0995734 0.208189 290
2 0.26206 0.818902 0.183763 0.230404 0.805319 291
2 0.650618 0.479509 0.0917669 0.133711 0.627041 271
2 0.174507 0.320765 0.0776235 0.0964962 0.275675 248
2 0.370221 0.490179 0.12079 0.155518 0.515803 297
2 0.608857 0.57535 0.121054 0.216303 0.828312 223
2 0.0134445 0.425108 0.0268891 0.138456 0.706199 298
