2 0.236029 0.306336 0.0365973 0.0719808 0.341205 3
2 0.236777 0.294513 0.0367143 0.0551805 0.30652 13
2 0.194926 0.297592 0.0504149 0.0643334 0.133313 21
2 0.680168 0.651316 0.148126 0.227087 0.746452 22
2 0.680787 0.8394 0.175312 0.254249 0.845487 23
2 0.397176 0.420271 0.102333 0.15524 0.479453 55
2 0.623066 0.581911 0.113311 0.177157 0.831149 57
2 0.197837 0.312557 0.0487637 0.0918471 0.304589 52
2 0.0870772 0.356957 0.0938405 0.11774 0.638281 60
2 0.678367 0.636829 0.143183 0.196823 0.621182 66
2 0.195003 0.315651 0.0493463 0.0861918 0.396171 32
7 0.6418 0.416896 0.136936 0.251487 0.501937 16
2 0.0800892 0.361115 0.0827138 0.111336 0.897268 70
2 0.32842 0.793662 0.163185 0.262434 0.889751 8
2 0.37103 0.676371 0.137237 0.241546 0.836699 26
2 0.623522 0.568481 0.111964 0.158361 0.247616 73
2 0.711316 0.339113 0.0500523 0.103035 0.306722 74
2 0.137895 0.319778 0.087395 0.0882104 0.765427 53
2 0.35704 0.546778 0.122949 0.145882 0.585586 80
2 0.147287 0.318739 0.0678753 0.0875264 0.664178 68
2 0.569427 0.37198 0.0507177 0.11139 0.601226 92
2 0.268916 0.920263 0.205766 0.150649 0.889524 29
2 0.251473 0.918988 0.215713 0.157315 0.748428 90
2 0.693445 0.979451 0.14411 0.0369277 0.109225 1
5 0.64497 0.413802 0.131331 0.245718 0.646322 94
