2 0.27394 0.304004 0.0279711 0.0355059 0.209443 3
2 0.264869 0.30193 0.0257097 0.0454355 0.123594 13
2 0.230198 0.311075 0.0588502 0.0764704 0.404582 21
2 0.746096 0.900297 0.209718 0.188666 0.861721 22
2 0.387896 0.512379 0.1141 0.197373 0.682844 55
2 0.653951 0.7805 0.165107 0.244003 0.861272 57
2 0.235378 0.30689 0.0524627 0.0692415 0.288061 52
2 0.242943 0.29552 0.0365469 0.0446988 0.154043 32
5 0.669544 0.524878 0.167449 0.309938 0.60364 16
2 0.177336 0.315823 0.065909 0.0939023 0.642351 70
2 0.301173 0.918906 0.223468 0.149112 0.862604 26
2 0.735678 0.382404 0.0803464 0.125765 0.735019 74
2 0.351856 0.601258 0.119174 0.15657 0.822711 80
2 0.596676 0.419598 0.0726023 0.126704 0.291131 92
2 0.576476 0.353436 0.0679346 0.119909 0.371552 98
2 0.0872053 0.351489 0.0868346 0.142857 0.676105 99
2 0.223263 0.31049 0.0499588 0.0741796 0.108952 53
2 0.430397 0.352439 0.073799 0.103364 0.121505 110
2 0.601968 0.421416 0.0795048 0.137573 0.674044 120
2 0.388781 0.476889 0.110228 0.141461 0.167159 123
2 0.349554 0.613353 0.119564 0.128073 0.627829 97
2 0.311481 0.772485 0.165138 0.258135 0.837264 100
2 0.292625 0.916623 0.194555 0.157506 0.748173 128
