2 0.30899 0.8183 0.180208 0.305296 0.878686 55
2 0.801524 0.967737 0.291161 0.0508035 0.38622 16
2 0.265125 0.299785 0.0304541 0.0288617 0.116415 70
2 0.605952 0.406286 0.0889227 0.122616 0.479373 98
2 0.226825 0.289733 0.0530957 0.0701636 0.359099 99
2 0.393272 0.457533 0.0962875 0.156482 0.45795 110
2 0.635684 0.616389 0.124885 0.200943 0.814126 120
2 0.383991 0.560965 0.0878032 0.14531 0.189438 123
2 0.868333 0.585546 0.14061 0.204689 0.851706 74
2 0.610845 0.408968 0.0875669 0.113586 0.526924 148
2 0.257875 0.300304 0.0248921 0.0370565 0.10943 144
2 0.0312669 0.321706 0.0623185 0.108168 0.729035 157
2 0.335168 0.69937 0.148527 0.224419 0.522322 158
2 0.105585 0.340937 0.0737264 0.111048 0.834313 156
2 0.621455 0.466064 0.0978253 0.147452 0.771137 166
2 0.681098 0.745731 0.151678 0.237607 0.877424 164
2 0.16699 0.315537 0.0622854 0.0972688 0.682421 160
5 0.424055 0.342901 0.0936585 0.225534 0.494655 168
2 0.109545 0.336575 0.087139 0.114898 0.829534 171
2 0.134653 0.32827 0.0456231 0.101485 0.236521 140
2 0.333195 0.665587 0.147798 0.15201 0.532186 173
7 0.164874 0.313784 0.059749 0.104607 0.154295 150
2 0.799099 0.97102 0.28729 0.0578437 0.28334 176
2 0.334917 0.671084 0.143375 0.163653 0.587801 177
2 0.375455 0.540558 0.109681 0.183466 0.662946 178
