2 0.270704 0.301231 0.0340984 0.0414451 0.322884 3
2 0.269528 0.300079 0.0318936 0.0503737 0.179122 13
2 0.210286 0.311795 0.0438054 0.0780455 0.285974 21
2 0.736602 0.875439 0.201262 0.229238 0.853245 22
2 0.392262 0.500839 0.110246 0.19205 0.734162 55
2 0.652296 0.747838 0.163204 0.229599 0.851331 57
2 0.235742 0.31053 0.0407512 0.0703439 0.181355 52
2 0.237524 0.304044 0.0384734 0.0614069 0.338933 32
2 0.663519 0.533315 0.168307 0.343415 0.336912 16
2 0.16754 0.318496 0.0693405 0.0929795 0.831307 70
2 0.308862 0.893093 0.207258 0.197559 0.865451 26
2 0.726921 0.367195 0.078944 0.127709 0.365345 74
2 0.35436 0.585215 0.1174 0.151572 0.805876 80
2 0.593188 0.412909 0.0683214 0.12774 0.542218 92
2 0.576479 0.350052 0.0687978 0.122215 0.462989 98
2 0.0765759 0.358635 0.0891372 0.144541 0.806996 99
2 0.206676 0.299455 0.0373966 0.052648 0.171962 53
2 0.323437 0.734027 0.154908 0.234934 0.817951 107
2 0.421093 0.346188 0.0884759 0.114305 0.528009 110
2 0.598674 0.411193 0.0746204 0.139003 0.60436 120
2 0.390334 0.483833 0.109527 0.147075 0.139958 123
2 0.730695 0.376029 0.0783193 0.121727 0.764958 125
