2 0.234353 0.308391 0.0354548 0.0743581 0.272158 220
2 0.262758 0.296566 0.0335333 0.0391893 0.348129 225
7 0.610404 0.421186 0.117132 0.228379 0.51388 233
2 0.621611 0.656096 0.142223 0.215242 0.893595 219
2 0.281354 0.886617 0.189151 0.211297 0.881639 266
2 0.132622 0.336993 0.0689261 0.10205 0.8167 270
2 0.167939 0.319646 0.0547876 0.0986224 0.432112 272
2 0.692599 0.856218 0.236484 0.272242 0.860339 285
2 0.216542 0.309824 0.0688463 0.0841054 0.501374 283
2 0.37015 0.567573 0.115602 0.169369 0.585147 288
2 0.16262 0.317171 0.0635823 0.104853 0.588045 290
2 0.659096 0.567411 0.110415 0.181271 0.714331 271
2 0.209686 0.309292 0.058968 0.0844259 0.374557 248
2 0.342527 0.61977 0.129079 0.130072 0.671448 297
2 0.0637368 0.36535 0.0720146 0.11603 0.858526 298
2 0.277597 0.765265 0.184748 0.228161 0.779268 302
2 0.366086 0.758606 0.0951195 0.24306 0.647214 265
2 0.431286 0.326043 0.0983047 0.116756 0.340032 304
2 0.386299 0.405955 0.12386 0.149056 0.21103 306
2 0.0260946 0.408011 0.0520246 0.140671 0.890358 307
2 0.383418 0.416378 0.117723 0.16518 0.357048 313
2 0.640182 0.476159 0.100583 0.139737 0.355877 314
2 0.331388 0.762792 0.161956 0.241824 0.523612 237
2 0.366401 0.569634 0.127453 0.181872 0.719096 319
