2 0.673146 0.77547 0.174449 0.305438 0.786937 365
7 0.223765 0.282634 0.0555315 0.141809 0.546617 395
2 0.744628 0.894475 0.196046 0.18924 0.854186 416
2 0.636949 0.520962 0.113582 0.159842 0.776712 410
2 0.288741 0.807097 0.183975 0.296983 0.870745 353
2 0.586906 0.422424 0.0960943 0.133121 0.305716 436
2 0.118756 0.327033 0.0709186 0.116582 0.839843 441
2 0.340083 0.590145 0.142044 0.146185 0.178141 442
7 0.225702 0.265213 0.0604842 0.11236 0.2767 453
2 0.173994 0.310826 0.0569144 0.0852551 0.407647 423
2 0.0797375 0.371568 0.0392696 0.105889 0.160253 456
2 0.581063 0.428367 0.0813447 0.130728 0.699575 461
2 0.0798008 0.36779 0.0397054 0.118898 0.367724 462
2 0.364595 0.720377 0.133961 0.220327 0.761382 465
2 0.0388494 0.375172 0.0776988 0.173174 0.676928 471
2 0.427096 0.380301 0.0786372 0.121968 0.767837 476
2 0.361298 0.711838 0.145743 0.246214 0.810309 304
2 0.576918 0.336056 0.0860901 0.128799 0.618775 478
2 0.755367 0.890368 0.214097 0.204523 0.535559 479
2 0.0195023 0.430288 0.0390045 0.145478 0.822684 480
