2 0.271711 0.298494 0.0313564 0.0389518 0.235659 220
2 0.643661 0.697813 0.149694 0.251697 0.8305 233
2 0.256282 0.297721 0.0357226 0.0473245 0.171726 272
2 0.255657 0.299323 0.0378513 0.056412 0.116534 290
2 0.190464 0.311708 0.0494763 0.0866792 0.665077 298
2 0.397568 0.382275 0.0883341 0.131065 0.702253 304
2 0.257552 0.898887 0.223682 0.17775 0.868587 288
2 0.0761254 0.351859 0.0817991 0.104503 0.640437 340
2 0.123568 0.340193 0.0446693 0.101528 0.27953 345
2 0.15657 0.323424 0.0524509 0.0863081 0.231948 307
2 0.328489 0.682432 0.180878 0.317929 0.703671 350
2 0.361163 0.558829 0.12803 0.221202 0.527512 306
2 0.39724 0.510909 0.097928 0.172599 0.610573 352
2 0.452295 0.380456 0.0524605 0.12079 0.571751 353
2 0.715809 0.835917 0.160957 0.193898 0.760822 354
2 0.111067 0.335952 0.0700983 0.11586 0.14169 356
2 0.71678 0.86715 0.175516 0.251943 0.805212 271
2 0.0798391 0.354931 0.0730898 0.106659 0.694798 328
2 0.124864 0.351072 0.0435185 0.0755507 0.347357 361
2 0.226311 0.307147 0.0423106 0.0720552 0.510592 362
2 0.614986 0.402013 0.0920009 0.0793113 0.520944 365
2 0.0265872 0.408155 0.0520768 0.15621 0.262328 369
2 0.153654 0.319566 0.0575456 0.092248 0.692972 371
2 0.0262891 0.392666 0.0502384 0.128273 0.767505 372
2 0.59805 0.375165 0.0868067 0.114348 0.27518 376
2 0.706097 0.967181 0.166589 0.0600197 0.666236 219
2 0.262876 0.905423 0.205604 0.18726 0.811636 366
