2 0.269866 0.909434 0.237929 0.161428 0.818839 55
2 0.293011 0.292444 0.0258969 0.0349393 0.134126 70
2 0.252219 0.292725 0.0499545 0.0556079 0.531296 99
2 0.379739 0.502779 0.110155 0.166064 0.580869 110
2 0.328953 0.727538 0.140368 0.238032 0.819648 123
2 0.924276 0.698779 0.151428 0.240448 0.887139 74
2 0.0730347 0.315475 0.063654 0.0975353 0.592514 157
2 0.285181 0.813833 0.180121 0.221377 0.662419 158
2 0.639095 0.512506 0.103557 0.170101 0.849994 166
2 0.701519 0.877473 0.181057 0.231068 0.873228 164
7 0.408524 0.371321 0.105999 0.243778 0.49146 168
2 0.287736 0.774058 0.17193 0.161996 0.585423 173
2 0.287643 0.7931 0.174506 0.187525 0.764696 177
2 0.360295 0.605784 0.127125 0.209575 0.813508 178
2 0.659209 0.706979 0.153352 0.227382 0.852896 120
2 0.154405 0.319299 0.0783269 0.0980171 0.890968 156
2 0.308729 0.749289 0.168255 0.196071 0.342535 186
2 0.022527 0.394557 0.0429053 0.214658 0.483517 187
2 0.0215016 0.393113 0.0401679 0.215558 0.746402 190
2 0.199029 0.305627 0.0541093 0.089112 0.750958 140
2 0.266827 0.874876 0.230547 0.236395 0.140623 193
2 0.616217 0.441118 0.0936859 0.139259 0.741844 98
2 0.378858 0.477422 0.110706 0.168383 0.550821 194
