2 0.261646 0.304009 0.0579828 0.0459009 0.289897 298
2 0.257654 0.305204 0.0426766 0.0438676 0.35055 356
2 0.651978 0.642185 0.150187 0.251619 0.747265 365
2 0.662461 0.877889 0.173233 0.212217 0.868198 376
2 0.390949 0.590561 0.118223 0.196684 0.834199 404
7 0.193833 0.27395 0.0628164 0.149134 0.665479 395
2 0.248839 0.88559 0.192742 0.2155 0.865551 415
2 0.697483 0.757602 0.150614 0.245412 0.82107 416
2 0.61956 0.455641 0.103678 0.126487 0.40797 422
2 0.616965 0.462614 0.101693 0.144779 0.78319 410
2 0.324913 0.655601 0.151151 0.250974 0.844415 353
2 0.664761 0.880958 0.197576 0.232258 0.339982 434
2 0.673436 0.963295 0.18098 0.0669837 0.247545 417
2 0.570715 0.383688 0.0701518 0.113744 0.561724 436
2 0.0427073 0.374368 0.0853098 0.137002 0.742194 441
2 0.369221 0.462284 0.101854 0.0838079 0.493298 442
2 0.666983 0.963265 0.197838 0.0734706 0.151133 440
2 0.65942 0.862805 0.171539 0.178085 0.335471 450
2 0.378219 0.583719 0.137995 0.198706 0.767602 304
2 0.127598 0.337909 0.0843052 0.106024 0.759967 423
2 0.135159 0.333608 0.0754853 0.105843 0.539737 433
2 0.0670433 0.312785 0.0538105 0.0888867 0.518145 452
