2 0.248858 0.302423 0.0445811 0.0552268 0.381883 220
2 0.289851 0.295611 0.0425666 0.0321795 0.203083 225
2 0.646999 0.563736 0.129672 0.196078 0.657136 233
2 0.637726 0.791546 0.178693 0.255445 0.902072 219
2 0.171507 0.316614 0.0546178 0.0856644 0.642023 270
2 0.208102 0.301852 0.0489592 0.0891327 0.543149 272
2 0.745703 0.978241 0.221866 0.0435187 0.135616 285
2 0.249342 0.307023 0.0438536 0.0683749 0.191394 283
2 0.211996 0.316052 0.0421617 0.0704922 0.442352 290
2 0.667582 0.657448 0.137773 0.203013 0.721108 271
2 0.243881 0.307058 0.0357322 0.067464 0.225824 248
2 0.299109 0.784294 0.163019 0.172251 0.712194 297
2 0.127299 0.336291 0.0611492 0.097172 0.794021 298
2 0.220872 0.920733 0.211579 0.147209 0.774796 302
2 0.313841 0.910749 0.158103 0.173808 0.75846 265
2 0.423519 0.345182 0.107082 0.119399 0.141115 304
2 0.372098 0.472568 0.135087 0.205991 0.358149 306
2 0.367263 0.515255 0.139281 0.277964 0.711447 313
2 0.645299 0.55015 0.13143 0.174808 0.154698 314
2 0.302226 0.915022 0.176449 0.169956 0.130448 237
2 0.66959 0.645837 0.136082 0.18622 0.127256 322
2 0.345757 0.681377 0.152472 0.218261 0.867392 288
2 0.298101 0.770008 0.155672 0.141313 0.369147 327
2 0.0377819 0.392731 0.0755638 0.139797 0.821063 328
2 0.0848425 0.358642 0.0656257 0.122695 0.77132 307
2 0.551846 0.453843 0.0317406 0.121773 0.381925 334
2 0.0864465 0.363764 0.0622306 0.105297 0.541118 337
2 0.297675 0.796922 0.17383 0.190343 0.7702 339
2 0.165192 0.315901 0.0707734 0.0894226 0.650216 336
2 0.0144998 0.42706 0.0289997 0.141784 0.657205 340
2 0.671593 0.625547 0.132679 0.145954 0.592108 341
