2 0.707967 0.865201 0.21585 0.254447 0.811551 365
5 0.251009 0.274631 0.0593315 0.109025 0.296353 395
2 0.649285 0.586845 0.124179 0.174849 0.863849 410
2 0.256583 0.889933 0.211987 0.212024 0.870863 353
2 0.160693 0.313828 0.0561612 0.0992558 0.541203 441
2 0.311859 0.684246 0.157775 0.186698 0.738198 442
7 0.247499 0.275506 0.05267 0.106459 0.502085 453
2 0.205768 0.309131 0.0512783 0.0842515 0.504271 423
2 0.134969 0.334198 0.0387406 0.114286 0.236589 456
2 0.136013 0.339277 0.0357982 0.0995009 0.373733 462
2 0.0902931 0.336262 0.0831664 0.148819 0.434726 471
2 0.417609 0.4071 0.0863317 0.141485 0.66908 476
2 0.574805 0.353608 0.088835 0.146744 0.539242 478
2 0.060711 0.376527 0.0854821 0.125139 0.828035 480
2 0.649723 0.536945 0.113054 0.190366 0.643185 482
2 0.0971661 0.330889 0.113527 0.145646 0.46396 483
2 0.336091 0.842147 0.166525 0.268687 0.862755 304
2 0.78625 0.963205 0.150812 0.0724928 0.350966 486
2 0.355765 0.633526 0.123852 0.202378 0.628434 488
2 0.788137 0.971777 0.154175 0.0533027 0.687482 416
2 0.332423 0.830005 0.154565 0.239402 0.297895 490
7 0.557263 0.237023 0.0786225 0.176916 0.59977 491
