2 0.271843 0.302175 0.0309617 0.0396282 0.283572 3
2 0.269069 0.300536 0.0289015 0.0487701 0.160604 13
2 0.212877 0.312888 0.0392584 0.0783299 0.441465 21
2 0.742146 0.886151 0.206778 0.21684 0.811061 22
2 0.390173 0.502334 0.113907 0.199437 0.711902 55
2 0.652725 0.761089 0.161592 0.237455 0.858098 57
2 0.239515 0.308972 0.037759 0.0713661 0.308779 52
2 0.238111 0.298534 0.0383673 0.054323 0.209341 32
5 0.66557 0.518632 0.167035 0.307989 0.562771 16
2 0.172103 0.317052 0.0687671 0.0943546 0.705348 70
2 0.308061 0.902933 0.20983 0.178918 0.878613 26
2 0.730796 0.376466 0.0835978 0.132812 0.498311 74
2 0.353074 0.589868 0.11831 0.159398 0.706144 80
2 0.600131 0.417421 0.077408 0.140503 0.719723 92
2 0.57593 0.35228 0.0687874 0.119445 0.453788 98
2 0.0801521 0.356652 0.0897494 0.14791 0.755424 99
2 0.210456 0.309312 0.0366463 0.0725659 0.179481 53
2 0.317239 0.751213 0.16213 0.249861 0.842953 107
2 0.423749 0.349511 0.0869547 0.10987 0.252967 110
2 0.599989 0.409898 0.0783426 0.122926 0.12403 120
2 0.389061 0.480969 0.110257 0.136046 0.151882 123
2 0.733129 0.380121 0.0775762 0.121945 0.762099 125
2 0.354752 0.582279 0.11356 0.154326 0.322386 97
