2 0.281011 0.301391 0.02646 0.0267087 0.242404 212
2 0.210127 0.31463 0.0345901 0.0818666 0.123479 220
2 0.244158 0.307626 0.0413417 0.0680177 0.320392 225
7 0.6066 0.374801 0.111396 0.169176 0.413502 233
2 0.301406 0.679344 0.156521 0.236861 0.663869 237
2 0.61559 0.59508 0.131398 0.192195 0.836239 219
2 0.157213 0.333044 0.0257384 0.080018 0.144669 257
2 0.235925 0.310526 0.0518091 0.0750962 0.203342 228
2 0.314499 0.801259 0.172396 0.253262 0.832618 266
2 0.100143 0.35698 0.0759291 0.114084 0.842991 270
2 0.126475 0.330713 0.0771575 0.114436 0.458904 272
2 0.126555 0.347778 0.0617678 0.0817846 0.168935 273
2 0.655196 0.508121 0.0977971 0.142267 0.324627 277
2 0.664703 0.788595 0.210549 0.366156 0.840686 285
2 0.180584 0.315783 0.0522784 0.0891216 0.527264 283
2 0.372311 0.517652 0.114371 0.166587 0.671834 288
2 0.121979 0.337198 0.0816714 0.10784 0.217199 290
2 0.654882 0.51994 0.100203 0.166338 0.612457 271
2 0.188345 0.31721 0.07021 0.0958711 0.22637 248
2 0.365311 0.52574 0.12295 0.158252 0.241742 297
2 0.616574 0.585802 0.127694 0.175261 0.186415 223
2 0.0310932 0.392965 0.0621864 0.12766 0.767475 298
2 0.316481 0.663948 0.181503 0.205808 0.529688 302
2 0.237981 0.899825 0.205858 0.190282 0.875666 261
