2 0.252014 0.303007 0.0451813 0.0556513 0.399552 220
2 0.290528 0.29449 0.04114 0.0351787 0.161128 225
2 0.646323 0.571726 0.134021 0.207704 0.704117 233
2 0.639386 0.803731 0.18212 0.260284 0.920545 219
2 0.174347 0.316671 0.0554651 0.0863348 0.765003 270
2 0.211858 0.301188 0.0479804 0.0880933 0.526169 272
2 0.251983 0.304489 0.045159 0.0668565 0.333704 283
2 0.213229 0.313282 0.0459781 0.0712849 0.436297 290
2 0.673907 0.664058 0.137997 0.205222 0.729422 271
2 0.244156 0.298755 0.0307597 0.0541867 0.280015 248
2 0.300355 0.805525 0.172672 0.197012 0.384719 297
2 0.131589 0.333312 0.0595574 0.0977873 0.790384 298
2 0.219879 0.932711 0.205786 0.12994 0.768082 302
2 0.308217 0.918603 0.173679 0.155427 0.737728 265
2 0.424404 0.339937 0.113902 0.123544 0.268081 304
2 0.364667 0.493665 0.140387 0.230209 0.361073 306
2 0.366268 0.524166 0.142489 0.281267 0.676557 313
2 0.644362 0.554566 0.130668 0.183269 0.495574 314
2 0.291511 0.917581 0.202037 0.159747 0.488171 237
2 0.667649 0.656928 0.138468 0.188534 0.628693 322
2 0.341747 0.69059 0.151092 0.224254 0.83448 288
2 0.0394686 0.388889 0.0789373 0.137486 0.808052 328
2 0.0888651 0.356221 0.0651492 0.117245 0.799596 307
2 0.551663 0.457744 0.0323772 0.122977 0.357316 334
2 0.0892127 0.353285 0.070613 0.108926 0.259084 337
2 0.296247 0.806867 0.17589 0.188127 0.839483 339
2 0.176311 0.319191 0.0540708 0.0875899 0.123426 336
2 0.0174574 0.424594 0.0349148 0.133144 0.871706 340
2 0.67036 0.642644 0.13111 0.153701 0.530819 341
2 0.210052 0.929226 0.211912 0.130284 0.575671 342
