2 0.371728 0.591813 0.134958 0.221715 0.847322 55
2 0.711462 0.961728 0.171034 0.0670966 0.729921 57
2 0.266065 0.302281 0.0382604 0.0364583 0.305445 52
2 0.256326 0.302817 0.0285964 0.0355724 0.407088 32
2 0.698604 0.720727 0.197273 0.490044 0.521997 16
2 0.221532 0.300944 0.0537444 0.0627087 0.160131 70
2 0.312016 0.710606 0.141139 0.181555 0.885857 80
2 0.594928 0.385457 0.0768563 0.124228 0.544676 98
2 0.151218 0.316623 0.0735299 0.121305 0.402264 99
2 0.261146 0.301538 0.0370837 0.0433969 0.198831 53
2 0.42402 0.356974 0.0793125 0.108667 0.153818 110
2 0.618408 0.480748 0.0961774 0.159227 0.706723 120
2 0.396679 0.417673 0.0837226 0.0904562 0.316945 123
2 0.0565957 0.373811 0.0834578 0.136297 0.843947 140
2 0.777633 0.432125 0.102671 0.144779 0.871691 74
2 0.596222 0.384209 0.074408 0.104339 0.178845 148
2 0.220579 0.306769 0.0612032 0.0710633 0.506432 144
2 0.594189 0.702556 0.042963 0.212672 0.6861 149
2 0.0240879 0.401428 0.0477537 0.127161 0.72028 150
2 0.624474 0.480639 0.115215 0.15704 0.528675 92
2 0.709218 0.961217 0.166821 0.0775666 0.584187 155
2 0.226787 0.94738 0.173937 0.0982734 0.762622 100
