2 0.285737 0.823611 0.180919 0.268641 0.893703 110
2 0.687883 0.875349 0.172455 0.234649 0.879774 166
2 0.348338 0.689179 0.15211 0.232227 0.855464 168
2 0.287536 0.287688 0.0274287 0.0373372 0.143182 140
2 0.671485 0.667858 0.150085 0.207174 0.876888 98
2 0.258453 0.303091 0.0422756 0.0445939 0.380679 200
2 0.0979076 0.355205 0.0807822 0.107638 0.861144 212
7 0.387252 0.550275 0.164238 0.351134 0.415141 194
7 0.630347 0.490692 0.128037 0.229314 0.709152 199
2 0.142428 0.319723 0.059987 0.0909732 0.501148 217
2 0.546924 0.363784 0.0407804 0.110263 0.443785 219
2 0.0342045 0.385011 0.0683939 0.161649 0.72359 220
2 0.134607 0.321942 0.0747266 0.0910048 0.456774 202
2 0.597037 0.397025 0.0983033 0.184478 0.599136 223
