2 0.671905 0.761156 0.173696 0.29668 0.790092 365
7 0.221512 0.273048 0.0559647 0.127664 0.571735 395
2 0.738331 0.888049 0.192227 0.212445 0.795523 416
2 0.634189 0.518016 0.111231 0.156404 0.80824 410
2 0.29407 0.792618 0.179578 0.292316 0.893838 353
2 0.588544 0.417268 0.099531 0.145273 0.166826 436
2 0.112646 0.330855 0.0733258 0.113644 0.777564 441
2 0.343759 0.571918 0.135482 0.143878 0.535851 442
5 0.221953 0.264897 0.0594852 0.115284 0.12781 453
2 0.172032 0.313867 0.0599985 0.0884719 0.640532 423
2 0.0730389 0.369923 0.0411388 0.11966 0.334116 456
2 0.585044 0.418969 0.0948718 0.132077 0.633122 461
2 0.694225 0.976428 0.142537 0.0416434 0.227758 434
2 0.0743521 0.381016 0.0379003 0.0979988 0.213427 462
2 0.367428 0.699656 0.140541 0.239049 0.811531 465
2 0.0352781 0.377753 0.0701096 0.165914 0.751115 471
2 0.430071 0.377583 0.0724603 0.120649 0.805711 476
2 0.69257 0.972446 0.139049 0.0419463 0.194978 376
2 0.358264 0.69652 0.14636 0.23947 0.771894 304
2 0.576665 0.337119 0.0835676 0.126401 0.54118 478
2 0.750813 0.882768 0.21409 0.215716 0.693502 479
2 0.0146028 0.441527 0.0292056 0.142251 0.617668 480
