2 0.237925 0.309209 0.0389605 0.064055 0.155632 13
2 0.239215 0.304068 0.037972 0.0597999 0.153792 21
2 0.382673 0.54989 0.122973 0.20671 0.806875 55
2 0.680205 0.882436 0.191387 0.219472 0.881069 57
2 0.235 0.295124 0.0290823 0.0427357 0.154249 52
2 0.259051 0.297419 0.0362118 0.0374653 0.170697 32
2 0.680744 0.599598 0.189868 0.368111 0.287975 16
2 0.201238 0.308286 0.0614774 0.0712131 0.414202 70
2 0.333335 0.648445 0.131474 0.166973 0.889556 80
2 0.583915 0.368942 0.0725065 0.131505 0.627435 98
2 0.119019 0.330272 0.0839462 0.131683 0.713057 99
2 0.242107 0.30084 0.04451 0.0523386 0.106605 53
2 0.412164 0.370197 0.0843906 0.11913 0.544443 110
2 0.61009 0.450531 0.0846212 0.149275 0.782113 120
2 0.396984 0.388596 0.0799638 0.066805 0.180521 123
2 0.272745 0.872503 0.194522 0.247248 0.901764 100
2 0.0322931 0.402838 0.0642436 0.148851 0.837681 140
2 0.754884 0.406063 0.0915989 0.136728 0.817617 74
2 0.585106 0.370489 0.0695981 0.116373 0.387222 148
2 0.202126 0.310742 0.0620551 0.0844937 0.704993 144
