2 0.217614 0.308701 0.0542692 0.0766491 0.370291 298
2 0.431652 0.460409 0.0739028 0.149928 0.709212 304
2 0.190646 0.295517 0.0471197 0.0583235 0.106845 307
2 0.255462 0.882696 0.23378 0.211976 0.81694 306
2 0.36832 0.459464 0.108006 0.135196 0.542573 353
2 0.205679 0.310195 0.0797063 0.0820627 0.486644 356
2 0.625491 0.476103 0.107818 0.166567 0.585747 365
2 0.245289 0.294212 0.0380884 0.0521565 0.117872 371
2 0.624386 0.601061 0.122848 0.130206 0.57488 376
2 0.368516 0.471667 0.11189 0.155528 0.701212 392
2 0.188673 0.311501 0.046111 0.0790188 0.170518 345
2 0.222104 0.309625 0.0439199 0.0762127 0.31555 328
2 0.362757 0.607726 0.134142 0.171193 0.654142 352
2 0.653971 0.550497 0.112162 0.178727 0.722857 402
2 0.423951 0.461654 0.0912069 0.152052 0.451898 404
7 0.107532 0.302756 0.0875106 0.194141 0.757918 395
2 0.160063 0.328387 0.022407 0.0930738 0.281435 369
2 0.765043 0.963713 0.173572 0.0581507 0.497318 233
2 0.590709 0.384473 0.0864611 0.126477 0.525403 410
2 0.0264456 0.413174 0.0525683 0.127262 0.80093 414
2 0.362986 0.611971 0.137038 0.177151 0.604409 415
2 0.355473 0.747969 0.161055 0.24452 0.827745 399
2 0.643954 0.553145 0.132065 0.168837 0.445651 416
2 0.615334 0.726011 0.138383 0.190728 0.513263 417
2 0.764563 0.965756 0.165477 0.068488 0.367687 407
