2 0.251016 0.292984 0.0309378 0.0340337 0.152349 298
2 0.412711 0.508797 0.0885069 0.170328 0.681222 304
2 0.224362 0.307569 0.0462093 0.0744555 0.43086 356
2 0.64505 0.553755 0.138959 0.217225 0.606584 365
2 0.647689 0.718872 0.143366 0.169264 0.740673 376
2 0.319838 0.741117 0.167689 0.210425 0.787784 352
2 0.664364 0.621981 0.129956 0.170314 0.403585 402
2 0.407064 0.510144 0.102066 0.177307 0.791112 404
7 0.159748 0.284057 0.0781594 0.170203 0.735065 395
2 0.0906036 0.359632 0.0667181 0.111284 0.712751 414
2 0.316966 0.73077 0.155664 0.187824 0.58603 415
2 0.313125 0.887357 0.18471 0.218357 0.834413 399
2 0.665926 0.638627 0.127871 0.200974 0.626343 416
2 0.601423 0.418773 0.0973237 0.13027 0.594703 422
2 0.0558771 0.38217 0.0897373 0.125051 0.895287 423
2 0.604803 0.403427 0.0996746 0.135887 0.387924 410
2 0.0907247 0.352624 0.0661747 0.101206 0.2146 433
2 0.348974 0.556999 0.126758 0.218766 0.813381 353
2 0.647579 0.727873 0.148656 0.196301 0.513926 434
2 0.646829 0.871764 0.173399 0.218132 0.690573 417
2 0.648752 0.698967 0.139275 0.145647 0.700477 435
2 0.722178 0.925858 0.255079 0.139247 0.654602 421
