2 0.250114 0.303593 0.0502823 0.0568949 0.277763 220
2 0.677911 0.807492 0.172299 0.284321 0.830789 233
2 0.24599 0.299951 0.0418964 0.0467576 0.514535 272
2 0.192362 0.310466 0.0660143 0.0869192 0.437665 298
2 0.445138 0.403938 0.0551656 0.120706 0.654309 304
2 0.183176 0.313597 0.0881232 0.0895842 0.292925 307
2 0.289113 0.817366 0.205936 0.339904 0.734739 350
2 0.329105 0.675854 0.156018 0.283457 0.675538 306
2 0.383877 0.573501 0.117297 0.184684 0.757292 352
2 0.420177 0.393305 0.104634 0.122926 0.148928 353
2 0.124695 0.328973 0.0604425 0.0957738 0.731892 356
2 0.128124 0.324967 0.0717129 0.0969577 0.554507 328
2 0.245726 0.309497 0.042017 0.0569662 0.469319 362
2 0.602233 0.420218 0.0981618 0.163257 0.394797 365
2 0.0714662 0.369437 0.0641295 0.128402 0.685962 369
2 0.193072 0.311605 0.0545655 0.0873405 0.255762 371
2 0.0757142 0.355045 0.0677963 0.116205 0.538531 372
2 0.628555 0.448439 0.114714 0.110368 0.434968 376
2 0.763523 0.956397 0.184534 0.0786272 0.813432 388
2 0.39003 0.407855 0.0970933 0.14506 0.346762 392
2 0.384367 0.559787 0.116614 0.197709 0.59192 393
2 0.758484 0.954874 0.171206 0.0846008 0.586074 271
2 0.137351 0.324649 0.089706 0.0992452 0.607634 345
2 0.024035 0.364842 0.0463703 0.24749 0.612555 395
