2 0.243938 0.306224 0.034617 0.0640937 0.316772 3
2 0.243493 0.297068 0.0355404 0.0576513 0.148068 13
2 0.201777 0.31635 0.05396 0.0836427 0.226949 21
2 0.686176 0.682333 0.150988 0.240802 0.833089 22
2 0.689662 0.876397 0.182567 0.235409 0.851647 23
2 0.397586 0.433224 0.0990389 0.169626 0.534909 55
2 0.627137 0.596167 0.11703 0.186141 0.818048 57
2 0.205848 0.311214 0.0521154 0.0835579 0.482124 52
2 0.103723 0.34568 0.0829349 0.104406 0.614846 60
2 0.203128 0.307609 0.051935 0.0826437 0.366818 32
7 0.645706 0.426338 0.134081 0.259409 0.635384 16
2 0.095659 0.353846 0.0789694 0.10713 0.846999 70
2 0.318123 0.836047 0.168889 0.266049 0.909374 8
2 0.368219 0.705544 0.153321 0.248459 0.838257 26
2 0.622056 0.600604 0.115016 0.173568 0.604551 73
2 0.714791 0.352654 0.050079 0.0960994 0.267921 74
2 0.16425 0.320207 0.0654289 0.0950095 0.53986 53
2 0.353539 0.569404 0.118005 0.161389 0.56404 80
2 0.162936 0.318487 0.05335 0.0869187 0.680212 68
2 0.568303 0.379065 0.0472928 0.108799 0.385479 92
2 0.242934 0.949281 0.174991 0.095583 0.777352 29
2 0.237747 0.949848 0.19786 0.0901514 0.737941 90
2 0.382092 0.519297 0.0909114 0.144486 0.592988 97
2 0.571033 0.374845 0.0528593 0.116697 0.581608 98
2 0.0167694 0.423513 0.0319298 0.187974 0.767223 99
2 0.354573 0.556356 0.122692 0.138467 0.587913 100
