2 0.268003 0.299411 0.0318079 0.0405196 0.261407 298
2 0.403813 0.562565 0.0936047 0.173419 0.424299 304
2 0.246014 0.300512 0.0407727 0.0464702 0.240551 356
2 0.651639 0.603015 0.151647 0.236936 0.759118 365
2 0.654171 0.824173 0.162035 0.211785 0.695682 376
2 0.397207 0.556733 0.110003 0.187925 0.754459 404
7 0.181255 0.274205 0.0697465 0.149119 0.640439 395
2 0.127182 0.339973 0.065489 0.10219 0.425614 414
2 0.2831 0.850294 0.187183 0.256733 0.772777 415
2 0.684314 0.701224 0.142955 0.219341 0.777374 416
2 0.610142 0.445832 0.0980685 0.135981 0.741119 422
2 0.100894 0.354506 0.0796191 0.106623 0.873604 423
2 0.614613 0.438826 0.100103 0.161949 0.37403 410
2 0.141954 0.340316 0.0376956 0.101092 0.154764 433
2 0.334868 0.614987 0.141996 0.225844 0.863634 353
2 0.657991 0.810918 0.176769 0.192963 0.687784 434
2 0.666143 0.930206 0.204605 0.139369 0.804463 417
2 0.684156 0.674924 0.14494 0.168726 0.305461 435
2 0.568258 0.375775 0.0701949 0.109554 0.573349 436
2 0.0284642 0.391875 0.0569283 0.146866 0.796236 441
2 0.376764 0.453068 0.10307 0.0828781 0.520398 442
2 0.110002 0.348474 0.0961884 0.113768 0.636125 444
2 0.28583 0.956963 0.175591 0.0772189 0.628499 352
2 0.333545 0.597453 0.140868 0.206335 0.740344 448
2 0.269816 0.857743 0.217416 0.26595 0.734793 449
