2 0.240323 0.308194 0.0385914 0.0704174 0.536576 212
2 0.233094 0.891808 0.235605 0.203697 0.766223 194
2 0.643521 0.717704 0.148067 0.129876 0.500645 199
2 0.2687 0.301131 0.0281848 0.0294251 0.410666 217
2 0.158291 0.319092 0.0628503 0.0881348 0.466245 220
2 0.244407 0.305949 0.0460166 0.0636935 0.22315 202
2 0.200886 0.299407 0.0530126 0.104716 0.415516 225
5 0.593493 0.349127 0.101636 0.189608 0.362736 233
2 0.346453 0.501948 0.125016 0.143584 0.508416 237
2 0.310825 0.690136 0.145951 0.240634 0.645304 250
2 0.201671 0.317912 0.0498086 0.078711 0.387391 254
2 0.168204 0.322695 0.0435058 0.0791899 0.222085 255
2 0.595521 0.485931 0.101111 0.158368 0.151724 219
2 0.0701551 0.371251 0.0676268 0.116151 0.779358 257
2 0.144946 0.329211 0.0391531 0.0953794 0.540572 234
2 0.201602 0.312219 0.0533896 0.0866775 0.282566 228
2 0.349458 0.618196 0.151889 0.174864 0.304041 261
2 0.290603 0.783729 0.16765 0.286328 0.657111 263
2 0.361008 0.605814 0.133483 0.192133 0.781886 266
2 0.141636 0.332708 0.0449753 0.0985687 0.214677 258
2 0.314688 0.671023 0.145344 0.20207 0.534011 267
2 0.679293 0.886461 0.233911 0.215132 0.675157 269
2 0.016313 0.435895 0.0322774 0.136648 0.738447 270
2 0.635661 0.422279 0.0841324 0.0962297 0.554807 271
2 0.314657 0.654483 0.139816 0.164491 0.487538 265
2 0.0304855 0.407857 0.0575172 0.126998 0.554768 272
2 0.0294317 0.392683 0.0582436 0.142487 0.535437 273
2 0.216771 0.954165 0.255714 0.0901002 0.108596 274
2 0.247994 0.893475 0.199686 0.204546 0.701034 275
2 0.62532 0.422159 0.101274 0.0943734 0.658484 277
2 0.107341 0.343782 0.0682088 0.108871 0.556 248
