2 0.620184 0.741106 0.155816 0.248009 0.894102 1
2 0.189114 0.308628 0.0620701 0.0821556 0.525395 3
2 0.281845 0.948105 0.195897 0.0914894 0.685442 7
2 0.270758 0.297604 0.0279469 0.0390632 0.216307 10
2 0.18864 0.310688 0.0561927 0.0882958 0.41547 13
5 0.629185 0.332266 0.100333 0.172134 0.588129 16
2 0.138169 0.323491 0.0709768 0.107973 0.50158 21
2 0.642627 0.497851 0.113913 0.164124 0.616496 22
2 0.65225 0.611778 0.137325 0.188527 0.80895 23
2 0.375311 0.583924 0.118537 0.18965 0.713666 26
2 0.337296 0.67053 0.139129 0.215368 0.87775 29
2 0.377484 0.599413 0.114672 0.170555 0.406087 8
2 0.69521 0.941976 0.204509 0.102242 0.79685 9
2 0.376408 0.443085 0.107442 0.113019 0.433036 47
2 0.0552689 0.363247 0.0773161 0.110768 0.848713 53
2 0.409454 0.367968 0.0926232 0.134786 0.683011 55
7 0.626729 0.333983 0.109216 0.174859 0.736035 56
2 0.592187 0.471789 0.0863548 0.134159 0.545709 57
2 0.106231 0.342102 0.0699979 0.102685 0.746783 52
2 0.0212379 0.413407 0.0421875 0.139504 0.878269 60
2 0.259998 0.94888 0.228764 0.092094 0.285117 61
2 0.377521 0.577356 0.116656 0.212876 0.417289 45
