2 0.29347 0.866494 0.197743 0.256371 0.887839 55
2 0.275315 0.302104 0.032004 0.0268418 0.150618 70
2 0.610917 0.412572 0.086929 0.111634 0.361073 98
2 0.237437 0.293789 0.0491097 0.0686321 0.410663 99
2 0.386496 0.480774 0.101615 0.181142 0.596512 110
2 0.338825 0.627904 0.127673 0.126384 0.439215 123
2 0.897116 0.644098 0.149409 0.21245 0.862636 74
2 0.610697 0.421941 0.0910039 0.13109 0.709948 148
2 0.0509784 0.315359 0.0687816 0.100344 0.747414 157
2 0.311863 0.717946 0.153044 0.143503 0.3336 158
2 0.631078 0.491242 0.0973941 0.153567 0.817087 166
2 0.691528 0.819795 0.167085 0.259659 0.890724 164
7 0.41526 0.358456 0.100883 0.244124 0.546045 168
2 0.316102 0.738235 0.158651 0.194317 0.640664 173
2 0.312793 0.750653 0.159762 0.221666 0.72549 177
2 0.364094 0.575141 0.12232 0.19184 0.772987 178
2 0.621212 0.460212 0.106248 0.20186 0.238008 180
2 0.183902 0.309229 0.0583686 0.0970833 0.654006 150
2 0.647931 0.665667 0.139065 0.222157 0.838722 120
2 0.13365 0.327532 0.0797967 0.10415 0.785068 156
2 0.336307 0.658743 0.12766 0.196759 0.552248 186
2 0.0101612 0.344062 0.0203225 0.127685 0.727825 187
2 0.0108621 0.341951 0.0217242 0.127008 0.63522 190
2 0.131606 0.331337 0.0713647 0.103698 0.722525 191
