2 0.232373 0.308495 0.0407831 0.0744544 0.113502 212
2 0.237848 0.867279 0.254057 0.252718 0.726934 194
2 0.666172 0.805023 0.212687 0.375842 0.749334 199
2 0.260701 0.302467 0.0311773 0.0347739 0.321589 217
2 0.145659 0.324199 0.0678504 0.0937837 0.511948 220
2 0.235374 0.30963 0.0445022 0.0745967 0.301908 202
2 0.190553 0.302889 0.055571 0.107401 0.415718 225
2 0.621724 0.57977 0.156469 0.263956 0.678272 227
7 0.589598 0.343817 0.100238 0.186195 0.288522 233
2 0.357268 0.474595 0.126552 0.14376 0.500831 237
2 0.0945943 0.347976 0.0675575 0.109078 0.182662 248
2 0.309341 0.715974 0.164071 0.22692 0.540826 250
2 0.190372 0.318687 0.0545943 0.0907263 0.569387 254
2 0.155488 0.324484 0.0497976 0.0910378 0.601915 255
2 0.596136 0.463099 0.111618 0.140503 0.177775 219
2 0.0473943 0.38467 0.0824029 0.119473 0.855757 257
2 0.129607 0.336123 0.0454685 0.10071 0.533085 234
7 0.190731 0.303127 0.0546889 0.113605 0.295337 228
2 0.366201 0.577355 0.127178 0.18613 0.768212 261
2 0.302493 0.74521 0.177583 0.269637 0.752097 263
2 0.377121 0.580996 0.109671 0.188032 0.817654 266
2 0.0900794 0.352568 0.0671158 0.116181 0.769229 260
2 0.126713 0.34147 0.0455449 0.0985809 0.405551 258
2 0.324261 0.620234 0.134455 0.153407 0.704441 267
2 0.672668 0.859867 0.217201 0.261738 0.56552 269
2 0.0177924 0.429761 0.0336651 0.110587 0.679672 270
2 0.634047 0.410644 0.0751401 0.0808498 0.547773 271
2 0.61732 0.565437 0.143136 0.259954 0.682614 223
