2 0.254786 0.308667 0.0449071 0.0520789 0.615374 220
2 0.688851 0.847313 0.17914 0.286133 0.864092 233
2 0.254956 0.301786 0.0427382 0.045044 0.368641 272
2 0.191789 0.312506 0.080255 0.0883662 0.101258 298
2 0.441309 0.410626 0.0595947 0.138119 0.427735 304
2 0.171961 0.314039 0.11653 0.0954767 0.153877 307
2 0.272625 0.846269 0.23142 0.285353 0.7645 350
2 0.314361 0.718067 0.168808 0.294839 0.667268 306
2 0.38398 0.405898 0.0930715 0.106155 0.27376 353
2 0.139759 0.324772 0.0538362 0.0879411 0.316884 356
2 0.258326 0.305427 0.0473865 0.0490436 0.211089 362
2 0.607061 0.425825 0.0956247 0.152398 0.564841 365
2 0.0933457 0.357203 0.0556205 0.118133 0.630562 369
2 0.211724 0.309773 0.0468765 0.0839771 0.480879 371
2 0.0950145 0.349842 0.0601596 0.115274 0.577536 372
2 0.635243 0.456011 0.106173 0.111536 0.585348 376
2 0.386396 0.422323 0.0981188 0.142634 0.589215 392
2 0.155378 0.318815 0.0892491 0.097725 0.285214 345
2 0.0387353 0.346685 0.0750576 0.232945 0.248889 395
2 0.0896303 0.360421 0.0480496 0.114806 0.665171 387
7 0.037316 0.347454 0.0743799 0.235263 0.73675 397
2 0.384287 0.60259 0.12143 0.201817 0.802472 399
2 0.141046 0.322284 0.0623068 0.0927949 0.502665 328
2 0.3823 0.578538 0.123514 0.244456 0.710374 352
2 0.64722 0.735312 0.201797 0.382456 0.464731 401
