2 0.25688 0.292269 0.0293101 0.042917 0.255207 3
2 0.25712 0.288855 0.0277589 0.0408208 0.308694 13
2 0.199179 0.309534 0.0841471 0.0820626 0.234989 21
2 0.703876 0.77255 0.17097 0.274398 0.848392 22
2 0.726639 0.955997 0.171098 0.0759425 0.844091 23
2 0.394174 0.466203 0.105561 0.182886 0.628989 55
2 0.634501 0.655151 0.129722 0.211748 0.837088 57
2 0.224295 0.305353 0.051627 0.0747799 0.411666 52
2 0.223188 0.295312 0.0495143 0.0660561 0.262992 32
7 0.651223 0.479222 0.147094 0.304943 0.649986 16
2 0.136989 0.332989 0.0805535 0.10397 0.854869 70
2 0.288427 0.908814 0.193194 0.16989 0.901937 8
2 0.346755 0.805603 0.183234 0.275454 0.842477 26
2 0.716259 0.357397 0.0686111 0.117383 0.609089 74
2 0.371823 0.545593 0.101277 0.151231 0.639135 80
2 0.579589 0.392893 0.0513687 0.123795 0.577692 92
2 0.370182 0.557429 0.0966099 0.152213 0.657921 97
2 0.575642 0.339824 0.0730031 0.109917 0.423174 98
2 0.0433818 0.390524 0.083479 0.159991 0.847782 99
2 0.343072 0.634209 0.138336 0.174184 0.178485 100
2 0.184994 0.312829 0.0512503 0.0822369 0.543521 53
2 0.34238 0.619947 0.133052 0.160705 0.728421 107
2 0.342321 0.799447 0.154886 0.281504 0.691146 95
2 0.722604 0.956215 0.164226 0.0874743 0.737166 108
