2 0.678011 0.794379 0.177973 0.302418 0.811525 365
7 0.227208 0.275858 0.0555839 0.125795 0.55016 395
2 0.752535 0.906809 0.194103 0.174229 0.880388 416
2 0.639732 0.531588 0.116212 0.161392 0.787914 410
2 0.286311 0.824598 0.181138 0.288483 0.89131 353
2 0.128471 0.326166 0.0650332 0.10908 0.693143 441
2 0.333829 0.600811 0.139377 0.157489 0.588864 442
5 0.226987 0.271417 0.0558724 0.121423 0.325419 453
2 0.180359 0.310725 0.0579775 0.0871199 0.523854 423
2 0.0873875 0.358715 0.0474854 0.121666 0.301184 456
2 0.0900759 0.362655 0.0394744 0.112498 0.490197 462
2 0.355919 0.735174 0.149824 0.248778 0.850516 465
2 0.0433676 0.368634 0.0866897 0.162674 0.628778 471
2 0.423102 0.384257 0.0828207 0.128152 0.55715 476
2 0.577879 0.338138 0.0872861 0.132552 0.577973 478
2 0.760878 0.898878 0.213147 0.196629 0.671431 479
2 0.0262354 0.417262 0.0524709 0.137869 0.811861 480
2 0.639418 0.541943 0.116521 0.144762 0.523369 482
2 0.0541112 0.364333 0.108222 0.170485 0.641152 483
2 0.583031 0.430875 0.0859966 0.134149 0.725377 436
2 0.355401 0.743101 0.142595 0.221073 0.616818 304
