2 0.332656 0.675732 0.14849 0.228875 0.904727 110
2 0.671433 0.728421 0.145994 0.233423 0.882894 166
2 0.36745 0.598978 0.125211 0.194343 0.606015 168
2 0.292431 0.887419 0.196961 0.213373 0.881462 178
7 0.137715 0.30849 0.0909838 0.138284 0.420938 190
2 0.264037 0.296048 0.0309518 0.0455609 0.34213 140
2 0.661354 0.574466 0.126888 0.176237 0.839451 98
2 0.230232 0.302517 0.0478368 0.0622991 0.576324 200
2 0.0986943 0.346244 0.0707493 0.107705 0.795591 202
2 0.192243 0.319305 0.0244307 0.0431631 0.189786 210
2 0.0411447 0.395054 0.0816243 0.12883 0.848627 212
2 0.362713 0.58568 0.135251 0.182102 0.165221 194
2 0.366588 0.577644 0.123143 0.161474 0.665854 215
2 0.614973 0.435238 0.1133 0.195282 0.492264 199
2 0.0968373 0.343583 0.0695618 0.0973618 0.128368 217
