2 0.600117 0.598316 0.127306 0.199373 0.906016 1
2 0.145845 0.33009 0.0764794 0.108686 0.599888 3
2 0.303989 0.97434 0.156511 0.0386923 0.433584 4
2 0.704176 0.892679 0.206137 0.199171 0.805681 5
2 0.346918 0.758072 0.186527 0.250719 0.908243 7
2 0.239829 0.304374 0.0389658 0.0664747 0.262637 10
7 0.180816 0.300596 0.0804597 0.125377 0.36691 13
5 0.616988 0.307274 0.0863064 0.168543 0.651303 16
2 0.0773385 0.356371 0.0755663 0.128936 0.657419 21
2 0.61354 0.432139 0.0987207 0.127989 0.498161 22
2 0.639461 0.515145 0.103249 0.168772 0.660507 23
2 0.402197 0.500839 0.0963951 0.174767 0.69431 26
2 0.366554 0.55568 0.11495 0.186452 0.830968 29
2 0.0324544 0.389692 0.0642794 0.125244 0.802481 32
2 0.39671 0.493736 0.10436 0.163766 0.691315 8
2 0.66278 0.759519 0.158405 0.231898 0.89815 9
5 0.617386 0.321681 0.0903616 0.197986 0.673238 40
