2 0.253287 0.293823 0.0334313 0.0499089 0.116778 3
2 0.251754 0.295877 0.0324024 0.0408584 0.246017 13
2 0.194605 0.312626 0.0751117 0.0781533 0.165147 21
2 0.697058 0.738261 0.164519 0.260099 0.806897 22
2 0.714274 0.924369 0.196791 0.133594 0.866314 23
2 0.394064 0.456371 0.103826 0.179377 0.517089 55
2 0.631574 0.6367 0.125238 0.199799 0.84822 57
2 0.214504 0.307016 0.0470369 0.0776345 0.432742 52
2 0.216677 0.307017 0.0526839 0.0826354 0.483959 32
7 0.647076 0.455963 0.141312 0.281761 0.46331 16
2 0.126641 0.336618 0.0839773 0.103977 0.841792 70
2 0.297889 0.889589 0.189194 0.216739 0.921476 8
2 0.353234 0.767834 0.165077 0.266266 0.808008 26
2 0.712712 0.354194 0.0693123 0.113599 0.630431 74
2 0.376378 0.533502 0.0937206 0.147335 0.669546 80
2 0.576255 0.3867 0.0483117 0.125345 0.496789 92
2 0.377133 0.521985 0.0959322 0.110829 0.115401 97
2 0.572703 0.346579 0.0620896 0.10603 0.515215 98
2 0.0356448 0.401601 0.0695608 0.165405 0.795741 99
2 0.346158 0.620781 0.134776 0.204663 0.723001 100
2 0.17752 0.312265 0.0493694 0.0802952 0.70231 53
