2 0.636338 0.834629 0.179803 0.272312 0.90055 1
2 0.204794 0.306764 0.048255 0.083433 0.258475 3
2 0.202544 0.303809 0.0430795 0.0730941 0.295612 13
2 0.165576 0.315054 0.058372 0.101064 0.403803 21
2 0.658152 0.507313 0.113295 0.117577 0.417273 22
2 0.658857 0.66153 0.144938 0.204419 0.814375 23
2 0.322227 0.747852 0.152853 0.239182 0.865794 29
2 0.38373 0.569465 0.116331 0.18856 0.544217 47
2 0.402792 0.384167 0.0977703 0.135323 0.620352 55
2 0.605767 0.502815 0.100414 0.155696 0.738493 57
2 0.138799 0.330219 0.0601891 0.0951669 0.747243 52
2 0.0389371 0.38579 0.0778743 0.121524 0.798699 60
2 0.652857 0.517225 0.119391 0.135512 0.520857 66
2 0.13748 0.32444 0.0644168 0.0937906 0.459962 32
2 0.653963 0.52678 0.126537 0.158939 0.605999 67
2 0.0925132 0.343608 0.0752681 0.104073 0.493109 68
7 0.627344 0.353781 0.12725 0.191211 0.55081 16
2 0.657662 0.63604 0.138817 0.14944 0.441348 69
2 0.0206154 0.414913 0.0412308 0.130338 0.815832 70
2 0.362261 0.63846 0.132359 0.214798 0.836165 8
2 0.380845 0.547665 0.120563 0.151154 0.128405 26
2 0.0222484 0.407851 0.0437054 0.128828 0.302465 72
2 0.599719 0.500578 0.0891415 0.151742 0.113932 73
2 0.704638 0.323215 0.0442839 0.0981755 0.541976 74
2 0.091903 0.333111 0.0768171 0.120533 0.77532 53
