2 0.686232 0.836608 0.180384 0.301452 0.769598 365
7 0.238559 0.274695 0.0583712 0.11683 0.544792 395
2 0.644394 0.554358 0.118139 0.166265 0.858463 410
2 0.268637 0.857839 0.199757 0.276348 0.859724 353
2 0.144124 0.318632 0.064393 0.103281 0.694263 441
2 0.323266 0.63594 0.142272 0.172817 0.659584 442
5 0.237938 0.272611 0.0589633 0.113467 0.258189 453
2 0.192313 0.307854 0.053892 0.0863241 0.659209 423
2 0.11332 0.345615 0.0411354 0.110985 0.415554 456
2 0.114445 0.349918 0.0358234 0.107257 0.481049 462
7 0.0769501 0.344043 0.108554 0.155181 0.22521 471
2 0.42211 0.393487 0.0834779 0.128256 0.553479 476
2 0.576491 0.345879 0.0852503 0.142996 0.386787 478
2 0.0388218 0.393533 0.0763576 0.131643 0.830803 480
2 0.652243 0.467019 0.0923447 0.101865 0.472076 482
2 0.0629803 0.35221 0.0892578 0.152689 0.688885 483
2 0.589753 0.442848 0.0957551 0.138985 0.78235 436
2 0.763101 0.932089 0.176626 0.115423 0.804299 416
2 0.346038 0.781635 0.153724 0.260464 0.874386 304
2 0.597933 0.449616 0.104154 0.144131 0.28742 485
2 0.773588 0.9346 0.200398 0.117376 0.82402 486
