2 0.271352 0.302371 0.0265157 0.0312034 0.323438 212
2 0.197911 0.313856 0.0432717 0.0901941 0.207574 220
2 0.234814 0.300794 0.0450511 0.0692161 0.338211 225
7 0.6078 0.385384 0.110459 0.214204 0.519472 233
2 0.32107 0.622867 0.151278 0.209425 0.68507 237
2 0.611379 0.573862 0.116967 0.201729 0.58854 219
2 0.142295 0.331666 0.0328762 0.0903513 0.383571 257
2 0.235484 0.3101 0.0502246 0.0825026 0.597836 228
2 0.235568 0.903561 0.230272 0.179382 0.562732 263
2 0.333904 0.73846 0.150765 0.244184 0.88235 266
2 0.231824 0.91167 0.214259 0.153564 0.764249 267
2 0.0778345 0.371589 0.0798604 0.120439 0.871287 270
2 0.236516 0.899308 0.233376 0.196675 0.465999 265
2 0.112979 0.361291 0.0475305 0.0883123 0.441248 272
2 0.111215 0.335476 0.0846467 0.113732 0.270133 273
2 0.650616 0.492798 0.0969292 0.151554 0.626388 277
2 0.263652 0.851266 0.177674 0.254031 0.637828 261
2 0.648671 0.731952 0.186997 0.331594 0.830428 285
2 0.16623 0.316601 0.0519182 0.093898 0.643899 283
2 0.372482 0.49548 0.114565 0.157951 0.516799 288
2 0.116152 0.328412 0.0856701 0.10155 0.374154 290
2 0.257873 0.840311 0.183044 0.22818 0.710846 291
2 0.652004 0.509881 0.0890367 0.119699 0.167575 271
2 0.177601 0.319973 0.0733196 0.0938822 0.24127 248
2 0.369927 0.501299 0.124414 0.173159 0.544156 297
2 0.610815 0.58607 0.120474 0.224966 0.813214 223
2 0.0191261 0.415929 0.0367551 0.137629 0.751929 298
2 0.681794 0.932451 0.199612 0.114672 0.748958 296
2 0.685978 0.935557 0.197443 0.125902 0.606059 199
