2 0.212587 0.312147 0.0699156 0.0857718 0.471178 212
2 0.314445 0.78215 0.2477 0.417994 0.472617 194
2 0.625692 0.688065 0.175617 0.353661 0.727112 199
2 0.229796 0.30836 0.0342768 0.0741701 0.279838 217
2 0.0896884 0.346494 0.0742615 0.113318 0.737837 220
2 0.201908 0.311871 0.0515621 0.0845181 0.522216 202
2 0.586206 0.429491 0.0959592 0.127438 0.486023 223
2 0.138152 0.331367 0.0576332 0.0988436 0.222295 225
2 0.624079 0.467317 0.134864 0.17408 0.789589 227
7 0.581803 0.302805 0.0848129 0.122047 0.526254 233
2 0.0734888 0.380655 0.0604694 0.113558 0.136202 234
2 0.394226 0.388865 0.102035 0.0944786 0.181556 237
2 0.0665431 0.384728 0.0687578 0.120985 0.728832 240
2 0.0300139 0.40578 0.0594871 0.138828 0.803634 248
2 0.344761 0.545414 0.121795 0.0979977 0.573572 250
2 0.749687 0.951111 0.205349 0.089679 0.598283 252
2 0.132719 0.335673 0.0621337 0.105514 0.725097 228
2 0.135161 0.335695 0.0536352 0.0990533 0.233629 254
2 0.0905631 0.352515 0.0702096 0.103778 0.519776 255
2 0.738139 0.948286 0.201474 0.0934441 0.729846 98
