2 0.633512 0.817235 0.179623 0.265283 0.901702 1
2 0.202685 0.306428 0.050251 0.0841138 0.406343 3
2 0.265904 0.298364 0.0310662 0.0397348 0.197644 10
2 0.200456 0.30192 0.048519 0.072148 0.247265 13
2 0.163593 0.316515 0.0576308 0.0976113 0.574241 21
2 0.656881 0.535474 0.13447 0.183811 0.18336 22
2 0.659122 0.651559 0.142795 0.200195 0.807461 23
2 0.324166 0.733097 0.151813 0.232816 0.879948 29
2 0.381215 0.538667 0.115612 0.142062 0.488313 47
2 0.404414 0.382337 0.0975639 0.137288 0.599355 55
2 0.601203 0.497976 0.0969571 0.149386 0.682236 57
2 0.134002 0.329522 0.0592092 0.0941142 0.745611 52
2 0.0363547 0.392425 0.0723535 0.129638 0.854384 60
2 0.650184 0.524532 0.126168 0.165743 0.691323 66
2 0.137466 0.326256 0.0519772 0.0962211 0.56795 32
2 0.649449 0.515404 0.122681 0.143927 0.299339 67
2 0.0868702 0.350355 0.0737356 0.102659 0.166677 68
5 0.627469 0.348544 0.125663 0.188689 0.66682 16
2 0.657232 0.624434 0.136604 0.149059 0.199657 69
2 0.0167033 0.421458 0.0334067 0.136777 0.812762 70
2 0.36663 0.624902 0.126625 0.211256 0.82952 8
2 0.374982 0.54375 0.128525 0.156064 0.192657 26
2 0.0165761 0.411505 0.0331522 0.140999 0.570408 72
2 0.592339 0.497858 0.0808392 0.149355 0.491053 73
2 0.703401 0.322755 0.0450028 0.0961937 0.570792 74
2 0.0874926 0.340778 0.0748158 0.112573 0.680898 53
