2 0.244565 0.292921 0.0348805 0.037786 0.246824 298
2 0.409121 0.485388 0.107389 0.174327 0.310234 304
2 0.225389 0.310309 0.072625 0.0825703 0.587345 356
2 0.636767 0.534839 0.124066 0.213325 0.572651 365
2 0.271371 0.302661 0.0267353 0.0294655 0.173013 371
2 0.640839 0.681531 0.136002 0.17083 0.720588 376
2 0.354861 0.533063 0.122585 0.210941 0.768317 392
2 0.332593 0.682401 0.146686 0.163057 0.567232 352
2 0.65643 0.595499 0.125878 0.17428 0.563801 402
2 0.417127 0.496219 0.0880232 0.166132 0.755568 404
7 0.147905 0.28842 0.0850118 0.174513 0.686567 395
2 0.0688151 0.372248 0.0735308 0.114386 0.810613 414
2 0.336547 0.696835 0.15498 0.196635 0.73195 415
2 0.327475 0.86276 0.184339 0.262601 0.874502 399
2 0.654512 0.5756 0.131661 0.123949 0.401167 416
2 0.639431 0.764496 0.161762 0.335342 0.165934 417
2 0.715286 0.90138 0.275931 0.188623 0.607839 421
2 0.596148 0.410453 0.0858327 0.126254 0.650084 422
2 0.03896 0.395967 0.0775172 0.129372 0.80705 423
2 0.5954 0.394285 0.0964496 0.12723 0.326054 410
2 0.35713 0.51616 0.116726 0.181189 0.114486 353
2 0.638575 0.826756 0.159761 0.209007 0.735809 430
2 0.707942 0.888492 0.257459 0.179566 0.452797 432
