2 0.261126 0.303539 0.0567304 0.0466035 0.292069 298
2 0.258011 0.304412 0.0439183 0.0442213 0.371006 356
2 0.649689 0.640336 0.146596 0.250694 0.747327 365
2 0.661785 0.876242 0.173094 0.213981 0.865619 376
2 0.390551 0.589109 0.116976 0.196578 0.808346 404
7 0.193849 0.274321 0.0631741 0.149746 0.672632 395
2 0.251239 0.884367 0.197193 0.216635 0.866425 415
2 0.697065 0.755949 0.149407 0.243684 0.837654 416
2 0.618973 0.454128 0.103125 0.127644 0.370154 422
2 0.616172 0.461755 0.101137 0.145401 0.802939 410
2 0.32464 0.653962 0.152618 0.249431 0.842837 353
2 0.668304 0.881061 0.20352 0.236628 0.240595 434
2 0.675484 0.955288 0.197093 0.0788424 0.177348 417
2 0.570178 0.383324 0.0703949 0.114799 0.559983 436
2 0.0426951 0.375904 0.0848741 0.138548 0.747326 441
2 0.370126 0.464188 0.102289 0.0814784 0.555405 442
2 0.673182 0.959718 0.208565 0.0805647 0.189237 440
2 0.65988 0.861306 0.168771 0.178393 0.443568 450
2 0.379144 0.582348 0.137774 0.198351 0.78378 304
2 0.127816 0.337751 0.0867048 0.107586 0.750112 423
2 0.142544 0.334211 0.0623585 0.10471 0.129959 433
2 0.0650074 0.312359 0.0519532 0.08786 0.509832 452
