2 0.639854 0.859147 0.186489 0.26797 0.877666 1
2 0.209267 0.310197 0.0409686 0.0899836 0.194616 3
2 0.207333 0.306463 0.0438701 0.0802346 0.308183 13
2 0.171333 0.312187 0.0702282 0.0947589 0.319055 21
2 0.659857 0.535648 0.124662 0.151792 0.731212 22
2 0.661077 0.681852 0.142094 0.216041 0.831154 23
2 0.314211 0.776051 0.163508 0.244108 0.891229 29
2 0.361457 0.63038 0.133427 0.169059 0.393712 47
2 0.399022 0.390451 0.0992283 0.142879 0.655569 55
2 0.610542 0.510749 0.1049 0.161167 0.765378 57
2 0.14547 0.334099 0.0601333 0.0996458 0.191119 52
2 0.0476161 0.380081 0.0880864 0.125236 0.157681 60
2 0.661105 0.520847 0.111941 0.122718 0.640104 66
2 0.146882 0.327181 0.0603381 0.0906524 0.732498 32
2 0.662443 0.54563 0.131755 0.174711 0.369286 67
2 0.10031 0.337152 0.0767848 0.10182 0.666236 68
5 0.633061 0.358945 0.121995 0.197629 0.666065 16
2 0.659214 0.656266 0.140384 0.166277 0.462197 69
2 0.0265693 0.405162 0.0530822 0.129919 0.844925 70
2 0.361101 0.653458 0.132789 0.214565 0.772316 8
2 0.385544 0.582171 0.110638 0.203988 0.681579 26
2 0.604164 0.509088 0.0930476 0.152733 0.561802 73
2 0.705415 0.322473 0.0448652 0.103753 0.510996 74
2 0.0999418 0.331974 0.0822616 0.11498 0.65238 53
2 0.0479563 0.376485 0.0773923 0.122566 0.758232 75
