2 0.261289 0.292761 0.0351013 0.0415038 0.153426 3
2 0.257268 0.291464 0.0326442 0.048766 0.331909 13
2 0.207258 0.30962 0.0878984 0.0817142 0.198497 21
2 0.705606 0.780951 0.173876 0.278343 0.869533 22
2 0.731364 0.961006 0.160648 0.067585 0.699615 23
2 0.392644 0.466219 0.106873 0.1844 0.6537 55
2 0.634833 0.660542 0.131303 0.207443 0.837156 57
2 0.226872 0.300693 0.055101 0.0748397 0.347284 52
2 0.224461 0.300477 0.0471018 0.0693925 0.26598 32
7 0.651805 0.487641 0.149527 0.319496 0.611346 16
2 0.139783 0.331472 0.0782606 0.10397 0.843899 70
2 0.28359 0.916567 0.207786 0.157066 0.896724 8
2 0.343113 0.813939 0.168513 0.286293 0.865211 26
2 0.717173 0.358459 0.0677525 0.117349 0.616559 74
2 0.369219 0.549347 0.106971 0.147846 0.619262 80
2 0.578608 0.393733 0.0485828 0.12305 0.649325 92
2 0.368728 0.554777 0.0950366 0.157812 0.706665 97
2 0.57523 0.341052 0.0713584 0.114211 0.445667 98
2 0.0446706 0.388627 0.0888023 0.16179 0.808128 99
2 0.340584 0.61982 0.126649 0.146775 0.589665 100
2 0.186937 0.311374 0.0466491 0.0808866 0.47535 53
2 0.341345 0.632453 0.135075 0.173536 0.783077 107
2 0.735867 0.96319 0.166469 0.0676393 0.288153 108
