2 0.600872 0.600429 0.129788 0.198853 0.881974 1
2 0.148608 0.327362 0.0757909 0.1091 0.729279 3
2 0.703214 0.905619 0.204159 0.187651 0.737234 5
2 0.344672 0.76814 0.187501 0.258068 0.897826 7
2 0.23986 0.307391 0.0352629 0.0703984 0.290687 10
7 0.1843 0.295699 0.0774366 0.114001 0.475221 13
5 0.617113 0.303563 0.0884347 0.159351 0.603326 16
2 0.0810977 0.355834 0.0757108 0.13198 0.500797 21
2 0.611926 0.430823 0.101801 0.122565 0.32791 22
2 0.639809 0.520161 0.103937 0.169008 0.538858 23
2 0.400899 0.50519 0.0979397 0.174692 0.659205 26
2 0.366056 0.561881 0.118712 0.181443 0.777034 29
2 0.034486 0.386958 0.0682558 0.124269 0.84369 32
2 0.394978 0.496894 0.106637 0.163396 0.696788 8
2 0.663202 0.771856 0.162837 0.233471 0.855659 9
5 0.618015 0.317072 0.0903604 0.186476 0.567125 40
2 0.724854 0.899774 0.242975 0.190951 0.833511 41
2 0.365751 0.537118 0.115836 0.132083 0.531231 42
