2 0.313258 0.786341 0.176181 0.294124 0.872983 55
2 0.778101 0.93824 0.297192 0.114518 0.719846 16
2 0.26045 0.304893 0.0366987 0.0282837 0.303825 70
2 0.261112 0.958593 0.168508 0.0777787 0.72104 80
2 0.618525 0.474823 0.0941219 0.17446 0.385169 98
2 0.220297 0.284318 0.0490645 0.0593391 0.184666 99
2 0.393893 0.439272 0.0950397 0.173635 0.487362 110
2 0.635599 0.600237 0.119272 0.195429 0.815836 120
2 0.368819 0.527246 0.120115 0.18093 0.543665 123
2 0.857228 0.564247 0.136912 0.203458 0.830371 74
2 0.603167 0.39757 0.0865852 0.123871 0.649996 148
2 0.259732 0.305712 0.0347023 0.0368309 0.519189 144
2 0.0253379 0.325139 0.0506758 0.10628 0.674231 157
2 0.336896 0.684839 0.150524 0.2255 0.652168 158
2 0.0956953 0.347452 0.0811349 0.114502 0.867706 156
2 0.61897 0.454852 0.0896662 0.139397 0.772388 166
2 0.68102 0.714522 0.147187 0.236503 0.867937 164
2 0.157904 0.318912 0.0586648 0.106799 0.647955 160
5 0.425072 0.304813 0.0909075 0.155937 0.455003 168
2 0.100225 0.341857 0.0874391 0.114853 0.114244 171
2 0.118337 0.336041 0.058877 0.104168 0.495362 140
2 0.339758 0.671236 0.14102 0.205506 0.563828 173
2 0.252836 0.956175 0.161414 0.0837548 0.388032 174
