2 0.267025 0.29651 0.0306487 0.0357127 0.207784 298
2 0.39445 0.548972 0.115953 0.178084 0.197288 304
2 0.240733 0.300691 0.043524 0.0505136 0.295017 356
2 0.649485 0.587682 0.143752 0.225102 0.624887 365
2 0.655285 0.787438 0.153944 0.189956 0.775207 376
2 0.291975 0.937374 0.222362 0.114239 0.776585 352
7 0.650717 0.570978 0.149345 0.189747 0.247243 402
2 0.401417 0.544562 0.106091 0.187509 0.751365 404
7 0.178771 0.278035 0.0780443 0.163225 0.710902 395
2 0.121771 0.341966 0.0617049 0.101047 0.528601 414
2 0.297092 0.817738 0.18575 0.236734 0.803015 415
2 0.679259 0.685271 0.140189 0.223619 0.845939 416
2 0.612354 0.437892 0.101141 0.133631 0.627757 422
2 0.0891102 0.362015 0.0835168 0.115211 0.788264 423
2 0.611875 0.425136 0.102307 0.155065 0.315522 410
2 0.114022 0.34953 0.0643953 0.109696 0.187261 433
2 0.338441 0.594054 0.137169 0.22248 0.844114 353
2 0.655276 0.793276 0.164337 0.206427 0.550387 434
2 0.66437 0.916599 0.204408 0.157172 0.779012 417
2 0.680846 0.671204 0.135057 0.192159 0.791832 435
2 0.567844 0.373459 0.0707608 0.114332 0.506457 436
2 0.293437 0.935364 0.190076 0.108738 0.75808 399
2 0.0214084 0.404064 0.0428168 0.154794 0.845504 441
2 0.379079 0.431116 0.100764 0.0852746 0.386008 442
2 0.675346 0.920175 0.227633 0.147278 0.152117 440
2 0.0915374 0.357215 0.0923816 0.113601 0.54993 444
2 0.296224 0.799727 0.169472 0.197417 0.708865 445
