2 0.244347 0.298695 0.0584172 0.0558281 0.28323 220
2 0.666317 0.764345 0.164133 0.270864 0.81923 233
2 0.241952 0.302434 0.0527599 0.0595036 0.424059 272
2 0.201895 0.313879 0.0277228 0.0823769 0.123152 298
2 0.44907 0.402699 0.0482917 0.105406 0.15252 304
2 0.110475 0.330652 0.0677124 0.106909 0.652791 340
2 0.116429 0.332514 0.0744819 0.100156 0.255535 345
2 0.176295 0.314549 0.0526323 0.0905786 0.40001 307
2 0.300397 0.776433 0.204555 0.351396 0.668536 350
2 0.346376 0.63668 0.14053 0.26627 0.688906 306
2 0.389054 0.54737 0.106791 0.185193 0.587654 352
2 0.447265 0.395153 0.0539751 0.12162 0.639968 353
2 0.122407 0.329985 0.0888586 0.108416 0.487545 356
2 0.11059 0.335889 0.0657751 0.0987052 0.313675 328
2 0.237012 0.306673 0.042424 0.0622523 0.466487 362
2 0.621741 0.431902 0.104193 0.103246 0.604356 365
2 0.0401699 0.391934 0.0610196 0.123631 0.78717 369
2 0.180178 0.314373 0.0722407 0.0911998 0.514748 371
2 0.0534783 0.369675 0.0737202 0.110223 0.570486 372
2 0.617562 0.458329 0.0960753 0.0716311 0.29442 376
2 0.0471104 0.381435 0.069275 0.115857 0.176804 387
2 0.754326 0.920103 0.213007 0.146335 0.830694 388
2 0.0441998 0.379755 0.0653256 0.129268 0.362395 391
