2 0.244328 0.303354 0.0522958 0.0648185 0.359272 220
2 0.290357 0.291566 0.0492012 0.0391696 0.108807 225
7 0.619165 0.451922 0.128322 0.221885 0.27386 233
2 0.633621 0.764493 0.174018 0.246069 0.919748 219
2 0.166455 0.318564 0.0560574 0.0853928 0.688204 270
2 0.201362 0.301053 0.0481318 0.0860062 0.386213 272
2 0.738313 0.949718 0.22667 0.0956999 0.634554 285
2 0.243803 0.306719 0.0532326 0.0742397 0.486016 283
2 0.204865 0.314277 0.0469044 0.0793256 0.458169 290
2 0.661294 0.634228 0.139937 0.201334 0.71244 271
2 0.238907 0.307963 0.0427118 0.0738728 0.263693 248
2 0.301369 0.739941 0.153025 0.142298 0.23134 297
2 0.118156 0.340345 0.0611671 0.100149 0.737517 298
2 0.233512 0.900392 0.21795 0.184361 0.85719 302
2 0.315517 0.889822 0.16116 0.212933 0.744123 265
2 0.42397 0.343935 0.109657 0.116252 0.464653 304
2 0.371711 0.462072 0.131546 0.197833 0.297155 306
2 0.371399 0.501647 0.137609 0.274262 0.628814 313
2 0.645048 0.537249 0.12603 0.178034 0.52036 314
2 0.281763 0.890615 0.231912 0.212354 0.38549 237
2 0.666943 0.64051 0.126782 0.198682 0.66104 322
2 0.35015 0.65627 0.142174 0.21492 0.834644 288
2 0.30658 0.747806 0.162815 0.160939 0.78212 327
2 0.0332438 0.404253 0.0657924 0.141777 0.74533 328
2 0.0744494 0.365202 0.0668053 0.121421 0.874662 307
2 0.550087 0.443922 0.0353777 0.129642 0.340276 334
2 0.0744995 0.350642 0.0693945 0.124953 0.108175 337
2 0.304925 0.761566 0.164877 0.182962 0.739946 339
2 0.16449 0.317803 0.0635451 0.0915784 0.59554 336
