2 0.230425 0.303785 0.0643534 0.0662358 0.183203 212
2 0.260258 0.84295 0.289738 0.301824 0.682361 194
2 0.646856 0.779432 0.200507 0.417861 0.696587 199
2 0.247177 0.299319 0.0339288 0.0422033 0.480932 217
2 0.126859 0.337352 0.0668124 0.0973169 0.629212 220
2 0.218707 0.31123 0.0409214 0.0778527 0.570908 202
2 0.622937 0.520581 0.144496 0.203087 0.514171 223
2 0.175278 0.303918 0.0605374 0.112035 0.149847 225
2 0.61991 0.538523 0.143578 0.251062 0.688627 227
7 0.58647 0.324016 0.0935138 0.152143 0.408612 233
2 0.377689 0.412149 0.0890449 0.0909608 0.124755 237
2 0.061559 0.372682 0.0735175 0.123282 0.786414 248
2 0.319034 0.679082 0.162416 0.254399 0.65467 250
2 0.166046 0.322981 0.0609529 0.0906092 0.664425 254
2 0.125486 0.328112 0.0688844 0.102108 0.521695 255
2 0.58585 0.453064 0.0882403 0.146893 0.523945 219
2 0.029667 0.412921 0.0587712 0.129465 0.883712 257
2 0.101931 0.353337 0.0562259 0.106752 0.667056 234
2 0.109141 0.350749 0.0497961 0.115241 0.17629 258
2 0.171844 0.322499 0.0591722 0.0910266 0.45008 228
2 0.370021 0.539324 0.124948 0.175396 0.571565 261
2 0.327139 0.671607 0.142814 0.22821 0.582888 263
