2 0.661266 0.897547 0.205094 0.186998 0.930333 1
2 0.218763 0.3086 0.0475507 0.0836119 0.120427 3
2 0.217941 0.304425 0.0356892 0.0788897 0.330077 13
2 0.177277 0.313689 0.0657339 0.0947585 0.125055 21
2 0.662362 0.557941 0.124667 0.14129 0.652426 22
2 0.66408 0.725754 0.152291 0.220647 0.790802 23
2 0.293151 0.841801 0.166973 0.255471 0.86453 29
2 0.397212 0.391933 0.0957225 0.126239 0.462079 55
2 0.617255 0.536322 0.10732 0.165074 0.823215 57
2 0.164738 0.319623 0.058199 0.0875527 0.769163 52
2 0.0701413 0.361291 0.0746946 0.113912 0.588448 60
2 0.666829 0.569377 0.136886 0.171713 0.536324 66
2 0.168332 0.318611 0.0609629 0.0941279 0.427106 32
7 0.638337 0.379874 0.125215 0.216141 0.488568 16
2 0.0403957 0.385899 0.0802952 0.127119 0.882452 70
2 0.350116 0.699308 0.141926 0.23185 0.810198 8
2 0.381279 0.612971 0.124853 0.217429 0.762732 26
2 0.607309 0.534549 0.088254 0.160967 0.33993 73
2 0.706944 0.331216 0.0479118 0.0993336 0.35101 74
2 0.123089 0.329992 0.0700222 0.0967634 0.757447 53
2 0.0767757 0.36062 0.0624456 0.114638 0.701019 75
2 0.380067 0.58136 0.128013 0.150549 0.274453 79
2 0.362092 0.502167 0.11277 0.126685 0.524999 80
2 0.119543 0.325932 0.0766001 0.0966066 0.698335 68
2 0.349572 0.681014 0.138045 0.192836 0.104597 77
