2 0.619134 0.737517 0.15567 0.246782 0.891462 1
2 0.189077 0.309273 0.0627178 0.0852948 0.455847 3
2 0.282177 0.944643 0.201413 0.0977243 0.67854 7
2 0.269452 0.298867 0.0261046 0.0370661 0.236424 10
2 0.187601 0.312322 0.0561067 0.0880134 0.407821 13
5 0.628882 0.332078 0.102696 0.173727 0.48222 16
2 0.138379 0.323755 0.0690663 0.10749 0.598658 21
2 0.642351 0.494039 0.111761 0.153314 0.578837 22
2 0.652132 0.609746 0.136719 0.189373 0.822836 23
2 0.373565 0.581515 0.124128 0.1868 0.562012 26
2 0.337964 0.670054 0.138192 0.215031 0.859657 29
2 0.376188 0.599652 0.115566 0.16676 0.622867 8
2 0.695747 0.938325 0.207033 0.106288 0.787184 9
2 0.375 0.446967 0.108705 0.117155 0.409283 47
2 0.0535227 0.363663 0.0774791 0.110116 0.856762 53
2 0.409491 0.368129 0.093328 0.132818 0.63554 55
7 0.626928 0.333244 0.1097 0.173785 0.762184 56
2 0.590702 0.47231 0.0845495 0.136897 0.540479 57
2 0.105344 0.341939 0.0706982 0.103388 0.771519 52
2 0.0201805 0.413903 0.0397959 0.139221 0.825952 60
2 0.262557 0.950075 0.23198 0.0868785 0.111489 61
2 0.379869 0.579354 0.114076 0.194445 0.761129 45
