2 0.271713 0.308654 0.0380803 0.0346339 0.148509 220
2 0.275879 0.305418 0.0488807 0.0371238 0.415314 272
2 0.204559 0.311522 0.0462849 0.0806299 0.434055 298
2 0.435548 0.433959 0.0712848 0.145268 0.471141 304
2 0.191526 0.31363 0.0694891 0.0835565 0.197924 307
2 0.23871 0.926318 0.238888 0.131834 0.732234 350
2 0.290724 0.827456 0.202897 0.326189 0.700665 306
2 0.376923 0.432846 0.102152 0.131174 0.680717 353
2 0.167364 0.31694 0.0478683 0.0842187 0.403159 356
2 0.275734 0.310325 0.0512314 0.0475705 0.253806 362
2 0.61573 0.450987 0.104128 0.164528 0.506185 365
2 0.23575 0.304825 0.0376231 0.0672666 0.211359 371
2 0.645841 0.483548 0.0992228 0.112556 0.534099 376
2 0.378887 0.443405 0.105346 0.145084 0.467176 392
2 0.184289 0.312756 0.0865827 0.0869688 0.181485 345
2 0.371845 0.664125 0.140268 0.224068 0.853101 399
2 0.208626 0.312328 0.0570567 0.0832757 0.205528 328
2 0.381193 0.559946 0.127919 0.173517 0.570999 352
2 0.651114 0.506528 0.104127 0.15758 0.658421 402
2 0.442141 0.434861 0.0566026 0.139248 0.597825 404
7 0.0690663 0.323308 0.0980285 0.215042 0.779267 395
2 0.288981 0.799075 0.200772 0.268034 0.433204 405
2 0.13022 0.337391 0.0390554 0.112544 0.858436 369
2 0.71773 0.897478 0.195183 0.193105 0.881123 233
