2 0.258603 0.300769 0.0530632 0.0422875 0.244233 298
2 0.252966 0.305288 0.0415461 0.0486392 0.402349 356
2 0.645877 0.625296 0.146612 0.243946 0.778667 365
2 0.6631 0.851554 0.174536 0.203736 0.745957 376
2 0.388503 0.575218 0.121417 0.189798 0.737862 404
7 0.191611 0.277885 0.0665785 0.155143 0.62371 395
2 0.141139 0.335308 0.0559519 0.100005 0.22585 414
2 0.266097 0.875326 0.196457 0.240421 0.86712 415
2 0.690704 0.737378 0.150045 0.239958 0.848109 416
2 0.61424 0.45216 0.101404 0.13342 0.766428 422
2 0.612824 0.449576 0.106962 0.161528 0.149 410
2 0.327878 0.639468 0.147231 0.248032 0.858366 353
2 0.665412 0.883634 0.186924 0.210055 0.250818 434
2 0.672107 0.946561 0.207862 0.088071 0.576885 417
2 0.569572 0.380293 0.06929 0.125004 0.46306 436
2 0.0373763 0.381096 0.0733421 0.140694 0.798518 441
2 0.372141 0.454187 0.100399 0.088968 0.315626 442
2 0.672156 0.919841 0.20513 0.147994 0.369854 440
2 0.664924 0.867274 0.181508 0.237724 0.224016 450
2 0.67063 0.819199 0.175706 0.151527 0.470633 451
2 0.394661 0.580096 0.107422 0.182644 0.547143 304
