2 0.241747 0.909994 0.225509 0.176983 0.164525 55
2 0.296889 0.286628 0.0339941 0.0448224 0.182896 70
2 0.257117 0.302589 0.0501909 0.0676509 0.540066 99
2 0.380435 0.516369 0.110013 0.182585 0.66447 110
2 0.320894 0.770775 0.150945 0.248001 0.841931 123
2 0.933629 0.744737 0.132573 0.25892 0.89755 74
2 0.087095 0.310507 0.0549182 0.0945399 0.525783 157
2 0.264752 0.871133 0.190863 0.247574 0.811673 158
2 0.641066 0.536969 0.109707 0.16925 0.784828 166
2 0.704589 0.900973 0.195272 0.173944 0.923057 164
7 0.405518 0.381747 0.107944 0.256617 0.63709 168
2 0.263076 0.851317 0.188796 0.204627 0.515691 173
2 0.259627 0.896544 0.200051 0.20687 0.391438 177
2 0.354211 0.632315 0.134506 0.214513 0.828654 178
2 0.662729 0.74083 0.161216 0.242973 0.867881 120
2 0.163394 0.3164 0.0727921 0.0949225 0.740955 156
2 0.237885 0.922696 0.228383 0.154147 0.138369 186
2 0.0352539 0.377072 0.0679677 0.201938 0.448947 187
2 0.0327145 0.387312 0.0654289 0.181941 0.812619 190
2 0.207338 0.30607 0.053982 0.0887877 0.771834 140
2 0.261765 0.948033 0.192839 0.0984751 0.546231 193
2 0.620688 0.452325 0.0966586 0.140947 0.685853 98
2 0.373461 0.500675 0.114543 0.208603 0.561983 194
2 0.26262 0.937984 0.189964 0.123464 0.457092 196
2 0.25859 0.294059 0.0497731 0.0550075 0.120913 197
