2 0.266077 0.293637 0.0300262 0.0408463 0.198286 298
2 0.401837 0.537366 0.104013 0.171378 0.591677 304
2 0.236111 0.302121 0.0401529 0.0559577 0.367488 356
2 0.650554 0.583137 0.147266 0.226314 0.681801 365
2 0.653854 0.777971 0.152859 0.199112 0.77122 376
2 0.304873 0.924418 0.212089 0.151164 0.123715 352
2 0.653233 0.551039 0.15177 0.165746 0.230532 402
2 0.402511 0.537725 0.105279 0.183299 0.765261 404
7 0.173175 0.279144 0.0736263 0.164828 0.686568 395
2 0.119871 0.346195 0.0580192 0.104443 0.336541 414
2 0.301627 0.808066 0.180795 0.240583 0.792169 415
2 0.675602 0.678112 0.143133 0.22459 0.81958 416
2 0.609206 0.436636 0.0993249 0.138314 0.593792 422
2 0.083826 0.365392 0.0838624 0.113851 0.855362 423
2 0.611572 0.419818 0.105275 0.148245 0.240625 410
2 0.114319 0.346114 0.0674804 0.104062 0.652874 433
2 0.340134 0.590351 0.133368 0.220752 0.844133 353
2 0.650032 0.7689 0.153891 0.163568 0.72305 434
2 0.654014 0.909103 0.181347 0.172005 0.828708 417
2 0.673748 0.638698 0.134149 0.146584 0.451176 435
2 0.716735 0.969125 0.16726 0.0563465 0.677096 421
2 0.567521 0.368762 0.0713157 0.120364 0.546325 436
2 0.30265 0.923715 0.202952 0.135936 0.786848 399
2 0.018466 0.405336 0.0368868 0.162148 0.79517 441
2 0.377074 0.431642 0.0946166 0.075929 0.523604 442
2 0.666112 0.906577 0.195613 0.173111 0.265844 440
2 0.0817003 0.357975 0.0850609 0.107487 0.612184 444
