2 0.291557 0.876214 0.202975 0.235278 0.886708 55
2 0.27817 0.300553 0.0366122 0.0253921 0.176087 70
2 0.24197 0.291288 0.0524893 0.0654522 0.234569 99
2 0.385928 0.487104 0.102774 0.180883 0.5495 110
2 0.334054 0.65483 0.131581 0.165948 0.370305 123
2 0.904997 0.655609 0.15604 0.215768 0.827044 74
2 0.612778 0.425099 0.0916798 0.130099 0.702682 148
2 0.0554974 0.315956 0.0678484 0.101011 0.702815 157
2 0.316224 0.741874 0.159209 0.183824 0.533957 158
2 0.632523 0.494967 0.0987356 0.153805 0.778321 166
2 0.693172 0.831043 0.164041 0.260391 0.889382 164
7 0.41469 0.362498 0.100546 0.244227 0.686842 168
2 0.308218 0.739483 0.162948 0.178555 0.541564 173
2 0.307818 0.758635 0.163152 0.216199 0.808508 177
2 0.362946 0.580127 0.124511 0.193425 0.750617 178
2 0.621282 0.462175 0.108475 0.20752 0.180295 180
2 0.186311 0.307018 0.0614592 0.0973122 0.637746 150
2 0.650155 0.669537 0.144669 0.220342 0.816527 120
2 0.138461 0.325446 0.0790237 0.103886 0.797048 156
2 0.333345 0.682045 0.128458 0.206646 0.630498 186
2 0.0136672 0.337154 0.025782 0.122107 0.243881 187
2 0.0131584 0.34226 0.0236994 0.125209 0.676063 190
2 0.135827 0.329221 0.0708565 0.100465 0.566036 191
2 0.183625 0.310504 0.0532151 0.0959007 0.657103 140
