2 0.24815 0.302281 0.0408954 0.0456542 0.489533 220
2 0.681075 0.820588 0.174678 0.284627 0.84552 233
2 0.248155 0.300092 0.0375345 0.0405752 0.31351 272
2 0.19532 0.310251 0.0685529 0.0869555 0.436624 298
2 0.443703 0.405881 0.0577832 0.127933 0.590466 304
2 0.183935 0.314999 0.0961178 0.090919 0.220992 307
2 0.283748 0.822356 0.214228 0.317641 0.718746 350
2 0.33247 0.690676 0.147922 0.293923 0.673335 306
2 0.384735 0.58358 0.116491 0.187833 0.725658 352
2 0.409975 0.398741 0.124841 0.138666 0.184768 353
2 0.12979 0.327472 0.0591381 0.0941671 0.761334 356
2 0.248089 0.309606 0.0395165 0.0617952 0.317897 362
2 0.605523 0.396277 0.095625 0.102603 0.466119 365
2 0.0766405 0.367441 0.0589492 0.122817 0.740104 369
2 0.197464 0.312277 0.0534025 0.0832726 0.287227 371
2 0.081102 0.355573 0.0652694 0.11372 0.509141 372
2 0.640837 0.447271 0.0919545 0.11036 0.509916 376
2 0.764526 0.968697 0.173034 0.0626053 0.778749 388
2 0.391009 0.413198 0.101454 0.141144 0.534014 392
2 0.763311 0.964335 0.167983 0.0580846 0.599451 271
2 0.143601 0.321937 0.0916978 0.0955754 0.286344 345
7 0.0292068 0.360177 0.058096 0.244661 0.629144 395
2 0.0726896 0.371282 0.0516561 0.12113 0.517275 387
2 0.028335 0.361032 0.056642 0.245659 0.53761 397
