2 0.208964 0.312231 0.0708635 0.0840246 0.514793 212
2 0.316371 0.76888 0.248562 0.419928 0.6536 194
2 0.626253 0.673501 0.173079 0.339805 0.627789 199
2 0.224293 0.307765 0.0356711 0.0762715 0.242596 217
2 0.615831 0.45343 0.125042 0.158519 0.201079 219
2 0.0800587 0.355631 0.0747087 0.11255 0.707263 220
2 0.198162 0.312771 0.0521151 0.0842806 0.458643 202
2 0.586928 0.418329 0.0964146 0.135255 0.603223 223
2 0.124351 0.336658 0.0677732 0.105756 0.659217 225
2 0.623041 0.459386 0.130497 0.163954 0.733802 227
7 0.581522 0.29666 0.0853155 0.113616 0.557929 233
2 0.0643083 0.39187 0.0637072 0.121886 0.101953 234
2 0.389192 0.387252 0.112092 0.0941627 0.168253 237
2 0.0602292 0.389655 0.0721273 0.120816 0.731137 240
2 0.0243453 0.411811 0.0486906 0.140834 0.862544 248
2 0.341949 0.530526 0.104915 0.0859846 0.553224 250
2 0.74229 0.935202 0.21964 0.110312 0.809404 252
2 0.127393 0.339289 0.0586445 0.104077 0.633542 228
2 0.754124 0.932609 0.224438 0.118081 0.610175 98
