2 0.248848 0.305259 0.0409346 0.0483003 0.470181 220
2 0.682537 0.827043 0.1748 0.287484 0.826876 233
2 0.250452 0.30039 0.0380206 0.039404 0.382332 272
2 0.196795 0.310825 0.0698023 0.0888027 0.267799 298
2 0.442463 0.407723 0.0573621 0.130784 0.527328 304
2 0.18373 0.314486 0.0980404 0.0948576 0.184349 307
2 0.28105 0.826748 0.212687 0.312728 0.720314 350
2 0.326606 0.696827 0.154984 0.293449 0.713376 306
2 0.385134 0.585298 0.118578 0.199607 0.758534 352
2 0.412883 0.402721 0.11819 0.135222 0.185094 353
2 0.131717 0.327729 0.0593979 0.0917668 0.745889 356
2 0.249514 0.30978 0.0440106 0.0578089 0.352113 362
2 0.603158 0.417495 0.0939052 0.147082 0.560908 365
2 0.0830799 0.366253 0.0627581 0.119413 0.640044 369
2 0.200897 0.311125 0.0582955 0.0863402 0.289507 371
2 0.0850291 0.351299 0.0628037 0.108424 0.540578 372
2 0.636963 0.444742 0.0864497 0.101564 0.540354 376
2 0.767298 0.974087 0.158807 0.0483094 0.612531 388
2 0.386436 0.410868 0.0968489 0.135616 0.561236 392
2 0.766298 0.969073 0.155569 0.0449795 0.581651 271
2 0.143926 0.324263 0.0918276 0.0968362 0.542711 345
7 0.0312591 0.357982 0.0622871 0.238342 0.717309 395
2 0.0780381 0.370353 0.0525065 0.115557 0.611744 387
2 0.0311846 0.357886 0.0596672 0.2384 0.426933 397
2 0.384034 0.559948 0.121595 0.229409 0.602825 398
