2 0.247162 0.30333 0.0359795 0.0646885 0.20569 220
2 0.273972 0.299078 0.023201 0.0373521 0.116147 225
7 0.616158 0.457568 0.128285 0.271272 0.47606 233
2 0.627094 0.726108 0.162278 0.234425 0.919113 219
2 0.253283 0.959065 0.183124 0.0783591 0.119509 266
2 0.155706 0.321598 0.0614662 0.0905692 0.593246 270
2 0.192333 0.309233 0.05109 0.0927935 0.627706 272
2 0.738514 0.917137 0.26628 0.156812 0.790842 285
2 0.235769 0.309969 0.0585615 0.0819708 0.363033 283
2 0.19478 0.314802 0.0446842 0.0786057 0.243091 290
2 0.664283 0.61517 0.121184 0.196998 0.754567 271
2 0.236303 0.307451 0.0553461 0.0820414 0.483497 248
2 0.319276 0.71224 0.155042 0.159851 0.781274 297
2 0.101945 0.34634 0.0646772 0.104563 0.839532 298
2 0.251227 0.871759 0.203371 0.236723 0.811076 302
2 0.32572 0.858132 0.15529 0.269872 0.689778 265
2 0.422054 0.342751 0.0977737 0.11968 0.331964 304
2 0.376112 0.485757 0.130665 0.262563 0.596207 306
2 0.376813 0.441657 0.124889 0.174258 0.39386 313
2 0.641718 0.517562 0.110903 0.160892 0.51577 314
2 0.336611 0.869505 0.13553 0.253589 0.646322 237
2 0.662848 0.599636 0.124603 0.161081 0.241211 322
2 0.243293 0.958314 0.20258 0.0771891 0.499893 323
2 0.35491 0.6258 0.139966 0.209537 0.833247 288
2 0.239705 0.952282 0.20399 0.094504 0.105206 326
2 0.32409 0.720389 0.149833 0.181957 0.329848 327
2 0.0235262 0.420124 0.0470523 0.144155 0.786899 328
2 0.0559965 0.376831 0.074312 0.125352 0.843431 307
2 0.359684 0.61801 0.129316 0.191084 0.593287 324
