2 0.237273 0.309036 0.0398989 0.0738868 0.39344 212
2 0.225756 0.88313 0.252471 0.228703 0.790434 194
2 0.67231 0.814909 0.225221 0.357261 0.492945 199
2 0.265267 0.302645 0.0286061 0.0311791 0.312955 217
2 0.148731 0.3235 0.070408 0.0933252 0.390497 220
2 0.242559 0.308324 0.0524659 0.0729834 0.277191 202
2 0.195292 0.303255 0.0539042 0.110418 0.438726 225
2 0.619739 0.574985 0.150873 0.263106 0.763379 227
5 0.593783 0.348803 0.0999903 0.192768 0.424949 233
2 0.353984 0.475188 0.124707 0.155485 0.139353 237
2 0.319526 0.656428 0.138676 0.197306 0.665376 250
2 0.195098 0.316785 0.0540894 0.0886871 0.560069 254
2 0.163397 0.321376 0.0438662 0.0845337 0.407764 255
2 0.591443 0.479682 0.0991036 0.165756 0.173297 219
2 0.059008 0.377762 0.0734876 0.117462 0.865157 257
2 0.136725 0.331401 0.0433344 0.107803 0.516485 234
7 0.196574 0.304053 0.0543696 0.114071 0.2578 228
2 0.36292 0.593758 0.12999 0.194783 0.747909 261
2 0.291874 0.767288 0.178332 0.280451 0.802382 263
2 0.372378 0.59088 0.113729 0.196904 0.668249 266
2 0.0981918 0.346057 0.0667735 0.106858 0.730977 260
2 0.135341 0.337855 0.0435375 0.09805 0.621267 258
2 0.315265 0.630335 0.132165 0.141684 0.155011 267
2 0.673685 0.874717 0.221625 0.242926 0.637181 269
2 0.0238124 0.424103 0.0476248 0.107034 0.565646 270
2 0.638005 0.418158 0.0795747 0.0920581 0.630739 271
2 0.621576 0.590972 0.15312 0.268412 0.789127 223
2 0.322203 0.640141 0.133843 0.16916 0.677795 265
2 0.0244518 0.415184 0.0489037 0.115653 0.500393 272
2 0.0243543 0.408465 0.0475222 0.140716 0.49146 273
2 0.222676 0.92466 0.247807 0.141686 0.235985 274
2 0.25746 0.870995 0.190698 0.211559 0.566575 275
