2 0.286468 0.823608 0.181553 0.270191 0.884803 110
2 0.686963 0.874961 0.17069 0.236649 0.884965 166
2 0.346935 0.688363 0.154546 0.232645 0.834798 168
2 0.287118 0.289438 0.0280324 0.0380415 0.196122 140
2 0.671693 0.666794 0.150024 0.207858 0.880141 98
2 0.258106 0.302336 0.0421056 0.0424594 0.366185 200
2 0.0967314 0.355453 0.0808685 0.109436 0.832574 212
7 0.386212 0.544551 0.164705 0.359222 0.444704 194
7 0.63 0.489574 0.126975 0.228645 0.683584 199
2 0.136755 0.318748 0.0708443 0.0902089 0.397604 217
2 0.546755 0.36393 0.0409306 0.110199 0.501227 219
2 0.0334976 0.386221 0.0669951 0.162661 0.58287 220
2 0.13398 0.32242 0.0747707 0.0915834 0.511602 202
2 0.596661 0.396576 0.0970057 0.184242 0.565378 223
