2 0.21724 0.31153 0.0510093 0.0761556 0.418754 298
2 0.432232 0.455843 0.0754357 0.153642 0.613593 304
2 0.185086 0.298629 0.0432982 0.0618044 0.278437 307
2 0.266126 0.876845 0.209082 0.222756 0.860213 306
2 0.368785 0.458616 0.10647 0.131304 0.526228 353
2 0.202523 0.308781 0.0775564 0.0803414 0.274736 356
2 0.624783 0.467252 0.106441 0.152425 0.579233 365
2 0.242359 0.303466 0.0324169 0.063191 0.113409 371
2 0.621318 0.606514 0.125032 0.14331 0.444868 376
2 0.37012 0.474827 0.110501 0.16704 0.671986 392
2 0.186155 0.310319 0.0456063 0.0779829 0.253193 345
2 0.2193 0.309994 0.0429218 0.0746782 0.365987 328
2 0.36582 0.599347 0.134242 0.165424 0.675038 352
2 0.653301 0.548897 0.113813 0.176073 0.711515 402
2 0.412945 0.454043 0.109895 0.153652 0.547234 404
7 0.104299 0.304451 0.089302 0.197725 0.811982 395
2 0.155681 0.32504 0.0268523 0.101175 0.450956 369
2 0.761483 0.957206 0.180823 0.0765711 0.568446 233
2 0.58946 0.383729 0.0871962 0.120764 0.553526 410
2 0.0235704 0.415563 0.0471407 0.129275 0.783675 414
2 0.362944 0.60533 0.134001 0.173583 0.227077 415
2 0.357631 0.743169 0.160608 0.238981 0.812823 399
2 0.621147 0.590236 0.13235 0.118017 0.597966 416
2 0.612225 0.711826 0.135919 0.193351 0.567602 417
2 0.764074 0.957111 0.178023 0.0857788 0.468608 407
