2 0.274829 0.302104 0.0246477 0.0299968 0.269592 212
2 0.204839 0.313507 0.0419331 0.0857836 0.328882 220
2 0.237751 0.30332 0.0453893 0.0775529 0.536412 225
7 0.606021 0.36338 0.106274 0.166523 0.465906 233
2 0.310341 0.637812 0.146458 0.214061 0.718556 237
2 0.612669 0.582571 0.121652 0.203761 0.725083 219
2 0.147691 0.331001 0.0302233 0.0871669 0.159379 257
2 0.236569 0.310374 0.0506448 0.0804337 0.295367 228
2 0.225861 0.928652 0.208089 0.128656 0.511912 263
2 0.331371 0.757657 0.153926 0.247866 0.855358 266
2 0.235376 0.933743 0.186393 0.121657 0.485637 267
2 0.0848307 0.36885 0.0796955 0.118592 0.854543 270
2 0.232899 0.870341 0.216763 0.243396 0.10132 265
2 0.123473 0.352052 0.0420939 0.0904061 0.110516 272
2 0.112348 0.338735 0.0824149 0.124161 0.473533 273
2 0.649953 0.488851 0.0969602 0.131926 0.228913 277
2 0.248691 0.86915 0.193412 0.240143 0.702835 261
2 0.654259 0.743402 0.195465 0.338061 0.852912 285
2 0.170088 0.317289 0.0547556 0.0944152 0.595662 283
2 0.372828 0.506974 0.116244 0.173733 0.543606 288
2 0.118226 0.332094 0.0882414 0.114599 0.372428 290
2 0.253683 0.854146 0.181626 0.209529 0.553346 291
2 0.649148 0.50279 0.102455 0.156281 0.640819 271
2 0.189711 0.315378 0.0636386 0.0857391 0.171395 248
2 0.368656 0.500921 0.127192 0.160836 0.503841 297
2 0.612794 0.602028 0.123904 0.242331 0.746601 223
2 0.0216881 0.410903 0.0433763 0.133541 0.819809 298
2 0.693552 0.952237 0.173605 0.0856656 0.748992 296
2 0.6938 0.947404 0.171461 0.105192 0.751805 199
