2 0.28548 0.299712 0.04365 0.0454283 0.393707 99
2 0.357414 0.589506 0.128062 0.195973 0.701317 110
2 0.282895 0.909541 0.196795 0.162478 0.896962 123
2 0.981121 0.939477 0.0374044 0.114801 0.162868 74
2 0.654109 0.616404 0.121339 0.202284 0.875368 166
7 0.392064 0.367984 0.121683 0.178794 0.220567 168
2 0.322236 0.75071 0.159768 0.24683 0.883582 178
2 0.696552 0.886145 0.193644 0.220782 0.90604 120
2 0.198011 0.307797 0.0537498 0.0684721 0.380718 156
7 0.0726126 0.338865 0.119935 0.153406 0.409367 190
2 0.23845 0.301262 0.0408372 0.0684061 0.515984 140
2 0.638512 0.504907 0.108188 0.165239 0.728874 98
2 0.357643 0.574266 0.123539 0.172256 0.456883 194
2 0.281107 0.299674 0.0489101 0.0485839 0.219362 197
2 0.589211 0.38923 0.101818 0.182402 0.443279 199
2 0.199911 0.308062 0.0620322 0.0844449 0.592598 200
2 0.0357148 0.387239 0.0705547 0.120833 0.825757 202
2 0.63707 0.481897 0.110019 0.11454 0.488758 207
7 0.589514 0.391622 0.100957 0.181861 0.454582 209
2 0.149565 0.313855 0.0387412 0.0632469 0.546969 210
