2 0.234103 0.307087 0.0467082 0.0728815 0.338722 212
2 0.245789 0.861302 0.252325 0.265508 0.511825 194
2 0.665841 0.804105 0.208293 0.364782 0.621785 199
2 0.258824 0.302294 0.0310685 0.0415916 0.609305 217
2 0.148874 0.324485 0.0636791 0.0982823 0.266563 220
2 0.230009 0.307662 0.0399911 0.0727758 0.608327 202
2 0.187276 0.308562 0.0588486 0.109917 0.506351 225
2 0.618652 0.568587 0.14981 0.259151 0.780649 227
7 0.590199 0.339779 0.0990973 0.176794 0.277242 233
2 0.3587 0.470004 0.125107 0.135624 0.538626 237
2 0.0790521 0.360068 0.077649 0.119911 0.586851 248
2 0.318349 0.690797 0.150764 0.268769 0.102309 250
2 0.186017 0.31978 0.0568323 0.0909493 0.582456 254
2 0.148508 0.324431 0.0546603 0.0924111 0.549414 255
2 0.595945 0.4683 0.112036 0.150528 0.198982 219
2 0.0412994 0.390544 0.080137 0.121611 0.820848 257
2 0.123209 0.339572 0.0468256 0.100128 0.618539 234
2 0.18735 0.289525 0.0578199 0.0780789 0.142252 228
2 0.371648 0.572896 0.117672 0.185065 0.791474 261
2 0.310569 0.728637 0.166307 0.2664 0.779658 263
2 0.320125 0.684142 0.143331 0.229818 0.11409 265
2 0.325729 0.604801 0.131078 0.136165 0.24852 266
2 0.0824987 0.356296 0.0740698 0.111925 0.625518 260
2 0.139183 0.325245 0.0697141 0.0892773 0.515538 258
2 0.326702 0.611323 0.132531 0.153082 0.672224 267
2 0.664506 0.8307 0.210189 0.311988 0.591926 269
