2 0.296812 0.29174 0.0327143 0.0284513 0.160405 99
2 0.340879 0.648968 0.141156 0.216734 0.835409 110
2 0.668566 0.69419 0.13761 0.224817 0.878299 166
5 0.381744 0.456743 0.128165 0.302878 0.533035 168
2 0.301363 0.863868 0.187292 0.266297 0.909341 178
2 0.211595 0.311336 0.0396634 0.0565383 0.158182 156
2 0.125862 0.317281 0.0904864 0.136222 0.428505 190
2 0.259772 0.296017 0.035704 0.0469231 0.352911 140
2 0.656101 0.553857 0.125154 0.175207 0.78348 98
2 0.296699 0.302106 0.0336054 0.0254241 0.1111 197
2 0.222628 0.302113 0.0511724 0.0698282 0.519781 200
2 0.0819938 0.356271 0.073575 0.108599 0.828156 202
2 0.651718 0.556727 0.117523 0.18166 0.544682 207
2 0.179349 0.323644 0.0238567 0.0435357 0.172678 210
2 0.032313 0.409857 0.0646261 0.140186 0.851794 212
2 0.180645 0.314794 0.0249656 0.054146 0.1656 213
2 0.369226 0.575239 0.115407 0.18063 0.65352 194
2 0.723731 0.965372 0.155187 0.0613639 0.715698 214
2 0.369139 0.55828 0.123716 0.149362 0.521456 215
2 0.606494 0.424328 0.107641 0.195713 0.378059 199
2 0.723174 0.96451 0.148938 0.0709791 0.104534 120
