2 0.584109 0.499207 0.105127 0.167552 0.855557 1
2 0.270803 0.828146 0.187932 0.300417 0.893143 2
2 0.0687657 0.373193 0.0934298 0.130581 0.773587 3
2 0.354788 0.762922 0.135843 0.240516 0.834371 4
2 0.653246 0.705793 0.160655 0.284796 0.838972 5
2 0.382919 0.585485 0.133798 0.191688 0.817968 7
2 0.38587 0.450524 0.0980913 0.103218 0.727406 8
2 0.641485 0.591263 0.121264 0.175188 0.619815 9
2 0.191853 0.311908 0.0504778 0.0860425 0.570015 10
2 0.626529 0.444064 0.0874856 0.129416 0.615836 11
2 0.744321 0.916486 0.271796 0.159795 0.728856 12
5 0.129196 0.318325 0.0824412 0.14664 0.401711 13
5 0.593737 0.270657 0.0796464 0.120329 0.48205 16
2 0.642939 0.582481 0.123938 0.154761 0.651448 17
2 0.639433 0.563255 0.128568 0.11546 0.581373 19
