2 0.244448 0.301109 0.030721 0.0645156 0.19108 220
2 0.271947 0.300708 0.0301515 0.0375886 0.323476 225
7 0.615996 0.417065 0.124853 0.204655 0.452833 233
2 0.622861 0.696435 0.154276 0.220665 0.891619 219
2 0.260752 0.930394 0.221285 0.127713 0.841848 266
2 0.148957 0.328504 0.0630346 0.0936987 0.682231 270
2 0.181964 0.31088 0.0555647 0.0979469 0.560857 272
2 0.72264 0.891189 0.272395 0.199775 0.755044 285
2 0.227717 0.310857 0.0597419 0.0845157 0.409534 283
2 0.186106 0.315641 0.0484074 0.0967776 0.136295 290
2 0.661388 0.59645 0.119113 0.187331 0.771454 271
2 0.23049 0.308701 0.0608384 0.0774702 0.345258 248
2 0.332297 0.686791 0.139569 0.173524 0.74882 297
2 0.0896231 0.351378 0.0657697 0.106809 0.835536 298
2 0.263552 0.829769 0.193819 0.237447 0.721335 302
2 0.335692 0.825928 0.142066 0.256998 0.645769 265
2 0.426149 0.33307 0.103052 0.110055 0.279447 304
2 0.378762 0.464987 0.125815 0.232564 0.549611 306
2 0.0415011 0.389096 0.0782036 0.133867 0.88129 307
2 0.380398 0.429021 0.126461 0.164589 0.656195 313
2 0.642681 0.504103 0.109346 0.156413 0.393956 314
2 0.350989 0.811834 0.108191 0.223551 0.55399 237
2 0.663104 0.577625 0.117472 0.146765 0.377829 322
2 0.276028 0.823915 0.202445 0.229719 0.127014 323
2 0.366773 0.602648 0.125911 0.190307 0.738242 288
2 0.357853 0.605255 0.140042 0.192191 0.781296 324
2 0.264025 0.925831 0.200479 0.130681 0.80581 326
2 0.330873 0.674143 0.142174 0.144622 0.642802 327
2 0.0147552 0.43214 0.0295103 0.157472 0.724134 328
2 0.0398159 0.387037 0.0773125 0.119279 0.670519 318
