2 0.211933 0.311861 0.070635 0.0853372 0.599939 212
2 0.313694 0.777033 0.244098 0.422681 0.491415 194
2 0.625736 0.687486 0.17334 0.339446 0.680099 199
2 0.228855 0.309348 0.0331054 0.0742365 0.168841 217
2 0.607089 0.448146 0.121933 0.156432 0.140231 219
2 0.0872606 0.348511 0.0755303 0.110304 0.714717 220
2 0.206247 0.311425 0.0616599 0.0825405 0.186637 202
2 0.585872 0.426471 0.0958333 0.128854 0.483085 223
2 0.134275 0.334128 0.0542969 0.103098 0.205846 225
2 0.623638 0.463819 0.134496 0.172058 0.75876 227
7 0.581803 0.299583 0.0846427 0.117777 0.542356 233
2 0.0685595 0.388158 0.0627285 0.118855 0.288314 234
2 0.390084 0.390426 0.104502 0.0918617 0.212724 237
2 0.0645471 0.387694 0.0715088 0.124848 0.716979 240
2 0.0285621 0.40777 0.0565556 0.137139 0.831474 248
2 0.343937 0.540706 0.114851 0.0957577 0.584734 250
2 0.741104 0.946033 0.214611 0.0975972 0.761913 252
2 0.131312 0.337435 0.0613906 0.102709 0.626668 228
2 0.135525 0.341029 0.0539975 0.104421 0.106946 254
2 0.0860774 0.354724 0.0754247 0.108554 0.302611 255
