2 0.269472 0.305823 0.0328844 0.0348334 0.187347 298
2 0.269989 0.306209 0.0309223 0.0306489 0.374446 356
2 0.656114 0.693431 0.154928 0.272623 0.817473 365
2 0.668445 0.927072 0.19199 0.134199 0.854071 376
7 0.210508 0.274401 0.061942 0.141464 0.604476 395
2 0.216332 0.931807 0.221377 0.117065 0.765245 415
2 0.716702 0.834033 0.169189 0.268072 0.886057 416
2 0.625937 0.48728 0.108403 0.148887 0.72225 410
2 0.31011 0.719233 0.165013 0.269269 0.87844 353
2 0.577727 0.403191 0.0798856 0.124239 0.711527 436
2 0.0763796 0.350239 0.0888874 0.128979 0.669653 441
2 0.38013 0.494985 0.114092 0.138437 0.221532 442
5 0.210275 0.274387 0.0614454 0.142449 0.289099 453
2 0.153331 0.32432 0.0709843 0.100004 0.742132 423
2 0.0284702 0.396072 0.0524724 0.129734 0.687671 456
2 0.585026 0.399087 0.0952677 0.130972 0.6003 461
2 0.672173 0.920171 0.175003 0.141697 0.763 434
2 0.0258451 0.40101 0.0516901 0.129893 0.568287 462
2 0.379387 0.641056 0.124225 0.217372 0.842491 304
2 0.372296 0.636712 0.142764 0.215919 0.815088 465
2 0.667401 0.693379 0.174564 0.263067 0.709314 464
