2 0.583857 0.504205 0.104317 0.170411 0.848861 1
2 0.267477 0.842121 0.186672 0.295557 0.865579 2
2 0.0738191 0.370662 0.09006 0.127078 0.829614 3
2 0.350424 0.778873 0.139925 0.240667 0.890708 4
2 0.655171 0.721062 0.157886 0.273361 0.855657 5
2 0.381821 0.593842 0.135667 0.194542 0.884055 7
2 0.386128 0.455895 0.0980248 0.111436 0.775509 8
2 0.642696 0.588258 0.129729 0.1544 0.570752 9
2 0.192344 0.310456 0.0505362 0.0838515 0.563865 10
2 0.627596 0.449146 0.0849513 0.131252 0.681518 11
2 0.750296 0.92345 0.279899 0.142199 0.663254 12
7 0.131267 0.318031 0.0818093 0.146203 0.575495 13
5 0.59555 0.2738 0.0777004 0.125462 0.495573 16
2 0.64167 0.599816 0.125863 0.18167 0.758507 17
2 0.638504 0.580875 0.130141 0.142716 0.52805 19
2 0.016772 0.419553 0.0335439 0.158351 0.635777 21
2 0.587018 0.373 0.10244 0.104675 0.615587 22
