2 0.248707 0.302601 0.0353098 0.0654167 0.182302 220
2 0.274825 0.298762 0.0220958 0.0373595 0.109918 225
7 0.615846 0.459111 0.127425 0.272878 0.508567 233
2 0.627881 0.731454 0.162376 0.235122 0.905294 219
2 0.249993 0.960841 0.18564 0.0729107 0.370364 266
2 0.157262 0.320841 0.0616123 0.0899397 0.611277 270
2 0.193983 0.309614 0.0508485 0.093863 0.64013 272
2 0.739651 0.919977 0.263714 0.151116 0.803039 285
2 0.236829 0.310507 0.058912 0.0850633 0.545861 283
2 0.19635 0.31358 0.0454501 0.0867356 0.381172 290
2 0.667623 0.613109 0.122087 0.202741 0.798639 271
2 0.236905 0.306847 0.0536935 0.0799232 0.407868 248
2 0.317997 0.718389 0.156376 0.165367 0.770918 297
2 0.104546 0.345975 0.0651102 0.103322 0.841622 298
2 0.25074 0.875299 0.207835 0.234407 0.823482 302
2 0.340229 0.869807 0.136807 0.252437 0.152304 265
2 0.420065 0.343868 0.0945543 0.121624 0.360472 304
2 0.376549 0.485867 0.131429 0.257951 0.541115 306
2 0.375158 0.44375 0.130896 0.17843 0.625027 313
2 0.643069 0.522012 0.112498 0.166949 0.565462 314
2 0.329701 0.867394 0.158687 0.250436 0.704977 237
2 0.664774 0.602985 0.120485 0.168498 0.499613 322
2 0.35362 0.627495 0.142578 0.207048 0.803996 288
2 0.244541 0.955974 0.206442 0.0850507 0.100661 326
2 0.323232 0.730013 0.149369 0.191862 0.420739 327
2 0.0248305 0.419898 0.0494462 0.1407 0.78765 328
2 0.0596775 0.376301 0.0704406 0.123689 0.822334 307
