2 0.249946 0.303081 0.0446071 0.0549121 0.225064 220
2 0.289555 0.294342 0.0402668 0.0330173 0.203925 225
2 0.634068 0.519064 0.127417 0.212738 0.551008 233
2 0.63599 0.777461 0.172215 0.248548 0.892281 219
2 0.169626 0.318605 0.056441 0.084288 0.674959 270
2 0.205219 0.302531 0.0499658 0.0899724 0.480781 272
2 0.744314 0.962646 0.230893 0.0737648 0.417947 285
2 0.247845 0.306938 0.0515746 0.0714351 0.440393 283
2 0.205835 0.312298 0.0461424 0.0719951 0.349991 290
2 0.670045 0.647303 0.130548 0.210025 0.683294 271
2 0.243049 0.30824 0.0352329 0.0693832 0.158426 248
2 0.299783 0.77093 0.165494 0.17753 0.73825 297
2 0.121971 0.336522 0.0637563 0.0971267 0.701315 298
2 0.230875 0.910991 0.211615 0.170447 0.838146 302
2 0.31217 0.900977 0.163971 0.190853 0.749001 265
2 0.423767 0.345001 0.108513 0.115188 0.371212 304
2 0.370726 0.461877 0.130638 0.192893 0.242161 306
2 0.367827 0.51249 0.140747 0.272618 0.69021 313
2 0.646891 0.55233 0.130915 0.190157 0.64481 314
2 0.30499 0.887904 0.163024 0.205193 0.36013 237
2 0.666913 0.643157 0.128924 0.195455 0.754157 322
2 0.349128 0.666529 0.144947 0.21332 0.857046 288
2 0.303529 0.760752 0.159882 0.153955 0.478118 327
2 0.0345756 0.397282 0.0691511 0.136736 0.750758 328
2 0.0785642 0.362427 0.0660204 0.119234 0.836201 307
2 0.552603 0.442268 0.0375595 0.137678 0.129591 334
2 0.0801445 0.363861 0.0632825 0.106907 0.253204 337
2 0.307858 0.779963 0.161114 0.199874 0.298826 339
2 0.163337 0.316003 0.0683225 0.0934801 0.524753 336
