2 0.700733 0.851845 0.205123 0.281445 0.784477 365
7 0.242047 0.273782 0.0526841 0.110881 0.313459 395
2 0.648104 0.569644 0.121432 0.167566 0.783832 410
2 0.254682 0.874202 0.222102 0.242155 0.87304 353
2 0.154647 0.316465 0.0606039 0.098834 0.676229 441
2 0.317088 0.663862 0.15069 0.184417 0.714598 442
5 0.242696 0.271821 0.0569021 0.104379 0.281973 453
2 0.199162 0.308243 0.053655 0.089319 0.53934 423
2 0.124817 0.337795 0.0394692 0.116619 0.149575 456
2 0.126722 0.343463 0.0356198 0.103466 0.440987 462
2 0.0790316 0.341758 0.0894709 0.149428 0.518581 471
2 0.418722 0.401436 0.0891565 0.134897 0.63834 476
2 0.576601 0.349075 0.0868647 0.139991 0.489962 478
2 0.0479475 0.383524 0.0900817 0.127813 0.812153 480
2 0.64562 0.549138 0.118797 0.217136 0.514491 482
7 0.0849522 0.331637 0.104374 0.147866 0.146021 483
2 0.594294 0.448116 0.102196 0.14558 0.376857 436
2 0.338754 0.815458 0.161799 0.273122 0.864076 304
2 0.596591 0.457301 0.104783 0.147629 0.762719 485
2 0.775873 0.953209 0.175872 0.0862399 0.790096 486
2 0.357314 0.610169 0.123422 0.185811 0.606734 488
2 0.337849 0.813438 0.148026 0.246433 0.536685 490
