2 0.255702 0.301443 0.0317914 0.0428407 0.439233 212
2 0.231736 0.947673 0.193434 0.0968255 0.622348 194
2 0.664629 0.871972 0.178824 0.244875 0.851562 199
2 0.282382 0.302893 0.0261087 0.0277754 0.176476 217
2 0.177284 0.31847 0.050738 0.0918825 0.408729 220
2 0.218501 0.30586 0.0501839 0.0835698 0.307206 225
2 0.600478 0.352663 0.103705 0.165544 0.130929 233
2 0.338397 0.553918 0.146378 0.165432 0.555843 237
2 0.239351 0.904404 0.195836 0.171489 0.582236 250
2 0.218369 0.313655 0.0497115 0.0724837 0.356214 254
2 0.187153 0.316409 0.0391888 0.0855266 0.226175 255
2 0.610166 0.516025 0.12064 0.155236 0.347399 219
2 0.10394 0.350473 0.0570345 0.106185 0.806893 257
2 0.17413 0.321717 0.0415452 0.0941455 0.340964 234
2 0.217333 0.312234 0.0573701 0.0812321 0.198428 228
2 0.263767 0.860371 0.194887 0.260883 0.743381 263
2 0.352874 0.663823 0.136123 0.217702 0.828835 266
2 0.171231 0.318532 0.0393032 0.090929 0.406986 258
2 0.264539 0.84382 0.174111 0.22942 0.703268 267
2 0.0398952 0.399586 0.0793195 0.134121 0.842941 270
2 0.283594 0.751183 0.167939 0.229324 0.659086 265
2 0.0551675 0.366026 0.0834318 0.13406 0.488766 272
2 0.0441765 0.392542 0.08509 0.127881 0.107216 273
2 0.231465 0.956082 0.184832 0.0812848 0.574004 275
2 0.646691 0.453624 0.0862281 0.10954 0.486112 277
2 0.716186 0.956531 0.256325 0.0827135 0.104322 280
2 0.286215 0.735115 0.161651 0.19217 0.615116 261
2 0.631568 0.653998 0.166309 0.293471 0.777112 285
2 0.138977 0.324619 0.0609569 0.0978968 0.629312 283
2 0.726478 0.95831 0.249908 0.0682873 0.358862 269
2 0.382078 0.465463 0.101065 0.138861 0.573777 288
2 0.696305 0.871552 0.247056 0.256082 0.596585 281
2 0.105534 0.345112 0.053106 0.102235 0.667442 290
2 0.292437 0.714365 0.158772 0.155464 0.195101 291
2 0.639497 0.451607 0.0955921 0.114157 0.69006 271
2 0.139745 0.331252 0.057769 0.101858 0.617816 248
