2 0.326717 0.728676 0.16532 0.275519 0.829993 55
7 0.739935 0.871257 0.274095 0.23854 0.685642 16
2 0.252792 0.303198 0.0439992 0.0375763 0.375585 70
2 0.276501 0.913268 0.175361 0.164516 0.879588 80
2 0.611185 0.44503 0.0885803 0.161131 0.190004 98
2 0.207076 0.300866 0.0577693 0.0964728 0.320283 99
2 0.396808 0.386777 0.0874411 0.102885 0.186017 110
2 0.63333 0.570615 0.120646 0.187391 0.823786 120
2 0.376703 0.506104 0.110763 0.179365 0.557974 123
2 0.142201 0.328197 0.0560119 0.112162 0.317467 140
2 0.834125 0.5247 0.124619 0.184811 0.861371 74
2 0.597993 0.388245 0.0763977 0.115766 0.501344 148
2 0.253614 0.302682 0.0472716 0.0421749 0.432711 144
2 0.0394579 0.331391 0.0735849 0.11864 0.596395 157
2 0.351927 0.645369 0.134575 0.215513 0.511296 158
2 0.13752 0.326049 0.0621464 0.103071 0.381331 162
2 0.0720089 0.360143 0.0799464 0.122084 0.894225 156
2 0.616006 0.433744 0.0858924 0.134915 0.76682 166
2 0.672625 0.667172 0.137057 0.206948 0.881848 164
2 0.133237 0.325559 0.07266 0.111866 0.628829 160
5 0.428193 0.329368 0.0894177 0.216167 0.556467 168
2 0.74275 0.871253 0.264366 0.243051 0.585125 169
2 0.128414 0.32789 0.0863504 0.118058 0.508461 150
