2 0.287874 0.816384 0.180679 0.269916 0.900369 110
2 0.68672 0.872551 0.167274 0.242088 0.895932 166
2 0.349219 0.684686 0.151426 0.231906 0.857486 168
2 0.286596 0.292608 0.0292495 0.0328322 0.174442 140
2 0.67162 0.662225 0.149108 0.205221 0.885599 98
2 0.257131 0.302454 0.0402853 0.0443198 0.523657 200
2 0.0957942 0.356885 0.0817564 0.111737 0.875012 212
5 0.380513 0.533493 0.152056 0.354108 0.352705 194
7 0.629682 0.486055 0.126975 0.227834 0.675625 199
2 0.131311 0.315609 0.0801053 0.0858958 0.175095 217
2 0.546448 0.363489 0.0400617 0.109865 0.497031 219
2 0.0324402 0.389895 0.0648107 0.163737 0.746161 220
2 0.133121 0.323532 0.0747896 0.0929303 0.789072 202
2 0.596107 0.394555 0.0960523 0.181907 0.604108 223
