2 0.313148 0.787515 0.176537 0.294386 0.877444 55
2 0.773484 0.938856 0.306049 0.109572 0.700835 16
2 0.260673 0.305227 0.0367972 0.0291431 0.326626 70
2 0.261412 0.959759 0.164113 0.0717912 0.646613 80
2 0.618738 0.475355 0.0944546 0.174156 0.330151 98
2 0.220777 0.283918 0.0494933 0.0592715 0.196405 99
2 0.393526 0.438704 0.0959951 0.174101 0.460416 110
2 0.635166 0.600586 0.117212 0.196097 0.820624 120
2 0.368761 0.52754 0.121427 0.179997 0.535963 123
2 0.858163 0.565088 0.138754 0.204074 0.846458 74
2 0.603412 0.398076 0.0870251 0.123821 0.628308 148
2 0.259742 0.305587 0.0347621 0.0369339 0.513062 144
2 0.0257638 0.324573 0.0513097 0.106712 0.664319 157
2 0.336819 0.685217 0.151339 0.226672 0.66261 158
2 0.094527 0.34691 0.0811521 0.113511 0.868035 156
2 0.618954 0.454681 0.0897876 0.139598 0.77642 166
2 0.681233 0.715707 0.147382 0.236724 0.872987 164
2 0.15887 0.317919 0.0616306 0.102619 0.636687 160
7 0.42505 0.304846 0.0907332 0.157191 0.337875 168
2 0.100569 0.343593 0.0876694 0.113088 0.736484 171
2 0.119557 0.335405 0.0573863 0.103163 0.492806 140
2 0.339718 0.671574 0.141029 0.202501 0.526135 173
2 0.254857 0.958644 0.157905 0.079664 0.712845 174
