2 0.279081 0.302055 0.0251729 0.0283908 0.279429 212
2 0.206265 0.312341 0.0344414 0.0796581 0.299748 220
2 0.241852 0.306703 0.0460913 0.0732711 0.294642 225
7 0.606447 0.369036 0.108094 0.168966 0.390334 233
2 0.30374 0.660219 0.149565 0.230285 0.640535 237
2 0.61493 0.581851 0.125581 0.186177 0.801102 219
2 0.156547 0.334035 0.0227036 0.0776051 0.13814 257
2 0.239543 0.31019 0.0506362 0.0796325 0.23588 228
2 0.229488 0.956235 0.180699 0.0834815 0.122154 263
2 0.323427 0.779761 0.161691 0.253894 0.844005 266
2 0.227385 0.940585 0.192658 0.110123 0.131675 267
2 0.0922935 0.362926 0.0809951 0.113902 0.857512 270
2 0.244787 0.86782 0.193976 0.184784 0.280207 265
2 0.116298 0.338778 0.0746807 0.101154 0.290612 272
2 0.109821 0.346788 0.0878721 0.0991796 0.217214 273
2 0.654166 0.487636 0.099501 0.113729 0.456651 277
2 0.244949 0.887772 0.19628 0.215916 0.811223 261
2 0.658337 0.771388 0.203853 0.34396 0.805335 285
2 0.177983 0.315753 0.050767 0.0934976 0.56177 283
2 0.373664 0.51135 0.109336 0.168774 0.225269 288
2 0.125146 0.33048 0.0880719 0.112647 0.538138 290
2 0.653701 0.512991 0.10173 0.166952 0.631556 271
2 0.187555 0.314924 0.071201 0.0887581 0.228966 248
2 0.366392 0.514791 0.125768 0.165834 0.596804 297
2 0.613899 0.561464 0.121816 0.139824 0.467796 223
2 0.0269276 0.40032 0.0534305 0.129168 0.782686 298
2 0.711109 0.973134 0.151464 0.0467612 0.517578 296
2 0.710995 0.963568 0.152378 0.0603802 0.539723 199
2 0.330912 0.649415 0.175324 0.209694 0.586125 302
2 0.708143 0.970127 0.151729 0.0597457 0.489768 303
