2 0.242296 0.299191 0.0376986 0.0580631 0.302737 298
2 0.412459 0.487088 0.101565 0.16369 0.573075 304
2 0.223101 0.310828 0.0731146 0.0858634 0.525617 356
2 0.635866 0.524006 0.120531 0.201584 0.474555 365
2 0.268096 0.303808 0.0205744 0.0301587 0.136916 371
2 0.639061 0.669603 0.132541 0.156198 0.759053 376
2 0.35721 0.526876 0.118736 0.212756 0.713524 392
2 0.335385 0.671824 0.150294 0.167261 0.490515 352
2 0.657313 0.600968 0.124709 0.192678 0.591012 402
2 0.418031 0.491328 0.0884464 0.169278 0.791456 404
7 0.145415 0.289035 0.086918 0.177347 0.770641 395
2 0.0649105 0.375627 0.073259 0.116409 0.82353 414
2 0.337471 0.688345 0.154369 0.19776 0.763246 415
2 0.331085 0.854044 0.187138 0.27263 0.852285 399
2 0.653332 0.570256 0.136731 0.123003 0.419382 416
2 0.633601 0.815803 0.149123 0.206002 0.701903 417
2 0.718329 0.886562 0.287088 0.202559 0.59289 421
2 0.595613 0.406785 0.0859854 0.123476 0.66659 422
2 0.0365345 0.39764 0.0727091 0.126965 0.813404 423
2 0.238317 0.970386 0.185681 0.0545053 0.482031 306
2 0.597084 0.393349 0.098926 0.127972 0.269658 410
2 0.237872 0.965294 0.190216 0.0549631 0.429948 429
2 0.3565 0.523735 0.12242 0.184052 0.559891 353
2 0.642225 0.810945 0.169158 0.211313 0.518992 430
