2 0.251316 0.299118 0.0316765 0.0462516 0.284845 13
2 0.231955 0.311644 0.0475533 0.0747501 0.206457 21
2 0.760553 0.921309 0.219019 0.141947 0.83636 22
2 0.387043 0.517832 0.118956 0.205801 0.69028 55
2 0.660565 0.816035 0.174728 0.252613 0.881853 57
2 0.233676 0.307182 0.0539994 0.0672203 0.178093 52
2 0.249592 0.297137 0.0315204 0.0477807 0.219577 32
7 0.672919 0.580601 0.180357 0.390709 0.468656 16
2 0.185138 0.314355 0.065768 0.090162 0.720229 70
2 0.741929 0.38841 0.0806326 0.132827 0.740991 74
2 0.344452 0.610657 0.121408 0.158136 0.785015 80
2 0.597798 0.430947 0.0707991 0.133844 0.255651 92
2 0.57883 0.36446 0.0692646 0.114469 0.48869 98
2 0.0968285 0.344719 0.0864447 0.139473 0.74807 99
2 0.226528 0.309466 0.0428805 0.0763481 0.267381 53
2 0.42755 0.342064 0.0958489 0.104835 0.260626 110
2 0.603886 0.431021 0.0803023 0.13949 0.698694 120
2 0.39861 0.404634 0.0930194 0.0932561 0.501683 123
2 0.302688 0.802785 0.172668 0.263184 0.870703 100
2 0.288893 0.945627 0.180143 0.105494 0.836741 128
2 0.696068 0.69271 0.124726 0.165784 0.157657 130
2 0.67328 0.53438 0.173836 0.312089 0.196095 131
2 0.0161512 0.431606 0.0319582 0.155346 0.716694 132
2 0.0158314 0.423074 0.0312135 0.183533 0.551995 133
2 0.387486 0.497241 0.11588 0.152616 0.527341 134
