2 0.261984 0.296507 0.0398359 0.0467904 0.248244 220
2 0.639355 0.588541 0.12741 0.216156 0.733768 233
2 0.650319 0.846662 0.188989 0.265494 0.914158 219
2 0.186043 0.310697 0.0516682 0.0893141 0.695936 270
2 0.223033 0.299662 0.045129 0.0796128 0.571601 272
2 0.253671 0.292813 0.0285418 0.046501 0.150134 283
2 0.225318 0.312596 0.0450985 0.068813 0.535869 290
2 0.680122 0.701273 0.138387 0.225345 0.57895 271
2 0.27123 0.298266 0.0257167 0.0362862 0.153552 248
2 0.290527 0.869477 0.19223 0.214977 0.872052 297
2 0.147323 0.326772 0.0572374 0.0876807 0.760297 298
2 0.209119 0.968158 0.169785 0.0536595 0.286169 302
2 0.248494 0.951961 0.247283 0.0883047 0.318639 265
2 0.407164 0.352564 0.0870975 0.107659 0.509299 304
2 0.359518 0.55707 0.150017 0.269184 0.728723 313
2 0.620805 0.516791 0.146096 0.275314 0.491604 314
2 0.286148 0.947626 0.17138 0.0962272 0.770263 237
2 0.677636 0.684755 0.137036 0.187965 0.709578 322
2 0.330615 0.731908 0.15862 0.23784 0.833569 288
2 0.0540225 0.374789 0.0804313 0.128929 0.749503 328
2 0.286487 0.860386 0.176114 0.194585 0.633608 339
2 0.0273707 0.399795 0.0540067 0.134599 0.818312 340
2 0.677959 0.653032 0.132016 0.129651 0.74553 341
2 0.264794 0.948068 0.222825 0.0956585 0.541178 342
2 0.0602514 0.376034 0.0692586 0.122651 0.650337 345
2 0.295918 0.847872 0.159609 0.172909 0.198555 346
2 0.362927 0.538498 0.153484 0.298125 0.60224 306
2 0.103094 0.345838 0.0657197 0.111513 0.828087 307
2 0.143609 0.32862 0.0610752 0.0949611 0.685018 347
