2 0.254314 0.293617 0.0326139 0.0489362 0.106775 3
2 0.249442 0.294073 0.0340249 0.0422804 0.174462 13
2 0.199298 0.312102 0.0875837 0.0799138 0.155747 21
2 0.699226 0.743719 0.166424 0.262735 0.828374 22
2 0.717927 0.929582 0.191877 0.121102 0.846177 23
2 0.395421 0.459845 0.102694 0.184995 0.529773 55
2 0.631977 0.638269 0.126818 0.204032 0.828175 57
2 0.216771 0.306999 0.0491228 0.0787287 0.4591 52
2 0.219372 0.305531 0.0556325 0.0790521 0.440122 32
7 0.648544 0.456685 0.143851 0.281009 0.483429 16
2 0.128762 0.335626 0.0842071 0.10398 0.874274 70
2 0.295068 0.895998 0.190374 0.203835 0.921613 8
2 0.355156 0.778848 0.169083 0.266379 0.847351 26
2 0.714433 0.355174 0.0705442 0.120419 0.634125 74
2 0.375341 0.534449 0.0966973 0.148103 0.746957 80
2 0.577934 0.387321 0.0505064 0.126972 0.541404 92
2 0.376286 0.524486 0.0996312 0.122871 0.336633 97
2 0.572155 0.347698 0.0613763 0.0904545 0.124034 98
2 0.0375394 0.399154 0.0743353 0.163648 0.759023 99
2 0.346059 0.618192 0.13591 0.19182 0.733096 100
2 0.179069 0.312617 0.0496496 0.079749 0.691582 53
