2 0.251051 0.303001 0.045752 0.0559472 0.366652 220
2 0.290793 0.293419 0.0477564 0.0391468 0.120857 225
2 0.647383 0.569594 0.132414 0.202575 0.680191 233
2 0.638374 0.798643 0.182053 0.258357 0.920837 219
2 0.172971 0.316407 0.0562442 0.0872099 0.739886 270
2 0.210238 0.301378 0.0487702 0.0887111 0.527057 272
2 0.251111 0.306857 0.0466132 0.0657401 0.138521 283
2 0.212751 0.314692 0.0439532 0.0735454 0.435353 290
2 0.672586 0.658289 0.135077 0.199887 0.75788 271
2 0.244993 0.307266 0.0337148 0.0644582 0.153582 248
2 0.297444 0.7921 0.167554 0.164387 0.590887 297
2 0.129141 0.334325 0.0604474 0.0987075 0.811836 298
2 0.217483 0.927558 0.214345 0.13365 0.771823 302
2 0.309189 0.914713 0.165803 0.164806 0.713883 265
2 0.426249 0.341156 0.112537 0.124951 0.256097 304
2 0.367469 0.479726 0.137756 0.204236 0.332207 306
2 0.36652 0.518377 0.141401 0.287049 0.731551 313
2 0.643874 0.552249 0.130404 0.178744 0.429509 314
2 0.332688 0.919268 0.119382 0.158853 0.12987 237
2 0.669349 0.641355 0.131843 0.165015 0.678367 322
2 0.343171 0.687669 0.152076 0.226231 0.838024 288
2 0.299638 0.774675 0.150471 0.138141 0.110198 327
2 0.0385262 0.39092 0.0770524 0.136324 0.880756 328
2 0.0869278 0.356346 0.0667624 0.124188 0.80908 307
2 0.551866 0.457003 0.0321014 0.12353 0.364842 334
2 0.0883017 0.358728 0.0619657 0.112244 0.767368 337
2 0.294354 0.801241 0.175623 0.188818 0.780726 339
2 0.172036 0.314482 0.0543818 0.083898 0.314855 336
2 0.0163617 0.425181 0.0327233 0.13719 0.80317 340
2 0.670713 0.632392 0.126535 0.134196 0.343211 341
