2 0.325222 0.734321 0.166622 0.277023 0.854215 55
7 0.742622 0.87653 0.274495 0.230861 0.583364 16
2 0.25314 0.301559 0.0442104 0.0351646 0.380083 70
2 0.275209 0.917018 0.177039 0.156252 0.899623 80
2 0.610793 0.445687 0.089854 0.16215 0.162855 98
2 0.206773 0.302788 0.0576428 0.0940499 0.144796 99
2 0.396906 0.385164 0.0854266 0.100627 0.114413 110
2 0.629883 0.572011 0.113223 0.187217 0.853646 120
2 0.374067 0.508153 0.115991 0.183762 0.580303 123
2 0.138365 0.330083 0.068776 0.10925 0.253839 140
2 0.834991 0.526983 0.124043 0.184221 0.870798 74
2 0.598403 0.388183 0.0776361 0.114771 0.474197 148
2 0.254565 0.303396 0.0443698 0.0408483 0.421065 144
2 0.0406631 0.330388 0.077114 0.117744 0.652426 157
2 0.35069 0.649121 0.137975 0.221849 0.569876 158
2 0.141937 0.327897 0.0596166 0.107947 0.485315 162
2 0.0735312 0.360493 0.0780182 0.119739 0.91493 156
2 0.61631 0.436199 0.0862245 0.133726 0.747037 166
2 0.673628 0.670862 0.138694 0.208155 0.866028 164
2 0.137258 0.323601 0.0677186 0.108149 0.643796 160
5 0.428082 0.329063 0.0901125 0.216341 0.516318 168
2 0.743813 0.875442 0.271503 0.235817 0.654058 169
2 0.131329 0.328239 0.0848503 0.10714 0.359342 150
