2 0.250402 0.307845 0.0437219 0.0507282 0.483238 220
2 0.686492 0.829369 0.180878 0.295582 0.861803 233
2 0.252123 0.300692 0.0383876 0.0395519 0.376796 272
2 0.198004 0.310973 0.0682926 0.0895917 0.309773 298
2 0.440043 0.406144 0.061563 0.13491 0.475822 304
2 0.183629 0.314869 0.0982044 0.0976098 0.159698 307
2 0.284563 0.830795 0.216475 0.307737 0.642994 350
2 0.322182 0.701421 0.164585 0.294301 0.642991 306
2 0.383019 0.580852 0.121407 0.209904 0.747706 352
2 0.401003 0.407396 0.114826 0.134061 0.178592 353
2 0.132088 0.326111 0.0582091 0.0900845 0.581634 356
2 0.251352 0.310871 0.0461339 0.0593764 0.171532 362
2 0.602944 0.421285 0.0939121 0.15232 0.517074 365
2 0.0831436 0.365547 0.0582106 0.118841 0.684781 369
2 0.201735 0.310225 0.0541782 0.0817763 0.345449 371
2 0.0862016 0.354725 0.0618612 0.113633 0.586697 372
2 0.639368 0.447599 0.0861839 0.103547 0.48964 376
2 0.767204 0.977194 0.153986 0.0393807 0.54415 388
2 0.38576 0.412039 0.0983507 0.138406 0.575148 392
2 0.768061 0.971599 0.153483 0.0409007 0.488118 271
2 0.146963 0.324302 0.0954994 0.0975006 0.436705 345
7 0.0319598 0.35701 0.0638825 0.237595 0.709509 395
2 0.0784095 0.367103 0.0483279 0.120505 0.506482 387
2 0.0327142 0.356117 0.0611859 0.235799 0.477338 397
2 0.385585 0.564467 0.11986 0.244406 0.546441 398
2 0.383364 0.606257 0.121206 0.16225 0.726452 399
