2 0.594848 0.549791 0.114156 0.185199 0.834505 1
2 0.235827 0.916132 0.217208 0.150629 0.824611 2
2 0.114293 0.346022 0.0807521 0.116579 0.802675 3
2 0.322297 0.892717 0.166304 0.208438 0.834231 4
2 0.675221 0.835205 0.178841 0.309512 0.834368 5
2 0.364248 0.67035 0.16331 0.22423 0.886833 7
2 0.377015 0.511119 0.10832 0.157674 0.729477 8
2 0.225483 0.306971 0.0537794 0.074199 0.273194 10
2 0.633854 0.470057 0.0953391 0.11929 0.149583 11
7 0.158365 0.302452 0.0909457 0.130756 0.288247 13
5 0.608409 0.299446 0.0854516 0.166184 0.504254 16
2 0.041223 0.381715 0.0824461 0.142001 0.769352 21
2 0.601996 0.402029 0.096706 0.110563 0.515968 22
2 0.633434 0.483594 0.0993071 0.153896 0.525217 23
2 0.412294 0.470716 0.091481 0.159093 0.716412 26
2 0.389228 0.487847 0.108584 0.139377 0.538484 29
