2 0.239986 0.305252 0.0354662 0.0648883 0.475135 3
2 0.240894 0.300228 0.0329843 0.06379 0.238134 13
2 0.200737 0.305587 0.0532945 0.0848794 0.15068 21
2 0.681722 0.668148 0.148505 0.228991 0.79448 22
2 0.685718 0.866728 0.179663 0.25092 0.862452 23
2 0.396871 0.428126 0.102088 0.161688 0.442384 55
2 0.626662 0.586036 0.117547 0.177644 0.852218 57
2 0.203585 0.307733 0.051698 0.0819318 0.342721 52
2 0.103406 0.343911 0.0826047 0.102094 0.294379 60
2 0.667503 0.622274 0.126688 0.145346 0.12745 66
2 0.201534 0.312413 0.0506662 0.0877283 0.450652 32
7 0.642699 0.425504 0.142009 0.262034 0.511962 16
2 0.0904179 0.356463 0.0808245 0.106444 0.883143 70
2 0.322182 0.816043 0.162855 0.266655 0.880271 8
2 0.368251 0.695523 0.146823 0.237074 0.83678 26
2 0.614048 0.585074 0.0968349 0.18187 0.216325 73
2 0.714876 0.347004 0.0453459 0.0988498 0.269719 74
2 0.171663 0.316067 0.0524497 0.0840736 0.153389 53
2 0.352757 0.562761 0.121971 0.161765 0.646114 80
2 0.158661 0.317719 0.0563703 0.0890929 0.663047 68
2 0.568647 0.375864 0.048078 0.109133 0.359908 92
2 0.250194 0.934851 0.206716 0.111775 0.800392 29
2 0.238408 0.934351 0.209378 0.117466 0.474597 90
5 0.644618 0.422727 0.137078 0.256123 0.476755 94
2 0.341068 0.739676 0.124697 0.160882 0.132464 95
2 0.381654 0.508802 0.0888595 0.134273 0.656741 97
2 0.570705 0.372298 0.0548732 0.11581 0.61494 98
