2 0.268453 0.300084 0.0265221 0.0420133 0.199048 220
2 0.639641 0.665862 0.144644 0.238185 0.818646 233
2 0.688236 0.926325 0.224717 0.129158 0.826158 219
2 0.251926 0.297356 0.040969 0.0592814 0.267124 272
2 0.244511 0.2958 0.0393083 0.0632549 0.304693 290
2 0.180187 0.316172 0.051754 0.0899902 0.692932 298
2 0.401538 0.366781 0.0822667 0.112281 0.34193 304
2 0.278411 0.873417 0.188142 0.243992 0.871696 288
2 0.0529086 0.364383 0.0957299 0.116672 0.744982 340
2 0.101033 0.345916 0.0665367 0.105065 0.183849 345
2 0.139316 0.325436 0.05862 0.100653 0.646341 307
2 0.219419 0.311618 0.0415205 0.0806105 0.620548 270
2 0.338674 0.643242 0.169837 0.304727 0.76033 350
2 0.373268 0.51327 0.126036 0.182289 0.549608 306
2 0.391715 0.480722 0.100083 0.171304 0.431444 352
2 0.455879 0.372309 0.0496744 0.117516 0.55371 353
2 0.704838 0.782526 0.155606 0.176495 0.825862 354
2 0.0935484 0.344503 0.0774497 0.115427 0.494783 356
2 0.705372 0.808348 0.159848 0.229019 0.817169 271
2 0.0601346 0.366127 0.0812423 0.114589 0.801564 328
2 0.110051 0.358756 0.0455033 0.0787934 0.229608 361
2 0.22046 0.308773 0.045829 0.0716171 0.481852 362
2 0.612798 0.386178 0.0823464 0.0702593 0.553052 365
