2 0.249574 0.302372 0.04576 0.0479288 0.125116 220
2 0.679588 0.816229 0.173608 0.287666 0.873792 233
2 0.247585 0.298151 0.0377585 0.044088 0.395251 272
2 0.194935 0.310381 0.0666491 0.0867139 0.46275 298
2 0.445972 0.40529 0.0530605 0.124673 0.622868 304
2 0.183878 0.314728 0.094133 0.0911763 0.273723 307
2 0.286307 0.822216 0.208161 0.32549 0.723437 350
2 0.33369 0.686268 0.148083 0.29584 0.753944 306
2 0.384637 0.580995 0.11611 0.187699 0.782013 352
2 0.41622 0.398197 0.11155 0.13575 0.360669 353
2 0.128829 0.329147 0.0575246 0.0969907 0.76177 356
2 0.129843 0.324944 0.0636654 0.0943542 0.643583 328
2 0.247424 0.309678 0.039756 0.0606745 0.384744 362
2 0.60531 0.401776 0.0968564 0.113476 0.44416 365
2 0.074251 0.367909 0.0560335 0.123502 0.448751 369
2 0.195972 0.311268 0.0532578 0.0843351 0.270365 371
2 0.0797468 0.356489 0.065164 0.117469 0.53092 372
2 0.639006 0.444512 0.0915508 0.105901 0.531161 376
2 0.765658 0.965677 0.176081 0.0681635 0.785051 388
2 0.39024 0.414788 0.100293 0.146502 0.510429 392
2 0.762324 0.961502 0.16774 0.063521 0.714017 271
2 0.138224 0.324598 0.0817707 0.0980925 0.570926 345
2 0.0278703 0.36194 0.0544263 0.246187 0.669618 395
2 0.070869 0.372951 0.0510732 0.117572 0.745013 387
