2 0.246289 0.302699 0.0430558 0.0650688 0.135573 220
2 0.275154 0.299811 0.0225366 0.0373652 0.12615 225
7 0.618114 0.458447 0.127565 0.262088 0.404482 233
2 0.627441 0.735353 0.164459 0.236667 0.888133 219
2 0.248253 0.966336 0.196028 0.0656057 0.12951 266
2 0.158413 0.32069 0.0626576 0.0928277 0.571245 270
2 0.194257 0.308411 0.0512588 0.0948084 0.619675 272
2 0.736568 0.924692 0.254284 0.142579 0.794653 285
2 0.237212 0.311658 0.0576561 0.084047 0.473317 283
2 0.19775 0.312964 0.0458415 0.0873937 0.337564 290
2 0.668519 0.616398 0.119283 0.201635 0.775647 271
2 0.235724 0.306975 0.0502914 0.0802944 0.449227 248
2 0.319372 0.725191 0.1605 0.172102 0.727168 297
2 0.105286 0.343815 0.066711 0.101326 0.794129 298
2 0.249625 0.879503 0.2061 0.227268 0.800119 302
2 0.340509 0.877042 0.131472 0.242046 0.155508 265
2 0.423223 0.343236 0.099865 0.120332 0.310085 304
2 0.375612 0.487941 0.132552 0.256101 0.518665 306
2 0.375828 0.451723 0.132735 0.181564 0.578698 313
2 0.642604 0.528898 0.115144 0.180117 0.642425 314
2 0.324351 0.871351 0.163377 0.249289 0.614082 237
2 0.663759 0.616689 0.123535 0.186732 0.524254 322
2 0.355108 0.630803 0.140239 0.208685 0.767822 288
2 0.320124 0.722726 0.151547 0.168022 0.602851 327
2 0.0262295 0.414537 0.0520602 0.141842 0.842816 328
2 0.0627141 0.374418 0.0694173 0.122323 0.810547 307
