2 0.253844 0.310094 0.0474149 0.0540112 0.118677 220
2 0.689102 0.838925 0.183953 0.288498 0.862962 233
2 0.255295 0.303411 0.0445169 0.047663 0.36365 272
2 0.193563 0.311262 0.0763786 0.0872364 0.153076 298
2 0.439625 0.406623 0.0637369 0.140436 0.512066 304
2 0.173424 0.314459 0.115057 0.101837 0.158615 307
2 0.275447 0.838751 0.225903 0.294835 0.778643 350
2 0.317529 0.714443 0.170423 0.299346 0.630335 306
2 0.385343 0.408846 0.0933037 0.12522 0.256 353
2 0.136138 0.326473 0.0567774 0.089272 0.498641 356
2 0.25912 0.30935 0.0596586 0.0609699 0.143484 362
2 0.60622 0.418654 0.0951775 0.140491 0.531526 365
2 0.0865714 0.359341 0.0554328 0.1204 0.64595 369
2 0.206012 0.310646 0.0515247 0.0833584 0.380575 371
2 0.0913863 0.354126 0.0606314 0.115612 0.639318 372
2 0.641058 0.454279 0.0931661 0.109193 0.553374 376
2 0.386244 0.420188 0.0973803 0.144773 0.674918 392
2 0.151892 0.321813 0.0897438 0.0951926 0.380434 345
7 0.0345688 0.350695 0.068919 0.234376 0.751484 395
2 0.0853833 0.36521 0.0481713 0.11428 0.506747 387
2 0.0368528 0.352626 0.0704668 0.23134 0.301941 397
2 0.383836 0.595126 0.11967 0.204788 0.765624 399
2 0.141648 0.324129 0.0704368 0.0930387 0.366827 328
2 0.382809 0.576855 0.121671 0.239209 0.598509 352
