2 0.265041 0.302043 0.0299182 0.0391946 0.505778 212
2 0.673049 0.900205 0.196082 0.185174 0.899816 199
2 0.189205 0.317456 0.0441188 0.0881533 0.392875 220
2 0.229067 0.303582 0.0493555 0.0847035 0.256667 225
7 0.602493 0.351235 0.113084 0.156658 0.150409 233
2 0.335399 0.581855 0.156541 0.184455 0.554276 237
2 0.228212 0.299073 0.0480678 0.0793583 0.166269 254
2 0.612124 0.497083 0.106393 0.0813686 0.238382 219
2 0.121697 0.341946 0.0498499 0.0986384 0.558401 257
2 0.22804 0.308578 0.0481749 0.0760877 0.522241 228
2 0.25528 0.862345 0.203361 0.247052 0.517845 263
2 0.343854 0.698929 0.142741 0.227323 0.843027 266
2 0.248247 0.885498 0.212095 0.218895 0.773154 267
2 0.0589972 0.38694 0.0826472 0.124853 0.820235 270
2 0.27333 0.779286 0.168278 0.206752 0.75384 265
2 0.102308 0.373596 0.0337757 0.0887859 0.211483 272
2 0.0945177 0.343117 0.0819326 0.105965 0.128315 273
2 0.652955 0.473482 0.092977 0.131041 0.53237 277
2 0.277129 0.81098 0.171607 0.269082 0.499075 261
2 0.640977 0.690423 0.175832 0.312312 0.796757 285
2 0.153721 0.321743 0.0556386 0.0959646 0.574512 283
2 0.384509 0.484373 0.0955767 0.157477 0.422438 288
2 0.116733 0.337196 0.0605238 0.101284 0.477602 290
2 0.268129 0.792826 0.181399 0.228755 0.711582 291
2 0.643575 0.463635 0.0921277 0.11798 0.640044 271
2 0.158384 0.326027 0.0513903 0.0920192 0.189151 248
2 0.377203 0.480348 0.110879 0.165305 0.616644 297
2 0.606238 0.561358 0.117669 0.214135 0.660591 223
