2 0.285882 0.890424 0.207036 0.213071 0.874712 55
2 0.282688 0.296275 0.0389658 0.0303112 0.168763 70
2 0.245923 0.287068 0.0524954 0.0552229 0.314419 99
2 0.384196 0.489915 0.1105 0.150697 0.658846 110
2 0.332332 0.703841 0.134893 0.227601 0.780576 123
2 0.916836 0.673447 0.163281 0.23963 0.863573 74
2 0.61539 0.43396 0.0928372 0.136301 0.774394 148
2 0.0628762 0.313643 0.0668003 0.0995034 0.623072 157
2 0.302237 0.773307 0.171424 0.203787 0.538467 158
2 0.636025 0.502186 0.102003 0.161826 0.803377 166
2 0.698496 0.860654 0.179753 0.263538 0.871003 164
7 0.410979 0.366022 0.103688 0.245185 0.623828 168
2 0.300212 0.759755 0.16257 0.173846 0.752011 173
2 0.300109 0.763222 0.162213 0.17908 0.541429 177
2 0.360536 0.593512 0.127893 0.199543 0.804345 178
2 0.625231 0.465296 0.10623 0.194443 0.111934 180
2 0.189031 0.30613 0.0547234 0.09192 0.52869 150
2 0.651329 0.684201 0.139684 0.218166 0.835046 120
2 0.143869 0.325693 0.0766882 0.100012 0.838869 156
2 0.331023 0.692592 0.140722 0.212141 0.482826 186
2 0.0187144 0.334565 0.0356868 0.115456 0.627155 187
2 0.0167534 0.357647 0.0335069 0.158016 0.339038 190
2 0.192983 0.305523 0.0557905 0.0919307 0.639851 140
