2 0.245889 0.302258 0.0549914 0.0555272 0.409106 220
2 0.670663 0.779741 0.168372 0.271872 0.878624 233
2 0.243083 0.300746 0.0471716 0.0530654 0.450138 272
2 0.199448 0.310979 0.0383329 0.0830169 0.195148 298
2 0.449099 0.406257 0.049209 0.103124 0.431178 304
2 0.117794 0.327488 0.0713703 0.102383 0.669506 345
2 0.186262 0.314016 0.0592272 0.08918 0.388452 307
2 0.294178 0.795703 0.204715 0.349594 0.791214 350
2 0.339949 0.649343 0.147727 0.275167 0.660936 306
2 0.386767 0.558475 0.112097 0.179828 0.651624 352
2 0.437892 0.392489 0.0704289 0.128672 0.318468 353
2 0.127907 0.327414 0.0917384 0.102958 0.657798 356
2 0.117242 0.332753 0.0628645 0.10288 0.659192 328
2 0.240486 0.306469 0.0447256 0.0605924 0.470191 362
2 0.599572 0.410185 0.0913008 0.151098 0.566802 365
2 0.0541538 0.378173 0.0630694 0.131097 0.562094 369
2 0.183286 0.310435 0.0656465 0.084941 0.528609 371
2 0.0624734 0.3638 0.0725852 0.119849 0.427065 372
2 0.622856 0.461441 0.111062 0.0836311 0.4963 376
2 0.0599273 0.373806 0.0736352 0.126517 0.45747 387
2 0.758979 0.929782 0.205192 0.119848 0.721599 388
2 0.0499643 0.383838 0.0601328 0.126086 0.756459 391
2 0.391491 0.403728 0.0962263 0.137145 0.446401 392
2 0.750639 0.933809 0.203156 0.121803 0.785621 271
