2 0.290221 0.811292 0.177556 0.267471 0.902468 110
2 0.684786 0.869519 0.164411 0.246288 0.883048 166
2 0.351282 0.682382 0.151101 0.229705 0.848657 168
2 0.285621 0.294006 0.0303071 0.0315269 0.173016 140
2 0.671093 0.658547 0.147754 0.204153 0.894041 98
2 0.256735 0.302549 0.0408535 0.0425624 0.447003 200
2 0.0940133 0.358328 0.0813201 0.11533 0.840868 212
2 0.381235 0.533378 0.151764 0.354026 0.226908 194
7 0.629025 0.484219 0.126604 0.225067 0.729179 199
2 0.131707 0.316176 0.0778322 0.0856255 0.195209 217
2 0.546264 0.363249 0.0393935 0.109755 0.36436 219
2 0.0318033 0.390084 0.0629557 0.163566 0.741275 220
2 0.133084 0.324547 0.073624 0.0941218 0.749708 202
