2 0.245843 0.303686 0.0557056 0.0582402 0.396523 220
2 0.667587 0.772894 0.163443 0.276922 0.819875 233
2 0.243145 0.302164 0.0491243 0.0564982 0.452376 272
2 0.20324 0.311032 0.0316618 0.082498 0.212392 298
2 0.449126 0.399908 0.048809 0.112321 0.430335 304
2 0.111882 0.336316 0.0795905 0.097631 0.125764 340
2 0.117556 0.329781 0.0734542 0.104608 0.467252 345
2 0.182228 0.314629 0.0599424 0.0892357 0.398703 307
2 0.295535 0.78942 0.202038 0.353434 0.733396 350
2 0.344792 0.643512 0.141792 0.273058 0.632406 306
2 0.387533 0.555111 0.109696 0.183352 0.691847 352
2 0.443247 0.392656 0.0622172 0.126372 0.164611 353
2 0.126892 0.328588 0.0919592 0.105586 0.55213 356
2 0.114275 0.334592 0.0645321 0.103378 0.717692 328
2 0.241343 0.306379 0.0482706 0.0612442 0.501805 362
2 0.599784 0.410075 0.0928979 0.148948 0.512533 365
2 0.0455749 0.386524 0.0610541 0.125679 0.713733 369
2 0.182174 0.31271 0.0684759 0.088839 0.529341 371
2 0.0590569 0.367117 0.0739393 0.121046 0.596019 372
2 0.622183 0.446679 0.108002 0.0988183 0.616449 376
2 0.0571479 0.375354 0.0768431 0.12769 0.588021 387
2 0.757633 0.927145 0.208038 0.133275 0.811699 388
2 0.0471319 0.378049 0.0577395 0.130391 0.619386 391
2 0.392473 0.399152 0.0945288 0.129541 0.532518 392
2 0.743371 0.930247 0.19829 0.139505 0.732378 271
