2 0.238918 0.309276 0.0412537 0.0739765 0.35387 212
2 0.224029 0.884248 0.252735 0.22683 0.761396 194
2 0.67318 0.818282 0.225554 0.349209 0.44479 199
2 0.265474 0.302186 0.0283432 0.0303815 0.28505 217
2 0.149392 0.323642 0.0701689 0.0950542 0.265663 220
2 0.244665 0.308567 0.0558373 0.0735612 0.114382 202
2 0.195893 0.302338 0.0540812 0.109093 0.474882 225
2 0.619272 0.570035 0.151858 0.30189 0.117516 227
5 0.594653 0.348011 0.0976636 0.190227 0.435021 233
2 0.35269 0.478738 0.126133 0.162218 0.265786 237
2 0.315847 0.659829 0.14121 0.199439 0.388595 250
2 0.195248 0.316825 0.0547757 0.0880146 0.440088 254
2 0.165028 0.32135 0.0437068 0.0838169 0.294235 255
2 0.591613 0.480147 0.0987077 0.167654 0.169952 219
2 0.06031 0.37694 0.0719992 0.115801 0.869401 257
2 0.138032 0.331767 0.0426726 0.106019 0.63163 234
2 0.196919 0.308133 0.0541781 0.104995 0.300362 228
2 0.361316 0.596249 0.12803 0.198316 0.365418 261
2 0.292266 0.768462 0.16892 0.280282 0.717577 263
2 0.372167 0.593849 0.114103 0.199309 0.804703 266
2 0.098986 0.345489 0.0667741 0.106761 0.755082 260
2 0.135772 0.335874 0.0429074 0.0995153 0.466559 258
2 0.314875 0.631407 0.132221 0.140772 0.143263 267
2 0.675252 0.875624 0.226284 0.237025 0.638455 269
2 0.0161573 0.434131 0.0323147 0.130122 0.630913 270
2 0.638185 0.418727 0.0782255 0.0922982 0.612523 271
2 0.621296 0.592619 0.152432 0.268806 0.766631 223
2 0.319746 0.643973 0.137651 0.170307 0.70019 265
2 0.0248711 0.418457 0.0497422 0.113391 0.534492 272
2 0.0250155 0.404927 0.0490782 0.147951 0.544226 273
2 0.224736 0.924299 0.252164 0.1473 0.501652 274
2 0.260327 0.878453 0.185914 0.222317 0.580706 275
