2 0.269763 0.301282 0.0343179 0.0412801 0.331823 3
2 0.268406 0.300467 0.0327817 0.0499969 0.158931 13
2 0.211203 0.312402 0.0497081 0.0787136 0.318062 21
2 0.734726 0.874119 0.197688 0.236102 0.847418 22
2 0.392063 0.500263 0.110438 0.190334 0.734551 55
2 0.650853 0.743784 0.161477 0.228017 0.839699 57
2 0.235181 0.309308 0.0421689 0.0706933 0.238504 52
2 0.23643 0.303474 0.0385952 0.0611364 0.407858 32
5 0.663075 0.526117 0.166482 0.335121 0.531826 16
2 0.166211 0.318425 0.070126 0.0930087 0.857092 70
2 0.312535 0.893254 0.205918 0.201082 0.874321 26
2 0.727301 0.364819 0.0809933 0.126725 0.270232 74
2 0.35461 0.583732 0.117089 0.151627 0.769339 80
2 0.593098 0.411197 0.068902 0.128345 0.505931 92
2 0.354774 0.610355 0.115628 0.102694 0.240356 97
2 0.576435 0.349914 0.0692288 0.120527 0.466552 98
2 0.0749872 0.359939 0.0897228 0.143692 0.831306 99
2 0.204962 0.301405 0.0409675 0.0577019 0.176772 53
2 0.32364 0.730476 0.153843 0.230891 0.781225 107
2 0.419917 0.345928 0.0845964 0.113906 0.511566 110
2 0.598177 0.410432 0.0741185 0.139339 0.619823 120
2 0.391047 0.482857 0.109674 0.148858 0.193487 123
2 0.730167 0.375632 0.0789082 0.120421 0.747304 125
2 0.321387 0.719122 0.150806 0.211592 0.730846 100
