2 0.262225 0.298824 0.0334053 0.0380951 0.333179 3
2 0.260825 0.29973 0.033206 0.0437216 0.131833 13
2 0.19386 0.310605 0.0521978 0.0742755 0.156159 21
2 0.718658 0.837399 0.184837 0.287718 0.877106 22
2 0.392685 0.488596 0.106845 0.182349 0.721379 55
2 0.641529 0.698167 0.141137 0.214756 0.859102 57
2 0.228394 0.307243 0.0450248 0.0753571 0.309477 52
2 0.22823 0.29778 0.0443681 0.0620216 0.222728 32
7 0.65661 0.513885 0.15862 0.344244 0.568749 16
2 0.151772 0.325364 0.0790505 0.103605 0.913297 70
2 0.270563 0.957115 0.171236 0.0817624 0.787087 8
2 0.329191 0.859949 0.187679 0.271038 0.862359 26
2 0.722282 0.367575 0.0774064 0.122727 0.707803 74
2 0.362037 0.575633 0.108767 0.169246 0.683629 80
2 0.58147 0.402658 0.0491423 0.123518 0.769786 92
2 0.36483 0.57344 0.108118 0.140837 0.603367 97
2 0.574179 0.34631 0.065435 0.112566 0.473679 98
2 0.0577107 0.37649 0.093624 0.151119 0.861457 99
2 0.333756 0.667086 0.141223 0.185462 0.828781 100
2 0.192434 0.299893 0.0477907 0.0609562 0.376164 53
2 0.33471 0.68184 0.147785 0.209876 0.752749 107
2 0.429782 0.334356 0.0797275 0.113996 0.618154 110
2 0.322827 0.848479 0.164487 0.265877 0.658848 116
2 0.269643 0.954951 0.167374 0.0900978 0.655122 111
