2 0.261007 0.30408 0.0559831 0.0459922 0.230578 298
2 0.258071 0.306532 0.0408888 0.0452543 0.280207 356
2 0.654463 0.646554 0.155736 0.256721 0.758061 365
2 0.663466 0.884535 0.180945 0.211749 0.841424 376
2 0.389214 0.591418 0.118443 0.197567 0.835441 404
7 0.195244 0.272609 0.0624865 0.146843 0.598105 395
2 0.247714 0.889615 0.208344 0.20476 0.871975 415
2 0.6988 0.762211 0.151071 0.246443 0.847338 416
2 0.617514 0.466748 0.10129 0.142098 0.331651 422
2 0.618844 0.461159 0.102569 0.141217 0.759878 410
2 0.32417 0.661161 0.151653 0.253826 0.853186 353
2 0.570755 0.385942 0.0706678 0.117418 0.606631 436
2 0.0444258 0.371024 0.0859434 0.134592 0.779242 441
2 0.368158 0.464817 0.0974462 0.0759225 0.128636 442
2 0.37757 0.589678 0.137974 0.19908 0.7266 304
2 0.129049 0.338392 0.0841355 0.102344 0.702256 423
2 0.132751 0.333997 0.082033 0.106297 0.61969 433
2 0.0695523 0.310027 0.0553841 0.0866352 0.2263 452
