2 0.58734 0.510984 0.10834 0.174854 0.840458 1
2 0.264479 0.854555 0.19209 0.278305 0.874425 2
2 0.0819583 0.366486 0.0898356 0.127206 0.786754 3
2 0.344242 0.800234 0.144529 0.246295 0.883287 4
2 0.65907 0.736102 0.168179 0.301021 0.835239 5
2 0.377244 0.607343 0.137033 0.203189 0.901689 7
2 0.386911 0.466374 0.10713 0.113165 0.63809 8
2 0.642185 0.614597 0.134347 0.186717 0.737971 9
2 0.198967 0.308695 0.051566 0.0820899 0.429743 10
2 0.62848 0.446912 0.0859417 0.120962 0.634858 11
2 0.748417 0.93992 0.287073 0.117035 0.607019 12
7 0.137561 0.314429 0.0799295 0.141552 0.564389 13
5 0.597803 0.273713 0.0797979 0.122016 0.577546 16
2 0.641455 0.587935 0.126582 0.135145 0.110984 17
2 0.0216935 0.413068 0.0422821 0.15361 0.657707 21
2 0.589704 0.377176 0.102528 0.097417 0.604015 22
2 0.62886 0.454206 0.091654 0.132839 0.626929 23
