2 0.221214 0.311085 0.0350843 0.0734006 0.359218 220
2 0.252497 0.301547 0.0406438 0.0671509 0.159987 225
7 0.609837 0.3925 0.113704 0.186081 0.539136 233
2 0.291589 0.69434 0.155205 0.19913 0.414501 237
2 0.618372 0.618421 0.137528 0.199066 0.881487 219
2 0.302212 0.853542 0.182497 0.27022 0.832367 266
2 0.115847 0.347558 0.0712713 0.107181 0.843035 270
2 0.142926 0.325868 0.0805599 0.111091 0.524859 272
2 0.658133 0.517808 0.101499 0.130909 0.269853 277
2 0.670543 0.820735 0.213461 0.331735 0.8472 285
2 0.194467 0.310618 0.0545745 0.0857237 0.398512 283
2 0.370042 0.535935 0.115173 0.164275 0.710688 288
2 0.143065 0.323396 0.0676043 0.107185 0.581087 290
2 0.659959 0.53655 0.103597 0.169366 0.698838 271
2 0.189705 0.31111 0.0465435 0.0853563 0.482719 248
2 0.34626 0.573262 0.116271 0.11205 0.529246 297
2 0.0395537 0.379656 0.0767528 0.121417 0.83865 298
2 0.292653 0.695738 0.158594 0.200995 0.766989 302
2 0.214661 0.928347 0.213837 0.12038 0.78384 261
2 0.363287 0.695786 0.11043 0.228299 0.40276 265
2 0.434197 0.326513 0.100415 0.105678 0.528189 304
2 0.38788 0.440742 0.118855 0.222898 0.678146 306
2 0.0118762 0.42389 0.0237523 0.164062 0.745203 307
