2 0.25165 0.293531 0.0303443 0.03524 0.13036 298
2 0.412466 0.509601 0.0884624 0.169805 0.686365 304
2 0.224735 0.307567 0.0453895 0.0745017 0.382819 356
2 0.646352 0.553196 0.140872 0.214938 0.594385 365
2 0.648237 0.721 0.143909 0.171298 0.722511 376
2 0.320373 0.742425 0.167497 0.210836 0.774779 352
2 0.66381 0.623244 0.131507 0.168497 0.389656 402
2 0.407126 0.510711 0.102181 0.176772 0.786488 404
7 0.159668 0.283879 0.0765221 0.169378 0.734774 395
2 0.0919453 0.358689 0.0654688 0.110527 0.699942 414
2 0.319165 0.723473 0.157031 0.173753 0.103615 415
2 0.312217 0.887453 0.185882 0.215439 0.841323 399
2 0.665412 0.641344 0.130644 0.205368 0.621989 416
2 0.602187 0.419516 0.0972291 0.129082 0.602291 422
2 0.0568216 0.382104 0.0894722 0.124621 0.877988 423
2 0.605206 0.403466 0.100688 0.136763 0.39539 410
2 0.0911866 0.351615 0.0647202 0.0959995 0.111752 433
2 0.348198 0.556039 0.125585 0.213213 0.819336 353
2 0.648004 0.727361 0.150939 0.198662 0.35139 434
2 0.648203 0.874963 0.174292 0.222315 0.717573 417
2 0.650019 0.696753 0.139547 0.14229 0.700326 435
2 0.723307 0.926982 0.252687 0.139663 0.678798 421
2 0.571392 0.371399 0.0758954 0.0914047 0.633085 436
