2 0.712106 0.882184 0.212958 0.216582 0.82458 365
7 0.25568 0.271862 0.0586976 0.101036 0.196093 395
2 0.651139 0.603602 0.127331 0.179065 0.859607 410
2 0.172087 0.312296 0.058292 0.0928508 0.302362 441
2 0.300015 0.720465 0.162306 0.205395 0.766331 442
5 0.2554 0.272889 0.0572725 0.0981907 0.317664 453
2 0.215443 0.311025 0.0513466 0.0889054 0.335368 423
2 0.149837 0.325395 0.0406234 0.105669 0.110715 456
2 0.149182 0.32837 0.0350714 0.100322 0.522115 462
2 0.102862 0.323905 0.0835899 0.141716 0.572554 471
2 0.413076 0.415733 0.0916206 0.138308 0.668448 476
2 0.573211 0.355415 0.0895538 0.151903 0.592376 478
2 0.0765959 0.364393 0.0806038 0.118769 0.887406 480
7 0.10068 0.326602 0.081731 0.138193 0.296791 483
2 0.324595 0.867862 0.174482 0.252132 0.882709 304
2 0.347623 0.664655 0.135892 0.216237 0.676154 488
7 0.55785 0.244988 0.0803551 0.197024 0.606339 491
2 0.603334 0.451275 0.110214 0.196102 0.537493 436
2 0.342845 0.659754 0.147838 0.191213 0.578161 493
2 0.602638 0.473541 0.106811 0.146471 0.555141 484
2 0.30523 0.70152 0.165426 0.167608 0.120955 495
2 0.0259516 0.318764 0.0519032 0.0917909 0.778267 496
2 0.236179 0.910607 0.230393 0.169661 0.854783 353
