2 0.277718 0.306845 0.0390985 0.0338582 0.133156 220
2 0.279511 0.305042 0.0390399 0.0293264 0.209191 272
2 0.213034 0.310337 0.0491263 0.0769332 0.432486 298
2 0.438092 0.449023 0.0658957 0.142925 0.706215 304
2 0.178169 0.306813 0.0467526 0.0759729 0.141703 307
2 0.278777 0.852473 0.209195 0.265922 0.862699 306
2 0.371334 0.440462 0.101646 0.122006 0.569599 353
2 0.195001 0.311109 0.0786386 0.0794855 0.170113 356
2 0.621204 0.464793 0.100804 0.168625 0.565697 365
2 0.243542 0.300577 0.0289086 0.0507375 0.207387 371
2 0.642975 0.531035 0.130843 0.170183 0.526747 376
2 0.37319 0.455503 0.108171 0.144102 0.618902 392
2 0.194221 0.316683 0.0787686 0.0870383 0.189932 345
2 0.21452 0.311295 0.0423286 0.0720263 0.302471 328
2 0.373669 0.58212 0.13174 0.175365 0.644903 352
2 0.652344 0.531893 0.10421 0.174821 0.778664 402
2 0.431964 0.445984 0.0784455 0.149756 0.670105 404
7 0.0922258 0.311412 0.094275 0.203253 0.838913 395
2 0.145266 0.32891 0.032438 0.104173 0.546336 369
2 0.73847 0.932855 0.174074 0.129857 0.567988 233
2 0.739022 0.932677 0.219376 0.125003 0.75212 407
2 0.587577 0.378735 0.0890895 0.12303 0.623827 410
2 0.016205 0.427687 0.0287832 0.134254 0.163511 412
2 0.748989 0.927059 0.212624 0.129107 0.716819 413
2 0.0138461 0.429391 0.0276923 0.140197 0.764338 414
2 0.374098 0.572301 0.127768 0.151881 0.568194 415
2 0.363159 0.706314 0.144885 0.235364 0.829965 399
