2 0.327788 0.69114 0.148647 0.231309 0.854412 110
2 0.674563 0.747884 0.151211 0.241804 0.889049 166
2 0.364854 0.606244 0.126858 0.205267 0.78529 168
2 0.284178 0.901586 0.204101 0.186265 0.874469 178
7 0.143188 0.304585 0.0941097 0.144747 0.479769 190
2 0.269909 0.297712 0.0303184 0.0391328 0.344067 140
2 0.662971 0.58542 0.130393 0.179025 0.842333 98
2 0.234826 0.302814 0.046653 0.0631141 0.56221 200
2 0.102891 0.340704 0.0733124 0.106068 0.725126 202
2 0.19798 0.318572 0.026794 0.0379031 0.177484 210
2 0.0450121 0.390654 0.0897804 0.129465 0.855045 212
2 0.378735 0.556747 0.13395 0.18394 0.251731 194
2 0.365555 0.587723 0.128429 0.159518 0.37312 215
2 0.615714 0.443304 0.11086 0.201992 0.536245 199
2 0.102216 0.33018 0.0765355 0.117318 0.272502 217
