2 0.620449 0.751002 0.157134 0.251122 0.894112 1
2 0.191228 0.309228 0.059655 0.0799712 0.548828 3
2 0.279176 0.958235 0.176512 0.0780003 0.585575 7
2 0.270907 0.296352 0.0277705 0.0408207 0.249045 10
2 0.190265 0.311295 0.0557007 0.0928812 0.571868 13
7 0.631286 0.336158 0.09995 0.176736 0.507103 16
2 0.147075 0.321999 0.0619427 0.104993 0.478168 21
2 0.647165 0.499893 0.119352 0.158668 0.661809 22
2 0.652916 0.618005 0.139126 0.194215 0.778886 23
2 0.374664 0.59387 0.120123 0.203501 0.775137 26
2 0.335789 0.681579 0.140655 0.217486 0.858992 29
2 0.381918 0.618244 0.10484 0.146867 0.133793 8
2 0.702086 0.948744 0.179336 0.0892984 0.798989 9
2 0.376049 0.445738 0.107225 0.109096 0.355127 47
2 0.0605253 0.361019 0.0765332 0.110351 0.839018 53
2 0.408829 0.367855 0.0914896 0.128449 0.590493 55
7 0.622087 0.335729 0.121517 0.175862 0.805153 56
2 0.593507 0.475413 0.0881884 0.135266 0.610535 57
2 0.109662 0.340597 0.0694522 0.1027 0.696337 52
2 0.0239969 0.408115 0.0477226 0.13226 0.86286 60
2 0.37629 0.565112 0.12062 0.212179 0.20794 45
