2 0.220936 0.30759 0.0547179 0.0765718 0.225564 298
2 0.433039 0.469783 0.070407 0.153975 0.367122 304
2 0.198062 0.299717 0.050015 0.0657299 0.121186 307
2 0.366144 0.475314 0.109946 0.144236 0.510702 353
2 0.210375 0.308738 0.0753104 0.0830228 0.532738 356
2 0.631494 0.498176 0.12094 0.194762 0.508678 365
2 0.258038 0.301287 0.0299738 0.0438852 0.510244 371
2 0.629377 0.624657 0.128141 0.149103 0.547835 376
2 0.366158 0.491663 0.11417 0.183065 0.722701 392
2 0.353718 0.627914 0.139979 0.16223 0.697464 352
2 0.654048 0.566864 0.114101 0.181403 0.65427 402
2 0.427485 0.468831 0.0791498 0.159315 0.708261 404
7 0.121397 0.296909 0.0878471 0.190441 0.812754 395
2 0.164448 0.324414 0.0255357 0.0979752 0.1111 369
2 0.590413 0.393375 0.0851831 0.1198 0.588102 410
2 0.035413 0.396005 0.070826 0.12866 0.84212 414
2 0.354383 0.642531 0.145653 0.197262 0.460486 415
2 0.346498 0.784832 0.169188 0.252496 0.854675 399
2 0.651474 0.551147 0.120408 0.147298 0.505103 416
2 0.626912 0.752432 0.159442 0.194237 0.495366 417
7 0.692416 0.84937 0.25361 0.284679 0.14612 421
2 0.592442 0.386934 0.0915984 0.131073 0.340375 422
2 0.0184694 0.434296 0.0369388 0.140744 0.828756 423
2 0.245103 0.911154 0.23007 0.166104 0.79038 306
