2 0.260812 0.295618 0.0332039 0.0389581 0.142697 3
2 0.258108 0.294502 0.0344787 0.0493312 0.190377 13
2 0.194312 0.311006 0.0591954 0.0755898 0.253663 21
2 0.710144 0.801898 0.177094 0.283123 0.889558 22
2 0.740418 0.978919 0.141531 0.0355774 0.34346 23
2 0.394096 0.477307 0.105571 0.184282 0.649466 55
2 0.635759 0.672471 0.134518 0.209727 0.8113 57
2 0.226302 0.305686 0.060552 0.0761518 0.165349 52
2 0.227282 0.305324 0.051365 0.0718719 0.265931 32
7 0.652903 0.484892 0.151646 0.299169 0.539081 16
2 0.144443 0.329191 0.0777581 0.100068 0.922888 70
2 0.285859 0.928406 0.207323 0.13333 0.812339 8
2 0.339207 0.831903 0.180256 0.276451 0.828824 26
2 0.719994 0.36284 0.0735854 0.11479 0.695347 74
2 0.366473 0.562363 0.107643 0.159105 0.645553 80
2 0.578809 0.398015 0.0463969 0.121666 0.629041 92
2 0.370476 0.5822 0.100405 0.148929 0.175506 97
2 0.573679 0.342645 0.0681665 0.111403 0.475919 98
2 0.0475083 0.38399 0.0949368 0.160235 0.817221 99
2 0.3387 0.633719 0.133195 0.15268 0.491481 100
2 0.188446 0.310609 0.0496853 0.075806 0.401418 53
2 0.338565 0.64215 0.138539 0.180662 0.769239 107
2 0.737283 0.977707 0.140721 0.0443134 0.140235 108
2 0.431362 0.338778 0.0740666 0.12243 0.55055 110
2 0.28193 0.927193 0.182291 0.137655 0.704793 111
