2 0.250262 0.298005 0.0310256 0.044078 0.175661 13
2 0.233177 0.308766 0.0461305 0.0668067 0.155707 21
2 0.385574 0.531676 0.121689 0.19599 0.77368 55
2 0.666218 0.843171 0.178541 0.257403 0.851222 57
2 0.239867 0.303008 0.0398135 0.0577916 0.11971 52
2 0.254206 0.296776 0.0338223 0.0421349 0.230296 32
7 0.674629 0.586662 0.185761 0.392644 0.420328 16
2 0.188967 0.313571 0.0646796 0.0887525 0.717084 70
2 0.342313 0.622425 0.12506 0.166481 0.830402 80
2 0.598418 0.434614 0.069202 0.140695 0.224348 92
2 0.582106 0.366699 0.072935 0.116932 0.544121 98
2 0.101346 0.33858 0.0914592 0.138142 0.704788 99
2 0.229941 0.311721 0.0428407 0.0751814 0.206366 53
2 0.427627 0.351436 0.0932787 0.10443 0.229851 110
2 0.606344 0.438789 0.0820294 0.141208 0.748689 120
2 0.401499 0.397211 0.0921526 0.078758 0.268646 123
2 0.296781 0.834657 0.180267 0.283619 0.89815 100
2 0.282169 0.959514 0.163036 0.0659631 0.80075 128
2 0.678792 0.595577 0.181762 0.404098 0.37023 131
2 0.0205269 0.407298 0.0409134 0.186956 0.675078 132
2 0.748155 0.939438 0.212181 0.110376 0.78638 135
2 0.279458 0.965206 0.1634 0.0643979 0.704539 26
2 0.0205616 0.420061 0.0402639 0.163063 0.777705 140
2 0.745892 0.391139 0.0839277 0.130858 0.749544 74
