2 0.243392 0.298903 0.0576499 0.0524314 0.169431 220
2 0.662293 0.750483 0.164572 0.264161 0.865867 233
2 0.254292 0.295701 0.0353296 0.0499828 0.104422 272
2 0.204032 0.311359 0.0276671 0.080006 0.259155 298
2 0.413917 0.384688 0.111724 0.137835 0.478252 304
2 0.104966 0.332487 0.0706005 0.104362 0.49403 340
2 0.107394 0.332894 0.0954612 0.106859 0.15606 345
2 0.175816 0.315523 0.0609116 0.0901834 0.678759 307
2 0.308769 0.757421 0.198944 0.348906 0.639487 350
2 0.351006 0.626282 0.133561 0.261014 0.56774 306
2 0.391445 0.53393 0.105062 0.187965 0.528269 352
2 0.447403 0.391502 0.0555701 0.122576 0.600438 353
2 0.116466 0.329813 0.0932036 0.107991 0.466358 356
2 0.100809 0.337844 0.0758437 0.0999648 0.388319 328
2 0.235042 0.307624 0.041821 0.067039 0.66637 362
2 0.619919 0.430291 0.103472 0.106555 0.669719 365
2 0.0310312 0.397689 0.0606105 0.125801 0.808964 369
2 0.181291 0.313693 0.0730279 0.0882593 0.439387 371
2 0.0448245 0.371405 0.0776089 0.116979 0.636713 372
2 0.620521 0.443215 0.105824 0.0847706 0.523468 376
2 0.740253 0.908688 0.197864 0.166023 0.82536 271
2 0.0406852 0.381125 0.0769776 0.122169 0.707381 387
2 0.73476 0.913089 0.179688 0.173822 0.744522 388
2 0.246394 0.965961 0.163847 0.067239 0.553725 288
