2 0.252391 0.299662 0.0350408 0.04258 0.454912 212
2 0.236395 0.928335 0.211691 0.133956 0.690645 194
2 0.661408 0.857549 0.180476 0.263748 0.75143 199
2 0.279703 0.302322 0.027236 0.026597 0.161548 217
2 0.178315 0.317013 0.0486832 0.0874004 0.173258 220
2 0.215372 0.304384 0.0513523 0.0881269 0.297855 225
5 0.598258 0.34529 0.104017 0.158276 0.420095 233
2 0.341635 0.543587 0.144184 0.166417 0.563393 237
2 0.267995 0.811913 0.1811 0.207585 0.741774 250
2 0.216193 0.313708 0.0475423 0.0713933 0.39999 254
2 0.174813 0.319783 0.0506874 0.0943776 0.497489 255
2 0.606691 0.514875 0.112448 0.162814 0.508813 219
2 0.0962568 0.354846 0.0606396 0.107743 0.812784 257
2 0.169445 0.3253 0.0421819 0.0935729 0.143548 234
2 0.215614 0.309822 0.0509775 0.0746458 0.158874 228
2 0.27259 0.827166 0.187077 0.243159 0.256595 263
2 0.353309 0.652371 0.137427 0.210973 0.821909 266
2 0.167156 0.32213 0.0381457 0.0908314 0.269729 258
2 0.270765 0.845146 0.174641 0.272746 0.602035 267
2 0.034941 0.406043 0.0698092 0.133829 0.896521 270
2 0.290477 0.738425 0.15988 0.23363 0.64908 265
2 0.0487507 0.371409 0.0793523 0.135262 0.744982 272
2 0.0393134 0.404168 0.0782307 0.126179 0.393315 273
2 0.237948 0.937989 0.195738 0.107565 0.666145 275
2 0.623188 0.460802 0.131393 0.0910053 0.118225 277
2 0.627005 0.630705 0.159866 0.310629 0.656057 223
2 0.723577 0.942731 0.263298 0.105861 0.746492 280
2 0.289062 0.725615 0.160601 0.207477 0.667303 261
2 0.635003 0.640571 0.170059 0.283588 0.8217 285
2 0.134485 0.328278 0.0604266 0.0980489 0.714582 283
2 0.710791 0.943634 0.246031 0.101621 0.537909 269
2 0.383594 0.451315 0.104546 0.144197 0.590195 288
2 0.659597 0.843618 0.165255 0.247165 0.785 281
2 0.094139 0.349935 0.067129 0.107414 0.782983 290
2 0.291324 0.70129 0.156181 0.160849 0.57799 291
2 0.645021 0.445625 0.0879522 0.11014 0.705532 271
