2 0.6154 0.726089 0.160319 0.245253 0.868782 1
2 0.18512 0.309254 0.0638628 0.08574 0.610635 3
2 0.293522 0.931429 0.227463 0.11763 0.753532 7
2 0.268238 0.291524 0.0195012 0.0466594 0.10435 10
2 0.185021 0.311149 0.0600968 0.0908844 0.27162 13
5 0.629641 0.328358 0.100836 0.175222 0.61993 16
2 0.137446 0.324882 0.0647311 0.109998 0.679362 21
2 0.644334 0.497797 0.115981 0.17529 0.572932 22
2 0.652288 0.600732 0.1285 0.18349 0.814154 23
2 0.377443 0.573945 0.118671 0.179451 0.601972 26
2 0.339763 0.66408 0.136337 0.210384 0.866917 29
2 0.380931 0.580247 0.11244 0.19843 0.713263 8
2 0.692513 0.929929 0.202678 0.132415 0.83116 9
2 0.375714 0.445246 0.107497 0.118445 0.42587 47
2 0.0452501 0.367615 0.081264 0.112456 0.787126 53
2 0.409363 0.369024 0.0917602 0.140031 0.61045 55
7 0.626285 0.32857 0.109025 0.172787 0.667401 56
2 0.588511 0.467674 0.0816757 0.144954 0.464314 57
2 0.0988462 0.346025 0.0707929 0.105167 0.792795 52
2 0.0169492 0.421793 0.0338985 0.137166 0.804315 60
2 0.278056 0.932645 0.233646 0.123337 0.517319 61
