2 0.284763 0.301436 0.0253945 0.028114 0.242273 212
2 0.216871 0.311469 0.0339437 0.076786 0.360758 220
2 0.249015 0.306476 0.0414564 0.0683449 0.317268 225
2 0.608709 0.37818 0.118114 0.172727 0.195047 233
2 0.317017 0.682392 0.151375 0.216869 0.654053 237
2 0.616881 0.605965 0.129989 0.19446 0.847893 219
2 0.309537 0.827082 0.177397 0.262882 0.849339 266
2 0.108444 0.351106 0.0731957 0.110749 0.825375 270
2 0.141664 0.323289 0.0733921 0.107593 0.57117 272
2 0.13851 0.340876 0.0540425 0.0833862 0.133047 273
2 0.657328 0.514557 0.102902 0.139106 0.492461 277
2 0.668621 0.808946 0.211421 0.360548 0.79673 285
2 0.186317 0.314965 0.0494272 0.0878823 0.528492 283
2 0.369756 0.525056 0.121694 0.159261 0.652518 288
2 0.136812 0.328545 0.0646513 0.105067 0.352546 290
2 0.658575 0.527725 0.106564 0.165392 0.655299 271
2 0.187097 0.310592 0.0533493 0.0870878 0.459838 248
2 0.347584 0.555495 0.116283 0.104268 0.516585 297
2 0.617626 0.577605 0.122492 0.134817 0.27137 223
2 0.0348482 0.386993 0.0691655 0.123113 0.748326 298
2 0.297864 0.67245 0.152694 0.19426 0.699344 302
2 0.231816 0.916505 0.216795 0.157101 0.861539 261
2 0.358223 0.664291 0.12146 0.216486 0.151855 265
2 0.435498 0.325964 0.0987137 0.108233 0.63548 304
