2 0.25131 0.291784 0.0309062 0.0444516 0.106967 3
2 0.246435 0.300931 0.0319761 0.04857 0.27939 13
2 0.192546 0.313572 0.0899533 0.0839535 0.213412 21
2 0.693708 0.718985 0.162405 0.252294 0.833817 22
2 0.707857 0.906263 0.198454 0.164193 0.940924 23
2 0.396523 0.452888 0.0987997 0.181318 0.472141 55
2 0.631164 0.62156 0.125429 0.197737 0.804728 57
2 0.211581 0.311177 0.047311 0.0770473 0.466769 52
2 0.130593 0.332827 0.065977 0.100583 0.209379 60
2 0.212025 0.306107 0.0525419 0.0819106 0.356671 32
7 0.64637 0.440316 0.13722 0.261745 0.556322 16
2 0.118552 0.34092 0.0837118 0.105714 0.851229 70
2 0.303083 0.876852 0.182156 0.239922 0.901867 8
2 0.357118 0.752474 0.172203 0.255192 0.803105 26
2 0.712494 0.351707 0.0646194 0.112979 0.415547 74
2 0.350079 0.57865 0.126252 0.143608 0.697902 80
2 0.173871 0.314543 0.0522553 0.0826852 0.53488 68
2 0.573817 0.381387 0.0503659 0.126978 0.334711 92
2 0.377392 0.525906 0.095785 0.134081 0.642287 97
2 0.575713 0.375587 0.0574014 0.138629 0.204355 98
2 0.0299112 0.409725 0.0598225 0.170824 0.791854 99
2 0.350262 0.592507 0.131341 0.169109 0.524335 100
2 0.354434 0.749471 0.141826 0.261542 0.803247 95
