2 0.323822 0.745124 0.166803 0.278213 0.861849 55
7 0.747407 0.883597 0.27938 0.214728 0.63763 16
2 0.253891 0.299413 0.0435469 0.0302537 0.236453 70
2 0.272196 0.924421 0.178461 0.144141 0.884964 80
2 0.610497 0.451454 0.0979825 0.184281 0.112914 98
2 0.207906 0.296598 0.0558294 0.0843754 0.160707 99
2 0.395809 0.418763 0.0882371 0.149792 0.51833 110
2 0.633502 0.577709 0.121627 0.185865 0.820594 120
2 0.373795 0.510064 0.112664 0.174458 0.55256 123
2 0.13859 0.322522 0.0721276 0.110765 0.505215 140
2 0.83957 0.537416 0.125951 0.183735 0.854872 74
2 0.597417 0.391547 0.0778292 0.118692 0.527088 148
2 0.255963 0.303998 0.0466715 0.0384564 0.422031 144
2 0.0153137 0.330477 0.0306275 0.111493 0.568573 157
2 0.350219 0.653645 0.136601 0.219857 0.607579 158
2 0.0775905 0.358265 0.0809096 0.118397 0.923779 156
2 0.616824 0.436059 0.0867346 0.124218 0.778076 166
2 0.676259 0.677695 0.141082 0.212508 0.866407 164
2 0.144288 0.322059 0.0602915 0.110453 0.682856 160
5 0.42783 0.302693 0.0894038 0.163438 0.501197 168
2 0.748952 0.886196 0.275376 0.216688 0.596619 169
2 0.13742 0.328296 0.082517 0.107717 0.428853 150
