2 0.26882 0.302395 0.0336151 0.0381538 0.359926 3
2 0.266143 0.300543 0.0398372 0.0473444 0.166724 13
2 0.208739 0.311631 0.0525183 0.0770633 0.218815 21
2 0.726269 0.855338 0.18832 0.246392 0.849013 22
2 0.392353 0.495333 0.110155 0.186263 0.777326 55
2 0.647728 0.72693 0.15387 0.223854 0.848566 57
2 0.234327 0.306243 0.0415549 0.0700178 0.127063 52
2 0.234469 0.298086 0.0392544 0.053886 0.175462 32
7 0.659673 0.533186 0.164541 0.365551 0.586374 16
2 0.161769 0.321406 0.0709957 0.0935149 0.837113 70
2 0.318355 0.876343 0.211234 0.224921 0.869494 26
2 0.72539 0.368072 0.084207 0.120954 0.666806 74
2 0.357041 0.57698 0.114644 0.150186 0.768276 80
2 0.584189 0.407123 0.0507333 0.131724 0.540133 92
2 0.359969 0.563315 0.111677 0.14068 0.373127 97
2 0.577022 0.34853 0.0706347 0.114074 0.48322 98
2 0.0702521 0.366354 0.0906341 0.149156 0.841378 99
2 0.200509 0.291637 0.0396022 0.0371309 0.218694 53
2 0.328397 0.705401 0.146939 0.217146 0.840407 107
2 0.429426 0.343585 0.0835046 0.104605 0.392125 110
2 0.31234 0.872828 0.181587 0.213517 0.705744 119
2 0.593368 0.407544 0.0680651 0.131068 0.708431 120
2 0.391463 0.47956 0.110171 0.156622 0.508853 123
2 0.330671 0.735131 0.145316 0.264819 0.368757 100
2 0.727812 0.375146 0.0772898 0.116733 0.708852 125
