2 0.271936 0.302723 0.0302811 0.0398166 0.240225 3
2 0.267848 0.301366 0.0291975 0.0490379 0.157919 13
2 0.213959 0.312852 0.0424347 0.078707 0.183643 21
2 0.745115 0.88871 0.210274 0.210524 0.796447 22
2 0.390408 0.501707 0.115262 0.203071 0.711021 55
2 0.654589 0.766427 0.164005 0.240621 0.862114 57
2 0.239258 0.307549 0.0393272 0.0672893 0.330713 52
2 0.23835 0.295219 0.0382676 0.0473693 0.236339 32
5 0.665961 0.518211 0.1694 0.306706 0.636765 16
2 0.172684 0.317267 0.0675652 0.0937108 0.732105 70
2 0.309437 0.908744 0.208477 0.171008 0.866063 26
2 0.731751 0.374995 0.0840361 0.137856 0.486792 74
2 0.352918 0.594919 0.117803 0.157543 0.760941 80
2 0.601259 0.415013 0.0825694 0.137232 0.617926 92
2 0.576309 0.352592 0.0700544 0.119843 0.437747 98
2 0.0812213 0.35715 0.0879808 0.147551 0.731947 99
2 0.212152 0.303343 0.037358 0.0622428 0.163015 53
2 0.316145 0.757131 0.163809 0.253393 0.851679 107
2 0.42425 0.352882 0.0844195 0.105835 0.282246 110
2 0.598634 0.416468 0.0740696 0.134847 0.706064 120
2 0.389314 0.4758 0.110595 0.132275 0.16499 123
2 0.733324 0.380815 0.0789246 0.121143 0.674356 125
2 0.351277 0.59614 0.117746 0.139794 0.499154 97
2 0.296111 0.910141 0.188678 0.179719 0.861179 128
