2 0.308724 0.756366 0.165776 0.251161 0.91091 110
2 0.680253 0.817262 0.163739 0.26234 0.902126 166
2 0.35797 0.648817 0.137956 0.218539 0.839942 168
2 0.260206 0.954992 0.172809 0.0813112 0.744147 178
7 0.164154 0.296414 0.0834143 0.137777 0.276756 190
2 0.277624 0.299334 0.0259801 0.0335937 0.225597 140
2 0.668381 0.624872 0.141387 0.191198 0.843334 98
2 0.245423 0.31108 0.0420839 0.0609304 0.102932 200
2 0.120367 0.328924 0.0754775 0.0992987 0.576233 202
2 0.0726391 0.370747 0.0844462 0.120844 0.90147 212
7 0.384466 0.51016 0.15162 0.34737 0.427831 194
2 0.357079 0.632264 0.148596 0.187469 0.197514 215
2 0.620057 0.467531 0.119417 0.208703 0.489567 199
2 0.124321 0.332849 0.0672428 0.097651 0.755964 217
2 0.248654 0.955924 0.200844 0.0881512 0.204905 218
2 0.543422 0.357563 0.0407171 0.103131 0.464556 219
2 0.0198812 0.404913 0.0397624 0.179221 0.618217 220
2 0.0177153 0.411801 0.0354306 0.16879 0.823381 221
