2 0.308393 0.8172 0.18019 0.30105 0.883479 55
2 0.800257 0.965794 0.291659 0.0528083 0.550134 16
2 0.264934 0.299719 0.0301765 0.0286979 0.106699 70
2 0.607985 0.410316 0.089451 0.124269 0.469723 98
2 0.227205 0.288533 0.0524614 0.0684946 0.305937 99
2 0.392301 0.456512 0.0980391 0.149434 0.445545 110
2 0.636447 0.616025 0.125788 0.200939 0.80783 120
2 0.38303 0.554502 0.0900291 0.158237 0.13903 123
2 0.867944 0.585752 0.140373 0.203271 0.877365 74
2 0.609704 0.40773 0.087679 0.115037 0.51567 148
2 0.257015 0.300292 0.0241422 0.0364553 0.102242 144
2 0.0307712 0.321982 0.0615424 0.109551 0.741839 157
2 0.336134 0.694722 0.148789 0.219598 0.57113 158
2 0.105072 0.342415 0.0748066 0.109992 0.829072 156
2 0.621267 0.465785 0.097058 0.147191 0.765029 166
2 0.682832 0.742063 0.149718 0.240377 0.863408 164
2 0.166217 0.316112 0.0623203 0.0975753 0.710778 160
5 0.424116 0.342042 0.0934998 0.224087 0.473706 168
2 0.108887 0.337108 0.0884974 0.115437 0.822304 171
2 0.132684 0.328088 0.0480614 0.10017 0.343675 140
2 0.332678 0.666027 0.149646 0.154546 0.521109 173
7 0.163853 0.314021 0.0606922 0.105607 0.134566 150
2 0.797724 0.969665 0.288701 0.0606693 0.367868 176
2 0.33799 0.646286 0.138421 0.112638 0.293286 177
2 0.3731 0.539949 0.113056 0.184047 0.638733 178
