2 0.639381 0.853102 0.180198 0.275102 0.905665 1
2 0.211695 0.307797 0.040291 0.0850369 0.178608 3
2 0.205711 0.305347 0.045377 0.0789565 0.357455 13
2 0.166804 0.312618 0.0617276 0.102054 0.430414 21
2 0.656932 0.529802 0.119328 0.142778 0.637441 22
2 0.659937 0.67254 0.144711 0.207454 0.758506 23
2 0.3173 0.767697 0.157736 0.241469 0.927745 29
2 0.364813 0.639145 0.131569 0.195909 0.234931 47
2 0.399731 0.38731 0.0975256 0.139657 0.658325 55
2 0.60932 0.507542 0.105224 0.160388 0.767771 57
2 0.142643 0.328394 0.0602922 0.0905978 0.765025 52
2 0.0426894 0.381697 0.0849873 0.126044 0.792791 60
2 0.66138 0.518106 0.115465 0.117975 0.612723 66
2 0.145031 0.324259 0.0607552 0.0948183 0.645889 32
2 0.656259 0.536899 0.126818 0.161729 0.619491 67
2 0.0993379 0.33839 0.0743297 0.103994 0.744413 68
7 0.632978 0.357226 0.119409 0.193657 0.666173 16
2 0.659397 0.654138 0.14042 0.169561 0.400189 69
2 0.0244774 0.409826 0.048925 0.130052 0.874579 70
2 0.360976 0.647638 0.132985 0.215931 0.809002 8
2 0.383633 0.572163 0.112847 0.192372 0.638255 26
2 0.601298 0.505431 0.0901468 0.157809 0.442867 73
2 0.705671 0.324304 0.0437565 0.102294 0.30989 74
2 0.0975802 0.332557 0.078484 0.117192 0.644236 53
2 0.0455905 0.377644 0.0764997 0.120003 0.797782 75
