2 0.239941 0.305486 0.0359893 0.0659024 0.48048 3
2 0.240751 0.301041 0.0338102 0.0654561 0.233678 13
2 0.199921 0.302797 0.0541903 0.0795393 0.156368 21
2 0.681256 0.665393 0.148321 0.22616 0.813775 22
2 0.684597 0.865021 0.177637 0.253313 0.864844 23
2 0.397117 0.428014 0.101545 0.164286 0.472203 55
2 0.626342 0.585526 0.117916 0.177688 0.831239 57
2 0.202936 0.307893 0.0508009 0.0831624 0.326194 52
2 0.0939203 0.350937 0.0925235 0.111687 0.665278 60
2 0.675758 0.624433 0.13779 0.148479 0.18207 66
2 0.201055 0.31273 0.0516336 0.0873524 0.456342 32
7 0.642594 0.424768 0.141657 0.261156 0.506302 16
2 0.0889917 0.35678 0.0802969 0.106558 0.891963 70
2 0.322327 0.813166 0.16279 0.264865 0.886633 8
2 0.367601 0.692978 0.14609 0.239814 0.837041 26
2 0.614601 0.583659 0.0979503 0.180595 0.146321 73
2 0.715977 0.348479 0.0428269 0.0980052 0.246966 74
2 0.164988 0.315486 0.0698221 0.0884227 0.110516 53
2 0.352005 0.56389 0.121509 0.163968 0.666024 80
2 0.157899 0.318207 0.055256 0.08731 0.694838 68
2 0.569945 0.374246 0.0481229 0.112037 0.354667 92
2 0.256321 0.932574 0.205661 0.115974 0.283085 29
2 0.2445 0.930743 0.209378 0.115504 0.786578 90
5 0.643754 0.422554 0.139163 0.255352 0.508582 94
2 0.334158 0.746859 0.13905 0.161205 0.177189 95
2 0.381133 0.508205 0.0898281 0.13304 0.636691 97
2 0.570836 0.371006 0.0550998 0.118015 0.595248 98
