2 0.295231 0.882469 0.199923 0.216958 0.883693 168
2 0.700882 0.855506 0.186222 0.255998 0.924722 98
2 0.1696 0.319743 0.0599919 0.0876862 0.689523 212
5 0.356599 0.684051 0.209397 0.451692 0.52971 194
2 0.629435 0.59238 0.151928 0.282511 0.627296 199
2 0.198821 0.309682 0.0340168 0.0825162 0.354721 217
2 0.616711 0.404139 0.121678 0.124691 0.584297 219
2 0.111575 0.329891 0.0728699 0.129527 0.25378 220
2 0.171459 0.319146 0.0572886 0.0938774 0.245024 202
2 0.58295 0.388644 0.0937238 0.139364 0.518576 223
2 0.0726373 0.366763 0.0757216 0.118117 0.824518 225
2 0.617691 0.412189 0.113783 0.129016 0.68913 227
7 0.579981 0.284489 0.0792145 0.105425 0.324615 233
2 0.0337795 0.416127 0.0674963 0.16071 0.176715 234
2 0.0357708 0.388914 0.0715416 0.121494 0.810855 228
2 0.378942 0.36842 0.0767154 0.0813921 0.207588 237
2 0.0261615 0.439485 0.0523229 0.133607 0.818579 240
