2 0.252339 0.297852 0.0312207 0.045177 0.340162 13
2 0.232448 0.311682 0.0514818 0.0739772 0.21303 21
2 0.759625 0.919384 0.220734 0.149285 0.821485 22
2 0.386915 0.515608 0.118943 0.205539 0.673644 55
2 0.659504 0.813145 0.175671 0.253351 0.888784 57
2 0.233312 0.306729 0.0543654 0.0668185 0.23105 52
2 0.249861 0.297104 0.0344554 0.048957 0.163345 32
5 0.671304 0.578825 0.179363 0.393013 0.329057 16
2 0.184279 0.313909 0.0655194 0.0892225 0.665812 70
2 0.741933 0.387704 0.0806237 0.132434 0.777635 74
2 0.346076 0.609602 0.120844 0.15691 0.827772 80
2 0.597328 0.430245 0.0698345 0.133145 0.253372 92
2 0.578447 0.364237 0.0684717 0.113532 0.509133 98
2 0.0962237 0.345492 0.086431 0.139185 0.833824 99
2 0.227996 0.310244 0.0458818 0.0767552 0.257067 53
2 0.429555 0.343449 0.0940288 0.106795 0.136378 110
2 0.603978 0.430436 0.0800989 0.139905 0.754919 120
2 0.399136 0.406015 0.092435 0.100954 0.525937 123
2 0.30414 0.799028 0.170584 0.261543 0.902557 100
2 0.288393 0.940869 0.183568 0.109724 0.81697 128
2 0.696129 0.69091 0.122853 0.165891 0.254789 130
2 0.672943 0.530247 0.171108 0.30866 0.250661 131
2 0.0155268 0.431135 0.0310535 0.15925 0.732716 132
2 0.014411 0.427932 0.0287243 0.173435 0.626628 133
