2 0.719371 0.892739 0.198482 0.198478 0.903783 98
2 0.193391 0.314953 0.0706182 0.088271 0.456592 212
2 0.342772 0.741721 0.199117 0.475834 0.548471 194
2 0.631181 0.625811 0.163651 0.307364 0.7903 199
2 0.215102 0.309881 0.0377082 0.0784078 0.16168 217
2 0.577246 0.406841 0.0819525 0.133058 0.285099 219
2 0.131714 0.323191 0.0677604 0.127497 0.473533 220
2 0.184677 0.315541 0.0542703 0.0870751 0.534831 202
2 0.58525 0.406432 0.0963851 0.136519 0.590339 223
2 0.0993862 0.353047 0.0699113 0.111313 0.830836 225
2 0.619795 0.425328 0.118227 0.13904 0.699394 227
7 0.579491 0.288776 0.0806296 0.106788 0.313693 233
2 0.0492704 0.3852 0.0849081 0.124814 0.642685 234
2 0.0553159 0.368446 0.0842262 0.118603 0.605924 228
2 0.38843 0.381084 0.115032 0.0896379 0.406369 237
2 0.0392634 0.414185 0.0774643 0.12957 0.826051 240
2 0.260918 0.922773 0.248897 0.134267 0.8383 168
2 0.248194 0.924346 0.230202 0.144406 0.64539 246
