2 0.716221 0.8944 0.217383 0.202022 0.842404 365
5 0.260261 0.270193 0.0560422 0.101466 0.106554 395
2 0.654173 0.612903 0.132021 0.182491 0.868323 410
2 0.177408 0.31035 0.0537488 0.0927285 0.102664 441
2 0.298272 0.738842 0.173378 0.212917 0.665271 442
5 0.257293 0.274138 0.052347 0.0966949 0.568231 453
2 0.217523 0.309289 0.0476642 0.0867878 0.485325 423
2 0.156828 0.322934 0.0329576 0.0989705 0.43145 456
2 0.155002 0.327465 0.0335698 0.0980581 0.26005 462
2 0.108725 0.327254 0.0770653 0.128502 0.134651 471
2 0.412957 0.423534 0.0895172 0.139378 0.716471 476
2 0.573045 0.356744 0.0905444 0.152895 0.489892 478
2 0.0838837 0.359568 0.0794203 0.118775 0.885505 480
2 0.106699 0.323722 0.0848202 0.137495 0.391428 483
2 0.322222 0.878098 0.182198 0.233279 0.830131 304
2 0.346719 0.674914 0.137993 0.225148 0.711489 488
7 0.558554 0.248381 0.0791121 0.207499 0.601373 491
2 0.606082 0.469544 0.112453 0.173894 0.389826 436
2 0.291034 0.732906 0.167556 0.192616 0.423853 493
2 0.603555 0.478641 0.108348 0.151253 0.640156 484
2 0.29685 0.719986 0.163772 0.178456 0.672119 495
2 0.0309702 0.316703 0.0566453 0.0881348 0.723264 496
2 0.232743 0.919819 0.225258 0.145124 0.811892 353
2 0.314568 0.869585 0.170319 0.213916 0.630959 498
