2 0.223031 0.311954 0.0602152 0.0853614 0.134377 212
2 0.269775 0.829355 0.296895 0.313334 0.724137 194
2 0.643841 0.769266 0.198224 0.407892 0.757195 199
2 0.243616 0.298301 0.0349506 0.0446853 0.434029 217
2 0.125413 0.338778 0.0626775 0.0950878 0.404163 220
2 0.215764 0.312017 0.0423957 0.0814455 0.533807 202
2 0.623868 0.513117 0.141364 0.19358 0.610853 223
7 0.171066 0.299682 0.0587313 0.106191 0.124333 225
2 0.617371 0.526595 0.13555 0.228964 0.682709 227
7 0.585223 0.31932 0.0906457 0.142564 0.412037 233
2 0.388108 0.411215 0.104282 0.0958002 0.19744 237
2 0.0578646 0.376625 0.0708245 0.122887 0.762475 248
2 0.324014 0.669193 0.155873 0.247775 0.587274 250
2 0.16425 0.32603 0.0578992 0.0922073 0.623347 254
2 0.121753 0.329932 0.0680099 0.108518 0.532872 255
2 0.584559 0.450401 0.0867163 0.141222 0.55776 219
2 0.0276047 0.416369 0.0543496 0.134842 0.833539 257
2 0.0961452 0.363104 0.0622219 0.114315 0.158123 234
2 0.0979395 0.357999 0.05594 0.109423 0.8432 258
2 0.169318 0.328404 0.0582506 0.0932055 0.146522 228
2 0.371228 0.534635 0.124566 0.175493 0.725656 261
