2 0.280074 0.302133 0.0258446 0.0265069 0.269268 212
2 0.209069 0.313361 0.0374799 0.0837036 0.175306 220
2 0.244093 0.308852 0.0431456 0.0730392 0.37664 225
7 0.606826 0.372685 0.110411 0.16622 0.378937 233
2 0.306138 0.660619 0.155772 0.217855 0.695493 237
2 0.61464 0.587111 0.126484 0.187476 0.83359 219
2 0.157758 0.3348 0.0230425 0.072831 0.14169 257
2 0.237603 0.310924 0.0555967 0.0776995 0.297786 228
2 0.318499 0.788725 0.171052 0.25402 0.845324 266
2 0.0983672 0.360255 0.076931 0.116029 0.848303 270
2 0.121544 0.334315 0.0744987 0.10782 0.414938 272
2 0.117808 0.346905 0.0754839 0.0898307 0.149289 273
2 0.654138 0.504771 0.0997178 0.144287 0.352911 277
2 0.23128 0.895801 0.226236 0.202863 0.713148 261
2 0.658474 0.784311 0.202217 0.358129 0.786597 285
2 0.178814 0.315762 0.0527787 0.0915517 0.57408 283
2 0.369557 0.516381 0.120894 0.168144 0.614676 288
2 0.125377 0.330349 0.0880936 0.111874 0.523725 290
2 0.655192 0.515809 0.0994419 0.165411 0.629025 271
2 0.189008 0.313678 0.0714066 0.0932792 0.127821 248
2 0.363211 0.525733 0.130539 0.179206 0.528523 297
2 0.616741 0.559637 0.120755 0.132472 0.269577 223
2 0.0288815 0.397184 0.057763 0.127941 0.78726 298
2 0.71235 0.98275 0.144224 0.0344998 0.197593 296
2 0.716785 0.965356 0.146563 0.0521172 0.157667 199
2 0.307901 0.646414 0.15734 0.187268 0.461218 302
2 0.714514 0.975314 0.143818 0.0493711 0.241931 303
2 0.239827 0.892276 0.205726 0.197357 0.829933 300
