2 0.605862 0.674606 0.148048 0.219805 0.865594 1
2 0.174873 0.31515 0.0692626 0.0945323 0.623609 3
2 0.316296 0.88322 0.210862 0.227213 0.901147 7
2 0.259758 0.296532 0.0316581 0.0409412 0.24786 10
2 0.183587 0.306625 0.0709662 0.0964006 0.571662 13
5 0.625323 0.319366 0.0919477 0.162737 0.826209 16
2 0.118788 0.332766 0.067743 0.11378 0.771231 21
2 0.633565 0.467752 0.113099 0.137614 0.613465 22
2 0.647558 0.570201 0.11927 0.180469 0.744043 23
2 0.388334 0.549184 0.110124 0.174764 0.682379 26
2 0.353459 0.621314 0.133807 0.203459 0.829356 29
2 0.0730462 0.355742 0.0772611 0.116959 0.826259 32
2 0.384753 0.539249 0.108067 0.185888 0.189725 8
2 0.681326 0.886246 0.190146 0.223946 0.893067 9
2 0.376288 0.430024 0.101998 0.117815 0.376202 47
2 0.0284386 0.382055 0.0568771 0.119997 0.843532 53
2 0.353437 0.60517 0.125705 0.167063 0.480728 45
2 0.415857 0.357943 0.0864276 0.132342 0.606162 55
7 0.626563 0.320288 0.0991041 0.168529 0.573862 56
2 0.584032 0.45313 0.0803141 0.13479 0.649978 57
