2 0.232603 0.310487 0.0348591 0.0729213 0.338741 220
2 0.262369 0.295083 0.0350247 0.0343259 0.265033 225
7 0.610691 0.40678 0.11641 0.202886 0.476786 233
2 0.620228 0.652217 0.140829 0.213727 0.910455 219
2 0.282408 0.884408 0.190959 0.218358 0.873015 266
2 0.131578 0.338354 0.06881 0.103159 0.81471 270
2 0.165053 0.317668 0.0593727 0.103202 0.641144 272
2 0.692188 0.854405 0.233767 0.283091 0.873057 285
2 0.215579 0.309168 0.0694817 0.0838314 0.571515 283
2 0.370103 0.56234 0.114603 0.167328 0.676243 288
2 0.167893 0.319276 0.053127 0.0961338 0.444162 290
2 0.658778 0.564792 0.109844 0.180706 0.709905 271
2 0.2105 0.315364 0.0642036 0.0839221 0.162671 248
2 0.343375 0.613706 0.124677 0.124754 0.655995 297
2 0.0602029 0.367039 0.0743528 0.116592 0.825483 298
2 0.280995 0.75592 0.177886 0.223354 0.710754 302
2 0.367412 0.753565 0.0931927 0.235467 0.669884 265
2 0.431532 0.324934 0.0979507 0.11349 0.428879 304
2 0.386181 0.408959 0.12721 0.154536 0.377815 306
2 0.0242029 0.40601 0.0479602 0.140094 0.832903 307
2 0.384889 0.419691 0.118558 0.171666 0.282175 313
2 0.63969 0.476099 0.103178 0.140878 0.508416 314
2 0.300534 0.752851 0.217106 0.246825 0.178283 237
2 0.0243021 0.416098 0.0486041 0.124981 0.616959 318
2 0.365728 0.565969 0.128465 0.182243 0.70818 319
