2 0.265329 0.29559 0.0386948 0.0462264 0.41448 220
2 0.639123 0.612238 0.133967 0.225844 0.731609 233
2 0.661871 0.87039 0.197237 0.247302 0.90083 219
2 0.236323 0.304043 0.055017 0.075388 0.104053 272
2 0.261159 0.297199 0.0293245 0.0465039 0.286022 283
2 0.231766 0.299759 0.0457389 0.0790011 0.587319 290
2 0.263284 0.295292 0.0352154 0.0476231 0.347641 248
2 0.262356 0.898936 0.218128 0.192963 0.650166 297
2 0.156992 0.320247 0.0554528 0.0903515 0.751337 298
2 0.405408 0.358021 0.0863799 0.11343 0.523748 304
2 0.637516 0.602836 0.132319 0.218719 0.506698 314
2 0.685309 0.726637 0.145057 0.226549 0.77055 322
2 0.31623 0.761975 0.165419 0.241352 0.838239 288
2 0.0646814 0.367642 0.0793997 0.122223 0.801302 328
2 0.0333464 0.388788 0.0661802 0.127924 0.859518 340
2 0.0720043 0.369601 0.0664233 0.115908 0.614047 345
2 0.113385 0.342604 0.0624942 0.108353 0.781519 307
2 0.280038 0.900225 0.19932 0.196201 0.821786 346
2 0.196294 0.311476 0.0488233 0.0886366 0.738861 270
2 0.683208 0.685581 0.141742 0.147792 0.694225 271
2 0.357565 0.555014 0.156918 0.313995 0.604288 350
2 0.356699 0.573833 0.152158 0.276624 0.619585 306
2 0.384319 0.459081 0.121263 0.157079 0.514477 352
2 0.155576 0.322973 0.0609072 0.091531 0.647608 347
2 0.686261 0.708808 0.145563 0.1895 0.676043 341
