2 0.241861 0.305014 0.0360117 0.0640596 0.320553 3
2 0.241513 0.294287 0.0341652 0.054677 0.173096 13
2 0.200982 0.311615 0.0558175 0.0895064 0.242019 21
2 0.683413 0.674438 0.150053 0.236884 0.790902 22
2 0.685839 0.869935 0.17166 0.248461 0.874103 23
2 0.397891 0.432554 0.0991852 0.168202 0.52605 55
2 0.626785 0.59015 0.117871 0.181002 0.864015 57
2 0.205343 0.311182 0.053998 0.0817497 0.515671 52
2 0.109049 0.339943 0.0794873 0.0963897 0.238099 60
2 0.203367 0.309497 0.0501526 0.0897978 0.403237 32
7 0.644538 0.42638 0.136389 0.260208 0.568896 16
2 0.0932759 0.352722 0.080257 0.10697 0.855266 70
2 0.321177 0.825111 0.163788 0.270884 0.890482 8
2 0.368525 0.697527 0.150821 0.244972 0.860734 26
2 0.614263 0.591008 0.0950598 0.181374 0.256759 73
2 0.716273 0.348378 0.0452219 0.10095 0.340258 74
2 0.180584 0.315275 0.0815947 0.0877061 0.132444 53
2 0.353375 0.567906 0.12143 0.166315 0.51991 80
2 0.160322 0.318899 0.054633 0.0873086 0.644583 68
2 0.569478 0.377415 0.0492615 0.113356 0.497333 92
2 0.246931 0.942671 0.197038 0.112543 0.147785 29
2 0.238191 0.940636 0.207086 0.103741 0.799195 90
2 0.382321 0.511533 0.0884237 0.143411 0.522425 97
2 0.570916 0.373299 0.0547997 0.116255 0.614016 98
2 0.0143394 0.432443 0.0284202 0.188798 0.720117 99
