2 0.2718 0.303513 0.0337261 0.033292 0.16966 298
2 0.270832 0.305056 0.0318235 0.030601 0.363509 356
2 0.656767 0.698013 0.156984 0.272242 0.832499 365
2 0.666016 0.929636 0.191844 0.131989 0.145094 376
7 0.211807 0.275746 0.062182 0.142815 0.650935 395
2 0.213944 0.934881 0.221444 0.11307 0.763663 415
2 0.717659 0.836244 0.171728 0.274232 0.871252 416
2 0.626661 0.490594 0.110613 0.149075 0.797868 410
2 0.309271 0.721672 0.166997 0.265902 0.891998 353
2 0.578392 0.40442 0.0816554 0.124566 0.655661 436
2 0.0787371 0.347054 0.0854731 0.122503 0.693855 441
2 0.377662 0.499805 0.113164 0.138665 0.149499 442
7 0.210004 0.271666 0.0598124 0.138246 0.159193 453
2 0.155102 0.323665 0.0678695 0.0988417 0.692042 423
2 0.0299261 0.391637 0.0559258 0.139139 0.696475 456
2 0.58692 0.401392 0.100707 0.124174 0.660138 461
2 0.672793 0.922776 0.176523 0.132751 0.847315 434
2 0.0270728 0.397295 0.0535899 0.135317 0.546777 462
2 0.376331 0.642708 0.130022 0.215097 0.82159 304
2 0.387293 0.649709 0.106556 0.194138 0.133299 465
