2 0.611029 0.700245 0.149664 0.232274 0.859812 1
2 0.18132 0.310277 0.0664069 0.0850032 0.548531 3
2 0.302998 0.906074 0.223672 0.176756 0.874011 7
2 0.262841 0.293748 0.0242481 0.0425522 0.267959 10
2 0.179784 0.314036 0.0604923 0.0939126 0.549545 13
5 0.627208 0.318646 0.0971883 0.159803 0.72443 16
2 0.12934 0.328856 0.0666741 0.113838 0.700147 21
2 0.637042 0.47947 0.109834 0.140209 0.629374 22
2 0.650609 0.586482 0.119626 0.184803 0.746048 23
2 0.382575 0.553558 0.122417 0.169803 0.725734 26
2 0.344541 0.640394 0.135733 0.20903 0.812918 29
2 0.385184 0.560679 0.11511 0.192317 0.71154 8
2 0.693076 0.905722 0.201823 0.173488 0.908176 9
2 0.378284 0.433547 0.101863 0.111415 0.435815 47
2 0.0361426 0.374218 0.0721304 0.116906 0.840704 53
2 0.385753 0.546217 0.112662 0.155339 0.233637 45
2 0.41207 0.360027 0.0880185 0.138124 0.583853 55
7 0.625891 0.324074 0.106643 0.171155 0.625919 56
2 0.584684 0.457564 0.0800073 0.139753 0.54392 57
2 0.0875406 0.348314 0.0739051 0.110491 0.816281 52
