2 0.287498 0.300495 0.0409097 0.0391623 0.309508 99
2 0.355669 0.593803 0.133059 0.19672 0.804379 110
2 0.274118 0.928953 0.198035 0.123406 0.796243 123
2 0.657566 0.63289 0.123703 0.206161 0.822322 166
7 0.3908 0.373184 0.127845 0.176592 0.436744 168
2 0.317492 0.779222 0.165802 0.257247 0.920692 178
2 0.702897 0.899907 0.202449 0.18091 0.900989 120
2 0.202871 0.306948 0.0541505 0.0665475 0.365462 156
7 0.0790104 0.334294 0.131107 0.148841 0.384553 190
2 0.242918 0.293321 0.0380712 0.053938 0.50044 140
2 0.641505 0.521364 0.110146 0.17195 0.793731 98
2 0.356745 0.548092 0.128264 0.153454 0.198227 194
2 0.288433 0.300913 0.0391279 0.0332267 0.415274 197
7 0.592251 0.397104 0.101765 0.188465 0.375219 199
2 0.203783 0.308181 0.0575662 0.0812779 0.75062 200
2 0.0429342 0.379032 0.0848124 0.119942 0.90204 202
2 0.639379 0.49604 0.106755 0.128436 0.241974 207
2 0.591574 0.393481 0.0984713 0.186528 0.506237 209
2 0.15755 0.315406 0.0362623 0.0621675 0.701436 210
2 0.258403 0.931477 0.219868 0.130185 0.276407 211
