2 0.25708 0.295957 0.0326258 0.0414329 0.134824 298
2 0.416144 0.525105 0.084426 0.173408 0.122553 304
2 0.228423 0.306701 0.0457253 0.0664506 0.370467 356
2 0.646442 0.561754 0.135805 0.204191 0.578736 365
2 0.654998 0.723288 0.149919 0.148374 0.506287 376
2 0.313841 0.787933 0.174149 0.263264 0.177441 352
2 0.671446 0.625995 0.129491 0.145872 0.437416 402
2 0.406167 0.520926 0.101782 0.18031 0.81022 404
7 0.165145 0.280503 0.072232 0.163625 0.711518 395
2 0.101461 0.350311 0.0672455 0.104366 0.672459 414
2 0.312396 0.765091 0.172118 0.225283 0.88008 415
2 0.671702 0.648753 0.137438 0.202883 0.769831 416
2 0.605015 0.428917 0.0958037 0.129124 0.685478 422
2 0.0686673 0.375097 0.0869938 0.115442 0.827008 423
2 0.607786 0.406221 0.105904 0.141448 0.43015 410
2 0.100684 0.356081 0.0670114 0.110132 0.665095 433
2 0.345051 0.570539 0.132238 0.223008 0.808843 353
2 0.649406 0.739776 0.149925 0.181346 0.654994 434
2 0.657372 0.889843 0.187907 0.202283 0.769809 417
2 0.672753 0.637414 0.12985 0.180461 0.327754 435
2 0.725933 0.942715 0.233693 0.0944635 0.515355 421
2 0.568457 0.375547 0.070428 0.0891424 0.524151 436
2 0.306887 0.905066 0.211737 0.17785 0.851205 399
