2 0.318097 0.722578 0.158294 0.243486 0.89914 110
2 0.676228 0.782254 0.154793 0.248495 0.872847 166
2 0.36171 0.626511 0.133617 0.213681 0.766968 168
2 0.272632 0.922617 0.189739 0.13836 0.745682 178
2 0.153477 0.316407 0.09102 0.110147 0.109943 190
2 0.272905 0.297789 0.0322598 0.0432521 0.203569 140
2 0.666216 0.602773 0.137405 0.186691 0.830902 98
2 0.239488 0.307354 0.0474165 0.0668038 0.605142 200
2 0.109109 0.335151 0.076053 0.10341 0.132285 202
2 0.0575826 0.382691 0.0909873 0.122293 0.898726 212
2 0.379151 0.538558 0.144886 0.256134 0.293302 194
2 0.359503 0.606196 0.140904 0.174763 0.381725 215
2 0.617395 0.455917 0.118791 0.20938 0.528489 199
2 0.115434 0.336905 0.0688646 0.0988111 0.658613 217
2 0.257927 0.925748 0.238604 0.143112 0.803709 218
2 0.538533 0.354521 0.0335915 0.101944 0.595804 219
