2 0.335281 0.703086 0.159629 0.264657 0.840453 55
7 0.728918 0.841968 0.267111 0.293374 0.625116 16
2 0.251957 0.302117 0.050696 0.0385405 0.515567 70
2 0.281626 0.88882 0.170557 0.205033 0.891893 80
2 0.61255 0.429209 0.083725 0.134485 0.712713 98
2 0.200731 0.297459 0.0606316 0.0989269 0.376941 99
2 0.39726 0.38462 0.0913425 0.109352 0.352964 110
2 0.629331 0.553201 0.117353 0.183067 0.823104 120
2 0.381634 0.502246 0.107678 0.167221 0.548953 123
2 0.131393 0.332598 0.0601767 0.107832 0.770978 140
2 0.82348 0.51087 0.120698 0.177498 0.865723 74
2 0.595435 0.382117 0.0758361 0.109839 0.573975 148
2 0.246144 0.300618 0.0413726 0.0442243 0.244026 144
2 0.0314285 0.312999 0.0535639 0.0802568 0.253167 157
2 0.354264 0.574374 0.123431 0.0940766 0.511814 158
2 0.127634 0.335721 0.0663322 0.109216 0.605556 162
2 0.673495 0.640528 0.139919 0.200341 0.360157 165
2 0.0599068 0.370259 0.083174 0.123282 0.879024 156
2 0.0903351 0.353035 0.0641061 0.106279 0.503563 150
2 0.613868 0.423121 0.0868644 0.118212 0.719571 166
2 0.676377 0.648863 0.148107 0.206105 0.805671 164
2 0.119124 0.334031 0.0882553 0.118161 0.602441 160
