2 0.627263 0.783373 0.168626 0.256736 0.880057 1
2 0.196826 0.30823 0.0574828 0.0819982 0.539464 3
2 0.273617 0.295288 0.0239437 0.044668 0.139657 10
2 0.1933 0.307883 0.0646253 0.0850433 0.252225 13
2 0.157157 0.322335 0.0559873 0.105708 0.536481 21
2 0.652547 0.50889 0.123235 0.153667 0.613062 22
2 0.656154 0.634094 0.134793 0.203038 0.772291 23
2 0.374617 0.606665 0.129452 0.20103 0.725912 26
2 0.331108 0.709264 0.144353 0.213606 0.842955 29
2 0.714756 0.970125 0.154728 0.0424218 0.42919 9
2 0.378633 0.503032 0.105582 0.0904937 0.240084 47
2 0.0745564 0.342172 0.0755028 0.133506 0.660743 53
2 0.407139 0.371544 0.0950297 0.134082 0.525746 55
2 0.599073 0.486484 0.0968842 0.147567 0.693923 57
2 0.123551 0.335969 0.05844 0.0986221 0.723299 52
2 0.0300044 0.398922 0.0600088 0.130989 0.805203 60
2 0.373471 0.594058 0.117147 0.181536 0.55071 45
2 0.713131 0.979616 0.151749 0.040768 0.385859 65
2 0.652809 0.498096 0.11877 0.131652 0.669834 66
2 0.142872 0.325847 0.0805364 0.104939 0.364982 32
2 0.655257 0.486543 0.111178 0.106143 0.62718 67
2 0.0738304 0.351585 0.0754175 0.111719 0.655848 68
7 0.624239 0.341649 0.118745 0.181378 0.699892 16
