2 0.266754 0.29488 0.0315367 0.0399232 0.186483 298
2 0.404443 0.541783 0.0987895 0.169446 0.627248 304
2 0.236884 0.303319 0.041436 0.0571263 0.310033 356
2 0.650542 0.583185 0.145978 0.224896 0.682961 365
2 0.653524 0.779969 0.154539 0.196086 0.721458 376
2 0.305645 0.925924 0.214133 0.148151 0.111578 352
2 0.652834 0.532725 0.151015 0.126043 0.201081 402
2 0.402347 0.539504 0.104709 0.185469 0.767601 404
7 0.174637 0.278649 0.0754499 0.164302 0.700476 395
2 0.121323 0.346007 0.0577659 0.102249 0.243237 414
2 0.299769 0.813461 0.182929 0.244364 0.818305 415
2 0.676436 0.679091 0.142832 0.224589 0.831149 416
2 0.609608 0.436615 0.098919 0.138799 0.58024 422
2 0.0851158 0.364889 0.0828532 0.113578 0.854657 423
2 0.611334 0.421109 0.104661 0.14632 0.270348 410
2 0.115746 0.346066 0.066484 0.103752 0.594 433
2 0.339551 0.592231 0.134199 0.223248 0.820874 353
2 0.64962 0.772048 0.153962 0.167925 0.759299 434
2 0.653956 0.912049 0.181275 0.168716 0.851158 417
2 0.675902 0.638994 0.131101 0.138336 0.502363 435
2 0.716711 0.972096 0.168932 0.0495598 0.614216 421
2 0.56657 0.372737 0.0681383 0.11722 0.571163 436
2 0.303286 0.9244 0.204895 0.131793 0.765878 399
2 0.0190032 0.404163 0.0380065 0.163009 0.806952 441
2 0.377328 0.429585 0.0936216 0.0818636 0.566696 442
2 0.663649 0.906049 0.197484 0.174218 0.747615 440
2 0.092399 0.355232 0.0715986 0.110708 0.198412 444
2 0.296639 0.793941 0.173836 0.205017 0.698151 445
