2 0.299838 0.7823 0.170034 0.263216 0.892901 110
2 0.68265 0.848727 0.162962 0.262911 0.896296 166
2 0.353122 0.665108 0.1484 0.226466 0.819932 168
2 0.249583 0.977815 0.154174 0.0372579 0.273128 178
7 0.171164 0.293867 0.0820611 0.133785 0.371908 190
2 0.281309 0.301673 0.0257456 0.0307109 0.187009 140
2 0.670026 0.637111 0.143907 0.194568 0.887973 98
2 0.25162 0.305656 0.0434361 0.0493366 0.450016 200
2 0.0832624 0.365315 0.0837933 0.115502 0.844158 212
2 0.38293 0.524786 0.153965 0.350331 0.183333 194
7 0.628557 0.4765 0.124315 0.215948 0.631853 199
2 0.132909 0.327784 0.0616105 0.0957097 0.423855 217
2 0.545626 0.360236 0.0397074 0.104829 0.289865 219
2 0.0257136 0.397818 0.0514273 0.172533 0.872834 220
2 0.126765 0.326544 0.0743349 0.0947943 0.643262 202
