2 0.701325 0.855653 0.207952 0.277135 0.807068 365
5 0.243331 0.273553 0.0524265 0.111001 0.31128 395
2 0.649286 0.575887 0.123961 0.172447 0.81967 410
2 0.258577 0.873144 0.215947 0.222922 0.873733 353
2 0.156028 0.317413 0.0627398 0.102942 0.672487 441
2 0.314628 0.66838 0.153527 0.18812 0.689689 442
7 0.244326 0.271818 0.0572197 0.10408 0.457256 453
2 0.200422 0.308979 0.052364 0.0904325 0.550824 423
2 0.127898 0.337512 0.0407867 0.116577 0.243223 456
2 0.129355 0.34187 0.0350094 0.104392 0.444609 462
2 0.0830751 0.342435 0.0874522 0.151118 0.491811 471
2 0.417357 0.402269 0.0887512 0.133963 0.672327 476
2 0.577037 0.348631 0.0905837 0.140875 0.512869 478
2 0.0514345 0.382348 0.0909777 0.127748 0.877216 480
2 0.65831 0.499208 0.111424 0.13013 0.544262 482
2 0.0888726 0.332517 0.107455 0.145023 0.509881 483
2 0.593457 0.449274 0.102552 0.154123 0.169396 436
2 0.338554 0.822268 0.161766 0.272722 0.869814 304
2 0.597805 0.457706 0.107492 0.145153 0.7059 485
2 0.778907 0.960285 0.166843 0.0719744 0.765397 486
2 0.357385 0.619539 0.122204 0.203671 0.645306 488
2 0.777681 0.958339 0.170812 0.0824811 0.530697 416
2 0.335201 0.812342 0.151006 0.240121 0.518325 490
