2 0.622885 0.774256 0.165329 0.252603 0.890241 1
2 0.19659 0.308998 0.05936 0.0831958 0.58885 3
2 0.269075 0.980614 0.156919 0.0387724 0.28458 7
2 0.273616 0.295449 0.0222827 0.0379001 0.102238 10
2 0.193642 0.309742 0.0542425 0.090316 0.30975 13
2 0.154529 0.321044 0.0578913 0.105695 0.621474 21
2 0.651083 0.503791 0.122221 0.155599 0.676466 22
2 0.654942 0.631231 0.135723 0.208656 0.811537 23
2 0.375325 0.60507 0.12809 0.201173 0.770587 26
2 0.333039 0.698363 0.144647 0.218641 0.84976 29
2 0.713711 0.964242 0.160548 0.0576856 0.564843 9
2 0.381195 0.494916 0.100949 0.0901118 0.441009 47
2 0.0710234 0.353011 0.0756047 0.113016 0.725271 53
2 0.406557 0.374558 0.0930792 0.13758 0.559595 55
7 0.624241 0.338879 0.11809 0.178384 0.754335 56
2 0.593928 0.483245 0.0881123 0.146127 0.645431 57
2 0.121084 0.336628 0.0603394 0.099288 0.664142 52
2 0.0278278 0.403067 0.0554335 0.129357 0.783804 60
2 0.373148 0.587441 0.11686 0.173521 0.197585 45
2 0.710863 0.970401 0.158327 0.0591886 0.558203 65
2 0.650136 0.497667 0.117008 0.141393 0.771638 66
2 0.121877 0.332108 0.0633425 0.104933 0.116317 32
