2 0.21253 0.313451 0.0668278 0.082246 0.400624 212
2 0.30638 0.796992 0.256017 0.38973 0.447471 194
2 0.631593 0.705585 0.185797 0.376448 0.642334 199
2 0.23225 0.309918 0.0353553 0.0734595 0.266689 217
2 0.0971857 0.347426 0.071993 0.106043 0.672102 220
2 0.205117 0.314685 0.0507092 0.0864309 0.503566 202
2 0.58408 0.431964 0.0905945 0.135428 0.542533 223
2 0.139473 0.329969 0.0620351 0.0978558 0.578297 225
2 0.625323 0.482017 0.140364 0.185521 0.826503 227
7 0.58318 0.302704 0.0836469 0.120958 0.512794 233
2 0.391469 0.394242 0.111519 0.0975362 0.107359 237
2 0.0351932 0.392088 0.0703864 0.134307 0.794469 248
2 0.337199 0.564784 0.127449 0.111752 0.62611 250
2 0.758204 0.968872 0.160469 0.0503872 0.461682 252
2 0.140908 0.335385 0.057759 0.101695 0.655801 228
2 0.144131 0.329892 0.0520789 0.0966372 0.46256 254
2 0.10287 0.349223 0.0612249 0.101135 0.35669 255
2 0.755191 0.972222 0.154468 0.0555561 0.505298 98
2 0.58539 0.417252 0.0936047 0.113652 0.227927 219
2 0.756535 0.973151 0.156449 0.0423914 0.107901 256
2 0.0128814 0.447599 0.0257002 0.142698 0.633523 257
2 0.0747581 0.375225 0.0629961 0.110739 0.772968 234
