2 0.273681 0.851161 0.187707 0.274268 0.897567 110
2 0.692577 0.893745 0.177923 0.20529 0.900447 166
2 0.344404 0.715334 0.155859 0.242354 0.873193 168
2 0.672978 0.687526 0.153376 0.213545 0.885734 98
2 0.260881 0.302553 0.0416079 0.039415 0.520259 200
2 0.108416 0.352652 0.0761768 0.107698 0.855542 212
7 0.384712 0.556251 0.165193 0.376574 0.541391 194
7 0.630434 0.5025 0.127505 0.231335 0.601967 199
2 0.144918 0.31707 0.0640784 0.0833935 0.302754 217
2 0.547284 0.366935 0.0425247 0.115153 0.403511 219
2 0.038536 0.377847 0.077072 0.159949 0.660785 220
2 0.141484 0.319482 0.0718806 0.0887928 0.611931 202
2 0.599608 0.399485 0.105675 0.18065 0.569341 223
