2 0.701467 0.9322 0.197734 0.115871 0.793129 166
2 0.330667 0.774652 0.174531 0.255517 0.858784 168
2 0.680162 0.73504 0.165718 0.229473 0.88697 98
2 0.269585 0.304936 0.0368393 0.0357411 0.378915 200
2 0.133338 0.337128 0.0717152 0.100587 0.727276 212
2 0.376839 0.58911 0.163151 0.384989 0.521446 194
2 0.631886 0.531227 0.135403 0.245635 0.627666 199
2 0.168599 0.313254 0.0509614 0.0836721 0.22925 217
2 0.551064 0.378452 0.0405001 0.11815 0.755081 219
2 0.0629926 0.352369 0.0803072 0.162004 0.609655 220
2 0.165217 0.313705 0.0611081 0.0846022 0.446393 202
2 0.607531 0.38525 0.102667 0.125953 0.450571 223
2 0.0282752 0.402355 0.0556147 0.130365 0.819687 225
2 0.607635 0.419229 0.107526 0.20074 0.609374 227
2 0.254101 0.893429 0.198794 0.203382 0.854335 110
2 0.694457 0.933262 0.188266 0.130386 0.264595 230
