2 0.316751 0.727022 0.15843 0.247518 0.892895 110
2 0.677423 0.786663 0.154536 0.250381 0.882741 166
2 0.362983 0.629953 0.130358 0.215671 0.783674 168
2 0.269993 0.924349 0.210846 0.128833 0.696616 178
7 0.152339 0.307121 0.0953452 0.129952 0.333139 190
2 0.27308 0.298642 0.0325499 0.0422787 0.226558 140
2 0.666399 0.606716 0.138486 0.187849 0.798922 98
2 0.240409 0.308336 0.0449801 0.0666413 0.54241 200
2 0.11189 0.334428 0.0772776 0.103479 0.398224 202
2 0.0608949 0.379474 0.0876068 0.120587 0.919381 212
2 0.380157 0.538052 0.145078 0.262577 0.239298 194
2 0.357095 0.607913 0.145848 0.174816 0.344193 215
2 0.617684 0.456857 0.118622 0.20902 0.543457 199
2 0.117079 0.335589 0.0669457 0.0976533 0.643731 217
2 0.256842 0.925791 0.233954 0.137821 0.808366 218
2 0.540222 0.354369 0.0379683 0.102798 0.630107 219
2 0.0104444 0.421385 0.0208454 0.177527 0.633985 220
