2 0.213697 0.312194 0.0695162 0.0845089 0.350322 212
2 0.306582 0.792262 0.239825 0.399792 0.550552 194
2 0.629064 0.701384 0.180082 0.363372 0.738142 199
2 0.231782 0.310127 0.0352461 0.0747154 0.259157 217
2 0.0956918 0.347109 0.0719673 0.110193 0.715257 220
2 0.20384 0.312206 0.0476892 0.0859405 0.431414 202
2 0.584408 0.430529 0.0931962 0.133631 0.517661 223
2 0.13616 0.33148 0.0602863 0.0966948 0.678232 225
2 0.624076 0.475386 0.13556 0.184349 0.79147 227
7 0.582794 0.302663 0.0850031 0.122151 0.457929 233
2 0.0740812 0.371488 0.061028 0.103837 0.150205 234
2 0.3944 0.390722 0.107814 0.100006 0.147685 237
2 0.0714389 0.379585 0.0656252 0.117372 0.708412 240
2 0.0336002 0.397966 0.0666788 0.137076 0.761036 248
2 0.341557 0.553855 0.123903 0.0993269 0.585685 250
2 0.754503 0.963628 0.175883 0.0629436 0.693984 252
2 0.138265 0.337721 0.0594977 0.106115 0.492948 228
2 0.141002 0.329952 0.0518383 0.093454 0.420311 254
2 0.102027 0.349901 0.0608237 0.0950142 0.124498 255
2 0.751635 0.95967 0.166782 0.0715617 0.629191 98
2 0.588003 0.420647 0.0967573 0.123824 0.353364 219
2 0.751615 0.965512 0.164439 0.0689758 0.548284 256
