2 0.258246 0.302711 0.0533524 0.04551 0.338635 298
2 0.25592 0.307166 0.0418585 0.049623 0.359481 356
2 0.647154 0.631353 0.146257 0.24961 0.755768 365
2 0.661389 0.861586 0.171091 0.20793 0.808697 376
2 0.388349 0.579913 0.120177 0.196087 0.814427 404
7 0.19206 0.273979 0.0659188 0.14728 0.585958 395
2 0.15199 0.335366 0.0367327 0.10314 0.211146 414
2 0.261666 0.87952 0.193397 0.227897 0.876878 415
2 0.69233 0.742435 0.149769 0.240645 0.841322 416
2 0.615975 0.449468 0.102312 0.128674 0.584011 422
2 0.614263 0.459851 0.101075 0.147107 0.773629 410
2 0.326113 0.647219 0.150862 0.252549 0.858275 353
2 0.674607 0.886183 0.207217 0.22394 0.272752 434
2 0.677316 0.950302 0.209082 0.079711 0.583499 417
2 0.568906 0.380716 0.0697488 0.117311 0.575084 436
2 0.0402699 0.378516 0.077042 0.13959 0.755242 441
2 0.371976 0.455894 0.10117 0.0872155 0.316868 442
2 0.666876 0.942091 0.205063 0.100595 0.115095 440
2 0.665859 0.871101 0.185961 0.237694 0.452915 450
2 0.684179 0.762017 0.154428 0.209043 0.161513 451
2 0.398689 0.584014 0.0999932 0.180782 0.223496 304
2 0.122876 0.34091 0.0841324 0.112115 0.798949 423
2 0.125777 0.336354 0.0875928 0.110476 0.584229 433
