2 0.268349 0.287485 0.0397715 0.0478696 0.146147 220
2 0.638948 0.633051 0.137052 0.232166 0.770232 233
2 0.672189 0.893235 0.207803 0.19935 0.902954 219
2 0.24885 0.301821 0.0581434 0.0679791 0.465224 272
2 0.265239 0.294651 0.0355725 0.0530866 0.35229 283
2 0.239269 0.299135 0.0488671 0.0788313 0.357057 290
2 0.260156 0.293096 0.0421214 0.0565934 0.232545 248
2 0.166908 0.318347 0.0556038 0.0916745 0.861874 298
2 0.403376 0.367229 0.0870742 0.125864 0.453446 304
2 0.6327 0.62174 0.130205 0.215091 0.178849 314
2 0.692915 0.759813 0.151211 0.236724 0.789814 322
2 0.304473 0.809242 0.181822 0.252103 0.841306 288
2 0.0407377 0.379804 0.0792361 0.124854 0.840015 340
2 0.0874214 0.358907 0.0570737 0.11338 0.542343 345
2 0.123692 0.33239 0.0651878 0.107802 0.733021 307
2 0.270653 0.927775 0.201729 0.138504 0.62072 346
2 0.206708 0.309285 0.0487922 0.0804571 0.702927 270
7 0.354313 0.578917 0.167091 0.339034 0.393395 350
2 0.350174 0.602791 0.156977 0.289612 0.655805 306
2 0.378807 0.493874 0.125007 0.186599 0.515617 352
2 0.455801 0.365561 0.0517082 0.112256 0.630269 353
2 0.690151 0.722812 0.146446 0.161344 0.750536 354
2 0.256469 0.923571 0.214109 0.137039 0.770614 297
2 0.694239 0.76367 0.154488 0.244858 0.181254 271
2 0.0756773 0.355075 0.0802984 0.124099 0.621927 356
2 0.125339 0.335421 0.0590555 0.100154 0.760879 357
