2 0.334722 0.704499 0.159574 0.264856 0.816259 55
7 0.729661 0.842989 0.264897 0.290875 0.620193 16
2 0.252749 0.301449 0.052335 0.0390081 0.252296 70
2 0.2813 0.891937 0.171193 0.201941 0.896876 80
2 0.611944 0.430747 0.0846004 0.134976 0.588311 98
2 0.201522 0.297485 0.0602791 0.0975857 0.349856 99
2 0.399244 0.384469 0.0934743 0.102724 0.116949 110
2 0.629288 0.552874 0.115197 0.181111 0.819006 120
2 0.381211 0.501178 0.108586 0.16813 0.543902 123
2 0.132159 0.332991 0.0591588 0.10605 0.684345 140
2 0.824919 0.510644 0.120124 0.178073 0.865421 74
2 0.595382 0.383565 0.0762585 0.115167 0.626163 148
2 0.246791 0.300905 0.0421413 0.044475 0.213344 144
2 0.0339638 0.306409 0.0525152 0.0662354 0.233016 157
2 0.354143 0.572164 0.121879 0.0863923 0.559491 158
2 0.127298 0.335531 0.0685779 0.10959 0.57566 162
2 0.670147 0.640798 0.132983 0.194395 0.293978 165
2 0.0609024 0.367778 0.0833565 0.125972 0.893005 156
2 0.0895119 0.353241 0.0655484 0.107014 0.587855 150
2 0.61435 0.42425 0.0868844 0.120377 0.756489 166
2 0.675813 0.650573 0.146621 0.207339 0.803752 164
2 0.122095 0.336869 0.0838783 0.115463 0.570566 160
