2 0.370327 0.596349 0.138241 0.225153 0.827461 55
2 0.712533 0.972256 0.159637 0.0539267 0.411246 57
2 0.265107 0.302152 0.0333264 0.0364773 0.205722 52
2 0.25777 0.302548 0.0282673 0.0382647 0.422144 32
2 0.698882 0.729916 0.20852 0.49705 0.557885 16
2 0.223857 0.297066 0.0532538 0.0555873 0.203233 70
2 0.310399 0.716076 0.143038 0.184939 0.903699 80
2 0.595404 0.386442 0.0780752 0.132668 0.586949 98
2 0.151799 0.316648 0.0783124 0.121643 0.312954 99
2 0.2607 0.301538 0.0328767 0.0432205 0.178035 53
2 0.421944 0.354003 0.0735122 0.105127 0.194504 110
2 0.61867 0.485215 0.098553 0.161529 0.704103 120
2 0.397244 0.422028 0.0817062 0.0967705 0.364835 123
2 0.0600808 0.372023 0.082288 0.138023 0.898855 140
2 0.776968 0.435241 0.101705 0.148366 0.829983 74
2 0.596144 0.384913 0.0756473 0.104657 0.182664 148
2 0.222498 0.304175 0.0623301 0.0675786 0.515442 144
2 0.591822 0.711526 0.0447548 0.212853 0.515602 149
2 0.0263122 0.396744 0.052006 0.127394 0.717473 150
2 0.625478 0.48136 0.113059 0.154516 0.468154 92
2 0.714602 0.96576 0.156916 0.0563087 0.50238 155
2 0.220803 0.958027 0.169598 0.0792405 0.741333 100
2 0.0132436 0.428624 0.0264873 0.145408 0.696838 156
2 0.0137497 0.442391 0.0273398 0.117026 0.565245 157
