2 0.223825 0.312162 0.063304 0.0833137 0.219626 212
2 0.275089 0.827791 0.290016 0.315949 0.714994 194
2 0.642857 0.763812 0.194295 0.407266 0.747891 199
2 0.242648 0.298245 0.0346696 0.0452981 0.395855 217
2 0.124871 0.335896 0.0599074 0.0990746 0.233597 220
2 0.214326 0.311636 0.044138 0.0803076 0.513359 202
2 0.624148 0.510082 0.142529 0.197512 0.622913 223
7 0.168946 0.302198 0.0572758 0.112469 0.123893 225
2 0.619516 0.521266 0.138199 0.220771 0.693561 227
7 0.586573 0.32137 0.0937426 0.142221 0.117911 233
2 0.380261 0.41223 0.113516 0.0916429 0.192699 237
2 0.054259 0.378097 0.0734592 0.124573 0.829546 248
2 0.327393 0.663826 0.147449 0.241809 0.615412 250
2 0.162523 0.326619 0.056772 0.0916419 0.596941 254
2 0.119015 0.331854 0.0690072 0.109246 0.535552 255
2 0.587021 0.441331 0.0926205 0.128663 0.550295 219
2 0.0256788 0.418181 0.0513576 0.135232 0.847791 257
2 0.0963279 0.365458 0.0624151 0.119321 0.231747 234
2 0.0952623 0.359437 0.0575198 0.111855 0.792723 258
2 0.16694 0.323163 0.0566426 0.0937766 0.145877 228
2 0.37103 0.533984 0.124194 0.17613 0.713917 261
