2 0.703137 0.860186 0.209553 0.263877 0.784036 365
7 0.249713 0.277075 0.0594208 0.115236 0.504004 395
2 0.649066 0.583164 0.123829 0.17275 0.858393 410
2 0.258179 0.884523 0.211992 0.218253 0.89344 353
2 0.160362 0.315396 0.0579571 0.0997189 0.561897 441
2 0.312812 0.676126 0.156636 0.185847 0.767792 442
7 0.246438 0.275661 0.0539285 0.109262 0.549064 453
2 0.203399 0.309369 0.0513341 0.087951 0.578074 423
2 0.134503 0.333195 0.0368531 0.113717 0.266044 456
2 0.133638 0.342406 0.0344203 0.0955083 0.215774 462
2 0.0857421 0.338064 0.0852347 0.149536 0.622557 471
2 0.418874 0.405848 0.0856221 0.138848 0.732483 476
2 0.577986 0.350465 0.0930945 0.141768 0.54371 478
2 0.0577157 0.380493 0.0853468 0.1255 0.856637 480
2 0.655079 0.493573 0.102692 0.113931 0.503849 482
2 0.0930954 0.330311 0.116756 0.144698 0.594975 483
2 0.595883 0.445267 0.103265 0.166304 0.535288 436
2 0.334067 0.832065 0.163573 0.26905 0.884095 304
2 0.600432 0.456583 0.111955 0.153987 0.707092 485
2 0.783945 0.961933 0.146739 0.0527894 0.136437 486
2 0.356506 0.630983 0.123095 0.202551 0.662791 488
2 0.785383 0.966825 0.159097 0.0624019 0.745035 416
2 0.332047 0.819973 0.154505 0.227217 0.222488 490
