2 0.22553 0.306833 0.0593449 0.0686198 0.227939 212
2 0.26684 0.835224 0.297397 0.310462 0.687033 194
2 0.644645 0.771376 0.196734 0.413901 0.750502 199
2 0.24428 0.29925 0.0337703 0.0441748 0.47484 217
2 0.121603 0.336959 0.0706484 0.0940769 0.608431 220
2 0.216744 0.311858 0.0406392 0.0805403 0.567474 202
2 0.624052 0.517453 0.144551 0.198185 0.55723 223
7 0.174148 0.300967 0.0593324 0.110257 0.138079 225
2 0.619067 0.532274 0.141009 0.239934 0.712328 227
7 0.585848 0.320231 0.0902981 0.145849 0.431147 233
2 0.384577 0.41077 0.0855634 0.0929217 0.101908 237
2 0.0583616 0.374146 0.0752645 0.122275 0.727809 248
2 0.319224 0.675238 0.161756 0.25566 0.653449 250
2 0.164048 0.3253 0.0589761 0.0928241 0.656922 254
2 0.123503 0.329793 0.0677976 0.108127 0.570633 255
2 0.584334 0.452795 0.0863605 0.144639 0.593382 219
2 0.028383 0.414617 0.0563711 0.136104 0.880477 257
2 0.10093 0.357521 0.0520163 0.109348 0.660606 234
2 0.0968465 0.358398 0.0605035 0.111499 0.597941 258
2 0.168974 0.325614 0.0579412 0.0951139 0.47789 228
2 0.372057 0.537586 0.123264 0.176401 0.63063 261
2 0.0531807 0.375562 0.0834536 0.1306 0.751798 260
