2 0.604968 0.658111 0.142432 0.216155 0.868326 1
2 0.17025 0.315996 0.0725548 0.0962739 0.740937 3
2 0.736638 0.971846 0.166152 0.0491345 0.451396 5
2 0.324228 0.862774 0.20195 0.26117 0.864071 7
2 0.255742 0.295092 0.0328952 0.0399881 0.235113 10
5 0.191528 0.287954 0.0561931 0.0962015 0.128028 13
5 0.624684 0.312855 0.0926248 0.160897 0.812921 16
2 0.109266 0.336775 0.0686705 0.117582 0.661225 21
2 0.627504 0.457298 0.103245 0.131821 0.587683 22
2 0.64664 0.55637 0.114602 0.17324 0.779885 23
2 0.397051 0.537348 0.0964216 0.18695 0.682137 26
2 0.356888 0.60531 0.129069 0.198419 0.858871 29
2 0.0603976 0.363745 0.084271 0.115845 0.754421 32
2 0.386507 0.531996 0.115053 0.176832 0.670908 8
2 0.677274 0.872685 0.189794 0.250656 0.896729 9
2 0.392829 0.528908 0.105869 0.190453 0.379319 42
2 0.377128 0.425209 0.097151 0.116798 0.464798 47
2 0.0230131 0.382547 0.0459333 0.132672 0.238576 50
2 0.734923 0.9758 0.16695 0.0484 0.317199 41
7 0.626253 0.315024 0.0960695 0.169844 0.460703 51
2 0.059223 0.357392 0.0887119 0.134257 0.290763 52
2 0.0221155 0.390504 0.0427331 0.131095 0.775643 53
2 0.356146 0.586261 0.130758 0.162058 0.599476 45
