2 0.231488 0.298638 0.0374251 0.0661386 0.114362 3
2 0.234082 0.309624 0.0406811 0.0786948 0.276585 13
2 0.192196 0.315441 0.0546381 0.089167 0.30204 21
2 0.675581 0.63205 0.144606 0.218619 0.705973 22
2 0.673547 0.808455 0.164175 0.244495 0.835461 23
2 0.395565 0.407788 0.0974659 0.127906 0.399874 55
2 0.622583 0.570444 0.112104 0.1825 0.806084 57
2 0.188362 0.319337 0.0463631 0.08747 0.144633 52
2 0.095679 0.344885 0.0706498 0.108267 0.525549 60
2 0.673968 0.61478 0.141189 0.188537 0.702698 66
2 0.187799 0.31785 0.0543715 0.0872982 0.585573 32
7 0.642716 0.405884 0.130535 0.241061 0.698315 16
2 0.0686918 0.366336 0.082218 0.115143 0.853673 70
2 0.332462 0.76659 0.158855 0.252503 0.882935 8
2 0.375408 0.659131 0.142691 0.232785 0.830323 26
2 0.616545 0.568971 0.101706 0.172368 0.541754 73
2 0.710882 0.337829 0.0450064 0.097707 0.280888 74
2 0.135885 0.319591 0.0824283 0.0916843 0.655885 53
2 0.360748 0.542045 0.123729 0.157548 0.585124 80
2 0.671111 0.622306 0.137272 0.20463 0.148363 84
2 0.140377 0.320907 0.0697437 0.0900755 0.570669 68
2 0.5689 0.367248 0.0506937 0.115261 0.545581 92
2 0.272854 0.901386 0.188966 0.185238 0.892313 29
2 0.372845 0.663235 0.130118 0.214013 0.681553 77
