2 0.357282 0.627678 0.142422 0.243639 0.784828 55
2 0.268399 0.30307 0.0255997 0.0348982 0.148114 52
2 0.269816 0.297977 0.0270423 0.0417655 0.124485 32
7 0.702092 0.772454 0.218048 0.426414 0.478002 16
2 0.232911 0.308723 0.0602205 0.0715448 0.541987 70
2 0.299375 0.779708 0.148747 0.198587 0.925101 80
2 0.604714 0.410112 0.0801882 0.141809 0.623909 98
2 0.173415 0.307736 0.0671021 0.11368 0.178021 99
2 0.405619 0.348282 0.0728855 0.0659295 0.171526 110
2 0.622154 0.505272 0.0989955 0.168826 0.863477 120
2 0.391722 0.43955 0.0896263 0.103523 0.503983 123
2 0.0865627 0.353564 0.0782088 0.121834 0.801247 140
2 0.792985 0.46268 0.108977 0.1676 0.836446 74
2 0.604348 0.398841 0.0793818 0.118126 0.57347 148
2 0.23496 0.301001 0.0532187 0.0600655 0.413261 144
2 0.590812 0.801081 0.0317361 0.167075 0.143355 149
2 0.042243 0.380639 0.0794426 0.122676 0.632487 150
2 0.622894 0.521704 0.0991636 0.13416 0.13524 92
2 0.0360792 0.39329 0.0715505 0.135845 0.59934 156
2 0.0303937 0.398315 0.060698 0.134204 0.773203 157
2 0.364034 0.492995 0.110917 0.104983 0.635028 158
2 0.0498401 0.377562 0.066159 0.116732 0.471525 160
