2 0.704654 0.928502 0.189232 0.120046 0.82606 166
2 0.32982 0.771644 0.174693 0.254261 0.863108 168
2 0.679013 0.732899 0.16333 0.228238 0.893842 98
2 0.268785 0.304856 0.0364632 0.0351659 0.407305 200
2 0.132168 0.33747 0.0714971 0.100083 0.641089 212
2 0.376623 0.587827 0.164237 0.384518 0.525088 194
2 0.632686 0.528594 0.135239 0.244235 0.593764 199
2 0.166675 0.313328 0.0509529 0.0829577 0.202826 217
2 0.550948 0.377934 0.0400003 0.118314 0.744232 219
2 0.0616696 0.353242 0.0803647 0.162458 0.573085 220
2 0.16301 0.314295 0.0607982 0.0848553 0.436051 202
2 0.606816 0.383957 0.102837 0.126632 0.492548 223
2 0.0275123 0.402131 0.0542591 0.129971 0.802526 225
2 0.607127 0.417973 0.106784 0.200306 0.609548 227
2 0.260881 0.893231 0.188574 0.2103 0.856593 110
2 0.697649 0.930569 0.190318 0.136138 0.338407 230
