2 0.254029 0.294908 0.0318773 0.0485897 0.349353 3
2 0.252014 0.292707 0.0335996 0.0474959 0.159266 13
2 0.204182 0.310882 0.0786903 0.0806519 0.25824 21
2 0.700874 0.75408 0.169733 0.265508 0.841833 22
2 0.711773 0.937065 0.192328 0.111627 0.866416 23
2 0.392177 0.465001 0.113038 0.183028 0.622721 55
2 0.633128 0.644799 0.128704 0.201622 0.845568 57
2 0.217126 0.306951 0.0473917 0.076554 0.53124 52
2 0.219854 0.30311 0.0530207 0.0782095 0.465593 32
7 0.649493 0.454895 0.143711 0.271927 0.44447 16
2 0.131786 0.334286 0.0830869 0.103856 0.898888 70
2 0.293101 0.898571 0.194582 0.188887 0.921352 8
2 0.348873 0.787154 0.181336 0.264181 0.867651 26
2 0.714548 0.355165 0.0683463 0.122886 0.581839 74
2 0.375424 0.537337 0.0974621 0.149022 0.771782 80
2 0.578949 0.390834 0.0518922 0.126421 0.552839 92
2 0.373157 0.549797 0.101059 0.137586 0.573484 97
2 0.572421 0.33818 0.0671449 0.111844 0.454431 98
2 0.039538 0.395092 0.0789174 0.164239 0.773465 99
2 0.344125 0.622636 0.136803 0.188518 0.533248 100
2 0.180426 0.31241 0.0501495 0.0793824 0.569936 53
2 0.344417 0.605838 0.136587 0.15834 0.762337 107
2 0.347883 0.787495 0.158778 0.274314 0.835159 95
