2 0.307766 0.815686 0.180166 0.293417 0.887614 55
2 0.797964 0.963468 0.292506 0.0566939 0.620624 16
2 0.264829 0.300596 0.030005 0.0299956 0.144708 70
2 0.247114 0.977818 0.131422 0.0366126 0.152546 80
2 0.612863 0.424254 0.0897366 0.130572 0.504392 98
2 0.226831 0.288687 0.0527479 0.0687322 0.332811 99
2 0.393552 0.451442 0.0969253 0.153326 0.449852 110
2 0.635157 0.614686 0.121721 0.201148 0.83441 120
2 0.381898 0.541616 0.093228 0.18217 0.18655 123
2 0.866382 0.585423 0.139406 0.200554 0.856205 74
2 0.60666 0.405461 0.0882138 0.121105 0.504895 148
2 0.260833 0.300635 0.0303868 0.0355661 0.125916 144
2 0.0301748 0.322501 0.0598845 0.110453 0.755061 157
2 0.333936 0.697513 0.147811 0.220837 0.651974 158
2 0.104315 0.342836 0.0740952 0.110934 0.85744 156
2 0.620802 0.464881 0.0966063 0.146417 0.784628 166
2 0.682639 0.739412 0.151663 0.238283 0.870047 164
2 0.165453 0.316545 0.0611957 0.098558 0.731605 160
5 0.424212 0.340437 0.0932873 0.222519 0.46575 168
2 0.107633 0.33777 0.0883564 0.115747 0.797324 171
2 0.132829 0.327969 0.048453 0.100417 0.32854 140
2 0.333925 0.665285 0.146825 0.153693 0.574073 173
2 0.246642 0.980491 0.132953 0.0390171 0.277122 174
7 0.162823 0.313984 0.0617388 0.106319 0.145179 150
2 0.795095 0.967049 0.289477 0.0659012 0.468011 176
2 0.337672 0.650785 0.140758 0.123125 0.286287 177
2 0.36768 0.537863 0.120655 0.186021 0.603514 178
