2 0.254995 0.301294 0.0416263 0.0519367 0.3695 220
2 0.286267 0.293578 0.0237935 0.0306563 0.130195 225
2 0.64239 0.578162 0.130068 0.21288 0.734768 233
2 0.643379 0.822382 0.185234 0.265224 0.911306 219
2 0.177942 0.314859 0.0551967 0.0896908 0.739551 270
2 0.217455 0.300819 0.0475167 0.0857377 0.412631 272
2 0.253852 0.300019 0.0410421 0.0549856 0.197366 283
2 0.218735 0.315379 0.042648 0.0697518 0.507122 290
2 0.675826 0.677198 0.1411 0.213838 0.806454 271
2 0.25618 0.298828 0.0403194 0.0445888 0.18633 248
2 0.292889 0.83474 0.173804 0.208136 0.693718 297
2 0.136244 0.329557 0.0590602 0.0902891 0.828073 298
2 0.218737 0.943729 0.191293 0.103301 0.758968 302
2 0.303929 0.927794 0.175571 0.138845 0.697245 265
2 0.428655 0.349909 0.114713 0.122497 0.199379 304
2 0.366979 0.524899 0.142884 0.298599 0.260762 306
2 0.363343 0.54042 0.142886 0.25951 0.706091 313
2 0.64359 0.560003 0.133946 0.180837 0.176778 314
2 0.252404 0.933748 0.280169 0.127581 0.57127 237
2 0.675305 0.665541 0.128337 0.195076 0.752765 322
2 0.337629 0.704036 0.1552 0.228703 0.83861 288
2 0.044058 0.384645 0.0831269 0.132958 0.7869 328
2 0.0944733 0.353916 0.0657418 0.112424 0.800852 307
2 0.550116 0.458917 0.027997 0.125285 0.15257 334
2 0.294561 0.820239 0.169462 0.190727 0.736075 339
2 0.0207155 0.415835 0.0405646 0.133667 0.795706 340
2 0.670141 0.641635 0.1307 0.143944 0.453814 341
2 0.252439 0.943754 0.262863 0.107721 0.36386 342
