2 0.635241 0.834505 0.180399 0.269144 0.901617 1
2 0.203827 0.308162 0.0498583 0.0864995 0.17336 3
2 0.20175 0.304936 0.0438302 0.0753142 0.304925 13
2 0.164901 0.315725 0.0586387 0.100316 0.468362 21
2 0.65647 0.507806 0.112604 0.119195 0.11662 22
2 0.658615 0.661048 0.145041 0.204449 0.792033 23
2 0.322165 0.745246 0.152802 0.239203 0.873723 29
2 0.383301 0.561503 0.120018 0.175284 0.501683 47
2 0.402793 0.384501 0.0978076 0.13644 0.625113 55
2 0.604986 0.502436 0.0994919 0.154924 0.751869 57
2 0.138352 0.330854 0.0594871 0.0939055 0.656915 52
2 0.0385976 0.386962 0.0771953 0.123168 0.798292 60
2 0.653244 0.515656 0.118512 0.135603 0.482219 66
2 0.136843 0.325403 0.0624397 0.0951079 0.747045 32
2 0.653503 0.527537 0.126535 0.160054 0.605086 67
2 0.0911512 0.343942 0.0756803 0.104936 0.448895 68
7 0.627737 0.353906 0.127638 0.191623 0.590245 16
2 0.657779 0.632979 0.139748 0.143895 0.428165 69
2 0.0199239 0.415758 0.0398478 0.134857 0.817607 70
2 0.363202 0.637735 0.130544 0.216436 0.830949 8
2 0.380836 0.545459 0.120462 0.152211 0.322744 26
2 0.0214004 0.410766 0.0428007 0.125646 0.576445 72
2 0.599539 0.503232 0.0856653 0.151888 0.475899 73
2 0.704433 0.322979 0.0455455 0.0988918 0.669846 74
2 0.0913776 0.333622 0.0757068 0.120444 0.75547 53
