2 0.371156 0.594273 0.135903 0.224313 0.836869 55
2 0.712715 0.967265 0.166231 0.0614249 0.579953 57
2 0.264156 0.301801 0.0345637 0.0370511 0.24854 52
2 0.257279 0.30246 0.0291365 0.0363061 0.358423 32
2 0.69591 0.725051 0.202277 0.493097 0.568669 16
2 0.222658 0.297477 0.0525996 0.0573737 0.16963 70
2 0.311121 0.712899 0.14156 0.182141 0.90487 80
2 0.59554 0.388723 0.076708 0.129441 0.525254 98
2 0.152657 0.315955 0.0718045 0.120622 0.439777 99
2 0.260995 0.301177 0.0337772 0.0438327 0.196903 53
2 0.424023 0.357242 0.0805766 0.109334 0.121608 110
2 0.61917 0.482788 0.0989761 0.160903 0.71735 120
2 0.396502 0.419023 0.0825749 0.0922685 0.369465 123
2 0.0582755 0.372814 0.0826514 0.136124 0.869875 140
2 0.776659 0.433433 0.101787 0.148196 0.833303 74
2 0.596691 0.384759 0.0742785 0.104268 0.208966 148
2 0.221702 0.305302 0.0638179 0.0677617 0.516729 144
2 0.593294 0.707687 0.0428922 0.214947 0.604679 149
2 0.024845 0.398477 0.0496899 0.126368 0.702366 150
2 0.624003 0.482664 0.113841 0.156591 0.562404 92
2 0.712934 0.963753 0.16074 0.0649532 0.693446 155
2 0.224361 0.952873 0.170273 0.0910433 0.752419 100
