2 0.609572 0.690387 0.144556 0.228908 0.874079 1
2 0.179093 0.314346 0.0637475 0.0931126 0.551769 3
2 0.308207 0.896387 0.220411 0.192753 0.908765 7
2 0.260745 0.295513 0.0239128 0.0408593 0.231392 10
2 0.180121 0.314054 0.0738866 0.0894754 0.611541 13
5 0.626688 0.319868 0.0956393 0.162855 0.820098 16
2 0.12342 0.331359 0.068056 0.116639 0.760529 21
2 0.634547 0.476595 0.109646 0.14943 0.570229 22
2 0.650824 0.579965 0.117433 0.180173 0.744365 23
2 0.381526 0.550163 0.12571 0.17116 0.790495 26
2 0.348419 0.631154 0.132594 0.204696 0.813446 29
2 0.0715392 0.345828 0.0933088 0.123429 0.364595 32
2 0.388195 0.553989 0.108273 0.185515 0.529991 8
2 0.687426 0.89806 0.198448 0.191443 0.898994 9
2 0.378442 0.433037 0.101588 0.115557 0.456251 47
2 0.0334643 0.378462 0.0669286 0.118373 0.833628 53
2 0.369333 0.585571 0.0870575 0.114979 0.121893 45
2 0.415233 0.36066 0.0876466 0.135799 0.605845 55
7 0.627112 0.322311 0.101393 0.170644 0.663866 56
2 0.584507 0.45574 0.0801113 0.138327 0.697171 57
2 0.0813043 0.354055 0.0737009 0.110458 0.77101 52
