2 0.27049 0.300686 0.0300656 0.0479454 0.229074 220
2 0.639383 0.68163 0.14371 0.247751 0.800111 233
2 0.254639 0.29894 0.0404379 0.0604311 0.159565 272
2 0.251306 0.296338 0.0301282 0.0581011 0.217684 290
2 0.186466 0.315035 0.0501496 0.0888202 0.659358 298
2 0.400279 0.379208 0.0878244 0.130924 0.451998 304
2 0.271428 0.886135 0.194718 0.217786 0.804704 288
2 0.0647806 0.358686 0.0882558 0.109265 0.713514 340
2 0.113971 0.346373 0.0512969 0.0943738 0.304133 345
2 0.163196 0.317798 0.0936253 0.0964888 0.181308 307
2 0.334009 0.654834 0.173121 0.305947 0.662127 350
2 0.372426 0.509857 0.123783 0.162296 0.509206 306
2 0.398458 0.501909 0.0938684 0.168213 0.517706 352
2 0.452039 0.376636 0.0546484 0.120327 0.673424 353
2 0.709725 0.810038 0.159279 0.194003 0.65747 354
2 0.0990801 0.340902 0.0796558 0.113202 0.324206 356
2 0.710682 0.832699 0.163913 0.237205 0.812173 271
2 0.0722938 0.360004 0.0732251 0.108966 0.577555 328
2 0.118414 0.353778 0.04312 0.0774912 0.515393 361
2 0.224601 0.307508 0.0433027 0.0763145 0.458976 362
2 0.614519 0.393658 0.0864832 0.0780083 0.599153 365
2 0.0185086 0.401561 0.0364515 0.124738 0.80451 369
2 0.148372 0.32308 0.055344 0.0966619 0.788769 371
2 0.0199911 0.411072 0.0392984 0.118418 0.150417 372
2 0.688732 0.942431 0.192426 0.102042 0.533248 374
2 0.596851 0.370561 0.0872714 0.112988 0.627803 376
2 0.261297 0.884766 0.235182 0.211147 0.811736 366
2 0.694779 0.948922 0.192159 0.0962902 0.814456 219
