2 0.285007 0.899793 0.209475 0.189821 0.909554 168
2 0.706441 0.87451 0.187279 0.240766 0.892738 98
2 0.1837 0.317561 0.0653705 0.0960874 0.270924 212
5 0.352907 0.706681 0.205231 0.473687 0.41417 194
2 0.632273 0.604916 0.162389 0.294381 0.713186 199
2 0.205345 0.31111 0.0328079 0.0836104 0.123608 217
2 0.618489 0.433484 0.121147 0.170901 0.298965 219
2 0.11696 0.327604 0.0781026 0.132797 0.543866 220
2 0.176441 0.318119 0.0560511 0.0897075 0.60608 202
2 0.581161 0.399432 0.0870531 0.121191 0.519292 223
2 0.0850656 0.360986 0.0695161 0.1123 0.869177 225
2 0.619755 0.417113 0.12041 0.128362 0.707354 227
7 0.580551 0.285419 0.0798379 0.104856 0.357214 233
2 0.0338942 0.419899 0.0665694 0.134542 0.228601 234
2 0.0413462 0.382091 0.0821157 0.121752 0.822158 228
2 0.381832 0.372842 0.0911078 0.0799481 0.109158 237
2 0.0318602 0.428741 0.0631679 0.135494 0.776622 240
