2 0.245709 0.302617 0.0451335 0.0655581 0.220134 220
2 0.276352 0.29971 0.0223393 0.0327761 0.147513 225
7 0.625492 0.453253 0.126057 0.203269 0.588994 233
2 0.62891 0.73979 0.164675 0.239993 0.888422 219
2 0.160752 0.320298 0.0606207 0.0929043 0.54462 270
2 0.195384 0.307092 0.0517606 0.0933798 0.647768 272
2 0.735869 0.927293 0.244844 0.135443 0.777879 285
2 0.238826 0.312462 0.0595046 0.0824567 0.40838 283
2 0.20033 0.312022 0.0405883 0.0887498 0.112199 290
2 0.668887 0.619829 0.119101 0.200719 0.803586 271
2 0.235814 0.306131 0.047309 0.076832 0.394638 248
2 0.317434 0.715897 0.155198 0.13983 0.301791 297
2 0.106607 0.342325 0.0666452 0.101653 0.793437 298
2 0.247217 0.883351 0.210247 0.221702 0.846957 302
2 0.343519 0.877243 0.125274 0.24074 0.117184 265
2 0.422225 0.343303 0.0969192 0.11909 0.331823 304
2 0.375849 0.488849 0.133105 0.254768 0.545528 306
2 0.376844 0.455778 0.133934 0.200537 0.462395 313
2 0.642728 0.531744 0.116272 0.180938 0.587312 314
2 0.320688 0.870592 0.168586 0.246892 0.6492 237
2 0.657882 0.62553 0.137468 0.203184 0.528434 322
2 0.354742 0.634778 0.141276 0.205379 0.799995 288
2 0.31651 0.728491 0.154493 0.170589 0.708159 327
2 0.0276811 0.41343 0.0540602 0.14166 0.849028 328
2 0.0640681 0.372115 0.0708695 0.123628 0.838889 307
2 0.548757 0.44207 0.0369309 0.118588 0.562682 334
2 0.153607 0.321245 0.0728405 0.0944441 0.591564 336
2 0.028552 0.408097 0.0557224 0.151831 0.724434 329
