2 0.212691 0.313201 0.0646006 0.0812236 0.389594 212
2 0.303623 0.800386 0.259391 0.388483 0.536003 194
2 0.634769 0.715359 0.190999 0.368465 0.65279 199
2 0.232904 0.307014 0.0346316 0.0684269 0.241913 217
2 0.0988413 0.342298 0.0764631 0.102822 0.690235 220
2 0.206499 0.314467 0.0487509 0.0869766 0.186794 202
2 0.586636 0.432599 0.0956789 0.140452 0.530901 223
2 0.140885 0.329619 0.0636917 0.0972144 0.631745 225
2 0.626141 0.485601 0.140088 0.186033 0.785483 227
7 0.582976 0.300359 0.0837449 0.117012 0.446467 233
2 0.378788 0.408545 0.117125 0.104614 0.515877 237
2 0.0361833 0.391427 0.0723666 0.133044 0.727718 248
2 0.339481 0.586479 0.135053 0.143232 0.574681 250
2 0.76077 0.97128 0.155665 0.0424089 0.312502 252
2 0.143142 0.334706 0.0581043 0.100848 0.553155 228
2 0.146616 0.330223 0.0525041 0.0957015 0.513171 254
2 0.100661 0.346828 0.0683844 0.104482 0.611118 255
2 0.759191 0.977923 0.150616 0.0441532 0.372203 98
2 0.584415 0.423836 0.0949371 0.122921 0.515169 219
2 0.763533 0.975014 0.160912 0.0418983 0.259176 256
2 0.0137668 0.442985 0.0275336 0.140853 0.674399 257
2 0.0740444 0.37322 0.0688732 0.113794 0.787421 234
