2 0.272546 0.298942 0.047059 0.0497113 0.562688 99
2 0.368159 0.556543 0.118312 0.193836 0.704569 110
2 0.300448 0.86401 0.170897 0.266784 0.858083 123
2 0.955514 0.85573 0.0878977 0.272855 0.828865 74
2 0.116441 0.312231 0.0335653 0.0770547 0.237088 157
2 0.217994 0.924655 0.206781 0.132231 0.838189 158
2 0.645899 0.577838 0.114908 0.185662 0.861742 166
7 0.399768 0.400838 0.113924 0.270254 0.390357 168
2 0.339554 0.684865 0.145562 0.225243 0.83095 178
2 0.679818 0.824382 0.17893 0.259479 0.908943 120
2 0.179985 0.311955 0.0620167 0.0828782 0.370213 156
2 0.0519118 0.358722 0.103324 0.165596 0.793185 190
2 0.223364 0.300139 0.049071 0.0759584 0.717356 140
2 0.627173 0.475645 0.100168 0.152662 0.733944 98
2 0.36693 0.532231 0.115878 0.144157 0.544576 194
2 0.274472 0.298906 0.0444569 0.0510591 0.408323 197
7 0.575488 0.373146 0.0936468 0.178645 0.349614 199
2 0.18473 0.309987 0.0698493 0.0872744 0.80709 200
2 0.726303 0.973095 0.150448 0.0531087 0.771049 164
2 0.0153662 0.415752 0.0303145 0.134663 0.764407 202
2 0.725985 0.968806 0.150976 0.0530824 0.687692 203
2 0.219982 0.919927 0.210414 0.152089 0.691954 55
