2 0.311623 0.741733 0.163859 0.254186 0.908091 110
2 0.679739 0.805567 0.156972 0.253299 0.882846 166
2 0.359811 0.643107 0.13594 0.214276 0.875817 168
2 0.255727 0.94158 0.201655 0.103423 0.700128 178
7 0.158856 0.297644 0.0874283 0.134563 0.342 190
2 0.275012 0.300233 0.0279461 0.0344912 0.225805 140
2 0.667241 0.617544 0.137872 0.189052 0.883196 98
2 0.242083 0.308907 0.0410667 0.0647405 0.59164 200
2 0.120116 0.331531 0.0728489 0.100174 0.639822 202
2 0.0672283 0.375135 0.0871654 0.117886 0.860525 212
7 0.381869 0.504645 0.148739 0.345418 0.409895 194
2 0.356977 0.628103 0.141692 0.193424 0.356011 215
2 0.619035 0.463584 0.119129 0.211505 0.550713 199
2 0.122118 0.334263 0.0649134 0.0961914 0.761194 217
2 0.249284 0.938595 0.216305 0.112671 0.602359 218
2 0.542572 0.35656 0.0389463 0.103077 0.579051 219
2 0.0170936 0.412705 0.0341872 0.183723 0.509362 220
2 0.0145313 0.413562 0.0290626 0.176894 0.788103 221
