2 0.369609 0.600486 0.139811 0.23194 0.841236 55
2 0.716776 0.980668 0.15004 0.0386644 0.156661 57
2 0.262047 0.302601 0.0288359 0.0336151 0.190693 52
2 0.259222 0.302818 0.0291226 0.0396935 0.421109 32
2 0.69749 0.737935 0.205049 0.492524 0.502808 16
2 0.220177 0.303278 0.0583183 0.0695458 0.530819 70
2 0.308745 0.726127 0.144024 0.185965 0.914069 80
2 0.59652 0.388653 0.0780254 0.130393 0.59042 98
2 0.15648 0.316421 0.0701012 0.116901 0.542456 99
2 0.260844 0.298843 0.0340501 0.044717 0.280361 53
2 0.423904 0.354006 0.0745381 0.10682 0.149698 110
2 0.622135 0.485592 0.104111 0.157529 0.708068 120
2 0.395991 0.418391 0.0842337 0.0899668 0.333504 123
2 0.0609811 0.368928 0.0868447 0.131652 0.778685 140
2 0.779991 0.438861 0.104549 0.150148 0.833463 74
2 0.597222 0.382129 0.0756844 0.103214 0.301873 148
2 0.222932 0.307092 0.0587715 0.0713373 0.560166 144
2 0.593141 0.717443 0.0427291 0.218661 0.393614 149
2 0.0291975 0.394166 0.0583949 0.125688 0.810446 150
2 0.632911 0.485368 0.125497 0.152044 0.442904 92
2 0.718701 0.975639 0.149755 0.0420478 0.112078 155
2 0.216837 0.967166 0.163259 0.0622605 0.463681 100
2 0.0223729 0.413575 0.0447458 0.147714 0.516515 156
2 0.0157865 0.423755 0.0315729 0.147363 0.697504 157
2 0.380959 0.468216 0.115959 0.109545 0.33863 158
