2 0.592602 0.529631 0.112645 0.178676 0.891355 1
2 0.247077 0.884945 0.208767 0.218956 0.878692 2
2 0.0991828 0.355378 0.0835463 0.119923 0.793758 3
2 0.332614 0.859774 0.15561 0.264407 0.826343 4
2 0.667953 0.780905 0.175514 0.321694 0.861606 5
2 0.3709 0.635128 0.150427 0.210823 0.873533 7
2 0.381009 0.480606 0.103199 0.122999 0.683925 8
2 0.645182 0.645341 0.138323 0.200922 0.66512 9
2 0.208552 0.308121 0.0522295 0.0834426 0.595922 10
2 0.630243 0.457198 0.0889578 0.116647 0.321087 11
2 0.736891 0.96944 0.164463 0.044095 0.463999 12
7 0.147746 0.309169 0.0812822 0.135243 0.497954 13
5 0.602557 0.285462 0.0829653 0.142305 0.549655 16
2 0.646817 0.634126 0.133574 0.174283 0.648446 17
2 0.0320395 0.396858 0.0636797 0.148006 0.781521 21
2 0.602043 0.391456 0.0907644 0.0989233 0.619782 22
2 0.631859 0.469636 0.087989 0.146704 0.708284 23
2 0.736701 0.975612 0.166488 0.0487399 0.562397 24
2 0.413934 0.454318 0.0953376 0.149818 0.707003 26
2 0.332489 0.845915 0.146605 0.238415 0.580025 15
