2 0.705807 0.949527 0.163431 0.0892475 0.825677 166
2 0.326406 0.796303 0.182111 0.26213 0.863766 168
2 0.681433 0.753526 0.16652 0.236396 0.907795 98
2 0.270033 0.307251 0.0373239 0.0391535 0.251886 200
2 0.138558 0.335484 0.0715405 0.0983094 0.740434 212
2 0.372799 0.602884 0.171128 0.395308 0.478379 194
2 0.627504 0.541126 0.139821 0.257216 0.586357 199
2 0.16975 0.312739 0.048525 0.0854152 0.345899 217
2 0.552149 0.381352 0.0423734 0.120911 0.492873 219
2 0.0702115 0.351029 0.080838 0.155025 0.597578 220
2 0.168278 0.312351 0.0548603 0.0845827 0.297194 202
2 0.609885 0.392033 0.10831 0.139066 0.43558 223
2 0.0330775 0.391447 0.066155 0.128228 0.805371 225
2 0.609552 0.424392 0.113011 0.206822 0.537431 227
2 0.250223 0.908329 0.197171 0.183341 0.882013 110
2 0.709879 0.949087 0.175029 0.0978439 0.345764 230
7 0.630553 0.544128 0.141513 0.255663 0.453422 232
7 0.580004 0.274566 0.0797399 0.0930772 0.548988 233
