2 0.293499 0.870537 0.198304 0.249829 0.871658 55
2 0.276249 0.301159 0.034042 0.0259926 0.214437 70
2 0.611104 0.414223 0.0863851 0.114541 0.307826 98
2 0.240373 0.293799 0.0505931 0.0692799 0.50167 99
2 0.386985 0.482554 0.100244 0.179567 0.515925 110
2 0.337072 0.640455 0.127229 0.150198 0.53247 123
2 0.900062 0.647126 0.150773 0.218747 0.868284 74
2 0.611589 0.422385 0.091473 0.132094 0.672176 148
2 0.053132 0.316361 0.0673765 0.100513 0.767072 157
2 0.312752 0.720522 0.153666 0.15001 0.587798 158
2 0.631707 0.492595 0.0980602 0.153735 0.834341 166
2 0.69214 0.824799 0.165045 0.260194 0.883285 164
7 0.414908 0.359641 0.101303 0.244978 0.61938 168
2 0.312067 0.733652 0.160423 0.17794 0.612862 173
2 0.310012 0.756687 0.161736 0.225008 0.77556 177
2 0.363994 0.578165 0.123206 0.192548 0.778322 178
2 0.620516 0.460359 0.10718 0.2026 0.176167 180
2 0.185247 0.308565 0.0587698 0.0983205 0.644233 150
2 0.647943 0.666153 0.138381 0.221077 0.841319 120
2 0.135394 0.326106 0.0824325 0.104674 0.713567 156
2 0.336208 0.66202 0.127671 0.201152 0.59396 186
2 0.0104809 0.344114 0.0209618 0.127573 0.765095 187
2 0.012339 0.340728 0.0246779 0.126045 0.573336 190
2 0.135167 0.3295 0.0726669 0.10138 0.770456 191
