2 0.208536 0.312717 0.0703237 0.0838918 0.450704 212
2 0.317154 0.76917 0.248068 0.423792 0.627045 194
2 0.62629 0.671826 0.171993 0.336355 0.604211 199
2 0.223795 0.306512 0.0365918 0.0751959 0.295585 217
2 0.616399 0.453522 0.12397 0.160161 0.235222 219
2 0.0785385 0.356082 0.076501 0.11279 0.708062 220
2 0.19652 0.312793 0.0503834 0.084847 0.523295 202
2 0.587105 0.417064 0.096506 0.136343 0.65059 223
2 0.123569 0.337321 0.0677094 0.104727 0.696021 225
2 0.623144 0.457905 0.130766 0.163059 0.72047 227
7 0.581148 0.297955 0.0854825 0.116746 0.532022 233
2 0.0590689 0.397808 0.0717749 0.125599 0.554959 234
2 0.388794 0.387086 0.115287 0.0940096 0.193291 237
2 0.0593799 0.38926 0.0707008 0.122932 0.751384 240
2 0.0240673 0.412476 0.0478024 0.141747 0.873833 248
2 0.343973 0.529417 0.107506 0.0853932 0.51108 250
2 0.741039 0.932937 0.219961 0.115105 0.821681 252
2 0.127488 0.339968 0.0573575 0.103073 0.710207 228
