2 0.229656 0.30868 0.0494695 0.0776634 0.173173 298
2 0.427357 0.477796 0.0735464 0.155501 0.541269 304
2 0.362294 0.488298 0.114762 0.150733 0.353112 353
2 0.218034 0.310282 0.0759469 0.085103 0.422435 356
2 0.631501 0.503416 0.114177 0.179405 0.535977 365
2 0.261644 0.302509 0.0301937 0.0403588 0.435384 371
2 0.631765 0.648577 0.138986 0.163247 0.60683 376
2 0.361507 0.507673 0.116487 0.204464 0.738391 392
2 0.34626 0.657898 0.145386 0.193385 0.639041 352
2 0.654669 0.585545 0.122266 0.191085 0.604887 402
2 0.420665 0.476484 0.0863871 0.161236 0.715299 404
7 0.13229 0.293705 0.0887694 0.187151 0.804335 395
2 0.59136 0.397474 0.0897207 0.132019 0.528178 410
2 0.0420635 0.386691 0.0835166 0.120217 0.770886 414
2 0.346722 0.650501 0.14694 0.169068 0.762153 415
2 0.341553 0.814891 0.175828 0.262683 0.847963 399
2 0.650928 0.554519 0.126046 0.123595 0.61494 416
2 0.629421 0.780841 0.151262 0.197983 0.601957 417
2 0.711917 0.864676 0.28535 0.240785 0.619197 421
2 0.594581 0.395836 0.0850353 0.117048 0.662493 422
2 0.0268452 0.418714 0.0536903 0.137941 0.794606 423
2 0.240398 0.935045 0.218633 0.11747 0.716578 306
