2 0.257133 0.292204 0.0302179 0.0415975 0.318533 3
2 0.257156 0.28962 0.0297636 0.0458563 0.276994 13
2 0.198432 0.309928 0.0790568 0.0809268 0.415522 21
2 0.70489 0.774857 0.172431 0.274621 0.843695 22
2 0.728645 0.958912 0.168483 0.0716485 0.819983 23
2 0.393965 0.465846 0.1045 0.185178 0.6769 55
2 0.634648 0.656498 0.131072 0.212623 0.834379 57
2 0.224943 0.302326 0.052939 0.0751344 0.40922 52
2 0.2236 0.295825 0.0513767 0.0676933 0.287985 32
7 0.651301 0.484007 0.150045 0.313544 0.662368 16
2 0.13766 0.332363 0.0796207 0.103838 0.845934 70
2 0.2908 0.912629 0.195451 0.165643 0.890382 8
2 0.346812 0.810019 0.178228 0.281238 0.837889 26
2 0.716671 0.357163 0.0684737 0.11812 0.652416 74
2 0.370939 0.547506 0.103649 0.147556 0.633853 80
2 0.579243 0.393267 0.0500488 0.122843 0.635656 92
2 0.369662 0.556074 0.0945568 0.159052 0.71533 97
2 0.576017 0.339565 0.0732681 0.11127 0.419697 98
2 0.0439501 0.390026 0.0851991 0.159544 0.823218 99
2 0.342041 0.624262 0.131908 0.158552 0.427517 100
2 0.185158 0.312233 0.0493974 0.081762 0.553888 53
2 0.341695 0.626466 0.134004 0.16991 0.731112 107
2 0.341437 0.804009 0.152712 0.277245 0.664586 95
2 0.724457 0.958717 0.160803 0.0825654 0.60298 108
