2 0.230367 0.307166 0.0387562 0.0786248 0.465694 3
2 0.233156 0.309303 0.0409689 0.0777593 0.198749 13
2 0.190721 0.315824 0.0554699 0.0937674 0.18077 21
2 0.67148 0.617922 0.139759 0.206579 0.744731 22
2 0.673006 0.790438 0.167594 0.240184 0.823396 23
2 0.396081 0.406795 0.0960292 0.12693 0.399915 55
2 0.620893 0.56237 0.111974 0.181512 0.813052 57
2 0.184674 0.314465 0.0515916 0.0916132 0.145565 52
2 0.092134 0.349464 0.0686033 0.11078 0.647123 60
2 0.67238 0.597665 0.143528 0.171566 0.572576 66
2 0.186097 0.320372 0.0533107 0.088361 0.41219 32
7 0.641534 0.402228 0.134012 0.238523 0.649363 16
2 0.0639736 0.371573 0.0847112 0.113293 0.888484 70
2 0.337659 0.755032 0.155231 0.251628 0.865204 8
2 0.374065 0.650581 0.133936 0.229577 0.813052 26
2 0.612743 0.560271 0.0955442 0.175111 0.432916 73
2 0.712706 0.342149 0.0413232 0.101753 0.401098 74
2 0.135318 0.320633 0.0752317 0.0904464 0.697369 53
2 0.358173 0.542114 0.120282 0.162956 0.631802 80
2 0.671423 0.617517 0.137657 0.208778 0.498621 84
2 0.135472 0.319866 0.092791 0.0921489 0.468791 68
2 0.678677 0.946617 0.177695 0.0978491 0.860645 89
2 0.278393 0.891148 0.199422 0.204417 0.874664 90
2 0.337581 0.746305 0.146314 0.221357 0.781587 91
