2 0.245444 0.29843 0.0311679 0.0524133 0.207332 3
2 0.247175 0.301147 0.0355623 0.0544738 0.366424 13
2 0.192245 0.315675 0.077697 0.0850198 0.16681 21
2 0.689908 0.708573 0.160031 0.247386 0.823742 22
2 0.70131 0.8986 0.193775 0.191137 0.915916 23
2 0.395886 0.449206 0.0986606 0.176045 0.508027 55
2 0.630978 0.612596 0.125347 0.199885 0.835203 57
2 0.208245 0.309784 0.0489175 0.0827317 0.480598 52
2 0.11441 0.341041 0.0886671 0.112682 0.709389 60
2 0.207892 0.301631 0.0486057 0.0745303 0.278898 32
7 0.644433 0.439694 0.14002 0.27092 0.592356 16
2 0.110943 0.345509 0.0818391 0.106626 0.774885 70
2 0.307863 0.866059 0.17833 0.25726 0.903299 8
2 0.360463 0.736043 0.154791 0.257071 0.865825 26
2 0.626099 0.608227 0.124236 0.182255 0.510477 73
7 0.711401 0.347634 0.0620742 0.113704 0.151133 74
2 0.165387 0.320416 0.0665844 0.0943427 0.111809 53
2 0.351017 0.584178 0.129729 0.164383 0.568562 80
2 0.169901 0.314343 0.0549401 0.0863477 0.555293 68
2 0.573322 0.382053 0.0492444 0.122225 0.319545 92
2 0.230378 0.980377 0.14905 0.0336119 0.177898 29
2 0.225592 0.984896 0.154115 0.0302072 0.208378 90
2 0.377151 0.52415 0.100583 0.144171 0.512487 97
2 0.574456 0.375548 0.0570819 0.129725 0.238105 98
2 0.025533 0.413651 0.0510597 0.173056 0.82807 99
2 0.350185 0.586229 0.127057 0.168103 0.643395 100
