2 0.222241 0.310516 0.0340883 0.0721176 0.316534 220
2 0.253296 0.302192 0.0385915 0.0654549 0.187454 225
7 0.611731 0.398206 0.116702 0.19278 0.549609 233
2 0.290543 0.693311 0.155746 0.179706 0.381224 237
2 0.617983 0.623316 0.136626 0.1987 0.870085 219
2 0.299488 0.860152 0.182552 0.272591 0.81273 266
2 0.117631 0.346027 0.0711338 0.10654 0.887823 270
2 0.147058 0.321326 0.0721301 0.106452 0.541451 272
2 0.660107 0.518859 0.100278 0.125019 0.232778 277
2 0.674007 0.822239 0.216467 0.32829 0.808373 285
2 0.194411 0.310183 0.0512717 0.0869761 0.403874 283
2 0.36925 0.539492 0.117387 0.164458 0.621945 288
2 0.14667 0.323664 0.064805 0.105485 0.505453 290
2 0.661051 0.540463 0.106219 0.169202 0.699298 271
2 0.191788 0.3107 0.0444437 0.0842777 0.50107 248
2 0.343946 0.573189 0.117595 0.109677 0.622016 297
2 0.0400331 0.379522 0.0795631 0.122183 0.829273 298
2 0.290711 0.706848 0.163042 0.210434 0.674875 302
2 0.209569 0.937404 0.214213 0.108569 0.195355 261
2 0.375735 0.706415 0.0856087 0.219176 0.418958 265
2 0.43329 0.327215 0.099911 0.107157 0.603466 304
2 0.387546 0.412808 0.119572 0.167085 0.505501 306
2 0.013102 0.421029 0.0262039 0.163564 0.768409 307
2 0.21732 0.941717 0.198328 0.11141 0.731931 267
