2 0.271701 0.302642 0.0301194 0.0396417 0.259258 3
2 0.268325 0.301065 0.0286011 0.0487696 0.163224 13
2 0.212748 0.31255 0.0401573 0.0779397 0.221942 21
2 0.7433 0.886727 0.208546 0.214333 0.784747 22
2 0.390378 0.502359 0.114905 0.20155 0.726737 55
2 0.654201 0.764806 0.164778 0.240435 0.858656 57
2 0.239662 0.307777 0.0379272 0.0683479 0.321066 52
2 0.238071 0.296274 0.0385309 0.0494121 0.229975 32
5 0.665812 0.518324 0.168551 0.306807 0.566942 16
2 0.172958 0.316521 0.0685584 0.0950512 0.720867 70
2 0.309053 0.90684 0.209244 0.172308 0.853823 26
2 0.731299 0.378265 0.0843708 0.134016 0.66186 74
2 0.352937 0.593395 0.117658 0.158726 0.724489 80
2 0.600282 0.417404 0.078474 0.140859 0.703533 92
2 0.576205 0.352827 0.0697606 0.119395 0.444701 98
2 0.0804567 0.356995 0.0887722 0.147808 0.774584 99
2 0.211537 0.306949 0.0373834 0.0687154 0.191606 53
2 0.316427 0.755449 0.164228 0.252853 0.829215 107
2 0.423717 0.352186 0.0856257 0.107341 0.26246 110
2 0.596384 0.413657 0.0708585 0.130845 0.308566 120
2 0.389135 0.478762 0.110925 0.133656 0.134696 123
2 0.733382 0.380542 0.0783186 0.121887 0.720876 125
2 0.352053 0.59102 0.115309 0.142611 0.469733 97
2 0.316774 0.745066 0.153534 0.227456 0.75515 100
