2 0.272388 0.302818 0.0336949 0.0323168 0.150931 298
2 0.271242 0.304631 0.0315893 0.0299505 0.32317 356
2 0.657806 0.700053 0.159298 0.273768 0.834133 365
2 0.66784 0.932621 0.193051 0.128562 0.335393 376
7 0.212909 0.277746 0.0631423 0.146051 0.596652 395
2 0.213782 0.937395 0.219122 0.110654 0.777229 415
2 0.718023 0.841653 0.172083 0.275035 0.865485 416
2 0.626577 0.493177 0.110992 0.149866 0.81795 410
2 0.308367 0.723719 0.167615 0.268211 0.892448 353
2 0.578345 0.405062 0.0816566 0.125254 0.627684 436
2 0.0800231 0.347349 0.0876824 0.123276 0.660447 441
2 0.379638 0.501635 0.113338 0.143121 0.196545 442
7 0.209857 0.272323 0.0591883 0.14032 0.536429 453
2 0.153921 0.324113 0.0713233 0.0993296 0.777497 423
2 0.0305355 0.391199 0.0570177 0.142239 0.654302 456
2 0.584819 0.402287 0.0979441 0.1227 0.70576 461
2 0.672804 0.925784 0.177977 0.125346 0.835108 434
2 0.0281072 0.392609 0.0554163 0.130392 0.556955 462
2 0.372566 0.642956 0.137653 0.21546 0.833996 304
2 0.381538 0.647639 0.116734 0.211655 0.802685 465
