2 0.594666 0.546647 0.113501 0.180583 0.830137 1
2 0.240459 0.906828 0.216284 0.170518 0.849179 2
2 0.11014 0.347796 0.0819047 0.119168 0.711056 3
2 0.32412 0.880839 0.160159 0.230595 0.839495 4
2 0.673042 0.82168 0.179606 0.318825 0.866088 5
2 0.365774 0.660242 0.156665 0.225194 0.857401 7
2 0.379697 0.509386 0.107642 0.161468 0.775409 8
2 0.648794 0.638859 0.137455 0.151211 0.180108 9
2 0.219327 0.309589 0.0514086 0.0801652 0.391082 10
2 0.632501 0.473239 0.0935702 0.131481 0.111646 11
7 0.156685 0.301117 0.0837965 0.131758 0.57532 13
7 0.606585 0.300292 0.0854348 0.169087 0.505287 16
2 0.650429 0.668562 0.145122 0.20811 0.75103 17
2 0.0384923 0.384083 0.0765098 0.144667 0.719323 21
2 0.604711 0.396472 0.0839972 0.102522 0.458399 22
2 0.633968 0.480371 0.0952482 0.151064 0.655736 23
2 0.41108 0.461641 0.0939567 0.147128 0.605662 26
2 0.420492 0.464464 0.0796309 0.151824 0.102107 29
