2 0.666805 0.930837 0.206334 0.124408 0.758065 1
2 0.22221 0.305349 0.0443768 0.0814783 0.227255 3
2 0.230623 0.311737 0.0482413 0.0733258 0.145975 13
2 0.182309 0.314291 0.0602345 0.0929622 0.196297 21
2 0.670074 0.614544 0.146903 0.220447 0.631948 22
2 0.668748 0.766714 0.159138 0.232248 0.811449 23
2 0.39536 0.401986 0.0915397 0.118193 0.180958 55
2 0.619303 0.554197 0.108862 0.177318 0.79885 57
2 0.176272 0.319595 0.0560019 0.0917037 0.256785 52
2 0.0869036 0.350411 0.0680484 0.100474 0.679538 60
2 0.667094 0.586051 0.131388 0.160397 0.65741 66
2 0.179903 0.319624 0.0536391 0.087316 0.541429 32
7 0.640763 0.395019 0.131912 0.227996 0.684786 16
2 0.0552339 0.374832 0.0866084 0.116687 0.859641 70
2 0.339957 0.736741 0.152605 0.245173 0.857826 8
2 0.378231 0.63819 0.128598 0.231721 0.747257 26
2 0.609836 0.554594 0.0894763 0.169938 0.350807 73
2 0.711298 0.339259 0.0441959 0.0926945 0.290842 74
2 0.133146 0.326012 0.0688299 0.0890677 0.702134 53
2 0.0870664 0.354495 0.0712944 0.112341 0.261125 75
2 0.357615 0.531804 0.117447 0.159317 0.53883 80
2 0.666432 0.592887 0.139576 0.186488 0.621703 84
2 0.130428 0.322363 0.0769505 0.0957052 0.546324 68
2 0.675956 0.924515 0.221612 0.124798 0.815111 89
2 0.284175 0.8755 0.184319 0.227638 0.882624 90
