2 0.58229 0.491199 0.0996928 0.163157 0.865886 1
2 0.28231 0.790447 0.179986 0.28791 0.874362 2
2 0.052311 0.381466 0.100105 0.131632 0.811477 3
2 0.362009 0.729518 0.130587 0.230215 0.849742 4
2 0.648605 0.681692 0.158312 0.273786 0.859387 5
2 0.21001 0.965105 0.165188 0.0635015 0.76228 6
2 0.389691 0.566088 0.12999 0.193667 0.818061 7
2 0.387944 0.445743 0.0994286 0.0994954 0.605438 8
2 0.649376 0.659553 0.148581 0.314994 0.669338 9
2 0.185636 0.314167 0.0538298 0.0860158 0.616442 10
2 0.623772 0.436109 0.0851948 0.121656 0.565107 11
2 0.734306 0.898371 0.264858 0.188194 0.640011 12
7 0.121317 0.324917 0.0815567 0.149814 0.664362 13
2 0.361284 0.715319 0.129606 0.195129 0.741446 15
