2 0.32102 0.758075 0.168341 0.273849 0.86304 55
7 0.755164 0.899744 0.289249 0.184465 0.366471 16
2 0.25981 0.302159 0.0413581 0.0278866 0.250264 70
2 0.266639 0.931963 0.179092 0.126488 0.830628 80
2 0.617082 0.436922 0.0919853 0.115741 0.408184 98
7 0.212079 0.290456 0.0541763 0.0759043 0.163287 99
2 0.395052 0.434713 0.0914223 0.177274 0.405293 110
2 0.631981 0.583926 0.115964 0.188358 0.787659 120
2 0.372432 0.50977 0.113205 0.175561 0.674259 123
2 0.844182 0.546136 0.129005 0.184507 0.847903 74
2 0.598904 0.394384 0.0792189 0.119979 0.57804 148
2 0.257468 0.30411 0.03973 0.0369014 0.249703 144
2 0.0188746 0.327929 0.0372616 0.109432 0.474381 157
2 0.350069 0.65164 0.135552 0.226417 0.591968 158
2 0.083374 0.354457 0.0805076 0.114322 0.885984 156
2 0.617364 0.449094 0.0894812 0.138075 0.801124 166
2 0.679121 0.691482 0.145852 0.222649 0.871759 164
2 0.147462 0.320462 0.0613971 0.107767 0.68311 160
7 0.427148 0.329182 0.090108 0.211329 0.409453 168
2 0.754433 0.899504 0.287053 0.185026 0.518346 169
2 0.148222 0.325641 0.0683969 0.109274 0.451193 150
2 0.0879611 0.348481 0.0923624 0.122066 0.634537 171
2 0.141781 0.321954 0.0715641 0.111991 0.544183 140
