2 0.740373 0.924477 0.226388 0.143847 0.885175 98
2 0.200363 0.313808 0.0622607 0.0856997 0.501508 212
2 0.325426 0.764158 0.225777 0.438246 0.584576 194
2 0.629239 0.663607 0.172113 0.325521 0.71945 199
2 0.221517 0.308533 0.0359997 0.0794171 0.217763 217
2 0.611475 0.43669 0.115325 0.138786 0.182124 219
2 0.0885102 0.35458 0.0817747 0.113565 0.255263 220
2 0.195075 0.315775 0.0511446 0.0872637 0.505849 202
2 0.585732 0.414458 0.0942168 0.133458 0.655664 223
2 0.118553 0.345118 0.0632417 0.104515 0.669158 225
2 0.623033 0.45039 0.128861 0.156462 0.714634 227
7 0.579396 0.288132 0.0825127 0.0994487 0.410629 233
2 0.0735115 0.360993 0.0762646 0.112922 0.691562 234
2 0.390424 0.383765 0.117068 0.0924661 0.318059 237
2 0.0530825 0.395097 0.0737572 0.128249 0.818514 240
2 0.2446 0.967217 0.170712 0.0591156 0.596541 246
2 0.0197036 0.423244 0.0394073 0.139359 0.763734 248
2 0.246073 0.970548 0.166511 0.0589045 0.414071 168
2 0.341629 0.520535 0.101863 0.0781631 0.586239 250
2 0.725404 0.921767 0.198168 0.145213 0.708314 252
