2 0.355021 0.636067 0.145033 0.249602 0.769955 55
2 0.26967 0.302098 0.0251481 0.0374623 0.22745 52
2 0.268246 0.299593 0.0211392 0.0391731 0.114366 32
7 0.704802 0.78008 0.222309 0.418289 0.495523 16
2 0.234989 0.306829 0.0541636 0.0666916 0.429288 70
2 0.296742 0.789885 0.15018 0.200217 0.906231 80
2 0.606069 0.411849 0.0792863 0.142762 0.635378 98
2 0.176927 0.30662 0.0654211 0.111492 0.25105 99
2 0.404186 0.374651 0.0835204 0.103954 0.167719 110
2 0.624975 0.509857 0.104907 0.169732 0.857375 120
2 0.389968 0.443381 0.0945481 0.109408 0.548406 123
2 0.0905328 0.349932 0.078012 0.119706 0.760788 140
2 0.795436 0.466742 0.109767 0.161633 0.8343 74
2 0.605852 0.400798 0.0779328 0.119447 0.545833 148
2 0.235802 0.30035 0.0524006 0.0562481 0.298181 144
2 0.590641 0.808521 0.0324549 0.173274 0.143196 149
2 0.0496913 0.375854 0.0729241 0.116059 0.625439 150
2 0.623799 0.532865 0.101015 0.118543 0.316222 92
2 0.0364175 0.390138 0.0719475 0.129598 0.495579 156
2 0.0331995 0.395685 0.0661787 0.129686 0.885208 157
2 0.361817 0.496975 0.111814 0.105463 0.242323 158
2 0.0469356 0.380973 0.0834748 0.118947 0.62447 160
2 0.0955849 0.35806 0.065742 0.110255 0.226059 162
