2 0.246678 0.30095 0.034602 0.0484931 0.220335 13
2 0.235407 0.308996 0.0384108 0.0704291 0.237953 21
2 0.385342 0.531502 0.124913 0.213829 0.778982 55
2 0.671088 0.859859 0.185927 0.25892 0.860293 57
2 0.240157 0.305824 0.0443595 0.0631165 0.241823 52
2 0.253095 0.296986 0.0267433 0.0400636 0.179375 32
2 0.676971 0.604535 0.185388 0.411352 0.289601 16
2 0.193467 0.311856 0.0630823 0.0860313 0.736424 70
2 0.340475 0.629869 0.125187 0.167006 0.813608 80
2 0.609189 0.431791 0.0851073 0.136073 0.678248 92
2 0.582544 0.365178 0.0707012 0.115023 0.518249 98
2 0.106366 0.336285 0.0906039 0.136954 0.67703 99
2 0.23233 0.310066 0.0323427 0.0696506 0.313074 53
2 0.414183 0.359117 0.0827283 0.105372 0.482064 110
2 0.606868 0.44098 0.082406 0.144659 0.809833 120
2 0.399616 0.388074 0.085379 0.0775705 0.237869 123
2 0.289296 0.846393 0.180004 0.282835 0.889438 100
2 0.0232989 0.41618 0.0463336 0.161928 0.832442 140
2 0.747811 0.39562 0.0863068 0.128023 0.736134 74
2 0.759516 0.951492 0.179376 0.0970162 0.58965 143
2 0.76202 0.950626 0.185933 0.0864241 0.776746 22
2 0.193929 0.313124 0.0732189 0.0867947 0.623891 144
