2 0.270359 0.300903 0.0289407 0.0454698 0.20351 220
2 0.636592 0.675847 0.140978 0.24276 0.80675 233
2 0.69554 0.940927 0.215668 0.107921 0.195764 219
2 0.253794 0.298771 0.0398993 0.061022 0.155287 272
2 0.249648 0.295688 0.0306627 0.0591649 0.266165 290
2 0.183489 0.315619 0.0531465 0.0878675 0.728303 298
2 0.401671 0.371274 0.0846958 0.118548 0.247582 304
2 0.272338 0.883602 0.204226 0.227108 0.830531 288
2 0.0598574 0.361586 0.0902808 0.110522 0.74307 340
2 0.112808 0.34462 0.0488444 0.102739 0.578596 345
2 0.143602 0.322424 0.0532879 0.0940614 0.397248 307
2 0.336473 0.651215 0.171908 0.304126 0.732571 350
2 0.369155 0.519482 0.127049 0.179252 0.562762 306
2 0.394057 0.502158 0.0984292 0.154815 0.529153 352
2 0.453294 0.37445 0.0527891 0.120262 0.607962 353
2 0.70974 0.798087 0.160802 0.181 0.813325 354
2 0.0969026 0.342319 0.0793894 0.112792 0.371389 356
2 0.712538 0.834736 0.171337 0.251569 0.814367 271
2 0.0680906 0.363041 0.0755343 0.112155 0.797978 328
2 0.114989 0.353758 0.0445625 0.0820917 0.534438 361
2 0.222865 0.308023 0.0441992 0.0753008 0.492184 362
2 0.613859 0.391129 0.0862073 0.0781568 0.562136 365
2 0.0164415 0.404773 0.0328829 0.127777 0.766588 369
2 0.686031 0.93826 0.203686 0.101783 0.795113 370
2 0.145877 0.324762 0.0537109 0.0869525 0.722293 371
2 0.0170943 0.414387 0.0341886 0.116942 0.522915 372
2 0.678236 0.941688 0.208621 0.114955 0.535902 374
2 0.706233 0.812932 0.162639 0.218819 0.816728 375
