2 0.284687 0.300255 0.0434698 0.0417253 0.141906 99
2 0.355734 0.59439 0.130735 0.194339 0.788087 110
2 0.27791 0.925241 0.192521 0.134565 0.846312 123
2 0.656748 0.629449 0.122671 0.202163 0.849685 166
7 0.389992 0.374482 0.122382 0.181136 0.345282 168
2 0.319521 0.768835 0.164935 0.254532 0.905866 178
2 0.700075 0.896945 0.199302 0.191003 0.898335 120
2 0.200122 0.307435 0.0544728 0.0678447 0.419228 156
7 0.0782046 0.334668 0.12748 0.149321 0.537387 190
2 0.241802 0.29508 0.0384645 0.054254 0.517316 140
2 0.641176 0.518701 0.110806 0.173813 0.813351 98
2 0.354671 0.577331 0.127696 0.159428 0.232394 194
2 0.287374 0.298802 0.0420164 0.0388628 0.367288 197
7 0.59147 0.396632 0.102018 0.180738 0.479406 199
2 0.202677 0.308126 0.0587014 0.0803872 0.737674 200
2 0.0410681 0.38073 0.0801486 0.122007 0.842692 202
2 0.638703 0.493188 0.109297 0.128337 0.463964 207
2 0.591353 0.397746 0.100613 0.178074 0.493492 209
2 0.156068 0.315426 0.0361646 0.0610947 0.68682 210
