2 0.215142 0.310375 0.0528425 0.0819958 0.374765 212
2 0.293655 0.803728 0.28207 0.364357 0.771908 194
2 0.636622 0.739309 0.19479 0.378717 0.725327 199
2 0.238133 0.305409 0.0345596 0.0606376 0.329968 217
2 0.10857 0.333862 0.0707305 0.106649 0.487532 220
2 0.210945 0.311604 0.0456942 0.0802125 0.540832 202
2 0.590538 0.437134 0.102469 0.131951 0.431753 223
2 0.155732 0.329101 0.0590501 0.0964831 0.341007 225
2 0.625524 0.493229 0.139127 0.195409 0.709091 227
7 0.583751 0.319552 0.0860439 0.149518 0.445836 233
2 0.380759 0.41294 0.116096 0.100394 0.40278 237
2 0.0424919 0.386583 0.0806718 0.134103 0.846088 248
2 0.333355 0.599796 0.14282 0.149052 0.509341 250
2 0.153563 0.338523 0.0532761 0.0752976 0.292277 228
2 0.151539 0.327293 0.0588426 0.0953269 0.601592 254
2 0.107489 0.340869 0.0729058 0.107574 0.673782 255
2 0.586549 0.425373 0.0969291 0.116545 0.346084 219
2 0.0188267 0.436576 0.0369584 0.134052 0.85935 257
2 0.0848012 0.371281 0.0624196 0.116019 0.293937 234
2 0.0869614 0.370562 0.0543742 0.107832 0.648199 258
