2 0.272413 0.301139 0.0466232 0.0518906 0.552821 99
2 0.370225 0.547056 0.114912 0.185646 0.649168 110
2 0.305722 0.85456 0.16689 0.272534 0.855914 123
2 0.95214 0.842606 0.0953488 0.276996 0.857702 74
2 0.112943 0.314587 0.0368255 0.0727678 0.283387 157
2 0.223301 0.917174 0.210442 0.150978 0.872994 158
2 0.645225 0.570938 0.113604 0.185989 0.858921 166
5 0.400031 0.396552 0.11517 0.268387 0.563074 168
2 0.342563 0.679332 0.143926 0.229262 0.850012 178
2 0.676235 0.807531 0.179851 0.262316 0.890858 120
2 0.180152 0.310973 0.0672919 0.0856398 0.64176 156
2 0.0491723 0.361518 0.0983446 0.168697 0.797845 190
2 0.220893 0.300833 0.049659 0.0774174 0.674162 140
2 0.625313 0.46909 0.0992118 0.145895 0.727502 98
2 0.367466 0.529776 0.120074 0.224795 0.6129 194
2 0.271721 0.297203 0.0445795 0.0474043 0.512607 197
7 0.573656 0.367984 0.0899155 0.183426 0.328929 199
2 0.176581 0.313148 0.0608243 0.0843943 0.678882 200
2 0.723479 0.962457 0.156882 0.0712191 0.790774 164
2 0.721236 0.959359 0.152589 0.0812827 0.298823 201
2 0.0108 0.419321 0.0216 0.13535 0.652239 202
