2 0.596671 0.578051 0.121523 0.187389 0.858272 1
2 0.236947 0.977365 0.141744 0.0421131 0.143374 2
2 0.135117 0.334369 0.0776388 0.112541 0.721187 3
2 0.316505 0.938084 0.185304 0.108494 0.742582 4
2 0.693237 0.864778 0.193737 0.248402 0.873547 5
2 0.353049 0.719713 0.171795 0.237965 0.910054 7
2 0.228833 0.300762 0.0364855 0.0586007 0.294611 10
2 0.635667 0.468332 0.0939898 0.0947978 0.131097 11
7 0.174251 0.298992 0.0870095 0.117294 0.588435 13
5 0.615809 0.307414 0.0867914 0.175661 0.647825 16
2 0.0635862 0.364858 0.078825 0.134573 0.754901 21
2 0.610954 0.422917 0.0985715 0.118412 0.334463 22
2 0.637537 0.504508 0.100347 0.160986 0.593543 23
2 0.405457 0.488506 0.0952247 0.165179 0.581629 26
2 0.371524 0.54477 0.113412 0.179228 0.806158 29
2 0.0238152 0.401713 0.0476304 0.126464 0.891837 32
2 0.300596 0.936973 0.230018 0.111373 0.615669 34
2 0.401012 0.461293 0.0938548 0.117827 0.192792 8
2 0.658297 0.719653 0.155648 0.212075 0.836928 33
