2 0.316811 0.774594 0.176004 0.292822 0.876806 55
2 0.772017 0.922259 0.286642 0.147417 0.695383 16
2 0.259365 0.302304 0.0401995 0.0285311 0.329002 70
2 0.264436 0.940114 0.172431 0.0966894 0.74467 80
2 0.617624 0.446238 0.0960625 0.129184 0.442986 98
2 0.215475 0.287352 0.0529494 0.0678445 0.183236 99
2 0.390351 0.438418 0.100418 0.157126 0.413541 110
2 0.635574 0.593994 0.12306 0.192085 0.80646 120
2 0.369142 0.521505 0.121029 0.177511 0.599119 123
2 0.851688 0.558146 0.131849 0.193151 0.860225 74
2 0.603407 0.393712 0.0879958 0.123168 0.611169 148
2 0.258871 0.304106 0.0388397 0.0353019 0.422069 144
2 0.0223677 0.327955 0.0447354 0.107478 0.697815 157
2 0.340237 0.67464 0.147442 0.22383 0.653088 158
2 0.0889679 0.351502 0.0784322 0.113738 0.89781 156
2 0.618895 0.454302 0.0887382 0.140458 0.792162 166
2 0.68035 0.704771 0.147934 0.231185 0.866073 164
2 0.154148 0.319795 0.0596267 0.106492 0.761464 160
5 0.425661 0.302088 0.0881528 0.154175 0.593808 168
2 0.0965516 0.347915 0.0964144 0.119321 0.86083 171
2 0.114116 0.336788 0.0579814 0.108337 0.594825 140
2 0.344265 0.658667 0.136049 0.204492 0.657906 173
