2 0.260576 0.302712 0.0323826 0.0401224 0.477759 212
2 0.670764 0.88539 0.192491 0.219254 0.905647 199
2 0.286263 0.302998 0.0233623 0.0258607 0.140264 217
2 0.186768 0.315227 0.0458789 0.0854202 0.169357 220
2 0.22335 0.303131 0.0502855 0.0890734 0.319683 225
7 0.601986 0.361283 0.10654 0.180066 0.380334 233
2 0.331393 0.566617 0.140368 0.170983 0.601653 237
2 0.221123 0.940145 0.180936 0.113509 0.157167 250
2 0.224322 0.30626 0.0462322 0.0782835 0.350892 254
2 0.182496 0.315582 0.0431264 0.0903149 0.271948 255
2 0.614106 0.515222 0.121347 0.145043 0.500002 219
2 0.113616 0.34522 0.0508645 0.100699 0.59409 257
2 0.224295 0.311565 0.0504158 0.0771404 0.291294 228
2 0.262385 0.863123 0.196283 0.267049 0.437829 263
2 0.348131 0.681254 0.142373 0.221432 0.844157 266
2 0.25713 0.877143 0.214216 0.239833 0.736001 267
2 0.0464219 0.392663 0.08287 0.12989 0.913504 270
2 0.27964 0.759077 0.160622 0.205099 0.659301 265
2 0.0773887 0.372686 0.0623058 0.108024 0.294413 272
2 0.073651 0.359147 0.0712879 0.126082 0.461126 273
2 0.651877 0.461922 0.0933682 0.121617 0.357631 277
2 0.277688 0.744808 0.165568 0.178479 0.593856 261
2 0.636119 0.671723 0.17057 0.304681 0.804097 285
2 0.146564 0.323133 0.0609382 0.0950333 0.596958 283
2 0.38357 0.475011 0.0978344 0.14464 0.557017 288
2 0.109706 0.342653 0.0605683 0.104867 0.608295 290
2 0.27354 0.772366 0.179956 0.229725 0.517037 291
2 0.641954 0.456165 0.090296 0.11871 0.658151 271
2 0.147256 0.327905 0.0564832 0.0960848 0.427139 248
2 0.375399 0.473305 0.119283 0.155978 0.623956 297
