2 0.305196 0.870392 0.196773 0.25028 0.888335 168
2 0.701968 0.829438 0.19645 0.255929 0.898156 98
2 0.163733 0.326295 0.0626288 0.0887185 0.607642 212
5 0.362643 0.655522 0.200111 0.451696 0.602811 194
2 0.631746 0.576735 0.152737 0.270339 0.61696 199
2 0.186263 0.307357 0.0483556 0.077165 0.323116 217
2 0.575307 0.391547 0.0794331 0.122123 0.479487 219
7 0.0994467 0.337819 0.0741477 0.137874 0.286335 220
2 0.184928 0.31331 0.0696715 0.0914035 0.104979 202
2 0.582731 0.385799 0.0925718 0.130907 0.522194 223
2 0.0614228 0.372158 0.0762897 0.121184 0.883128 225
2 0.616283 0.404385 0.114539 0.131782 0.620235 227
7 0.579648 0.278958 0.0807398 0.102877 0.531899 233
2 0.0315103 0.410582 0.0629121 0.138675 0.20888 234
2 0.0309262 0.395968 0.0617384 0.126476 0.770538 228
2 0.387827 0.377496 0.105373 0.0953472 0.197078 237
2 0.21395 0.967973 0.16778 0.0614769 0.658446 110
2 0.0191617 0.44795 0.0383233 0.141728 0.734131 240
