2 0.707194 0.86566 0.213302 0.254221 0.788713 365
5 0.250789 0.27433 0.0579285 0.107126 0.323183 395
2 0.64992 0.587992 0.125803 0.174792 0.877586 410
2 0.257126 0.89013 0.212158 0.206235 0.871772 353
2 0.159679 0.313094 0.0582374 0.100011 0.433945 441
2 0.310894 0.688621 0.160093 0.191274 0.736662 442
7 0.247916 0.275246 0.0533795 0.104555 0.531877 453
2 0.205095 0.30935 0.0504024 0.0831407 0.594057 423
2 0.135643 0.331227 0.0376475 0.11172 0.13166 456
2 0.136371 0.33809 0.0365842 0.101751 0.421219 462
2 0.091216 0.336112 0.0828053 0.149643 0.44174 471
2 0.417893 0.407423 0.0856606 0.141214 0.678476 476
2 0.576313 0.351922 0.0903457 0.145914 0.569008 478
2 0.0618946 0.375694 0.0844995 0.122363 0.830581 480
2 0.648689 0.549701 0.118083 0.220116 0.701189 482
2 0.0984223 0.330284 0.112335 0.144865 0.427465 483
2 0.335422 0.845753 0.166614 0.271569 0.855033 304
2 0.787786 0.963916 0.149882 0.0721685 0.314308 486
2 0.355154 0.634264 0.124769 0.199785 0.6176 488
2 0.789656 0.97096 0.150682 0.0490562 0.583653 416
2 0.331233 0.828689 0.154165 0.232465 0.202858 490
7 0.557288 0.240761 0.0791331 0.185482 0.606258 491
2 0.649915 0.570913 0.125844 0.199873 0.535847 492
2 0.599194 0.457799 0.107091 0.156343 0.628337 436
