2 0.268932 0.299582 0.0302552 0.0408644 0.200482 220
2 0.637831 0.65237 0.138816 0.234078 0.830078 233
2 0.683304 0.916105 0.222594 0.157972 0.894869 219
2 0.253863 0.298919 0.0516032 0.0621712 0.341119 272
2 0.26765 0.300637 0.0212809 0.0390605 0.13869 283
2 0.248613 0.295403 0.0542299 0.0652974 0.508977 290
2 0.271975 0.28651 0.0343506 0.0502695 0.131962 248
2 0.176319 0.317242 0.0521715 0.0884142 0.806309 298
2 0.408876 0.366464 0.102827 0.117492 0.13207 304
2 0.291688 0.853089 0.191351 0.265779 0.834009 288
2 0.0539523 0.372095 0.0807866 0.116855 0.830992 340
2 0.100143 0.350885 0.0532832 0.108008 0.706038 345
2 0.133613 0.327225 0.059383 0.104632 0.802936 307
2 0.24338 0.951818 0.187062 0.0902218 0.344091 346
2 0.215992 0.307665 0.04644 0.0782702 0.670972 270
2 0.342223 0.624003 0.165406 0.297268 0.615893 350
2 0.368544 0.515004 0.128429 0.183911 0.146714 306
2 0.381942 0.497246 0.121 0.181187 0.416586 352
2 0.454793 0.367566 0.0529531 0.117286 0.521796 353
2 0.699951 0.760279 0.150669 0.174272 0.793693 354
2 0.253045 0.957521 0.157796 0.0810371 0.651293 297
2 0.0879059 0.351701 0.0753436 0.115075 0.562118 356
2 0.700718 0.797591 0.158129 0.252399 0.813268 271
2 0.698673 0.779276 0.155215 0.213496 0.767589 360
2 0.0467525 0.368889 0.0869874 0.121649 0.566319 328
2 0.101138 0.358606 0.0496931 0.0917196 0.516679 361
