2 0.698466 0.847574 0.206818 0.289957 0.756073 365
7 0.240351 0.27647 0.0571747 0.114129 0.261033 395
2 0.647446 0.564365 0.121063 0.16553 0.802792 410
2 0.256988 0.869468 0.220134 0.251343 0.893036 353
2 0.150516 0.317367 0.0617976 0.0982067 0.726257 441
2 0.319471 0.651543 0.148263 0.179092 0.683042 442
7 0.239571 0.269949 0.0548494 0.104223 0.1374 453
2 0.197659 0.30723 0.0553276 0.086483 0.495815 423
2 0.120165 0.332518 0.0404068 0.119886 0.31076 456
2 0.122411 0.34518 0.0356921 0.105202 0.677785 462
2 0.0740306 0.346504 0.0889689 0.149345 0.450378 471
2 0.42009 0.3972 0.086555 0.132936 0.604055 476
2 0.576386 0.347879 0.0868491 0.141262 0.449814 478
2 0.044742 0.389267 0.0869091 0.135948 0.844776 480
2 0.64602 0.546493 0.120141 0.209866 0.282958 482
2 0.0799756 0.343344 0.102995 0.153894 0.570771 483
2 0.593367 0.447511 0.100337 0.134565 0.788655 436
2 0.341119 0.802249 0.159246 0.266411 0.861882 304
2 0.595082 0.43693 0.106206 0.161746 0.206648 485
2 0.773974 0.948708 0.185175 0.0948619 0.835474 486
2 0.35731 0.601217 0.125069 0.188389 0.615648 488
