2 0.259841 0.302664 0.0435852 0.0475742 0.129854 298
2 0.259609 0.30671 0.0328391 0.0410481 0.528545 356
2 0.6516 0.657889 0.149362 0.251583 0.788354 365
2 0.667997 0.897501 0.180946 0.198903 0.877309 376
2 0.386616 0.603135 0.118521 0.206054 0.817666 404
7 0.200255 0.278688 0.0646086 0.152692 0.621784 395
2 0.239391 0.901598 0.211894 0.185319 0.870708 415
2 0.70334 0.782735 0.157127 0.250904 0.843524 416
2 0.620234 0.468404 0.10185 0.141978 0.730271 410
2 0.321186 0.672062 0.155261 0.251933 0.870786 353
2 0.572491 0.389924 0.0751946 0.123192 0.607311 436
2 0.0531522 0.367571 0.0909072 0.131754 0.790522 441
2 0.373469 0.477153 0.113619 0.075278 0.149801 442
2 0.377836 0.589441 0.13563 0.227187 0.230101 304
2 0.133344 0.337094 0.0771707 0.0993505 0.348032 423
2 0.135011 0.332921 0.0858944 0.107334 0.716605 433
2 0.0743373 0.302503 0.0525328 0.0737293 0.385641 452
