2 0.583988 0.501838 0.104753 0.169334 0.865587 1
2 0.269489 0.837309 0.184992 0.301587 0.87498 2
2 0.0713425 0.372617 0.0906787 0.129358 0.847555 3
2 0.352842 0.771516 0.137163 0.239116 0.854924 4
2 0.655916 0.715603 0.159128 0.275511 0.846427 5
2 0.381964 0.59016 0.135027 0.193832 0.861037 7
2 0.385938 0.452575 0.098032 0.107324 0.767792 8
2 0.639761 0.587163 0.127008 0.160179 0.522971 9
2 0.19328 0.311743 0.0504946 0.0836294 0.593252 10
2 0.626669 0.447398 0.0858323 0.131395 0.655484 11
2 0.748364 0.920267 0.276247 0.151478 0.660314 12
2 0.130473 0.319765 0.082394 0.14676 0.102225 13
5 0.59481 0.269554 0.0773926 0.118402 0.553106 16
2 0.643058 0.592156 0.124593 0.169342 0.717811 17
2 0.643025 0.572256 0.125948 0.127115 0.559977 19
2 0.0144561 0.422167 0.0289121 0.161453 0.630338 21
