2 0.279765 0.300525 0.0484271 0.0405014 0.472816 99
2 0.36227 0.572521 0.1218 0.197873 0.744662 110
2 0.290617 0.890375 0.182951 0.213547 0.874119 123
2 0.970368 0.888582 0.0582675 0.220363 0.564004 74
2 0.651996 0.600838 0.116206 0.190934 0.846559 166
7 0.396408 0.413383 0.118758 0.28045 0.501279 168
2 0.330027 0.718667 0.154677 0.238746 0.865027 178
2 0.689616 0.865511 0.188445 0.25548 0.904554 120
2 0.189181 0.309345 0.0616715 0.0775882 0.312563 156
2 0.061767 0.344362 0.115693 0.160516 0.540522 190
2 0.23154 0.301945 0.0454078 0.075828 0.658561 140
2 0.63508 0.493419 0.111835 0.15596 0.758544 98
2 0.360144 0.54944 0.124062 0.195142 0.182086 194
2 0.27726 0.299829 0.0499609 0.0514578 0.133088 197
2 0.582702 0.384032 0.0972106 0.17467 0.522378 199
2 0.1933 0.309279 0.0656085 0.0851564 0.778868 200
2 0.0282379 0.396149 0.0558777 0.126691 0.842784 202
2 0.202747 0.962552 0.173789 0.066849 0.777879 55
2 0.634086 0.482021 0.106159 0.13182 0.406395 207
