2 0.267517 0.30274 0.0354711 0.0388715 0.307474 298
2 0.266554 0.306288 0.0308223 0.0312584 0.284154 356
2 0.658465 0.683802 0.15844 0.271137 0.795123 365
2 0.669565 0.917937 0.184194 0.156205 0.884421 376
2 0.37774 0.630375 0.133289 0.208324 0.796822 404
7 0.207967 0.272921 0.0662488 0.13683 0.658044 395
2 0.219484 0.921996 0.224664 0.137625 0.840699 415
2 0.711972 0.822559 0.16972 0.262695 0.852458 416
2 0.624056 0.483257 0.108006 0.149541 0.749542 410
2 0.311809 0.705346 0.165189 0.265917 0.878978 353
2 0.575522 0.399423 0.0779839 0.129006 0.738387 436
2 0.0720393 0.355797 0.0833093 0.12768 0.795361 441
2 0.374615 0.497861 0.117344 0.127539 0.101091 442
2 0.382401 0.628484 0.113938 0.209138 0.549694 304
2 0.083079 0.284942 0.0490386 0.0363527 0.164673 452
5 0.207102 0.270721 0.0612687 0.140101 0.318492 453
2 0.149133 0.325871 0.0758318 0.102307 0.754034 423
2 0.0227865 0.403308 0.045573 0.13183 0.839114 456
2 0.58472 0.395579 0.096718 0.130027 0.60077 461
2 0.681968 0.845355 0.160887 0.244907 0.474843 434
2 0.0217789 0.417861 0.0435577 0.150578 0.564225 462
2 0.665735 0.675467 0.171786 0.25099 0.668299 451
