2 0.278075 0.3042 0.0454045 0.0377049 0.126925 220
2 0.278591 0.301277 0.0423309 0.0341265 0.303096 272
2 0.210373 0.308835 0.0479355 0.0786524 0.429618 298
2 0.427545 0.436153 0.086058 0.142657 0.333902 304
2 0.196788 0.311163 0.0744748 0.0803011 0.280988 307
2 0.230624 0.950317 0.228889 0.0826166 0.502233 350
2 0.284186 0.837611 0.199834 0.300276 0.640257 306
2 0.375241 0.434067 0.103472 0.113447 0.735423 353
2 0.176041 0.310323 0.0566833 0.0819262 0.275388 356
2 0.277305 0.312375 0.0448015 0.0478238 0.188462 362
2 0.616829 0.459902 0.104994 0.166408 0.513078 365
2 0.240649 0.303524 0.0328585 0.066789 0.231349 371
2 0.646362 0.52124 0.119709 0.168472 0.11799 376
2 0.373412 0.450274 0.106006 0.156301 0.531754 392
2 0.189791 0.315256 0.0797588 0.0901874 0.211925 345
2 0.370226 0.682644 0.141295 0.22583 0.782669 399
2 0.221504 0.301903 0.0723251 0.0694074 0.127947 328
2 0.377062 0.566435 0.131278 0.172417 0.605586 352
2 0.651272 0.51859 0.102761 0.165394 0.53311 402
2 0.432734 0.441015 0.0731674 0.142415 0.690461 404
7 0.0785464 0.31775 0.0948901 0.208849 0.831691 395
2 0.28625 0.814436 0.212496 0.252259 0.654775 405
2 0.137674 0.333853 0.0346946 0.108118 0.766732 369
2 0.719084 0.913357 0.195754 0.169337 0.738866 233
2 0.737606 0.913705 0.229769 0.16504 0.795853 407
2 0.734819 0.908822 0.204591 0.159927 0.634813 408
