2 0.330542 0.683545 0.147484 0.231558 0.894192 110
2 0.67318 0.736487 0.147393 0.239699 0.891567 166
2 0.367708 0.601627 0.123427 0.199663 0.733809 168
2 0.290388 0.893542 0.200343 0.196946 0.88703 178
7 0.13925 0.30941 0.0924779 0.136554 0.419891 190
2 0.265448 0.29678 0.0321992 0.0418697 0.273447 140
2 0.661285 0.580633 0.127572 0.177658 0.84588 98
2 0.232685 0.302603 0.0484068 0.062993 0.523276 200
2 0.101737 0.342872 0.0703509 0.105816 0.691082 202
2 0.191985 0.317799 0.0214432 0.0422994 0.149829 210
2 0.042996 0.393494 0.085992 0.133538 0.842505 212
2 0.375545 0.566488 0.134256 0.158423 0.115161 194
2 0.365654 0.582975 0.131431 0.164717 0.580611 215
2 0.614182 0.440686 0.110733 0.203709 0.544953 199
2 0.0964346 0.336036 0.0735942 0.112721 0.209906 217
