2 0.266181 0.298071 0.0442619 0.0537891 0.59066 99
2 0.374682 0.53786 0.112844 0.184651 0.608083 110
2 0.312679 0.812647 0.160587 0.254825 0.849113 123
2 0.942866 0.79897 0.113757 0.270195 0.894636 74
2 0.0990888 0.309024 0.0484731 0.089881 0.688865 157
2 0.245592 0.894273 0.197012 0.197793 0.906794 158
2 0.642697 0.552827 0.108309 0.184419 0.836059 166
2 0.705474 0.936234 0.197337 0.127125 0.481629 164
7 0.403355 0.387572 0.108354 0.259098 0.506042 168
2 0.350347 0.657329 0.136604 0.219374 0.807296 178
2 0.668655 0.779439 0.17513 0.247303 0.875628 120
2 0.173344 0.315584 0.0698959 0.0948165 0.735918 156
2 0.0427544 0.371998 0.0851135 0.171971 0.861786 190
2 0.213677 0.302908 0.0497217 0.0820658 0.560047 140
2 0.623571 0.46196 0.0990135 0.139949 0.720595 98
2 0.371134 0.510214 0.115203 0.21483 0.601954 194
2 0.265526 0.295773 0.0489456 0.0538845 0.143978 197
2 0.710722 0.930481 0.208822 0.125257 0.84988 198
7 0.573336 0.360348 0.0908903 0.183135 0.310293 199
