2 0.303775 0.836805 0.18706 0.305043 0.860284 55
2 0.270985 0.302582 0.0359222 0.0297158 0.311959 70
2 0.60637 0.400634 0.0884862 0.111279 0.302271 98
2 0.231092 0.287278 0.0486327 0.0583565 0.269581 99
2 0.390675 0.459269 0.0997512 0.142513 0.570379 110
2 0.639443 0.63323 0.128388 0.211595 0.815816 120
2 0.342909 0.586313 0.119675 0.114899 0.489256 123
2 0.875914 0.602382 0.141338 0.20733 0.889022 74
2 0.605953 0.4108 0.0856654 0.126297 0.702914 148
2 0.0354422 0.320379 0.0669982 0.106082 0.780857 157
2 0.330082 0.733221 0.152249 0.206359 0.330238 158
2 0.116608 0.336247 0.0802917 0.111915 0.866482 156
2 0.625276 0.473634 0.0968375 0.144821 0.738993 166
2 0.687805 0.763092 0.15822 0.242589 0.879257 164
2 0.170803 0.313658 0.0645936 0.0982093 0.628569 160
7 0.421626 0.346888 0.0975925 0.233021 0.47416 168
2 0.331216 0.700696 0.145155 0.199513 0.521635 173
7 0.169558 0.312309 0.0609302 0.103207 0.180907 150
2 0.333182 0.719091 0.148409 0.236667 0.438339 177
2 0.367858 0.548959 0.117721 0.186441 0.632357 178
2 0.621654 0.469704 0.0934013 0.15326 0.333889 180
