2 0.322426 0.709049 0.153578 0.238735 0.889611 110
2 0.674203 0.765642 0.151064 0.2452 0.88338 166
2 0.363457 0.617536 0.13186 0.207322 0.785822 168
2 0.282599 0.914008 0.201715 0.163415 0.847321 178
2 0.147501 0.30675 0.096039 0.134461 0.320896 190
2 0.272437 0.29801 0.0337815 0.0446262 0.312677 140
2 0.664814 0.594405 0.1361 0.18079 0.84295 98
2 0.236357 0.305481 0.0465749 0.0638089 0.526323 200
2 0.109136 0.337615 0.0746166 0.101096 0.708026 202
2 0.0500881 0.385757 0.095497 0.123426 0.903568 212
2 0.377816 0.532726 0.140355 0.250165 0.259177 194
2 0.364769 0.603849 0.131492 0.17529 0.127134 215
2 0.620658 0.448157 0.11353 0.208109 0.661163 199
2 0.11275 0.335151 0.0631594 0.0937347 0.332923 217
2 0.265132 0.914955 0.243219 0.161755 0.899292 218
