2 0.298724 0.878049 0.202819 0.235808 0.897956 168
2 0.699617 0.842855 0.184221 0.259835 0.944732 98
2 0.166616 0.320564 0.059783 0.0863944 0.806634 212
5 0.357256 0.668211 0.205673 0.45751 0.73271 194
2 0.628114 0.58209 0.147052 0.280201 0.561598 199
2 0.195438 0.30734 0.0393284 0.0785967 0.369001 217
2 0.615015 0.402053 0.113079 0.118794 0.427341 219
7 0.105235 0.331152 0.0742464 0.130947 0.282386 220
2 0.170705 0.320071 0.0713672 0.0961893 0.177307 202
2 0.582641 0.387547 0.0919671 0.137168 0.536443 223
2 0.0680887 0.370007 0.0733647 0.120635 0.876619 225
2 0.618096 0.409202 0.114993 0.131668 0.64134 227
7 0.580861 0.28041 0.0792734 0.100094 0.473623 233
2 0.0302477 0.413079 0.0604953 0.16101 0.369715 234
2 0.0333561 0.389323 0.0667121 0.121667 0.726514 228
2 0.380633 0.373417 0.0956095 0.0900813 0.199557 237
2 0.20722 0.982447 0.15424 0.0344976 0.134651 110
2 0.0225663 0.444334 0.0451326 0.136801 0.762516 240
