2 0.263461 0.929783 0.195173 0.127005 0.734404 55
2 0.28896 0.286795 0.0348686 0.0411648 0.101781 70
2 0.252113 0.300446 0.049847 0.0686202 0.554929 99
2 0.380452 0.512862 0.108895 0.184632 0.569927 110
2 0.323473 0.746857 0.145711 0.241812 0.824931 123
2 0.928693 0.722449 0.142243 0.250356 0.872431 74
2 0.0803754 0.310437 0.059853 0.0963424 0.629532 157
2 0.27372 0.835587 0.184679 0.227141 0.760027 158
2 0.640136 0.525421 0.104343 0.173439 0.806966 166
2 0.70354 0.89031 0.191888 0.20398 0.880471 164
5 0.406395 0.374957 0.111459 0.253031 0.285417 168
2 0.275021 0.815577 0.187641 0.185852 0.575011 173
2 0.278881 0.804125 0.172564 0.171503 0.428045 177
2 0.355703 0.618647 0.131604 0.209953 0.813456 178
2 0.663238 0.723759 0.157862 0.233165 0.866232 120
2 0.158761 0.317567 0.0723358 0.0962176 0.816409 156
2 0.274815 0.846421 0.187739 0.250632 0.490955 186
2 0.0287311 0.38556 0.055647 0.211484 0.296418 187
2 0.0272274 0.393998 0.0527102 0.189066 0.700305 190
2 0.202676 0.304945 0.0561598 0.0889062 0.675658 140
2 0.259657 0.928542 0.21693 0.1327 0.626016 193
2 0.61694 0.44802 0.0931258 0.141557 0.705927 98
2 0.378785 0.492644 0.108168 0.201108 0.448796 194
2 0.257882 0.919864 0.223231 0.15166 0.515193 196
