2 0.243599 0.303414 0.0536127 0.067068 0.306601 220
2 0.288434 0.293922 0.0439184 0.0361836 0.111594 225
7 0.619289 0.435997 0.128506 0.198229 0.367537 233
2 0.632284 0.757541 0.170856 0.245162 0.916075 219
2 0.164971 0.318491 0.0568716 0.0849489 0.695206 270
2 0.199863 0.30233 0.0508721 0.0887787 0.43691 272
2 0.737096 0.942414 0.230501 0.106383 0.734627 285
2 0.242619 0.305711 0.0550984 0.0754526 0.557375 283
2 0.20334 0.312825 0.0424712 0.0860175 0.234942 290
2 0.664837 0.632132 0.128714 0.19902 0.733654 271
2 0.241778 0.306943 0.0457238 0.0769287 0.236473 248
2 0.306641 0.739502 0.159709 0.148605 0.532931 297
2 0.115884 0.341821 0.0602642 0.103252 0.749747 298
2 0.236702 0.894592 0.212897 0.196103 0.888629 302
2 0.319807 0.886247 0.153978 0.221307 0.731798 265
2 0.42571 0.342847 0.108213 0.118674 0.471999 304
2 0.373954 0.493555 0.13401 0.236166 0.604097 306
2 0.37365 0.493603 0.136633 0.264127 0.594835 313
2 0.641608 0.538834 0.116527 0.182922 0.542254 314
2 0.302981 0.888883 0.196512 0.213203 0.238711 237
2 0.66642 0.61922 0.123385 0.165999 0.325417 322
2 0.35059 0.652313 0.143447 0.213074 0.817877 288
2 0.308476 0.749482 0.163538 0.171313 0.776944 327
2 0.0313455 0.406055 0.0621437 0.141385 0.858278 328
2 0.0710155 0.364397 0.0717599 0.129159 0.828281 307
2 0.549965 0.442842 0.035483 0.126659 0.343755 334
2 0.160075 0.318554 0.0643945 0.0869387 0.201344 336
2 0.0708591 0.370715 0.0693886 0.112725 0.663621 337
