2 0.600729 0.599052 0.129131 0.198744 0.895589 1
2 0.148589 0.32781 0.0758187 0.109368 0.714214 3
2 0.702427 0.902995 0.204246 0.191549 0.751654 5
2 0.345489 0.765544 0.186283 0.256267 0.908016 7
2 0.239237 0.307634 0.0366528 0.0703573 0.342354 10
7 0.183643 0.295899 0.0774174 0.114462 0.478174 13
5 0.616916 0.303295 0.0881141 0.158403 0.636442 16
2 0.0811656 0.355107 0.071775 0.128253 0.508632 21
2 0.61299 0.431451 0.100638 0.124563 0.268107 22
2 0.639863 0.518323 0.103723 0.168997 0.580847 23
2 0.401388 0.504982 0.0977557 0.173393 0.714561 26
2 0.366331 0.561606 0.118079 0.184434 0.780561 29
2 0.0343522 0.387048 0.0674713 0.124511 0.824199 32
2 0.395375 0.496864 0.106152 0.164774 0.69806 8
2 0.662624 0.768399 0.160515 0.231536 0.86913 9
5 0.617106 0.318361 0.0888753 0.188365 0.555149 40
2 0.717276 0.897552 0.228869 0.192758 0.773402 41
