2 0.610285 0.697687 0.15414 0.233164 0.861882 1
2 0.181087 0.311868 0.0662955 0.0881836 0.591194 3
2 0.305499 0.902533 0.221634 0.180564 0.89037 7
2 0.262138 0.294837 0.0237467 0.0417721 0.234462 10
2 0.179802 0.316019 0.0606261 0.0950554 0.237586 13
5 0.626647 0.320006 0.0960464 0.162762 0.768481 16
2 0.127834 0.330601 0.0671097 0.115723 0.632579 21
2 0.637749 0.47416 0.114032 0.140992 0.564195 22
2 0.650805 0.585276 0.119545 0.180757 0.767946 23
2 0.38209 0.552477 0.124344 0.170719 0.722323 26
2 0.346249 0.63753 0.133271 0.206562 0.783646 29
2 0.385848 0.55681 0.113622 0.191252 0.637276 8
2 0.690298 0.902036 0.201904 0.179147 0.903977 9
2 0.378712 0.432733 0.101248 0.113285 0.440546 47
2 0.0354834 0.376841 0.0709668 0.117308 0.812929 53
2 0.387411 0.566639 0.108699 0.172773 0.108715 45
2 0.414831 0.361123 0.0875696 0.139086 0.624292 55
7 0.623556 0.323554 0.109829 0.171064 0.619848 56
2 0.584208 0.457165 0.0790643 0.138671 0.585535 57
2 0.0849618 0.350214 0.0752482 0.110597 0.781676 52
