2 0.625742 0.779604 0.16671 0.255296 0.87889 1
2 0.196717 0.308462 0.0586654 0.0811415 0.586535 3
2 0.268017 0.98465 0.153531 0.0306377 0.116467 7
2 0.274468 0.294841 0.0237006 0.0445512 0.116207 10
2 0.192594 0.31035 0.062888 0.0918408 0.317027 13
2 0.156615 0.321895 0.0561138 0.105804 0.566831 21
2 0.648751 0.507842 0.12404 0.156974 0.548713 22
2 0.655409 0.63278 0.13503 0.202134 0.801915 23
2 0.375036 0.605778 0.128823 0.200123 0.713964 26
2 0.331182 0.704617 0.143273 0.213545 0.837098 29
2 0.71454 0.967231 0.156902 0.0482078 0.541263 9
2 0.379518 0.502961 0.104385 0.0926106 0.18263 47
2 0.0735079 0.344161 0.0756493 0.129566 0.734525 53
2 0.407734 0.371332 0.095776 0.13897 0.508756 55
2 0.597911 0.48466 0.0953528 0.146383 0.588757 57
2 0.122399 0.3365 0.0587874 0.100332 0.727901 52
2 0.0293668 0.399735 0.0584844 0.130436 0.82585 60
2 0.372716 0.583916 0.115846 0.159407 0.245479 45
2 0.712317 0.977329 0.155318 0.0451771 0.496091 65
2 0.649631 0.498564 0.115572 0.134743 0.638629 66
2 0.137684 0.327519 0.075121 0.104765 0.11094 32
2 0.654276 0.485187 0.108726 0.107353 0.777679 67
2 0.0719823 0.354117 0.0770272 0.105842 0.598983 68
7 0.62567 0.340546 0.114902 0.179943 0.709494 16
