2 0.621155 0.754316 0.157999 0.253404 0.891721 1
2 0.192506 0.309174 0.0594102 0.0818663 0.552521 3
2 0.276698 0.960197 0.179577 0.0703953 0.540145 7
2 0.271058 0.296781 0.0267381 0.0396081 0.238687 10
2 0.190907 0.31121 0.055475 0.0926544 0.435175 13
7 0.631265 0.337092 0.101925 0.176161 0.472304 16
2 0.148057 0.322499 0.0616489 0.102636 0.460555 21
2 0.648396 0.500148 0.118438 0.158211 0.64215 22
2 0.653384 0.621262 0.138808 0.195774 0.736504 23
2 0.373482 0.592612 0.116806 0.206376 0.599423 26
2 0.335347 0.684384 0.14134 0.219659 0.865012 29
2 0.380638 0.621632 0.107144 0.14326 0.136168 8
2 0.704501 0.951422 0.175108 0.082173 0.793208 9
2 0.376299 0.445111 0.104198 0.107179 0.10771 47
2 0.0618749 0.359701 0.077061 0.11068 0.857808 53
2 0.408928 0.369813 0.0919527 0.131092 0.576612 55
7 0.621871 0.336619 0.122173 0.177055 0.7892 56
2 0.594251 0.47777 0.089172 0.137965 0.574204 57
2 0.112183 0.340081 0.0660441 0.102087 0.760949 52
2 0.0246569 0.407975 0.0493138 0.13604 0.889856 60
2 0.375099 0.582005 0.122425 0.197902 0.759719 45
