2 0.587044 0.509652 0.108508 0.174628 0.839468 1
2 0.2642 0.851217 0.190395 0.281477 0.875462 2
2 0.0802804 0.367643 0.0899801 0.127005 0.782551 3
2 0.346069 0.795877 0.143635 0.244581 0.858191 4
2 0.659045 0.734067 0.166437 0.297519 0.847776 5
2 0.377737 0.605913 0.136191 0.203251 0.895807 7
2 0.385911 0.465222 0.105992 0.113453 0.682035 8
2 0.641091 0.613724 0.134632 0.18788 0.706255 9
2 0.197389 0.309146 0.0496687 0.0808532 0.44948 10
2 0.628543 0.448502 0.0858947 0.123998 0.628852 11
2 0.751942 0.936945 0.29563 0.115061 0.573813 12
7 0.136102 0.315055 0.0823236 0.144311 0.648178 13
5 0.597618 0.273172 0.0781877 0.122315 0.648923 16
2 0.642115 0.600487 0.132123 0.164546 0.205181 17
2 0.0203597 0.411506 0.0396335 0.156786 0.734606 21
2 0.589596 0.377758 0.101175 0.0948414 0.599257 22
