2 0.582135 0.487522 0.100676 0.162081 0.900396 1
2 0.283684 0.779031 0.17809 0.283303 0.901054 2
2 0.0468132 0.386652 0.0921817 0.136728 0.860393 3
2 0.364478 0.718652 0.128871 0.221844 0.833764 4
2 0.651106 0.67294 0.154142 0.263413 0.825185 5
2 0.217442 0.953585 0.173897 0.0884198 0.772939 6
2 0.391385 0.559383 0.131525 0.18639 0.80127 7
2 0.386969 0.441859 0.100858 0.103463 0.684608 8
2 0.635321 0.565913 0.12962 0.147404 0.54442 9
2 0.183431 0.31626 0.0569459 0.0895049 0.676102 10
2 0.623626 0.432712 0.0836265 0.115728 0.619676 11
2 0.725397 0.889755 0.272084 0.207608 0.662381 12
