2 0.582585 0.49006 0.100198 0.162194 0.886782 1
2 0.282755 0.786171 0.178939 0.287312 0.879788 2
2 0.0491597 0.385443 0.0968932 0.136575 0.808184 3
2 0.362738 0.727336 0.129969 0.22942 0.853557 4
2 0.649097 0.679145 0.154267 0.270557 0.862716 5
2 0.21142 0.961568 0.170403 0.0719294 0.767616 6
2 0.390189 0.564687 0.130406 0.19327 0.801681 7
2 0.387075 0.444543 0.100432 0.100184 0.660447 8
2 0.635705 0.568446 0.132804 0.149893 0.566729 9
2 0.184599 0.315104 0.0563776 0.0874982 0.629425 10
2 0.624729 0.433197 0.0834576 0.120177 0.55224 11
2 0.732348 0.894803 0.26712 0.197646 0.553913 12
7 0.118318 0.326446 0.0842609 0.152187 0.680249 13
2 0.21253 0.956205 0.169092 0.0767331 0.601387 14
