2 0.582553 0.489084 0.100294 0.162223 0.878572 1
2 0.282857 0.782828 0.177464 0.284602 0.892289 2
2 0.047626 0.386059 0.095252 0.135716 0.858297 3
2 0.363362 0.723805 0.129071 0.226825 0.848869 4
2 0.649587 0.676324 0.154264 0.267557 0.839483 5
2 0.21421 0.958028 0.175597 0.0782367 0.749664 6
2 0.390358 0.561604 0.131357 0.190765 0.794168 7
2 0.386614 0.443091 0.0999808 0.104244 0.737961 8
2 0.635618 0.567101 0.132584 0.150364 0.511011 9
2 0.183803 0.315854 0.0565431 0.0887789 0.64642 10
2 0.623713 0.433141 0.0845277 0.117083 0.613234 11
2 0.728605 0.892012 0.266652 0.204699 0.588386 12
7 0.117025 0.326627 0.0865671 0.156322 0.572844 13
