2 0.6042 0.653737 0.14152 0.215065 0.861701 1
2 0.170515 0.316393 0.0727875 0.095304 0.676727 3
2 0.734238 0.966804 0.172061 0.0550185 0.767412 5
2 0.326511 0.859382 0.200363 0.264513 0.863406 7
2 0.255247 0.294424 0.0315411 0.0408869 0.24594 10
7 0.191632 0.290695 0.0585788 0.102539 0.208832 13
5 0.623648 0.310655 0.0911568 0.157782 0.858757 16
2 0.10813 0.335979 0.0684198 0.119215 0.688474 21
2 0.625697 0.459032 0.102959 0.139907 0.59293 22
2 0.645831 0.554409 0.110686 0.176766 0.736936 23
2 0.397173 0.534579 0.0965628 0.184135 0.634923 26
2 0.35779 0.603682 0.127046 0.196639 0.838827 29
2 0.0565588 0.365578 0.0882842 0.11815 0.770251 32
2 0.386209 0.528436 0.116822 0.177331 0.682261 8
2 0.676593 0.867714 0.188177 0.257621 0.892376 9
2 0.393284 0.524694 0.10664 0.181451 0.558091 42
2 0.377533 0.422885 0.0952717 0.115972 0.377905 47
2 0.0205025 0.394417 0.040539 0.119501 0.732096 50
2 0.734114 0.970237 0.169771 0.0595259 0.412698 41
7 0.625769 0.314 0.0945603 0.168313 0.514314 51
2 0.0516809 0.363269 0.100141 0.113867 0.597755 52
2 0.0213834 0.392363 0.0422559 0.136395 0.44514 53
