2 0.5965 0.573575 0.120684 0.191038 0.850848 1
2 0.237883 0.96065 0.172352 0.0650762 0.268046 2
2 0.129729 0.336765 0.0782577 0.108315 0.705587 3
2 0.320432 0.928743 0.186673 0.130043 0.74507 4
2 0.690666 0.856698 0.189872 0.274786 0.848546 5
2 0.353639 0.706075 0.162185 0.232719 0.860869 7
2 0.227922 0.299836 0.0397513 0.064178 0.266813 10
2 0.635504 0.490104 0.0944593 0.138753 0.275766 11
7 0.169416 0.300002 0.0802945 0.119985 0.553456 13
5 0.612514 0.296502 0.0855562 0.153077 0.637781 16
2 0.0598067 0.368677 0.0799772 0.133812 0.748327 21
2 0.609384 0.419069 0.0960356 0.11778 0.530866 22
2 0.636175 0.499274 0.0996897 0.164373 0.500338 23
2 0.408507 0.485738 0.0950903 0.16696 0.546104 26
2 0.373433 0.533914 0.114988 0.170764 0.829621 29
2 0.0221421 0.40724 0.044093 0.128641 0.71139 32
2 0.655388 0.729507 0.152409 0.234864 0.582741 9
2 0.285992 0.934151 0.244278 0.121465 0.335228 34
2 0.0218616 0.397238 0.0435437 0.145299 0.859581 36
2 0.403498 0.465199 0.0947668 0.130815 0.553435 8
2 0.655317 0.710351 0.148512 0.211703 0.802845 33
