2 0.58437 0.505344 0.10555 0.172362 0.848247 1
2 0.266973 0.845617 0.189658 0.293348 0.868242 2
2 0.0752057 0.370158 0.0894759 0.125287 0.883854 3
2 0.349866 0.780612 0.140256 0.238943 0.863152 4
2 0.655932 0.723468 0.157501 0.276467 0.855077 5
2 0.381154 0.595499 0.138303 0.196435 0.895105 7
2 0.385811 0.456882 0.0980257 0.111572 0.769848 8
2 0.642473 0.594763 0.129616 0.166006 0.707624 9
2 0.193993 0.310693 0.0516622 0.0835837 0.516892 10
2 0.627889 0.450359 0.0846958 0.131957 0.555858 11
2 0.752644 0.925557 0.286671 0.136416 0.635076 12
7 0.13239 0.317267 0.0802131 0.145892 0.584306 13
5 0.596247 0.272241 0.0767818 0.122468 0.530442 16
2 0.639976 0.606837 0.130353 0.19355 0.672294 17
2 0.639233 0.58366 0.127067 0.141699 0.253269 19
2 0.0173934 0.417923 0.0347869 0.15988 0.726651 21
2 0.587005 0.37434 0.102471 0.103505 0.589975 22
