2 0.596762 0.581064 0.121856 0.192304 0.879603 1
2 0.136829 0.333226 0.0757597 0.107448 0.856903 3
2 0.308343 0.946597 0.172032 0.0920633 0.797058 4
2 0.695661 0.873861 0.193061 0.235678 0.865725 5
2 0.351082 0.729304 0.175853 0.242787 0.886961 7
2 0.231116 0.304838 0.0351848 0.0690472 0.521891 10
2 0.636124 0.457855 0.0959492 0.0654539 0.142762 11
7 0.176444 0.296582 0.0848035 0.115662 0.292762 13
5 0.615493 0.302007 0.0865061 0.161228 0.585504 16
2 0.0676934 0.362398 0.0771306 0.133727 0.772879 21
2 0.612714 0.425952 0.0977147 0.120219 0.584649 22
2 0.636907 0.505646 0.0993534 0.157024 0.549435 23
2 0.404622 0.491548 0.0984765 0.167171 0.660748 26
2 0.370878 0.546638 0.112837 0.175721 0.780986 29
2 0.0267434 0.396106 0.0530349 0.126694 0.851137 32
2 0.287466 0.944312 0.219394 0.0962766 0.389595 34
2 0.39787 0.468562 0.0999694 0.130577 0.585847 8
2 0.657526 0.729201 0.153406 0.223545 0.832812 33
