2 0.61359 0.705364 0.152835 0.235942 0.879429 1
2 0.182296 0.311774 0.0681053 0.0861213 0.525705 3
2 0.302827 0.911905 0.221414 0.16708 0.881165 7
2 0.263176 0.293047 0.0238745 0.0426704 0.182697 10
2 0.180591 0.312967 0.0596519 0.0932068 0.560867 13
5 0.628625 0.321546 0.100371 0.165991 0.717035 16
2 0.131791 0.329259 0.0628828 0.110087 0.477954 21
2 0.641535 0.476225 0.114903 0.141366 0.576719 22
2 0.651725 0.588585 0.122426 0.187742 0.743553 23
2 0.381396 0.554971 0.117564 0.170142 0.151385 26
2 0.343419 0.645031 0.135974 0.207384 0.841962 29
2 0.38454 0.565091 0.116033 0.195082 0.680743 8
2 0.693394 0.912363 0.202592 0.166234 0.907306 9
2 0.37808 0.436355 0.102751 0.11352 0.403173 47
2 0.0377288 0.371936 0.0752873 0.116769 0.824835 53
2 0.384937 0.540748 0.113028 0.14053 0.30639 45
2 0.412589 0.363092 0.0896745 0.140423 0.529335 55
7 0.626172 0.325161 0.10711 0.172651 0.566132 56
2 0.584272 0.46117 0.0794015 0.142645 0.566896 57
2 0.0900621 0.346429 0.0735608 0.111068 0.841615 52
2 0.0117132 0.430582 0.0234265 0.138851 0.663499 60
