2 0.596195 0.563377 0.119148 0.189352 0.871734 1
2 0.233194 0.942668 0.197436 0.109984 0.680991 2
2 0.123482 0.34038 0.0775164 0.113583 0.750393 3
2 0.320136 0.909021 0.17423 0.172056 0.880319 4
2 0.686463 0.847257 0.192983 0.288137 0.848381 5
2 0.357909 0.68617 0.156838 0.223197 0.86181 7
2 0.375524 0.510005 0.105955 0.142185 0.440138 8
2 0.22572 0.306878 0.0446141 0.0666789 0.242741 10
2 0.634932 0.467802 0.0944321 0.10193 0.133333 11
7 0.165846 0.29949 0.0821645 0.119448 0.538819 13
5 0.611205 0.293609 0.0843811 0.150304 0.612617 16
2 0.0501437 0.372063 0.0816178 0.137082 0.663784 21
2 0.602418 0.413771 0.10378 0.117065 0.595033 22
2 0.635568 0.494145 0.0967709 0.154862 0.586599 23
2 0.403901 0.475687 0.104335 0.159259 0.573802 26
2 0.374625 0.524707 0.11028 0.162805 0.787797 29
2 0.0172006 0.413333 0.0340468 0.13476 0.785158 32
2 0.653098 0.704654 0.150839 0.236724 0.477759 9
2 0.650043 0.696278 0.140985 0.210034 0.781299 33
