2 0.595837 0.566654 0.121781 0.190938 0.877249 1
2 0.240136 0.95033 0.182399 0.0904524 0.62063 2
2 0.125977 0.339367 0.0767658 0.112284 0.799298 3
2 0.31748 0.91658 0.170663 0.155732 0.836474 4
2 0.688912 0.853158 0.194664 0.277034 0.86861 5
2 0.357528 0.696679 0.163148 0.229327 0.895317 7
2 0.22594 0.304684 0.0423319 0.0691089 0.172548 10
2 0.635616 0.478231 0.0980003 0.123032 0.19173 11
7 0.167708 0.299474 0.0812904 0.119084 0.61585 13
5 0.611208 0.291495 0.0843417 0.14539 0.686366 16
2 0.0549984 0.370932 0.0799173 0.140058 0.625698 21
2 0.603161 0.416526 0.106633 0.117673 0.558936 22
2 0.636623 0.498139 0.0977549 0.157147 0.654398 23
2 0.405476 0.481543 0.0966614 0.161529 0.61436 26
2 0.374556 0.530221 0.111755 0.175268 0.750844 29
2 0.0189971 0.406827 0.0374647 0.138363 0.807343 32
2 0.650591 0.708995 0.146316 0.227664 0.787836 9
2 0.308134 0.919809 0.201405 0.157242 0.541146 34
