2 0.594188 0.550016 0.114931 0.183278 0.836392 1
2 0.234688 0.914329 0.216985 0.154791 0.81386 2
2 0.113382 0.346817 0.0805006 0.117508 0.859194 3
2 0.322378 0.88848 0.161581 0.214143 0.812719 4
2 0.675209 0.834377 0.179738 0.312111 0.834273 5
2 0.364478 0.667583 0.161688 0.223374 0.871742 7
2 0.378542 0.513157 0.10859 0.163425 0.714126 8
2 0.226423 0.30721 0.057107 0.0733292 0.386702 10
2 0.633354 0.47071 0.0952143 0.12311 0.104394 11
7 0.15769 0.301856 0.0890919 0.130425 0.329684 13
5 0.607834 0.30221 0.0858536 0.173186 0.641822 16
2 0.650528 0.680761 0.149818 0.223241 0.714442 17
2 0.0408388 0.381951 0.0816443 0.143051 0.782481 21
2 0.607208 0.398081 0.0820749 0.0996668 0.475803 22
2 0.632683 0.483078 0.100442 0.152817 0.568825 23
2 0.413222 0.469124 0.0904333 0.158937 0.705161 26
2 0.407143 0.467755 0.103645 0.153879 0.447976 29
