2 0.614764 0.723544 0.160933 0.241443 0.86082 1
2 0.185782 0.309564 0.0620382 0.0854722 0.343182 3
2 0.297857 0.926435 0.226186 0.121453 0.695692 7
2 0.267935 0.291306 0.019734 0.0455708 0.110788 10
2 0.184786 0.311386 0.0653942 0.089762 0.598809 13
5 0.629506 0.326159 0.101195 0.17285 0.682257 16
2 0.137631 0.322943 0.06446 0.10633 0.673649 21
2 0.643328 0.498682 0.114388 0.176835 0.520369 22
2 0.652935 0.59881 0.125619 0.18538 0.808347 23
2 0.378563 0.57687 0.11582 0.177907 0.617853 26
2 0.340763 0.661223 0.136015 0.209661 0.858517 29
2 0.381335 0.576596 0.114056 0.200186 0.711402 8
2 0.693635 0.926597 0.200476 0.136629 0.853927 9
2 0.376871 0.445967 0.109185 0.120797 0.417735 47
2 0.0442439 0.367697 0.0812323 0.113502 0.806535 53
2 0.409795 0.367087 0.0910277 0.139164 0.588179 55
7 0.627075 0.3292 0.107544 0.173239 0.595883 56
2 0.588291 0.466751 0.0822652 0.144209 0.528639 57
2 0.0984304 0.345449 0.0711645 0.106886 0.730582 52
2 0.0162613 0.423512 0.0323006 0.135632 0.772789 60
2 0.285602 0.929507 0.242411 0.127052 0.761764 61
