2 0.600466 0.615935 0.131422 0.204836 0.861306 1
2 0.156933 0.32492 0.0707799 0.104546 0.73977 3
2 0.711863 0.921905 0.20336 0.146668 0.694164 5
2 0.33893 0.802581 0.185878 0.266332 0.895469 7
2 0.245399 0.296367 0.0312657 0.0482974 0.37381 10
7 0.191 0.281532 0.076447 0.0853173 0.21353 13
5 0.620028 0.304199 0.0872648 0.15307 0.700352 16
2 0.0921126 0.347463 0.0705938 0.12238 0.686092 21
2 0.619935 0.442956 0.0990686 0.127678 0.521314 22
2 0.642069 0.534303 0.110769 0.166348 0.610496 23
2 0.398213 0.51519 0.101497 0.165968 0.561164 26
2 0.364614 0.577798 0.120776 0.187223 0.802362 29
2 0.0400792 0.38018 0.0795207 0.120514 0.821601 32
2 0.391973 0.509353 0.110536 0.17071 0.686176 8
2 0.666566 0.804582 0.169842 0.24289 0.827103 9
2 0.72493 0.922512 0.240237 0.141489 0.745086 41
2 0.376471 0.540802 0.109366 0.126993 0.155607 42
2 0.385179 0.408951 0.100034 0.105942 0.442189 47
7 0.620718 0.304634 0.0920353 0.15642 0.509839 48
