2 0.600974 0.611067 0.13149 0.206088 0.863095 1
2 0.151336 0.325777 0.0741211 0.106209 0.733283 3
2 0.712154 0.913212 0.212631 0.16334 0.764267 5
2 0.33968 0.783742 0.179521 0.260633 0.874501 7
2 0.242318 0.305362 0.0340024 0.069737 0.261637 10
7 0.18887 0.284625 0.0787077 0.0895716 0.309714 13
5 0.618651 0.307255 0.0870319 0.160881 0.703731 16
2 0.0867851 0.351725 0.0727286 0.12424 0.545755 21
2 0.613332 0.438652 0.106597 0.129055 0.503695 22
2 0.641598 0.528264 0.106332 0.165469 0.616357 23
2 0.399256 0.507978 0.100073 0.175999 0.593656 26
2 0.36552 0.5721 0.119057 0.179973 0.818021 29
2 0.0374377 0.383261 0.0748755 0.123835 0.846616 32
2 0.393295 0.502147 0.108583 0.169791 0.774185 8
2 0.662937 0.787271 0.167051 0.22888 0.877844 9
5 0.61861 0.315395 0.090981 0.178326 0.277466 40
2 0.721375 0.907081 0.23777 0.16797 0.740377 41
2 0.367689 0.540305 0.11372 0.121959 0.419807 42
2 0.385518 0.408385 0.101142 0.108876 0.568469 47
