2 0.594812 0.549101 0.114223 0.180972 0.824579 1
2 0.235612 0.913442 0.217612 0.156607 0.816557 2
2 0.112464 0.347021 0.0810057 0.117718 0.85919 3
2 0.322258 0.887183 0.159818 0.217654 0.811466 4
2 0.675397 0.83185 0.181349 0.31759 0.839021 5
2 0.363599 0.66596 0.161185 0.224094 0.871762 7
2 0.378931 0.513353 0.108336 0.164136 0.7461 8
2 0.650352 0.668143 0.143864 0.192038 0.720532 9
2 0.224781 0.307391 0.0549395 0.0745376 0.367521 10
2 0.633601 0.471988 0.0931225 0.124856 0.178633 11
7 0.156932 0.301476 0.084652 0.129525 0.498196 13
5 0.607687 0.300998 0.0859118 0.170665 0.612069 16
2 0.649469 0.683399 0.148241 0.227952 0.656912 17
2 0.0401897 0.382232 0.0803795 0.143294 0.770733 21
2 0.6069 0.397912 0.0821455 0.101213 0.50213 22
2 0.633599 0.48308 0.0979891 0.151598 0.572111 23
2 0.41364 0.468374 0.0902047 0.157724 0.669957 26
2 0.411205 0.469896 0.0964468 0.149026 0.515671 29
