2 0.605875 0.665531 0.138899 0.212475 0.885826 1
2 0.170521 0.314714 0.0720032 0.097215 0.646403 3
2 0.321086 0.871455 0.207948 0.240249 0.867424 7
2 0.258584 0.295663 0.0335079 0.0407848 0.26816 10
7 0.193968 0.289581 0.0584544 0.100463 0.255426 13
5 0.625415 0.315647 0.092583 0.160259 0.862878 16
2 0.113008 0.335606 0.0689132 0.120206 0.742192 21
2 0.632029 0.45487 0.10493 0.120547 0.502537 22
2 0.646757 0.563224 0.117926 0.17239 0.816519 23
2 0.39294 0.54198 0.102961 0.185344 0.671968 26
2 0.354137 0.612033 0.127658 0.191502 0.783898 29
2 0.0668246 0.359999 0.0814197 0.118322 0.791201 32
2 0.386266 0.532199 0.116628 0.164795 0.679419 8
2 0.679281 0.87475 0.18516 0.234278 0.898999 9
2 0.386184 0.534302 0.109143 0.188084 0.113316 42
2 0.375295 0.427532 0.0998904 0.117223 0.525266 47
2 0.0246573 0.388237 0.0493147 0.122702 0.825715 53
2 0.35994 0.590143 0.131101 0.157191 0.255627 45
2 0.416576 0.353865 0.0882152 0.132949 0.570299 55
