2 0.596258 0.57574 0.120684 0.19077 0.846706 1
2 0.237331 0.964325 0.166472 0.0598946 0.380254 2
2 0.130886 0.336593 0.0787919 0.108948 0.593421 3
2 0.321205 0.932328 0.188274 0.12198 0.772177 4
2 0.692162 0.863605 0.192143 0.262784 0.868371 5
2 0.354643 0.710659 0.167265 0.23688 0.87073 7
2 0.228018 0.301405 0.0388628 0.064281 0.263963 10
2 0.636972 0.491778 0.0969836 0.140842 0.182403 11
7 0.170844 0.299929 0.0829652 0.119517 0.635358 13
5 0.61294 0.300108 0.0859746 0.159913 0.681453 16
2 0.0606285 0.367652 0.0797839 0.134116 0.732159 21
2 0.609339 0.419851 0.09598 0.116792 0.437975 22
2 0.636814 0.502439 0.0987112 0.165199 0.555561 23
2 0.407493 0.486997 0.0957983 0.166744 0.583434 26
2 0.372643 0.535542 0.113875 0.170658 0.8336 29
2 0.0222016 0.403473 0.0444033 0.131869 0.870886 32
2 0.655839 0.727962 0.151145 0.22717 0.573688 9
2 0.278571 0.935484 0.252446 0.124194 0.527411 34
2 0.0226779 0.406236 0.0453559 0.131931 0.465893 36
2 0.40313 0.462858 0.0950511 0.123383 0.529538 8
2 0.655121 0.709362 0.147098 0.20436 0.800136 33
