2 0.604785 0.65919 0.141893 0.217502 0.872221 1
2 0.170129 0.315639 0.0711346 0.0969015 0.750831 3
2 0.737976 0.975017 0.166994 0.0458642 0.109271 5
2 0.324137 0.86709 0.205372 0.253503 0.863643 7
2 0.256233 0.294773 0.0329408 0.0411215 0.241759 10
5 0.191908 0.289821 0.0567018 0.0994669 0.145752 13
5 0.625342 0.313814 0.0929723 0.159828 0.789978 16
2 0.109763 0.334878 0.0678557 0.117813 0.643747 21
2 0.628497 0.460119 0.102496 0.136373 0.446536 22
2 0.646312 0.558022 0.116341 0.171208 0.767083 23
2 0.396812 0.539043 0.0963511 0.186976 0.681532 26
2 0.356762 0.607176 0.129115 0.199696 0.816482 29
2 0.0621609 0.36182 0.0834022 0.116822 0.793327 32
2 0.387446 0.533517 0.113024 0.178021 0.653903 8
2 0.678153 0.872662 0.190396 0.244285 0.893265 9
2 0.393491 0.530785 0.105199 0.192334 0.400613 42
2 0.376518 0.42492 0.098883 0.115935 0.428104 47
2 0.734962 0.978491 0.165076 0.0430184 0.19141 41
7 0.626263 0.317726 0.0968639 0.172817 0.497093 51
2 0.0227397 0.389467 0.0445008 0.126638 0.757007 53
2 0.360048 0.585437 0.130774 0.156102 0.533974 45
