2 0.597123 0.584236 0.122496 0.194234 0.899318 1
2 0.138094 0.33297 0.075263 0.106824 0.841208 3
2 0.305884 0.952652 0.169947 0.0809125 0.807096 4
2 0.6966 0.880129 0.196524 0.229351 0.824941 5
2 0.349904 0.731799 0.168025 0.235238 0.896697 7
2 0.233346 0.306076 0.035061 0.0714076 0.553021 10
2 0.634982 0.458172 0.0884024 0.0661818 0.256155 11
7 0.176352 0.302034 0.0803775 0.123191 0.486385 13
5 0.61589 0.305272 0.0857452 0.165802 0.583047 16
2 0.0688861 0.361904 0.077761 0.132357 0.782386 21
2 0.614074 0.427344 0.0983763 0.121187 0.598713 22
2 0.637892 0.506117 0.0999467 0.161592 0.4856 23
2 0.403475 0.494314 0.0981409 0.166131 0.616296 26
2 0.370262 0.547023 0.11445 0.17604 0.78171 29
2 0.0276805 0.394471 0.0552349 0.126658 0.857625 32
2 0.269797 0.947082 0.241821 0.0891207 0.244643 34
2 0.396379 0.467864 0.101435 0.127842 0.515681 8
2 0.660251 0.739515 0.15484 0.229849 0.859696 9
