2 0.582305 0.497012 0.103342 0.164396 0.863158 1
2 0.273594 0.817296 0.185444 0.300824 0.876333 2
2 0.0633136 0.377067 0.0899361 0.1345 0.842893 3
2 0.356083 0.752189 0.136131 0.234297 0.856779 4
2 0.651335 0.697793 0.156973 0.27702 0.832393 5
2 0.382943 0.58162 0.136398 0.198771 0.873889 7
2 0.386615 0.451067 0.0995009 0.104923 0.797914 8
2 0.641924 0.583371 0.130606 0.16712 0.537658 9
2 0.190504 0.313109 0.0535467 0.084178 0.591013 10
2 0.624914 0.441403 0.0877798 0.127451 0.514044 11
2 0.743952 0.909963 0.271441 0.167299 0.700438 12
5 0.126997 0.31838 0.0831264 0.150531 0.369461 13
5 0.593517 0.270799 0.07691 0.121324 0.552598 16
2 0.640792 0.548806 0.120229 0.0915671 0.627004 17
