2 0.585447 0.507205 0.106522 0.173674 0.832032 1
2 0.265915 0.84666 0.19022 0.290148 0.868321 2
2 0.0771088 0.369057 0.0904366 0.125552 0.869468 3
2 0.348008 0.786047 0.142035 0.241534 0.864633 4
2 0.65647 0.728858 0.158577 0.280584 0.861398 5
2 0.379433 0.599361 0.136701 0.201031 0.921084 7
2 0.385785 0.458583 0.0982505 0.113199 0.74013 8
2 0.641883 0.602036 0.128215 0.176994 0.720194 9
2 0.195566 0.309437 0.05206 0.0842484 0.469702 10
2 0.62784 0.447884 0.0842823 0.124926 0.674765 11
2 0.754146 0.928885 0.294137 0.127113 0.627614 12
7 0.134161 0.316949 0.0806192 0.14781 0.521676 13
5 0.596353 0.272724 0.0784751 0.12221 0.608467 16
2 0.635689 0.616279 0.12799 0.201746 0.417904 17
2 0.639274 0.588684 0.124304 0.143748 0.155044 19
2 0.0185337 0.416711 0.0370675 0.156825 0.697679 21
2 0.587489 0.375604 0.103594 0.102496 0.628614 22
