2 0.593129 0.540209 0.114594 0.179662 0.816781 1
2 0.243664 0.901382 0.210378 0.177523 0.827968 2
2 0.10794 0.348758 0.0845517 0.118902 0.752826 3
2 0.326278 0.877103 0.159653 0.237127 0.844482 4
2 0.672165 0.81503 0.180472 0.31923 0.860988 5
2 0.366569 0.656789 0.154653 0.223271 0.81726 7
2 0.380318 0.508111 0.107076 0.162362 0.738133 8
2 0.647336 0.656166 0.139373 0.187293 0.477066 9
2 0.217292 0.309181 0.0521862 0.0804275 0.520565 10
2 0.632111 0.467191 0.0927306 0.126589 0.128862 11
7 0.154695 0.303473 0.0834517 0.132091 0.535067 13
7 0.606675 0.304252 0.0868558 0.178648 0.521927 16
2 0.650665 0.657875 0.144026 0.196816 0.702325 17
2 0.0372059 0.386322 0.0740845 0.144136 0.736165 21
2 0.605152 0.395134 0.0855465 0.101861 0.557068 22
2 0.634105 0.479262 0.0928858 0.152351 0.670165 23
2 0.407888 0.462613 0.100863 0.153007 0.570178 26
2 0.40775 0.466949 0.0935425 0.146332 0.545725 29
