2 0.591444 0.527242 0.110208 0.176205 0.89603 1
2 0.249354 0.877184 0.211092 0.2302 0.860952 2
2 0.0965215 0.356331 0.083179 0.122112 0.742355 3
2 0.3344 0.848972 0.149057 0.261753 0.88918 4
2 0.665785 0.771667 0.172487 0.318937 0.880899 5
2 0.371376 0.629342 0.150641 0.210913 0.831257 7
2 0.382036 0.485139 0.106022 0.136739 0.660625 8
2 0.643476 0.640551 0.132499 0.202155 0.698184 9
2 0.206794 0.308645 0.0492139 0.0830625 0.533615 10
2 0.628788 0.450855 0.0903118 0.115184 0.502072 11
2 0.736679 0.96811 0.170112 0.0589112 0.718569 12
7 0.147012 0.310044 0.0829771 0.137089 0.674626 13
5 0.601993 0.279709 0.0826477 0.131758 0.375576 16
2 0.644907 0.623836 0.131901 0.167339 0.42837 17
2 0.0307789 0.401422 0.0605668 0.147981 0.743842 21
2 0.600368 0.388987 0.0914847 0.101682 0.52043 22
2 0.629894 0.463865 0.0903241 0.139878 0.633997 23
2 0.735776 0.963962 0.168361 0.0580744 0.593319 24
2 0.409935 0.447862 0.104223 0.149962 0.703733 26
2 0.330719 0.831408 0.145079 0.236702 0.644121 15
