2 0.600486 0.614363 0.131251 0.204403 0.857612 1
2 0.155969 0.324876 0.071325 0.10346 0.658402 3
2 0.712496 0.921154 0.211438 0.149301 0.708902 5
2 0.340816 0.798974 0.188674 0.262296 0.897404 7
2 0.244611 0.296635 0.030625 0.0498292 0.383644 10
7 0.190312 0.28097 0.0770025 0.0833943 0.234742 13
5 0.620213 0.304717 0.0865969 0.152675 0.713851 16
2 0.0908213 0.34879 0.0713533 0.122558 0.52217 21
2 0.618514 0.44376 0.0977366 0.129816 0.551451 22
2 0.642748 0.535047 0.109228 0.161746 0.572484 23
2 0.397281 0.521188 0.101159 0.142882 0.334976 26
2 0.364785 0.576665 0.120164 0.184895 0.792597 29
2 0.0393563 0.380811 0.0782388 0.122184 0.799118 32
2 0.392402 0.508673 0.110008 0.172519 0.669307 8
2 0.665102 0.801277 0.171466 0.235547 0.852176 9
2 0.724366 0.917553 0.248461 0.147509 0.736016 41
2 0.369793 0.541407 0.119576 0.125317 0.258177 42
2 0.386497 0.409134 0.10236 0.106189 0.387441 47
7 0.620862 0.304604 0.0920071 0.156172 0.619295 48
