2 0.596747 0.569384 0.12118 0.191925 0.862205 1
2 0.242227 0.951458 0.175647 0.0844516 0.613184 2
2 0.126659 0.338805 0.0768383 0.11222 0.734237 3
2 0.317803 0.918546 0.173015 0.15296 0.791012 4
2 0.690915 0.853799 0.197962 0.275036 0.846003 5
2 0.356717 0.699708 0.164609 0.231571 0.884821 7
2 0.225173 0.304236 0.0424856 0.0692326 0.128033 10
2 0.635573 0.480735 0.100085 0.127882 0.194872 11
7 0.168258 0.299786 0.0805952 0.119479 0.631653 13
5 0.611204 0.293273 0.0847059 0.148143 0.644897 16
2 0.0558239 0.371234 0.0796248 0.138056 0.639959 21
2 0.605029 0.417258 0.101272 0.117472 0.512602 22
2 0.63631 0.497929 0.0989932 0.15844 0.669678 23
2 0.405061 0.48132 0.0969081 0.16325 0.591876 26
2 0.374603 0.529339 0.111072 0.172488 0.784387 29
2 0.0197251 0.409251 0.0386658 0.133391 0.81288 32
2 0.650755 0.714308 0.145835 0.233228 0.663039 9
2 0.306656 0.922451 0.209301 0.15181 0.614187 34
2 0.396351 0.474245 0.100403 0.137953 0.613532 8
2 0.65697 0.702635 0.155105 0.205293 0.784649 33
