2 0.61001 0.694903 0.153111 0.231782 0.869356 1
2 0.181739 0.311661 0.0678261 0.0877313 0.402187 3
2 0.306009 0.899589 0.220989 0.185642 0.910327 7
2 0.261911 0.294732 0.0240477 0.0423305 0.293698 10
2 0.179243 0.314105 0.0626937 0.0935146 0.602441 13
5 0.626802 0.319413 0.0963753 0.162535 0.802774 16
2 0.126722 0.33135 0.0663452 0.11442 0.582748 21
2 0.634958 0.475049 0.110265 0.140711 0.568856 22
2 0.650928 0.583388 0.118339 0.181451 0.779594 23
2 0.382362 0.554515 0.124315 0.175547 0.767687 26
2 0.347009 0.634933 0.133147 0.20542 0.779285 29
2 0.387463 0.555473 0.11043 0.191104 0.579641 8
2 0.689231 0.899928 0.200352 0.18347 0.915643 9
2 0.378631 0.433088 0.100616 0.113298 0.465986 47
2 0.034582 0.376961 0.0689802 0.117251 0.823564 53
2 0.384345 0.564828 0.108946 0.157449 0.449259 45
2 0.4147 0.360863 0.0879842 0.136569 0.625919 55
7 0.625338 0.322908 0.105085 0.169957 0.739178 56
2 0.584188 0.455521 0.0793318 0.138538 0.637095 57
2 0.0830015 0.352164 0.0760237 0.112858 0.795693 52
