2 0.607066 0.679436 0.149464 0.221458 0.86894 1
2 0.17736 0.314267 0.0667414 0.092959 0.519573 3
2 0.313796 0.88725 0.21461 0.216275 0.89181 7
2 0.257991 0.296273 0.0260194 0.0426546 0.361983 10
2 0.180566 0.314213 0.0782702 0.0921704 0.608056 13
5 0.625779 0.319476 0.0926095 0.161782 0.822021 16
2 0.121133 0.33291 0.0677747 0.116172 0.805725 21
2 0.633796 0.47173 0.110015 0.14711 0.609556 22
2 0.647674 0.573829 0.12042 0.176118 0.734514 23
2 0.387915 0.550486 0.11137 0.176677 0.684695 26
2 0.352608 0.624156 0.133529 0.204767 0.819572 29
2 0.0709293 0.352673 0.0848311 0.120352 0.35759 32
2 0.38487 0.538587 0.106955 0.189858 0.135559 8
2 0.683184 0.889535 0.192957 0.211843 0.881722 9
2 0.37953 0.431141 0.0997234 0.11544 0.417547 47
2 0.0297358 0.38139 0.0591991 0.120022 0.845579 53
2 0.352886 0.600761 0.123769 0.156907 0.36665 45
2 0.415743 0.358755 0.0862364 0.132064 0.6226 55
7 0.627427 0.320844 0.0983695 0.16797 0.561275 56
2 0.58429 0.454728 0.0798969 0.136015 0.670425 57
2 0.076234 0.357986 0.0773118 0.111693 0.836315 52
