2 0.600829 0.613185 0.131408 0.206196 0.853666 1
2 0.151559 0.325535 0.0737698 0.105592 0.717644 3
2 0.705723 0.916427 0.207987 0.163353 0.770615 5
2 0.339283 0.78553 0.179244 0.261858 0.872987 7
2 0.242844 0.305085 0.0332714 0.067874 0.134947 10
7 0.18953 0.283993 0.0788399 0.08909 0.317699 13
5 0.618857 0.306608 0.0873682 0.159341 0.704612 16
2 0.0879803 0.351109 0.0723682 0.122607 0.570293 21
2 0.615356 0.434928 0.102386 0.120602 0.140162 22
2 0.641358 0.528984 0.10739 0.16402 0.608924 23
2 0.399512 0.508165 0.100228 0.175751 0.563867 26
2 0.365717 0.572762 0.119952 0.181138 0.773132 29
2 0.0379497 0.383369 0.0758995 0.122548 0.840381 32
2 0.392936 0.503535 0.109617 0.170935 0.759911 8
2 0.663066 0.789451 0.166857 0.230783 0.882948 9
2 0.72155 0.909423 0.240919 0.163383 0.752709 41
2 0.36783 0.54056 0.114495 0.121898 0.441694 42
2 0.386083 0.408127 0.102008 0.107695 0.580981 47
