2 0.581908 0.494496 0.102614 0.162869 0.852706 1
2 0.275052 0.808927 0.184069 0.300108 0.879446 2
2 0.0583589 0.378808 0.0935187 0.133361 0.86723 3
2 0.357702 0.746062 0.134954 0.232184 0.839228 4
2 0.650751 0.692015 0.157045 0.274102 0.825862 5
2 0.200772 0.977328 0.149739 0.0387675 0.307625 6
2 0.386592 0.579071 0.132936 0.195585 0.853654 7
2 0.38808 0.44774 0.100397 0.10248 0.734231 8
2 0.642702 0.614961 0.136655 0.229257 0.563907 9
2 0.188877 0.311949 0.0538085 0.0863169 0.623186 10
2 0.62492 0.437985 0.0854293 0.127249 0.501024 11
2 0.738391 0.90481 0.271742 0.175022 0.719214 12
7 0.124883 0.319894 0.0827803 0.148863 0.47844 13
2 0.200587 0.979931 0.145203 0.0401375 0.291353 14
5 0.592846 0.270657 0.0781999 0.122172 0.5151 16
