2 0.616321 0.72725 0.158997 0.246467 0.868464 1
2 0.185754 0.3085 0.0641143 0.0848735 0.578929 3
2 0.290604 0.933021 0.228261 0.113471 0.776983 7
2 0.267466 0.295926 0.0210803 0.039894 0.184892 10
2 0.185582 0.31099 0.0583668 0.0907594 0.515482 13
5 0.629579 0.329676 0.101325 0.177778 0.660052 16
2 0.13846 0.325294 0.0648408 0.111692 0.659289 21
2 0.643588 0.501224 0.116604 0.182023 0.653145 22
2 0.652562 0.602097 0.129379 0.183669 0.783564 23
2 0.376977 0.57194 0.11928 0.178972 0.582123 26
2 0.339457 0.664305 0.13691 0.211007 0.860667 29
2 0.380953 0.581914 0.111435 0.197412 0.719443 8
2 0.692694 0.930843 0.202055 0.127392 0.819543 9
2 0.375721 0.445568 0.106456 0.119223 0.426928 47
2 0.0462249 0.366793 0.0815086 0.111779 0.770661 53
2 0.409116 0.368558 0.0911706 0.137943 0.555583 55
7 0.627145 0.328635 0.108047 0.173903 0.626294 56
2 0.587273 0.469907 0.0789461 0.141286 0.526944 57
2 0.100531 0.345346 0.0700368 0.104603 0.763747 52
2 0.0177135 0.420976 0.035427 0.136852 0.811289 60
2 0.279062 0.93696 0.242457 0.110369 0.214966 61
