0 0.411103 0.778744 0.038812 0.255176 0.140355 201
0 0.530117 0.585065 0.0232711 0.101409 0.740889 208
0 0.635997 0.818561 0.0557444 0.273283 0.754631 211
2 0.866908 0.585282 0.127168 0.0966348 0.737644 215
0 0.530845 0.581484 0.0259094 0.10777 0.66272 216
2 0.631565 0.535874 0.0477327 0.0775201 0.617028 218
2 0.789626 0.531443 0.0469577 0.0522359 0.701551 219
0 0.368862 0.772235 0.0390782 0.224864 0.148857 209
2 0.725999 0.514543 0.0468513 0.0672841 0.633211 220
2 0.865039 0.579388 0.125389 0.108312 0.835976 224
2 0.632762 0.539811 0.0451852 0.0820162 0.751168 225
0 0.364287 0.769723 0.0377047 0.215564 0.731796 198
0 0.639282 0.828437 0.0476743 0.241867 0.420448 228
0 0.4114 0.781235 0.0429804 0.245157 0.79063 203
