0 0.367866 0.918719 0.0609701 0.160086 0.664801 129
2 0.250505 0.487636 0.0217748 0.0297529 0.233013 2
2 0.522914 0.695843 0.189533 0.175609 0.909303 141
0 0.339306 0.787808 0.0426452 0.108739 0.255957 131
0 0.31646 0.906518 0.0644613 0.18667 0.608393 151
0 0.447439 0.555539 0.0321533 0.126644 0.554316 156
0 0.215394 0.813599 0.0743093 0.311242 0.664849 145
9 0.30192 0.455747 0.0608647 0.228301 0.821772 160
0 0.481696 0.550924 0.0274208 0.114353 0.593377 162
0 0.836322 0.635131 0.0407403 0.192653 0.750338 163
0 0.836974 0.631131 0.0459574 0.199864 0.480891 164
0 0.765829 0.650594 0.0381477 0.173475 0.578002 165
0 0.219383 0.813947 0.0919436 0.314409 0.73403 166
2 0.362815 0.593509 0.0763588 0.105043 0.791873 139
