0 0.125743 0.652801 0.033349 0.141043 0.531496 80
0 0.12275 0.654585 0.0285105 0.140182 0.516326 91
2 0.957612 0.695912 0.0847761 0.228793 0.892657 1
2 0.583026 0.511865 0.03671 0.0467862 0.762612 116
2 0.482608 0.531021 0.0312685 0.0418494 0.705044 113
0 0.0192417 0.666099 0.0315179 0.125326 0.516348 117
2 0.708076 0.584128 0.0481834 0.0902765 0.506989 109
0 0.752676 0.622835 0.0458566 0.144592 0.515892 129
2 0.482598 0.528052 0.0321639 0.0455523 0.577711 2
2 0.584155 0.51311 0.0431087 0.049482 0.412993 130
0 0.825503 0.609679 0.0324151 0.148426 0.522684 131
0 0.125743 0.652801 0.033349 0.141043 0.531496 80
0 0.12275 0.654585 0.0285105 0.140182 0.516326 91
2 0.957612 0.695912 0.0847761 0.228793 0.892657 1
2 0.583026 0.511865 0.03671 0.0467862 0.762612 116
2 0.482608 0.531021 0.0312685 0.0418494 0.705044 113
0 0.0192417 0.666099 0.0315179 0.125326 0.516348 117
2 0.708076 0.584128 0.0481834 0.0902765 0.506989 109
0 0.752676 0.622835 0.0458566 0.144592 0.515892 129
2 0.482598 0.528052 0.0321639 0.0455523 0.577711 2
2 0.584155 0.51311 0.0431087 0.049482 0.412993 130
0 0.825503 0.609679 0.0324151 0.148426 0.522684 131
