0 0.0114128 0.909833 0.0228257 0.176806 0.571606 211
2 0.523039 0.530912 0.0792143 0.0925262 0.878181 220
2 0.664753 0.648287 0.135719 0.151049 0.872855 224
2 0.795141 0.641869 0.144174 0.144525 0.908511 229
2 0.286656 0.494128 0.0442454 0.0724989 0.517125 210
2 0.286144 0.49869 0.040924 0.0684674 0.722478 218
0 0.108974 0.638598 0.0408846 0.155176 0.868081 208
1 0.176667 0.74594 0.0435001 0.134852 0.646739 241
2 0.399274 0.479142 0.0365194 0.0419027 0.782614 237
0 0.941744 0.62139 0.0336504 0.180917 0.664328 246
2 0.399207 0.477649 0.03834 0.0444378 0.525979 236
