2 0.616893 0.602886 0.0750902 0.132903 0.780695 1
2 0.528094 0.579816 0.0526552 0.071516 0.850121 2
0 0.926329 0.651068 0.0322374 0.134082 0.725595 7
0 0.241632 0.586588 0.0203545 0.105697 0.665032 19
0 0.770855 0.566017 0.0231685 0.115101 0.750934 5
0 0.262565 0.585079 0.023758 0.106392 0.350407 23
0 0.981671 0.653306 0.0366586 0.1476 0.727102 3
0 0.811272 0.531124 0.0179237 0.0894063 0.695754 12
0 0.7693 0.568136 0.0232966 0.111186 0.639758 28
0 0.769059 0.567271 0.0211573 0.108656 0.51413 29
2 0.616893 0.602886 0.0750902 0.132903 0.780695 1
2 0.528094 0.579816 0.0526552 0.071516 0.850121 2
0 0.926329 0.651068 0.0322374 0.134082 0.725595 7
0 0.241632 0.586588 0.0203545 0.105697 0.665032 19
0 0.770855 0.566017 0.0231685 0.115101 0.750934 5
0 0.262565 0.585079 0.023758 0.106392 0.350407 23
0 0.981671 0.653306 0.0366586 0.1476 0.727102 3
0 0.811272 0.531124 0.0179237 0.0894063 0.695754 12
0 0.7693 0.568136 0.0232966 0.111186 0.639758 28
0 0.769059 0.567271 0.0211573 0.108656 0.51413 29
