0 0.108161 0.667691 0.0238497 0.135919 0.108598 80
0 0.0885106 0.676049 0.0293578 0.152062 0.531381 91
2 0.597091 0.507809 0.0426566 0.0521782 0.735316 116
0 0.766989 0.639536 0.0486869 0.172822 0.283073 129
2 0.494573 0.513622 0.0312787 0.0410891 0.754381 2
0 0.840857 0.611474 0.0472199 0.204566 0.6289 131
0 0.768794 0.642135 0.0412799 0.166644 0.756983 133
2 0.599601 0.51025 0.0366525 0.051391 0.664781 134
0 0.726558 0.610539 0.0349593 0.174338 0.163245 109
2 0.493732 0.512909 0.0328604 0.0476609 0.279293 136
