2 0.540177 0.487712 0.0290309 0.042585 0.565066 261
2 0.496472 0.498788 0.0345597 0.0579539 0.42292 210
2 0.539746 0.487147 0.0275359 0.0444886 0.403182 280
2 0.495169 0.497161 0.029889 0.056642 0.639756 290
0 0.670224 0.676979 0.0589116 0.184671 0.618434 254
0 0.31644 0.556538 0.0196452 0.0968673 0.731029 294
2 0.945541 0.669131 0.107502 0.172741 0.803249 253
2 0.852073 0.619904 0.113703 0.116133 0.826649 236
2 0.969401 0.673167 0.0611972 0.166358 0.186727 279
