0 0.776453 0.810146 0.057876 0.258179 0.510115 129
2 0.494142 0.522054 0.025711 0.0297402 0.620006 2
2 0.607448 0.561214 0.0471172 0.0701555 0.618258 134
0 0.66999 0.685536 0.0268225 0.199143 0.13999 109
2 0.494533 0.519105 0.0270221 0.0357891 0.471349 136
2 0.608978 0.563398 0.0473884 0.0668956 0.785128 139
2 0.581164 0.535047 0.0314259 0.0482958 0.609395 140
2 0.790557 0.642255 0.126843 0.119584 0.591295 141
9 0.680917 0.467673 0.0400316 0.141846 0.768022 143
2 0.780219 0.645374 0.108471 0.123865 0.55803 144
0 0.696675 0.688916 0.0271336 0.176925 0.629575 145
0 0.693108 0.687728 0.0347721 0.18576 0.142652 148
0 0.808486 0.755476 0.0477564 0.229811 0.228673 131
2 0.855152 0.668829 0.0614223 0.0913653 0.101121 152
0 0.812106 0.754332 0.0491557 0.23634 0.633651 153
2 0.805494 0.656057 0.154672 0.120074 0.506243 154
2 0.581538 0.537382 0.0308705 0.0452785 0.475939 116
0 0.77372 0.812545 0.0481584 0.251311 0.768442 151
