2 0.379759 0.610455 0.0780433 0.10152 0.791367 2
0 0.972984 0.761579 0.054033 0.278669 0.859797 5
2 0.411103 0.508347 0.033978 0.0473315 0.594412 42
9 0.0917412 0.445342 0.0229607 0.0753448 0.231649 44
2 0.52436 0.767125 0.154744 0.290383 0.858917 1
0 0.0103596 0.640349 0.0207192 0.135635 0.119214 49
2 0.41209 0.508974 0.0335555 0.0489172 0.23922 55
0 0.00922062 0.648772 0.0184412 0.136809 0.571409 56
0 0.0363896 0.636266 0.0294294 0.156963 0.614443 62
0 0.0341781 0.62486 0.0316545 0.178084 0.741925 65
0 0.0925727 0.59324 0.0218579 0.126064 0.596485 67
9 0.0903703 0.447716 0.0244368 0.0794316 0.642593 60
2 0.485031 0.486087 0.0195575 0.0295986 0.133711 74
2 0.379759 0.610455 0.0780433 0.10152 0.791367 2
0 0.972984 0.761579 0.054033 0.278669 0.859797 5
2 0.411103 0.508347 0.033978 0.0473315 0.594412 42
9 0.0917412 0.445342 0.0229607 0.0753448 0.231649 44
2 0.52436 0.767125 0.154744 0.290383 0.858917 1
0 0.0103596 0.640349 0.0207192 0.135635 0.119214 49
2 0.41209 0.508974 0.0335555 0.0489172 0.23922 55
0 0.00922062 0.648772 0.0184412 0.136809 0.571409 56
0 0.0363896 0.636266 0.0294294 0.156963 0.614443 62
0 0.0341781 0.62486 0.0316545 0.178084 0.741925 65
0 0.0925727 0.59324 0.0218579 0.126064 0.596485 67
9 0.0903703 0.447716 0.0244368 0.0794316 0.642593 60
2 0.485031 0.486087 0.0195575 0.0295986 0.133711 74
