2 0.248837 0.589695 0.0582753 0.0782318 0.748528 2
2 0.307218 0.505399 0.0262682 0.0353907 0.420078 42
2 0.391257 0.608458 0.101225 0.122578 0.845986 77
0 0.0937434 0.572147 0.0200827 0.0875836 0.5765 80
0 0.705337 0.566894 0.023813 0.119047 0.71241 84
0 0.869422 0.57654 0.0292308 0.113832 0.503695 85
0 0.872019 0.578605 0.0251737 0.110369 0.709011 87
2 0.297018 0.731047 0.14681 0.254468 0.869304 1
0 0.0928998 0.574184 0.0225748 0.0853584 0.57069 91
2 0.248837 0.589695 0.0582753 0.0782318 0.748528 2
2 0.307218 0.505399 0.0262682 0.0353907 0.420078 42
2 0.391257 0.608458 0.101225 0.122578 0.845986 77
0 0.0937434 0.572147 0.0200827 0.0875836 0.5765 80
0 0.705337 0.566894 0.023813 0.119047 0.71241 84
0 0.869422 0.57654 0.0292308 0.113832 0.503695 85
0 0.872019 0.578605 0.0251737 0.110369 0.709011 87
2 0.297018 0.731047 0.14681 0.254468 0.869304 1
0 0.0928998 0.574184 0.0225748 0.0853584 0.57069 91
