2 0.57718 0.501932 0.0297887 0.043091 0.69933 261
2 0.529432 0.500369 0.0268746 0.051691 0.654657 210
2 0.576208 0.4987 0.0302231 0.0437648 0.552381 280
2 0.528815 0.502797 0.0288082 0.0535594 0.592862 290
0 0.900509 0.749642 0.0693796 0.275013 0.769024 254
0 0.328143 0.576032 0.0248702 0.114538 0.673608 294
2 0.93666 0.67233 0.12668 0.142506 0.798502 236
0 0.900914 0.765305 0.0736221 0.243413 0.819305 255
0 0.437803 0.507241 0.0156461 0.0565444 0.101897 301
0 0.329922 0.574229 0.0234917 0.112526 0.318788 302
