0 0.0467856 0.713952 0.0276174 0.158093 0.668853 80
0 0.0239009 0.73133 0.0301965 0.173442 0.408106 91
2 0.602923 0.542615 0.057613 0.0638657 0.183591 116
0 0.778048 0.733764 0.0456523 0.209897 0.399269 129
2 0.502896 0.529651 0.0293783 0.0390992 0.642873 2
0 0.843565 0.703958 0.0410955 0.212461 0.577198 131
0 0.778214 0.735295 0.0423531 0.202697 0.685993 133
2 0.604649 0.545797 0.0509199 0.0702872 0.481166 134
0 0.71107 0.660817 0.0270931 0.186335 0.232941 109
2 0.503547 0.532913 0.0275265 0.0366278 0.738668 136
0 0.84552 0.713166 0.0434724 0.191503 0.732411 138
2 0.610914 0.551476 0.043532 0.0593062 0.691089 139
2 0.592699 0.531317 0.0299348 0.0391012 0.514462 140
2 0.771396 0.634238 0.123241 0.124562 0.278305 141
9 0.680547 0.473623 0.0328946 0.123793 0.645564 143
2 0.785452 0.64171 0.0983275 0.118658 0.757389 144
0 0.733619 0.677294 0.0390952 0.190798 0.638005 145
