2 0.522799 0.537075 0.0838069 0.0976867 0.884875 220
2 0.682483 0.674239 0.163489 0.175848 0.905391 224
2 0.794369 0.651471 0.151569 0.154444 0.917147 229
2 0.264632 0.495171 0.0429168 0.0625577 0.165733 210
2 0.262551 0.496908 0.0392333 0.0670748 0.679287 218
0 0.0604678 0.653924 0.0433738 0.166627 0.836958 208
1 0.122161 0.77521 0.0503722 0.153224 0.61338 241
0 0.934815 0.616421 0.0307515 0.15408 0.784857 246
1 0.119343 0.776949 0.0533377 0.153255 0.674829 250
2 0.389944 0.482573 0.0408789 0.0486432 0.739003 236
