0 0.601833 0.879934 0.0655451 0.22642 0.749565 129
2 0.375124 0.496665 0.0236512 0.0322996 0.449734 2
2 0.492664 0.585896 0.057701 0.085506 0.128771 139
2 0.455141 0.535792 0.042034 0.0723192 0.332276 140
2 0.675439 0.67816 0.184063 0.161152 0.878579 141
9 0.515459 0.48092 0.0502278 0.23518 0.618365 143
0 0.594377 0.715474 0.0329209 0.106978 0.10768 131
0 0.587838 0.868664 0.0723509 0.247312 0.714517 151
2 0.454547 0.541423 0.0398125 0.0612734 0.676091 116
0 0.590522 0.566848 0.0223164 0.115986 0.433375 156
0 0.469079 0.75976 0.0649964 0.285168 0.794976 145
9 0.515614 0.458438 0.0490392 0.192841 0.649956 160
0 0.6212 0.553255 0.0248074 0.104728 0.544062 162
