2 0.310979 0.597378 0.0715955 0.0963988 0.810863 2
2 0.355925 0.506012 0.0281433 0.0392326 0.625202 42
2 0.428183 0.758648 0.151588 0.292825 0.875779 1
2 0.432414 0.491546 0.024335 0.0278054 0.57028 74
0 0.765877 0.560965 0.0227798 0.105322 0.623902 75
2 0.434619 0.588892 0.0820756 0.0640676 0.392681 77
2 0.435263 0.591673 0.0859119 0.0643434 0.664924 78
0 0.19547 0.53783 0.0172094 0.0732593 0.55588 80
2 0.310979 0.597378 0.0715955 0.0963988 0.810863 2
2 0.355925 0.506012 0.0281433 0.0392326 0.625202 42
2 0.428183 0.758648 0.151588 0.292825 0.875779 1
2 0.432414 0.491546 0.024335 0.0278054 0.57028 74
0 0.765877 0.560965 0.0227798 0.105322 0.623902 75
2 0.434619 0.588892 0.0820756 0.0640676 0.392681 77
2 0.435263 0.591673 0.0859119 0.0643434 0.664924 78
0 0.19547 0.53783 0.0172094 0.0732593 0.55588 80
