2 0.596357 0.58244 0.119158 0.141829 0.901542 220
2 0.891533 0.7279 0.216934 0.21463 0.919115 229
2 0.41539 0.498018 0.0534299 0.0554207 0.129 236
2 0.48941 0.527124 0.0624683 0.0658595 0.789793 253
0 0.137895 0.537609 0.0273745 0.131642 0.705672 254
0 0.137352 0.550278 0.0251649 0.112237 0.784844 255
2 0.265002 0.454419 0.0277164 0.0401209 0.585766 261
0 0.989723 0.654256 0.0205547 0.200675 0.11753 246
2 0.951194 0.920928 0.0971179 0.150205 0.331348 262
2 0.228162 0.477618 0.0441015 0.0651431 0.384792 263
2 0.23087 0.480227 0.0392441 0.0656726 0.80093 210
2 0.417886 0.49797 0.0584702 0.0585612 0.782283 259
