2 0.550501 0.499893 0.0279242 0.0388012 0.54621 261
2 0.504217 0.504557 0.0327769 0.0574011 0.656355 210
2 0.548771 0.496539 0.0294707 0.0409735 0.550911 280
2 0.503945 0.506303 0.0297416 0.0554573 0.635678 290
0 0.722587 0.706847 0.0491871 0.180162 0.359511 254
0 0.318609 0.568973 0.0218905 0.103775 0.535653 294
2 0.957462 0.687544 0.0837509 0.173186 0.707873 253
2 0.874091 0.636741 0.119987 0.119885 0.890617 236
2 0.963461 0.69491 0.0725002 0.161495 0.800205 279
0 0.726458 0.678783 0.0324662 0.130594 0.582178 255
