2 0.283259 0.561267 0.0492342 0.0621354 0.560412 2
2 0.590217 0.583583 0.122371 0.119478 0.761507 77
0 0.0669135 0.592986 0.0217262 0.0987818 0.653126 80
0 0.0704507 0.589515 0.0287943 0.103169 0.211461 91
9 0.520995 0.450661 0.0492442 0.189157 0.746392 93
0 0.767277 0.574104 0.026071 0.143805 0.587983 75
2 0.302823 0.699635 0.149637 0.238829 0.918388 1
0 0.768908 0.579077 0.0237094 0.134288 0.759802 100
0 0.19067 0.50278 0.0235597 0.0973457 0.58097 102
9 0.848121 0.393337 0.0263005 0.0747541 0.503866 103
2 0.283259 0.561267 0.0492342 0.0621354 0.560412 2
2 0.590217 0.583583 0.122371 0.119478 0.761507 77
0 0.0669135 0.592986 0.0217262 0.0987818 0.653126 80
0 0.0704507 0.589515 0.0287943 0.103169 0.211461 91
9 0.520995 0.450661 0.0492442 0.189157 0.746392 93
0 0.767277 0.574104 0.026071 0.143805 0.587983 75
2 0.302823 0.699635 0.149637 0.238829 0.918388 1
0 0.768908 0.579077 0.0237094 0.134288 0.759802 100
0 0.19067 0.50278 0.0235597 0.0973457 0.58097 102
9 0.848121 0.393337 0.0263005 0.0747541 0.503866 103
