0 0.228818 0.947253 0.0577655 0.10441 0.621995 129
2 0.447404 0.710341 0.193516 0.182824 0.90726 141
0 0.204261 0.854726 0.0503014 0.173454 0.3621 131
0 0.166295 0.910502 0.0853924 0.176196 0.81516 151
0 0.378589 0.56185 0.0311291 0.121236 0.432426 156
0 0.0609379 0.837371 0.0542922 0.312071 0.781041 145
9 0.184784 0.465721 0.0672605 0.247597 0.807466 160
0 0.414315 0.55686 0.0283573 0.120596 0.148863 162
0 0.767997 0.648183 0.0413384 0.195537 0.694435 163
0 0.770863 0.652776 0.0533929 0.198437 0.492577 164
0 0.708723 0.664889 0.0389025 0.167897 0.636143 165
0 0.48341 0.583285 0.0326962 0.12275 0.337467 169
0 0.673749 0.69411 0.0421436 0.217271 0.679388 170
9 0.969845 0.410087 0.0521303 0.244915 0.81954 172
0 0.673004 0.688633 0.0482971 0.225186 0.556055 173
2 0.252763 0.56428 0.0471696 0.0673659 0.723636 116
2 0.295789 0.608566 0.0827869 0.11259 0.840411 134
2 0.252905 0.559633 0.0461858 0.0689503 0.626622 140
