2 0.408246 0.611165 0.0773938 0.106185 0.826711 2
0 0.947704 0.7202 0.0518738 0.237239 0.832973 5
2 0.433093 0.506751 0.0361398 0.0586927 0.203422 42
9 0.139975 0.441197 0.0245834 0.0712873 0.468027 44
0 0.0674809 0.618312 0.0297394 0.131307 0.590346 46
2 0.557269 0.745454 0.151612 0.287086 0.832553 1
0 0.0699761 0.623421 0.0289567 0.125223 0.634466 49
2 0.434036 0.508888 0.0343203 0.0496361 0.617572 55
0 0.0702326 0.617507 0.0269121 0.131197 0.712052 56
0 0.0423149 0.625478 0.0218495 0.117538 0.622576 57
0 0.0245541 0.617708 0.0170522 0.097736 0.169435 59
0 0.103411 0.614639 0.0253874 0.13946 0.693284 62
0 0.102463 0.617332 0.0263512 0.136996 0.144435 65
0 0.141922 0.577141 0.0196921 0.116125 0.566656 67
0 0.140976 0.581021 0.0208371 0.114174 0.582247 70
9 0.140876 0.441192 0.0223059 0.0724465 0.773569 60
2 0.408246 0.611165 0.0773938 0.106185 0.826711 2
0 0.947704 0.7202 0.0518738 0.237239 0.832973 5
2 0.433093 0.506751 0.0361398 0.0586927 0.203422 42
9 0.139975 0.441197 0.0245834 0.0712873 0.468027 44
0 0.0674809 0.618312 0.0297394 0.131307 0.590346 46
2 0.557269 0.745454 0.151612 0.287086 0.832553 1
0 0.0699761 0.623421 0.0289567 0.125223 0.634466 49
2 0.434036 0.508888 0.0343203 0.0496361 0.617572 55
0 0.0702326 0.617507 0.0269121 0.131197 0.712052 56
0 0.0423149 0.625478 0.0218495 0.117538 0.622576 57
0 0.0245541 0.617708 0.0170522 0.097736 0.169435 59
0 0.103411 0.614639 0.0253874 0.13946 0.693284 62
0 0.102463 0.617332 0.0263512 0.136996 0.144435 65
0 0.141922 0.577141 0.0196921 0.116125 0.566656 67
0 0.140976 0.581021 0.0208371 0.114174 0.582247 70
9 0.140876 0.441192 0.0223059 0.0724465 0.773569 60
