0 0.192178 0.579127 0.0275761 0.112025 0.461049 156
0 0.230025 0.564027 0.0290154 0.124193 0.130666 162
0 0.575292 0.666336 0.0330409 0.202002 0.130704 163
0 0.575099 0.66092 0.0332177 0.213855 0.554654 164
0 0.550468 0.693665 0.0403659 0.185164 0.582733 165
0 0.483898 0.74606 0.0503169 0.24636 0.774685 170
9 0.776281 0.408445 0.0731606 0.293834 0.776135 172
2 0.104811 0.631066 0.0896666 0.12346 0.768497 134
2 0.0659722 0.571446 0.0581663 0.0838448 0.82581 140
2 0.0239625 0.482808 0.0232358 0.0310955 0.453907 2
2 0.0663408 0.575228 0.058286 0.0787402 0.611013 116
2 0.236295 0.73939 0.2163 0.212268 0.889506 177
