2 0.393812 0.614323 0.0787431 0.11065 0.828573 2
0 0.964402 0.739179 0.0620783 0.25792 0.846681 5
2 0.422143 0.507812 0.0323491 0.0504589 0.270539 42
9 0.113314 0.444769 0.0270926 0.0728676 0.710367 44
0 0.030433 0.624605 0.0314739 0.139673 0.258787 46
2 0.540204 0.755568 0.154491 0.296555 0.866282 1
0 0.0334683 0.630863 0.0300308 0.132057 0.290495 49
2 0.422264 0.511238 0.03274 0.0419608 0.265471 55
0 0.0353043 0.633585 0.0290502 0.129341 0.638049 56
0 0.00745035 0.637805 0.0149007 0.10811 0.210392 57
0 0.0682657 0.627442 0.0285808 0.145167 0.553722 62
0 0.0700291 0.627198 0.0272991 0.142854 0.287774 65
0 0.115032 0.588428 0.0213718 0.120398 0.721547 67
0 0.115932 0.587506 0.0193988 0.118809 0.211598 70
9 0.114785 0.44561 0.0236876 0.0749613 0.659714 60
2 0.393812 0.614323 0.0787431 0.11065 0.828573 2
0 0.964402 0.739179 0.0620783 0.25792 0.846681 5
2 0.422143 0.507812 0.0323491 0.0504589 0.270539 42
9 0.113314 0.444769 0.0270926 0.0728676 0.710367 44
0 0.030433 0.624605 0.0314739 0.139673 0.258787 46
2 0.540204 0.755568 0.154491 0.296555 0.866282 1
0 0.0334683 0.630863 0.0300308 0.132057 0.290495 49
2 0.422264 0.511238 0.03274 0.0419608 0.265471 55
0 0.0353043 0.633585 0.0290502 0.129341 0.638049 56
0 0.00745035 0.637805 0.0149007 0.10811 0.210392 57
0 0.0682657 0.627442 0.0285808 0.145167 0.553722 62
0 0.0700291 0.627198 0.0272991 0.142854 0.287774 65
0 0.115032 0.588428 0.0213718 0.120398 0.721547 67
0 0.115932 0.587506 0.0193988 0.118809 0.211598 70
9 0.114785 0.44561 0.0236876 0.0749613 0.659714 60
