0 0.492047 0.892391 0.0647509 0.212091 0.760281 129
2 0.315089 0.485292 0.0225836 0.0283044 0.327835 2
2 0.602602 0.679331 0.184594 0.169682 0.895372 141
9 0.420901 0.466826 0.0653581 0.243395 0.343202 143
0 0.476337 0.744319 0.0371394 0.088679 0.123772 131
0 0.450804 0.867119 0.0648526 0.265198 0.576921 151
0 0.519593 0.553311 0.0321584 0.137379 0.631601 156
0 0.344146 0.781783 0.0675515 0.299262 0.831701 145
9 0.415991 0.448738 0.055452 0.204257 0.780603 160
0 0.55257 0.544699 0.0286544 0.112563 0.585404 162
0 0.910418 0.628707 0.0409923 0.188657 0.769388 163
0 0.910569 0.624333 0.0349475 0.179441 0.122519 164
0 0.825584 0.639477 0.0329606 0.159116 0.684935 165
0 0.344205 0.774206 0.0603346 0.29117 0.57347 166
