2 0.573599 0.563088 0.110046 0.12931 0.872408 220
2 0.863485 0.676915 0.207827 0.14547 0.785371 229
2 0.232986 0.477972 0.0414353 0.0654096 0.686784 210
2 0.235586 0.478342 0.0425894 0.071168 0.78078 218
2 0.410208 0.492853 0.0569092 0.0553932 0.78857 236
2 0.487973 0.52077 0.0580508 0.0670367 0.793882 253
0 0.146357 0.528486 0.0263559 0.13082 0.689039 254
0 0.146989 0.530991 0.0259687 0.131941 0.684616 255
2 0.267219 0.451893 0.0261363 0.0364893 0.236971 261
0 0.97734 0.651352 0.0345739 0.184186 0.702995 246
2 0.882087 0.854928 0.235825 0.275898 0.878333 262
2 0.232497 0.477046 0.0431621 0.064285 0.533364 263
