2 0.627077 0.596539 0.0803569 0.140136 0.769743 1
2 0.530254 0.562966 0.0559474 0.0754346 0.819602 2
0 0.983847 0.672027 0.0323064 0.167183 0.573226 7
0 0.22957 0.553343 0.0208121 0.116111 0.547975 19
0 0.794483 0.561189 0.0241418 0.120334 0.699288 5
0 0.251752 0.545538 0.024179 0.130761 0.621213 23
0 0.840589 0.516608 0.0175645 0.0922015 0.589556 12
0 0.792413 0.561815 0.0212832 0.112739 0.736601 29
0 0.839852 0.515365 0.0204581 0.0960473 0.673402 32
2 0.627077 0.596539 0.0803569 0.140136 0.769743 1
2 0.530254 0.562966 0.0559474 0.0754346 0.819602 2
0 0.983847 0.672027 0.0323064 0.167183 0.573226 7
0 0.22957 0.553343 0.0208121 0.116111 0.547975 19
0 0.794483 0.561189 0.0241418 0.120334 0.699288 5
0 0.251752 0.545538 0.024179 0.130761 0.621213 23
0 0.840589 0.516608 0.0175645 0.0922015 0.589556 12
0 0.792413 0.561815 0.0212832 0.112739 0.736601 29
0 0.839852 0.515365 0.0204581 0.0960473 0.673402 32
