2 0.515368 0.588801 0.0682527 0.0968895 0.850733 2
0 0.158312 0.560154 0.0291678 0.142413 0.734399 19
0 0.879992 0.615541 0.0372043 0.155447 0.819334 5
0 0.186279 0.569017 0.0263004 0.128593 0.662431 23
0 0.902665 0.537917 0.0206736 0.0828861 0.323682 12
0 0.90188 0.545465 0.0219365 0.0906163 0.619118 32
0 0.188335 0.569397 0.0247574 0.13637 0.510785 35
0 0.158539 0.567999 0.0281188 0.132084 0.393709 36
2 0.543324 0.512387 0.0553041 0.0502641 0.484918 42
9 0.30582 0.423737 0.0119906 0.0457357 0.680553 44
9 0.269734 0.427364 0.0153917 0.0561785 0.225522 45
0 0.268056 0.548519 0.0189708 0.0999538 0.665894 46
2 0.643271 0.650094 0.106153 0.20609 0.858533 1
2 0.515368 0.588801 0.0682527 0.0968895 0.850733 2
0 0.158312 0.560154 0.0291678 0.142413 0.734399 19
0 0.879992 0.615541 0.0372043 0.155447 0.819334 5
0 0.186279 0.569017 0.0263004 0.128593 0.662431 23
0 0.902665 0.537917 0.0206736 0.0828861 0.323682 12
0 0.90188 0.545465 0.0219365 0.0906163 0.619118 32
0 0.188335 0.569397 0.0247574 0.13637 0.510785 35
0 0.158539 0.567999 0.0281188 0.132084 0.393709 36
2 0.543324 0.512387 0.0553041 0.0502641 0.484918 42
9 0.30582 0.423737 0.0119906 0.0457357 0.680553 44
9 0.269734 0.427364 0.0153917 0.0561785 0.225522 45
0 0.268056 0.548519 0.0189708 0.0999538 0.665894 46
2 0.643271 0.650094 0.106153 0.20609 0.858533 1
