0 0.132391 0.649499 0.0303385 0.132773 0.512997 80
0 0.130218 0.647312 0.0253984 0.128463 0.545013 91
2 0.853357 0.704072 0.253829 0.253826 0.904155 1
2 0.561084 0.511705 0.0308547 0.0447847 0.743743 116
2 0.459806 0.539592 0.0340302 0.0443339 0.846824 113
0 0.0308921 0.654226 0.0254969 0.118965 0.563134 117
2 0.686192 0.580858 0.0775533 0.0878867 0.79652 109
2 0.458962 0.53682 0.0372492 0.0448317 0.204963 2
0 0.132391 0.649499 0.0303385 0.132773 0.512997 80
0 0.130218 0.647312 0.0253984 0.128463 0.545013 91
2 0.853357 0.704072 0.253829 0.253826 0.904155 1
2 0.561084 0.511705 0.0308547 0.0447847 0.743743 116
2 0.459806 0.539592 0.0340302 0.0443339 0.846824 113
0 0.0308921 0.654226 0.0254969 0.118965 0.563134 117
2 0.686192 0.580858 0.0775533 0.0878867 0.79652 109
2 0.458962 0.53682 0.0372492 0.0448317 0.204963 2
