0 0.133293 0.651011 0.0304842 0.136014 0.405878 80
0 0.126268 0.658866 0.0244007 0.128686 0.511481 91
2 0.911761 0.707202 0.176479 0.258372 0.912597 1
2 0.574264 0.511952 0.0344163 0.046033 0.769881 116
2 0.473628 0.536492 0.0329757 0.0422793 0.703186 113
0 0.0306982 0.659128 0.0317282 0.125631 0.577936 117
2 0.701753 0.57703 0.0661729 0.0958508 0.591235 109
0 0.748848 0.618388 0.0329024 0.145053 0.340725 129
2 0.473106 0.532346 0.0334348 0.0464258 0.640059 2
2 0.575681 0.514874 0.0341807 0.0460075 0.718001 130
0 0.81226 0.606452 0.0298243 0.128401 0.555291 131
0 0.133293 0.651011 0.0304842 0.136014 0.405878 80
0 0.126268 0.658866 0.0244007 0.128686 0.511481 91
2 0.911761 0.707202 0.176479 0.258372 0.912597 1
2 0.574264 0.511952 0.0344163 0.046033 0.769881 116
2 0.473628 0.536492 0.0329757 0.0422793 0.703186 113
0 0.0306982 0.659128 0.0317282 0.125631 0.577936 117
2 0.701753 0.57703 0.0661729 0.0958508 0.591235 109
0 0.748848 0.618388 0.0329024 0.145053 0.340725 129
2 0.473106 0.532346 0.0334348 0.0464258 0.640059 2
2 0.575681 0.514874 0.0341807 0.0460075 0.718001 130
0 0.81226 0.606452 0.0298243 0.128401 0.555291 131
