2 0.267491 0.560165 0.0496032 0.058054 0.301464 2
2 0.3287 0.495674 0.0221052 0.0301641 0.307552 42
2 0.538091 0.585961 0.132843 0.120483 0.725541 77
0 0.0637985 0.585813 0.0207455 0.0964912 0.555575 80
0 0.0650571 0.584089 0.0230923 0.0990336 0.454985 91
9 0.503102 0.452013 0.040963 0.166552 0.624354 93
0 0.747005 0.575629 0.0264508 0.132906 0.807683 75
2 0.285286 0.698025 0.145403 0.245969 0.864215 1
0 0.747705 0.570989 0.0275 0.13709 0.747183 100
2 0.267491 0.560165 0.0496032 0.058054 0.301464 2
2 0.3287 0.495674 0.0221052 0.0301641 0.307552 42
2 0.538091 0.585961 0.132843 0.120483 0.725541 77
0 0.0637985 0.585813 0.0207455 0.0964912 0.555575 80
0 0.0650571 0.584089 0.0230923 0.0990336 0.454985 91
9 0.503102 0.452013 0.040963 0.166552 0.624354 93
0 0.747005 0.575629 0.0264508 0.132906 0.807683 75
2 0.285286 0.698025 0.145403 0.245969 0.864215 1
0 0.747705 0.570989 0.0275 0.13709 0.747183 100
