2 0.292375 0.587634 0.0673812 0.0913606 0.851959 2
2 0.340452 0.502447 0.0261957 0.0345521 0.224266 42
2 0.393064 0.751029 0.14669 0.288996 0.883851 1
2 0.419047 0.492687 0.0251699 0.0287708 0.500879 74
0 0.742018 0.553229 0.0235207 0.117635 0.700098 75
2 0.412849 0.58966 0.0826162 0.0783286 0.5226 77
2 0.412679 0.595842 0.0846888 0.095397 0.676114 78
0 0.170926 0.538972 0.0172146 0.0758187 0.607942 80
2 0.292375 0.587634 0.0673812 0.0913606 0.851959 2
2 0.340452 0.502447 0.0261957 0.0345521 0.224266 42
2 0.393064 0.751029 0.14669 0.288996 0.883851 1
2 0.419047 0.492687 0.0251699 0.0287708 0.500879 74
0 0.742018 0.553229 0.0235207 0.117635 0.700098 75
2 0.412849 0.58966 0.0826162 0.0783286 0.5226 77
2 0.412679 0.595842 0.0846888 0.095397 0.676114 78
0 0.170926 0.538972 0.0172146 0.0758187 0.607942 80
