2 0.692665 0.634073 0.154349 0.186647 0.882774 220
2 0.951601 0.786847 0.0966274 0.230058 0.886316 229
2 0.525512 0.545152 0.0648563 0.0752065 0.841119 253
0 0.143889 0.576455 0.0242504 0.121487 0.694436 254
0 0.144634 0.564129 0.025974 0.131853 0.165986 255
2 0.288995 0.473609 0.0255516 0.036563 0.270768 261
2 0.463931 0.521155 0.0653847 0.0620888 0.730062 259
2 0.464837 0.518838 0.0611397 0.0606327 0.558565 236
0 0.748992 0.562665 0.0242179 0.109612 0.461487 265
2 0.247608 0.492079 0.0372384 0.060365 0.774443 210
