0 0.268338 0.854213 0.0716224 0.290444 0.84729 211
2 0.596392 0.516042 0.0360078 0.0609374 0.278224 219
2 0.570307 0.518562 0.0662825 0.0756565 0.86386 220
2 0.695257 0.598663 0.103768 0.112555 0.858718 224
0 0.269644 0.861976 0.0584016 0.273066 0.610016 228
2 0.855629 0.62606 0.131879 0.128304 0.895551 229
2 0.598229 0.515655 0.0340743 0.0567433 0.169954 233
24 0.269023 0.8354 0.0370783 0.126481 0.135413 235
2 0.46844 0.476612 0.0295681 0.0361551 0.676267 236
2 0.395123 0.507095 0.0427677 0.0744263 0.754735 210
2 0.391985 0.501836 0.0482828 0.088803 0.611814 218
0 0.27651 0.603482 0.0316002 0.122888 0.785583 208
2 0.576657 0.517085 0.0763732 0.0726643 0.347962 239
1 0.336519 0.692344 0.0359593 0.108134 0.487364 241
2 0.468941 0.475975 0.031735 0.0452573 0.548424 237
