0 0.347499 0.924395 0.0594387 0.150505 0.733185 129
2 0.239933 0.488068 0.0213867 0.0334974 0.536661 2
2 0.510835 0.698656 0.189898 0.178022 0.892909 141
0 0.316107 0.788535 0.0478075 0.10004 0.161449 131
0 0.293469 0.904245 0.0670426 0.191246 0.624047 151
0 0.435822 0.555069 0.0332535 0.12516 0.416204 156
0 0.191438 0.812238 0.0691751 0.303151 0.567357 145
9 0.282894 0.458753 0.063901 0.230904 0.824866 160
0 0.470108 0.551242 0.028126 0.115429 0.486576 162
0 0.824983 0.640388 0.0406542 0.188857 0.708105 163
0 0.826859 0.639383 0.0455982 0.200792 0.582513 164
0 0.755355 0.650843 0.0363038 0.17136 0.532691 165
0 0.19281 0.819841 0.0840347 0.313156 0.669409 166
2 0.352169 0.597827 0.078099 0.106338 0.798326 139
0 0.537673 0.575045 0.028938 0.116629 0.648088 169
0 0.722373 0.671488 0.0396903 0.222374 0.701546 170
