0 0.719236 0.722138 0.0354225 0.16988 0.414254 201
0 0.718375 0.720093 0.0339288 0.173443 0.704737 203
0 0.74267 0.574476 0.0242043 0.097329 0.579124 208
0 0.676714 0.715769 0.0464401 0.166852 0.750965 198
0 0.679013 0.723839 0.0519438 0.178228 0.558423 209
2 0.862586 0.555027 0.0541484 0.0909143 0.77428 210
0 0.920166 0.805134 0.0558933 0.258345 0.752109 211
0 0.717961 0.721534 0.0397131 0.189502 0.649162 212
