2 0.640634 0.62159 0.0902701 0.164461 0.7856 1
2 0.532436 0.580541 0.0586553 0.0811564 0.862623 2
0 0.214908 0.568353 0.0264256 0.116245 0.291786 19
0 0.826486 0.584352 0.0303558 0.138 0.353781 5
0 0.235964 0.573801 0.0226087 0.108759 0.565917 23
0 0.869555 0.532864 0.0170378 0.0874086 0.116684 12
0 0.825327 0.585773 0.0286523 0.138967 0.806813 29
0 0.869645 0.538032 0.0171055 0.0825945 0.670443 32
0 0.236895 0.575489 0.0230338 0.108432 0.512925 35
0 0.212067 0.569685 0.0235152 0.114509 0.549553 36
2 0.640634 0.62159 0.0902701 0.164461 0.7856 1
2 0.532436 0.580541 0.0586553 0.0811564 0.862623 2
0 0.214908 0.568353 0.0264256 0.116245 0.291786 19
0 0.826486 0.584352 0.0303558 0.138 0.353781 5
0 0.235964 0.573801 0.0226087 0.108759 0.565917 23
0 0.869555 0.532864 0.0170378 0.0874086 0.116684 12
0 0.825327 0.585773 0.0286523 0.138967 0.806813 29
0 0.869645 0.538032 0.0171055 0.0825945 0.670443 32
0 0.236895 0.575489 0.0230338 0.108432 0.512925 35
0 0.212067 0.569685 0.0235152 0.114509 0.549553 36
