2 0.632241 0.608248 0.0838795 0.153684 0.795208 1
2 0.531942 0.570532 0.0574724 0.0785847 0.868589 2
0 0.222866 0.553389 0.0231054 0.129148 0.513581 19
0 0.804936 0.57671 0.0226089 0.126188 0.725044 5
0 0.247102 0.552567 0.0239781 0.136114 0.661965 23
0 0.850804 0.528003 0.0178546 0.0909916 0.564823 12
0 0.805324 0.574723 0.0251798 0.121553 0.581178 29
0 0.849757 0.525429 0.0230441 0.0979428 0.245142 32
0 0.24502 0.561164 0.0223313 0.114177 0.606553 35
0 0.224866 0.555872 0.0232513 0.123865 0.60455 36
2 0.632241 0.608248 0.0838795 0.153684 0.795208 1
2 0.531942 0.570532 0.0574724 0.0785847 0.868589 2
0 0.222866 0.553389 0.0231054 0.129148 0.513581 19
0 0.804936 0.57671 0.0226089 0.126188 0.725044 5
0 0.247102 0.552567 0.0239781 0.136114 0.661965 23
0 0.850804 0.528003 0.0178546 0.0909916 0.564823 12
0 0.805324 0.574723 0.0251798 0.121553 0.581178 29
0 0.849757 0.525429 0.0230441 0.0979428 0.245142 32
0 0.24502 0.561164 0.0223313 0.114177 0.606553 35
0 0.224866 0.555872 0.0232513 0.123865 0.60455 36
