0 0.333804 0.613526 0.0281417 0.123234 0.322031 254
0 0.337538 0.612849 0.0359725 0.125117 0.171115 255
2 0.434828 0.479102 0.025497 0.0412604 0.268742 261
2 0.667422 0.574231 0.0644985 0.0855672 0.538718 236
2 0.390986 0.494433 0.0304464 0.0561941 0.687791 210
2 0.390041 0.492965 0.0336624 0.058547 0.102318 275
2 0.662966 0.573335 0.0740463 0.0844769 0.716344 278
2 0.436068 0.482269 0.0257609 0.0373831 0.528609 280
2 0.785926 0.565746 0.037617 0.0481211 0.539954 283
2 0.734697 0.61027 0.0962358 0.100163 0.776279 279
2 0.741723 0.611785 0.0822553 0.0992826 0.502676 253
