2 0.260897 0.58841 0.0627613 0.0844532 0.858313 2
2 0.315827 0.501578 0.0256511 0.0375819 0.642808 42
2 0.324084 0.733409 0.137921 0.269543 0.913201 1
2 0.395651 0.505639 0.0215872 0.0352394 0.292617 74
2 0.384424 0.604916 0.0908799 0.117582 0.896199 77
0 0.120492 0.558681 0.017827 0.0819479 0.640422 80
0 0.713142 0.564106 0.0235099 0.123614 0.623109 84
0 0.85137 0.561458 0.0304014 0.123052 0.67047 85
0 0.712331 0.565135 0.0210794 0.114595 0.54189 75
0 0.852712 0.568015 0.0287271 0.121198 0.627422 87
2 0.260897 0.58841 0.0627613 0.0844532 0.858313 2
2 0.315827 0.501578 0.0256511 0.0375819 0.642808 42
2 0.324084 0.733409 0.137921 0.269543 0.913201 1
2 0.395651 0.505639 0.0215872 0.0352394 0.292617 74
2 0.384424 0.604916 0.0908799 0.117582 0.896199 77
0 0.120492 0.558681 0.017827 0.0819479 0.640422 80
0 0.713142 0.564106 0.0235099 0.123614 0.623109 84
0 0.85137 0.561458 0.0304014 0.123052 0.67047 85
0 0.712331 0.565135 0.0210794 0.114595 0.54189 75
0 0.852712 0.568015 0.0287271 0.121198 0.627422 87
