2 0.648629 0.638291 0.104806 0.194983 0.799591 1
2 0.525945 0.5868 0.0663005 0.0905055 0.860256 2
0 0.182013 0.564634 0.0308056 0.139311 0.643028 19
0 0.861234 0.601195 0.0300589 0.143416 0.799406 5
0 0.210213 0.573592 0.0256659 0.11958 0.694303 23
0 0.896339 0.537806 0.0201906 0.0912422 0.138627 12
0 0.896852 0.534893 0.0174971 0.0889101 0.773035 32
0 0.209189 0.573047 0.0244997 0.121558 0.294404 35
0 0.184342 0.570187 0.0260018 0.131524 0.566299 36
2 0.648629 0.638291 0.104806 0.194983 0.799591 1
2 0.525945 0.5868 0.0663005 0.0905055 0.860256 2
0 0.182013 0.564634 0.0308056 0.139311 0.643028 19
0 0.861234 0.601195 0.0300589 0.143416 0.799406 5
0 0.210213 0.573592 0.0256659 0.11958 0.694303 23
0 0.896339 0.537806 0.0201906 0.0912422 0.138627 12
0 0.896852 0.534893 0.0174971 0.0889101 0.773035 32
0 0.209189 0.573047 0.0244997 0.121558 0.294404 35
0 0.184342 0.570187 0.0260018 0.131524 0.566299 36
