0 0.319746 0.828961 0.0533526 0.275497 0.768925 201
0 0.479052 0.595179 0.0287196 0.104217 0.542753 208
0 0.564872 0.848936 0.0537235 0.288907 0.794492 211
2 0.823435 0.601299 0.119651 0.0988648 0.810195 215
0 0.479708 0.596961 0.0247364 0.102425 0.77627 216
2 0.581333 0.540307 0.0407379 0.0783009 0.790549 218
2 0.744342 0.538828 0.0492029 0.0511538 0.641228 219
2 0.687888 0.524215 0.0461847 0.0675712 0.565635 220
2 0.82161 0.593079 0.115615 0.102215 0.778334 224
2 0.577784 0.54018 0.0478536 0.0777106 0.731779 225
0 0.268357 0.808429 0.0706045 0.237745 0.790897 198
0 0.557908 0.84503 0.0702822 0.290523 0.623043 228
0 0.322179 0.817692 0.0484547 0.253991 0.804376 203
2 0.970752 0.63716 0.0554579 0.111772 0.820882 229
