2 0.287903 0.562384 0.0486557 0.060819 0.45457 2
2 0.613401 0.583434 0.1281 0.119357 0.653234 77
0 0.0716477 0.596273 0.0217388 0.0995647 0.511366 80
0 0.0724898 0.593508 0.0294092 0.104442 0.175355 91
9 0.527218 0.451588 0.0527414 0.195104 0.7347 93
0 0.775624 0.569161 0.0261954 0.146282 0.76733 75
2 0.310406 0.701484 0.152717 0.240338 0.874868 1
0 0.776308 0.574013 0.0231096 0.13885 0.38379 100
0 0.193238 0.505375 0.0219266 0.0963417 0.371068 102
9 0.857444 0.393081 0.0228537 0.0717081 0.777062 103
2 0.287903 0.562384 0.0486557 0.060819 0.45457 2
2 0.613401 0.583434 0.1281 0.119357 0.653234 77
0 0.0716477 0.596273 0.0217388 0.0995647 0.511366 80
0 0.0724898 0.593508 0.0294092 0.104442 0.175355 91
9 0.527218 0.451588 0.0527414 0.195104 0.7347 93
0 0.775624 0.569161 0.0261954 0.146282 0.76733 75
2 0.310406 0.701484 0.152717 0.240338 0.874868 1
0 0.776308 0.574013 0.0231096 0.13885 0.38379 100
0 0.193238 0.505375 0.0219266 0.0963417 0.371068 102
9 0.857444 0.393081 0.0228537 0.0717081 0.777062 103
