2 0.586035 0.511293 0.0306961 0.0455368 0.627374 261
2 0.537217 0.50781 0.028672 0.0575624 0.478215 210
2 0.585979 0.508441 0.0333232 0.0501334 0.564534 280
2 0.538237 0.509165 0.0280412 0.0500503 0.726777 290
0 0.32786 0.588531 0.0262968 0.123047 0.744267 294
2 0.956125 0.703556 0.0876811 0.143355 0.855456 236
0 0.445603 0.51696 0.0116846 0.0532365 0.53043 301
0 0.325606 0.59014 0.0286117 0.121972 0.339066 302
