2 0.455814 0.613992 0.0762891 0.107089 0.851834 2
0 0.0499614 0.60377 0.029124 0.142599 0.603715 19
0 0.920977 0.674609 0.0451294 0.200634 0.852481 5
0 0.0828632 0.604414 0.0351115 0.144953 0.591569 23
0 0.882431 0.55953 0.0186467 0.0966632 0.67507 32
2 0.473215 0.516944 0.0347979 0.0493266 0.640913 42
9 0.216356 0.436978 0.0186329 0.0673825 0.278172 44
0 0.165628 0.589122 0.0258512 0.118846 0.643292 46
2 0.605065 0.715359 0.140197 0.286529 0.874555 1
0 0.146439 0.581379 0.0228416 0.130375 0.304448 49
0 0.0812095 0.604477 0.0323732 0.142095 0.687131 52
2 0.474048 0.512819 0.0360698 0.054449 0.758275 55
0 0.163314 0.58077 0.0273882 0.132017 0.529309 56
0 0.144017 0.591263 0.0195904 0.117687 0.354319 57
0 0.123782 0.589594 0.0180277 0.082881 0.472332 59
9 0.216981 0.440374 0.0166852 0.0672613 0.607333 60
0 0.0171781 0.599012 0.0273585 0.136821 0.515144 61
2 0.455814 0.613992 0.0762891 0.107089 0.851834 2
0 0.0499614 0.60377 0.029124 0.142599 0.603715 19
0 0.920977 0.674609 0.0451294 0.200634 0.852481 5
0 0.0828632 0.604414 0.0351115 0.144953 0.591569 23
0 0.882431 0.55953 0.0186467 0.0966632 0.67507 32
2 0.473215 0.516944 0.0347979 0.0493266 0.640913 42
9 0.216356 0.436978 0.0186329 0.0673825 0.278172 44
0 0.165628 0.589122 0.0258512 0.118846 0.643292 46
2 0.605065 0.715359 0.140197 0.286529 0.874555 1
0 0.146439 0.581379 0.0228416 0.130375 0.304448 49
0 0.0812095 0.604477 0.0323732 0.142095 0.687131 52
2 0.474048 0.512819 0.0360698 0.054449 0.758275 55
0 0.163314 0.58077 0.0273882 0.132017 0.529309 56
0 0.144017 0.591263 0.0195904 0.117687 0.354319 57
0 0.123782 0.589594 0.0180277 0.082881 0.472332 59
9 0.216981 0.440374 0.0166852 0.0672613 0.607333 60
0 0.0171781 0.599012 0.0273585 0.136821 0.515144 61
