2 0.275551 0.559884 0.0520647 0.0626654 0.478949 2
2 0.57546 0.58512 0.136016 0.119886 0.7748 77
0 0.0655092 0.587845 0.0213542 0.0987668 0.679947 80
0 0.0664612 0.586469 0.0267994 0.103066 0.133823 91
9 0.512609 0.450818 0.0463256 0.18043 0.693104 93
0 0.758258 0.578796 0.0248805 0.132165 0.824123 75
2 0.292764 0.699072 0.147121 0.238539 0.89376 1
0 0.759837 0.577137 0.0278907 0.137099 0.693613 100
0 0.184782 0.502271 0.0208522 0.0981873 0.356038 102
2 0.275551 0.559884 0.0520647 0.0626654 0.478949 2
2 0.57546 0.58512 0.136016 0.119886 0.7748 77
0 0.0655092 0.587845 0.0213542 0.0987668 0.679947 80
0 0.0664612 0.586469 0.0267994 0.103066 0.133823 91
9 0.512609 0.450818 0.0463256 0.18043 0.693104 93
0 0.758258 0.578796 0.0248805 0.132165 0.824123 75
2 0.292764 0.699072 0.147121 0.238539 0.89376 1
0 0.759837 0.577137 0.0278907 0.137099 0.693613 100
0 0.184782 0.502271 0.0208522 0.0981873 0.356038 102
