2 0.64402 0.621996 0.096404 0.175797 0.793028 1
2 0.530603 0.577387 0.061926 0.0892007 0.88775 2
0 0.199836 0.564329 0.0225844 0.116179 0.516593 19
0 0.841667 0.582697 0.0292567 0.145782 0.719265 5
0 0.22661 0.567312 0.0217521 0.120035 0.427318 23
0 0.881558 0.528853 0.0181979 0.0954815 0.412655 12
0 0.839926 0.577936 0.0294189 0.151852 0.543137 29
0 0.881497 0.527985 0.0225585 0.100169 0.592538 32
0 0.224628 0.564212 0.0231861 0.121874 0.434264 35
0 0.197665 0.559243 0.0239042 0.126182 0.64463 36
0 0.840239 0.585544 0.0268983 0.137964 0.139756 38
2 0.64402 0.621996 0.096404 0.175797 0.793028 1
2 0.530603 0.577387 0.061926 0.0892007 0.88775 2
0 0.199836 0.564329 0.0225844 0.116179 0.516593 19
0 0.841667 0.582697 0.0292567 0.145782 0.719265 5
0 0.22661 0.567312 0.0217521 0.120035 0.427318 23
0 0.881558 0.528853 0.0181979 0.0954815 0.412655 12
0 0.839926 0.577936 0.0294189 0.151852 0.543137 29
0 0.881497 0.527985 0.0225585 0.100169 0.592538 32
0 0.224628 0.564212 0.0231861 0.121874 0.434264 35
0 0.197665 0.559243 0.0239042 0.126182 0.64463 36
0 0.840239 0.585544 0.0268983 0.137964 0.139756 38
