2 0.624172 0.589709 0.0788867 0.14005 0.8036 1
2 0.529318 0.559829 0.0556811 0.0762509 0.845443 2
0 0.968353 0.66021 0.040601 0.160204 0.819516 7
0 0.231677 0.554817 0.0203844 0.107936 0.574504 19
0 0.786396 0.552776 0.0222046 0.12067 0.765035 5
0 0.256056 0.551092 0.0227309 0.115069 0.203184 23
0 0.828819 0.518133 0.0179212 0.0906125 0.340158 12
0 0.78563 0.557584 0.0221614 0.112428 0.614386 29
0 0.832414 0.516176 0.0190816 0.0922062 0.584776 32
2 0.624172 0.589709 0.0788867 0.14005 0.8036 1
2 0.529318 0.559829 0.0556811 0.0762509 0.845443 2
0 0.968353 0.66021 0.040601 0.160204 0.819516 7
0 0.231677 0.554817 0.0203844 0.107936 0.574504 19
0 0.786396 0.552776 0.0222046 0.12067 0.765035 5
0 0.256056 0.551092 0.0227309 0.115069 0.203184 23
0 0.828819 0.518133 0.0179212 0.0906125 0.340158 12
0 0.78563 0.557584 0.0221614 0.112428 0.614386 29
0 0.832414 0.516176 0.0190816 0.0922062 0.584776 32
