2 0.509904 0.590353 0.0697933 0.0984985 0.805571 2
0 0.149149 0.564897 0.0275805 0.134285 0.709048 19
0 0.883565 0.617106 0.0390867 0.16045 0.84166 5
0 0.176034 0.572281 0.026598 0.127523 0.707339 23
0 0.901471 0.533343 0.0235257 0.0808208 0.127181 12
0 0.901362 0.542062 0.0223757 0.0892467 0.584342 32
0 0.17656 0.576723 0.024334 0.127427 0.583101 35
0 0.149396 0.572554 0.0288419 0.124599 0.291442 36
2 0.534932 0.511421 0.0479257 0.0489965 0.37914 42
9 0.298806 0.422017 0.0159584 0.0493854 0.556218 44
9 0.26133 0.427677 0.0151409 0.0578155 0.177703 45
0 0.259223 0.551585 0.0186006 0.0997154 0.404552 46
2 0.641412 0.654971 0.115165 0.220007 0.858233 1
0 0.243946 0.549283 0.0213442 0.10738 0.583373 49
0 0.0849409 0.576937 0.0235274 0.125947 0.595027 50
0 0.881075 0.609541 0.0389136 0.171971 0.646355 51
2 0.509904 0.590353 0.0697933 0.0984985 0.805571 2
0 0.149149 0.564897 0.0275805 0.134285 0.709048 19
0 0.883565 0.617106 0.0390867 0.16045 0.84166 5
0 0.176034 0.572281 0.026598 0.127523 0.707339 23
0 0.901471 0.533343 0.0235257 0.0808208 0.127181 12
0 0.901362 0.542062 0.0223757 0.0892467 0.584342 32
0 0.17656 0.576723 0.024334 0.127427 0.583101 35
0 0.149396 0.572554 0.0288419 0.124599 0.291442 36
2 0.534932 0.511421 0.0479257 0.0489965 0.37914 42
9 0.298806 0.422017 0.0159584 0.0493854 0.556218 44
9 0.26133 0.427677 0.0151409 0.0578155 0.177703 45
0 0.259223 0.551585 0.0186006 0.0997154 0.404552 46
2 0.641412 0.654971 0.115165 0.220007 0.858233 1
0 0.243946 0.549283 0.0213442 0.10738 0.583373 49
0 0.0849409 0.576937 0.0235274 0.125947 0.595027 50
0 0.881075 0.609541 0.0389136 0.171971 0.646355 51
