0 0.172647 0.867937 0.0842641 0.260484 0.819746 211
2 0.546934 0.523261 0.070286 0.0842555 0.865654 220
2 0.673174 0.612646 0.107168 0.122127 0.837129 224
2 0.826031 0.629892 0.134415 0.131179 0.906327 229
24 0.169119 0.880456 0.0435885 0.124788 0.676908 235
2 0.438009 0.477268 0.0339031 0.0438676 0.271532 236
2 0.35069 0.500779 0.038457 0.0755045 0.494245 210
2 0.350708 0.504614 0.0407355 0.0731758 0.776684 218
0 0.216452 0.613725 0.0368177 0.133855 0.814343 208
1 0.27911 0.710549 0.0395671 0.117601 0.662059 241
2 0.437798 0.480123 0.0322731 0.0384354 0.731218 237
0 0.173777 0.861795 0.0693154 0.230389 0.668496 228
