2 0.414428 0.611928 0.0774217 0.10643 0.829816 2
0 0.942611 0.716207 0.0516288 0.230259 0.815354 5
0 0.0103931 0.614855 0.0207863 0.157392 0.580345 23
2 0.439591 0.506507 0.0388765 0.05929 0.145098 42
9 0.151063 0.441427 0.0181442 0.0712087 0.675503 44
0 0.0780983 0.613246 0.0300127 0.132124 0.267643 46
2 0.564286 0.745672 0.148758 0.283558 0.844029 1
0 0.0811099 0.617187 0.0277152 0.126468 0.636565 49
0 0.00987331 0.610007 0.0197466 0.178678 0.598132 52
2 0.439647 0.508965 0.0346578 0.0505344 0.407326 55
0 0.0821126 0.612085 0.0275728 0.129182 0.689314 56
0 0.056427 0.616955 0.0235712 0.123034 0.517176 57
0 0.0380027 0.61638 0.0166764 0.106322 0.362433 59
0 0.114137 0.608843 0.0259275 0.141552 0.567982 62
0 0.113971 0.608732 0.0249766 0.145193 0.606826 65
0 0.149634 0.57565 0.0220017 0.11908 0.68281 67
0 0.148502 0.57613 0.0201616 0.11693 0.343257 70
9 0.150196 0.438718 0.0226126 0.0714483 0.5128 60
2 0.414428 0.611928 0.0774217 0.10643 0.829816 2
0 0.942611 0.716207 0.0516288 0.230259 0.815354 5
0 0.0103931 0.614855 0.0207863 0.157392 0.580345 23
2 0.439591 0.506507 0.0388765 0.05929 0.145098 42
9 0.151063 0.441427 0.0181442 0.0712087 0.675503 44
0 0.0780983 0.613246 0.0300127 0.132124 0.267643 46
2 0.564286 0.745672 0.148758 0.283558 0.844029 1
0 0.0811099 0.617187 0.0277152 0.126468 0.636565 49
0 0.00987331 0.610007 0.0197466 0.178678 0.598132 52
2 0.439647 0.508965 0.0346578 0.0505344 0.407326 55
0 0.0821126 0.612085 0.0275728 0.129182 0.689314 56
0 0.056427 0.616955 0.0235712 0.123034 0.517176 57
0 0.0380027 0.61638 0.0166764 0.106322 0.362433 59
0 0.114137 0.608843 0.0259275 0.141552 0.567982 62
0 0.113971 0.608732 0.0249766 0.145193 0.606826 65
0 0.149634 0.57565 0.0220017 0.11908 0.68281 67
0 0.148502 0.57613 0.0201616 0.11693 0.343257 70
9 0.150196 0.438718 0.0226126 0.0714483 0.5128 60
