0 0.302065 0.9343 0.0584534 0.1314 0.735444 129
2 0.486235 0.705053 0.191883 0.179516 0.887172 141
0 0.27169 0.821427 0.0478922 0.138429 0.594357 131
0 0.244825 0.90305 0.0752787 0.1939 0.630501 151
0 0.413815 0.556302 0.0307961 0.12376 0.147352 156
0 0.141319 0.821906 0.0584312 0.298991 0.589753 145
9 0.245748 0.461778 0.062161 0.233351 0.895149 160
0 0.44784 0.55233 0.0292419 0.116247 0.171639 162
0 0.80326 0.644017 0.0421839 0.193594 0.66519 163
0 0.804834 0.646508 0.0508954 0.200859 0.487889 164
0 0.739153 0.660272 0.0377144 0.171895 0.602488 165
0 0.150872 0.831772 0.0831376 0.324451 0.457796 166
2 0.330605 0.603658 0.0804055 0.109611 0.837992 139
0 0.517592 0.581523 0.0296582 0.119367 0.369613 169
0 0.702624 0.686357 0.0411871 0.212297 0.56366 170
2 0.331592 0.602288 0.0732625 0.104196 0.691865 134
