0 0.214365 0.86509 0.078671 0.268274 0.801064 211
2 0.557066 0.519501 0.0721561 0.0765319 0.853971 220
2 0.681667 0.605897 0.103632 0.117473 0.872222 224
2 0.838018 0.627844 0.133087 0.130914 0.898747 229
24 0.213785 0.867486 0.0413326 0.116257 0.652467 235
2 0.452098 0.475922 0.0344243 0.0424173 0.180882 236
2 0.369911 0.505219 0.0386766 0.0726101 0.81183 210
2 0.368508 0.501842 0.0425374 0.0823372 0.633258 218
0 0.242144 0.609674 0.0347695 0.130077 0.721127 208
1 0.303338 0.703651 0.0361322 0.110214 0.641717 241
2 0.45058 0.477975 0.0306538 0.0389766 0.722996 237
