2 0.232825 0.73992 0.172193 0.207124 0.157144 141
0 0.206494 0.582917 0.0246962 0.107987 0.559213 156
0 0.242496 0.565264 0.0303189 0.12407 0.302445 162
0 0.590917 0.658499 0.0377277 0.20687 0.483039 163
0 0.590869 0.659794 0.0323285 0.210251 0.640628 164
0 0.56311 0.690146 0.040926 0.192693 0.716808 165
0 0.501495 0.741791 0.0518967 0.249799 0.810662 170
9 0.792677 0.409019 0.0714788 0.291537 0.780059 172
2 0.119664 0.631933 0.0910146 0.121956 0.794275 134
2 0.08126 0.571964 0.056283 0.0820455 0.848358 140
2 0.0373357 0.484141 0.0241249 0.0311546 0.446205 2
2 0.0841271 0.574717 0.0625385 0.0832519 0.759175 116
2 0.258428 0.742762 0.224068 0.203517 0.861147 177
