2 0.571577 0.507351 0.0298257 0.0415526 0.714705 261
2 0.524843 0.503557 0.0292276 0.0535508 0.668621 210
2 0.570119 0.502556 0.0315491 0.0471533 0.497376 280
2 0.525156 0.507315 0.0289646 0.0505708 0.604807 290
0 0.861452 0.766283 0.0527376 0.210823 0.489085 254
0 0.326399 0.574389 0.0239103 0.112207 0.771218 294
2 0.993443 0.741586 0.0126024 0.0921256 0.175025 253
2 0.929883 0.674331 0.140234 0.139796 0.878012 236
2 0.923674 0.681642 0.146247 0.160835 0.443813 279
0 0.86245 0.759373 0.0553164 0.242418 0.111161 255
0 0.436792 0.511394 0.0144485 0.0547732 0.335138 301
0 0.328314 0.574927 0.0227017 0.109203 0.590636 302
