2 0.563684 0.509295 0.0293867 0.0428965 0.7257 261
2 0.517185 0.511897 0.0354839 0.0570458 0.192086 210
2 0.562593 0.504528 0.0303773 0.0481536 0.594997 280
2 0.517143 0.512929 0.0300148 0.0521491 0.755172 290
0 0.809966 0.743138 0.0457483 0.210678 0.59922 254
0 0.324451 0.578146 0.0228431 0.10636 0.634529 294
2 0.978225 0.717497 0.0435504 0.130343 0.665266 253
2 0.907436 0.660354 0.128048 0.129431 0.847976 236
2 0.970288 0.698528 0.0586798 0.161766 0.254664 279
0 0.803564 0.741436 0.0552651 0.206382 0.519118 255
