0 0.116178 0.658569 0.0244349 0.14158 0.391384 80
0 0.0960697 0.661079 0.0273848 0.147534 0.541219 91
2 0.592895 0.500015 0.0406928 0.0540835 0.73544 116
0 0.766703 0.62657 0.0452626 0.169608 0.677999 129
2 0.491672 0.509669 0.0301783 0.0413965 0.713366 2
0 0.839332 0.595239 0.0391942 0.206233 0.60884 131
0 0.768589 0.627927 0.0420426 0.154912 0.504158 133
2 0.593868 0.502362 0.0379685 0.0474969 0.662818 134
0 0.726539 0.593084 0.0412088 0.156901 0.501998 109
