2 0.252294 0.588912 0.061366 0.0798542 0.776344 2
2 0.309394 0.50451 0.025407 0.0351421 0.530984 42
2 0.388617 0.516082 0.0225405 0.0518564 0.201437 74
2 0.385606 0.60458 0.0972966 0.117598 0.866439 77
0 0.100054 0.569101 0.0214993 0.0842166 0.649337 80
0 0.706544 0.567697 0.0237396 0.116557 0.738701 84
0 0.864576 0.571777 0.0254104 0.119827 0.583563 85
0 0.866034 0.573585 0.0217725 0.114744 0.641251 87
2 0.303937 0.730492 0.144861 0.258157 0.894575 1
0 0.10025 0.566139 0.0193634 0.0867284 0.54745 91
2 0.252294 0.588912 0.061366 0.0798542 0.776344 2
2 0.309394 0.50451 0.025407 0.0351421 0.530984 42
2 0.388617 0.516082 0.0225405 0.0518564 0.201437 74
2 0.385606 0.60458 0.0972966 0.117598 0.866439 77
0 0.100054 0.569101 0.0214993 0.0842166 0.649337 80
0 0.706544 0.567697 0.0237396 0.116557 0.738701 84
0 0.864576 0.571777 0.0254104 0.119827 0.583563 85
0 0.866034 0.573585 0.0217725 0.114744 0.641251 87
2 0.303937 0.730492 0.144861 0.258157 0.894575 1
0 0.10025 0.566139 0.0193634 0.0867284 0.54745 91
