2 0.604175 0.590466 0.121304 0.141449 0.882796 220
2 0.896072 0.736887 0.207856 0.224736 0.913051 229
2 0.492391 0.531428 0.0637941 0.0674446 0.810313 253
0 0.136492 0.545505 0.0267719 0.125721 0.721184 254
0 0.136006 0.554392 0.0251662 0.111322 0.754074 255
2 0.265927 0.459231 0.0265553 0.0386377 0.585 261
0 0.97829 0.947433 0.0434191 0.0966286 0.110148 262
2 0.230648 0.483446 0.0393904 0.0669057 0.770262 210
2 0.421699 0.503345 0.0599733 0.0593298 0.828787 259
