2 0.905258 0.767068 0.189485 0.308111 0.929205 220
2 0.61934 0.580797 0.0792852 0.0830147 0.836899 253
0 0.205606 0.607562 0.0236157 0.116891 0.509797 254
0 0.20418 0.604387 0.0226212 0.104199 0.50419 255
2 0.358896 0.487478 0.0271292 0.0401815 0.649237 261
2 0.556272 0.552521 0.0620391 0.0700731 0.809955 236
2 0.315475 0.503055 0.0319628 0.0583287 0.69928 210
2 0.316244 0.498761 0.0337952 0.0544712 0.23798 275
