2 0.70755 0.597177 0.0760007 0.0955122 0.787774 253
0 0.294003 0.574467 0.0386653 0.110062 0.213902 254
0 0.293926 0.583187 0.0403803 0.12955 0.581867 255
2 0.415095 0.461509 0.030722 0.0426928 0.377442 261
2 0.637545 0.557886 0.0616189 0.0796972 0.636698 236
2 0.372015 0.475635 0.0325434 0.0565771 0.709594 210
2 0.373804 0.471956 0.0352602 0.053318 0.389102 275
2 0.6329 0.558538 0.0702394 0.0816252 0.778251 278
2 0.415491 0.463503 0.0277872 0.041641 0.690598 280
2 0.753214 0.558545 0.0317659 0.0456458 0.513231 283
2 0.701254 0.596587 0.090412 0.0975528 0.80446 279
