2 0.305066 0.561254 0.0491481 0.0630759 0.655812 2
2 0.673916 0.579357 0.125313 0.122982 0.58456 77
0 0.0785047 0.602333 0.0230037 0.105897 0.512772 80
0 0.080411 0.601675 0.0249914 0.103849 0.282017 91
9 0.552581 0.450987 0.0560313 0.212252 0.747108 93
0 0.800888 0.573804 0.025596 0.139215 0.651535 75
2 0.336548 0.701785 0.158281 0.237107 0.888432 1
0 0.799895 0.571784 0.0276774 0.142899 0.289409 100
0 0.206288 0.507805 0.0208755 0.0961858 0.22397 102
9 0.891407 0.388516 0.027792 0.0845277 0.422074 103
0 0.0325518 0.533907 0.0274721 0.147331 0.578919 105
2 0.305066 0.561254 0.0491481 0.0630759 0.655812 2
2 0.673916 0.579357 0.125313 0.122982 0.58456 77
0 0.0785047 0.602333 0.0230037 0.105897 0.512772 80
0 0.080411 0.601675 0.0249914 0.103849 0.282017 91
9 0.552581 0.450987 0.0560313 0.212252 0.747108 93
0 0.800888 0.573804 0.025596 0.139215 0.651535 75
2 0.336548 0.701785 0.158281 0.237107 0.888432 1
0 0.799895 0.571784 0.0276774 0.142899 0.289409 100
0 0.206288 0.507805 0.0208755 0.0961858 0.22397 102
9 0.891407 0.388516 0.027792 0.0845277 0.422074 103
0 0.0325518 0.533907 0.0274721 0.147331 0.578919 105
