0 0.513877 0.763024 0.0540326 0.222102 0.798482 201
0 0.595208 0.578529 0.0228321 0.100038 0.762061 208
2 0.700032 0.539077 0.0503302 0.081162 0.639479 210
0 0.724605 0.814344 0.0620982 0.269824 0.811081 211
0 0.517217 0.756892 0.0479593 0.213203 0.756168 212
2 0.922295 0.582256 0.132602 0.0959423 0.860196 215
0 0.593755 0.573193 0.0254385 0.109076 0.523254 216
2 0.700993 0.544121 0.0477688 0.0847159 0.660299 218
2 0.851615 0.52969 0.049643 0.0513087 0.71411 219
0 0.472297 0.751667 0.042513 0.202382 0.708911 209
2 0.779661 0.514575 0.0450994 0.0582432 0.66561 220
