0 0.770738 0.81876 0.0598839 0.265126 0.694991 129
2 0.489805 0.518846 0.0262178 0.031547 0.540228 2
2 0.60608 0.560757 0.0443082 0.0713983 0.699117 134
0 0.657925 0.697217 0.0287798 0.199309 0.568535 109
2 0.489696 0.514447 0.0261383 0.039064 0.644171 136
2 0.605436 0.563827 0.0480484 0.0698871 0.808746 139
2 0.577309 0.531829 0.0333268 0.0526366 0.514029 140
2 0.801494 0.646074 0.158474 0.128123 0.614552 141
9 0.676731 0.466289 0.0410855 0.145026 0.729784 143
2 0.778738 0.646322 0.115606 0.122483 0.614656 144
0 0.687389 0.697707 0.0275626 0.20139 0.118742 145
0 0.683999 0.692307 0.0368318 0.199484 0.309909 148
0 0.800583 0.768599 0.058464 0.237035 0.219402 131
2 0.848747 0.674908 0.0723813 0.0977971 0.455106 152
0 0.804996 0.76548 0.0569191 0.243031 0.663482 153
2 0.800259 0.646621 0.169983 0.143191 0.148426 154
2 0.577276 0.537195 0.0339238 0.0465875 0.580148 116
0 0.768457 0.822803 0.0507193 0.263596 0.665605 151
