2 0.249537 0.588791 0.058697 0.0788045 0.763106 2
2 0.307407 0.504765 0.0262317 0.0345634 0.331052 42
2 0.389062 0.605941 0.100545 0.11899 0.818525 77
0 0.095421 0.570442 0.0214153 0.0882262 0.501126 80
0 0.705542 0.566042 0.0235989 0.119037 0.701513 84
0 0.867907 0.575116 0.028598 0.113522 0.527417 85
0 0.869796 0.573049 0.0243065 0.114938 0.698865 87
2 0.299765 0.73143 0.149769 0.258533 0.899562 1
0 0.0945928 0.572581 0.021586 0.0847121 0.597968 91
2 0.249537 0.588791 0.058697 0.0788045 0.763106 2
2 0.307407 0.504765 0.0262317 0.0345634 0.331052 42
2 0.389062 0.605941 0.100545 0.11899 0.818525 77
0 0.095421 0.570442 0.0214153 0.0882262 0.501126 80
0 0.705542 0.566042 0.0235989 0.119037 0.701513 84
0 0.867907 0.575116 0.028598 0.113522 0.527417 85
0 0.869796 0.573049 0.0243065 0.114938 0.698865 87
2 0.299765 0.73143 0.149769 0.258533 0.899562 1
0 0.0945928 0.572581 0.021586 0.0847121 0.597968 91
