0 0.372377 0.711091 0.0514608 0.236956 0.713758 165
0 0.254632 0.829782 0.0634611 0.310907 0.816993 170
2 0.0526265 0.797929 0.105253 0.256159 0.878222 177
0 0.79935 0.852138 0.0980948 0.287644 0.885409 181
0 0.168709 0.594404 0.032187 0.148689 0.527064 183
0 0.108039 0.616813 0.0291511 0.161212 0.572104 185
0 0.324944 0.702605 0.0394004 0.209161 0.716696 186
0 0.0222721 0.585847 0.0334966 0.141028 0.54855 162
0 0.371147 0.722904 0.0497307 0.219038 0.530271 163
