2 0.565639 0.508492 0.0300687 0.0440565 0.718022 261
2 0.520325 0.511777 0.035722 0.0539048 0.596864 210
2 0.564467 0.503945 0.0307138 0.0469722 0.505204 280
2 0.519145 0.511597 0.0303163 0.0532425 0.659388 290
0 0.822658 0.751837 0.0471617 0.216796 0.542202 254
0 0.324902 0.576349 0.0232268 0.108089 0.658384 294
2 0.981388 0.721781 0.0369823 0.125947 0.643328 253
2 0.91163 0.666949 0.126791 0.134034 0.84104 236
2 0.937554 0.685523 0.119032 0.162117 0.678257 279
0 0.816962 0.750555 0.0583294 0.216354 0.220576 255
