0 0.524442 0.889731 0.062976 0.220538 0.751731 129
2 0.331682 0.489089 0.0233761 0.0305343 0.390743 2
2 0.623988 0.678558 0.185365 0.168011 0.897658 141
9 0.447158 0.487362 0.0612047 0.276736 0.555492 143
0 0.509592 0.738524 0.0342342 0.0844749 0.190969 131
0 0.484936 0.862238 0.0619541 0.271079 0.643096 151
0 0.540468 0.558137 0.0288264 0.124889 0.543232 156
0 0.376497 0.776549 0.0666704 0.295637 0.769677 145
9 0.44408 0.451082 0.0510839 0.202286 0.548204 160
0 0.572551 0.547569 0.0265781 0.106817 0.590964 162
0 0.929688 0.628727 0.0380285 0.185058 0.721716 163
0 0.931637 0.621396 0.0403245 0.194877 0.641808 164
0 0.840545 0.641168 0.041393 0.165942 0.599683 165
