2 0.583843 0.509287 0.0305192 0.0446906 0.707111 261
2 0.536152 0.505136 0.0313496 0.0600063 0.580786 210
2 0.582216 0.507041 0.0320169 0.0440088 0.621964 280
2 0.53564 0.506719 0.0283546 0.0551519 0.706357 290
0 0.329383 0.583938 0.0246109 0.12067 0.717406 294
2 0.947333 0.681964 0.105335 0.128422 0.873324 236
0 0.44508 0.515496 0.0136184 0.0543788 0.592903 301
0 0.328592 0.5862 0.0270208 0.119443 0.374554 302
