0 0.63568 0.726952 0.0419231 0.20357 0.777062 201
0 0.631453 0.731958 0.0355253 0.187108 0.407157 203
0 0.678891 0.573643 0.0276517 0.103201 0.593461 208
0 0.591958 0.724092 0.0370448 0.183502 0.696991 198
2 0.791489 0.546727 0.0486447 0.0892154 0.676316 210
0 0.835781 0.795691 0.0561212 0.250985 0.699531 211
0 0.633267 0.732467 0.0391801 0.197094 0.544701 212
2 0.963677 0.559969 0.0649082 0.0958089 0.826593 215
0 0.678385 0.565801 0.0282274 0.116199 0.413775 216
2 0.788805 0.543666 0.0531525 0.0919277 0.517174 218
2 0.93341 0.52714 0.0466945 0.0505047 0.527525 219
0 0.593485 0.7281 0.0443626 0.192516 0.517207 209
