2 0.480138 0.465049 0.028859 0.0431814 0.632933 261
2 0.435759 0.473082 0.0300402 0.0546468 0.711634 210
2 0.479762 0.461373 0.028362 0.045011 0.644185 280
2 0.875322 0.570428 0.0524671 0.0668942 0.775843 283
2 0.815087 0.626632 0.113776 0.122685 0.849737 279
0 0.439312 0.611042 0.0422608 0.133153 0.190096 255
2 0.731298 0.580146 0.0822854 0.0955383 0.772076 236
2 0.435796 0.47076 0.0349326 0.0556902 0.208534 290
2 0.823308 0.624268 0.0932748 0.115451 0.588746 253
