2 0.40948 0.538428 0.0350766 0.0454253 0.708544 2
0 0.124959 0.622691 0.0298305 0.121061 0.456112 80
0 0.123535 0.622082 0.0234771 0.115198 0.60905 91
9 0.895272 0.446308 0.153214 0.513377 0.91929 93
2 0.598496 0.683182 0.212267 0.237812 0.917615 1
2 0.60364 0.544853 0.0722026 0.0604227 0.170307 109
2 0.51344 0.4938 0.0284457 0.0388509 0.704954 116
2 0.41014 0.537615 0.0390389 0.0487435 0.725954 113
0 0.036733 0.631481 0.02577 0.10577 0.537407 117
0 0.992467 0.592488 0.015066 0.182356 0.251051 119
2 0.608595 0.543737 0.0593603 0.0576742 0.298263 121
9 0.992052 0.593992 0.0158957 0.190534 0.144352 122
2 0.40948 0.538428 0.0350766 0.0454253 0.708544 2
0 0.124959 0.622691 0.0298305 0.121061 0.456112 80
0 0.123535 0.622082 0.0234771 0.115198 0.60905 91
9 0.895272 0.446308 0.153214 0.513377 0.91929 93
2 0.598496 0.683182 0.212267 0.237812 0.917615 1
2 0.60364 0.544853 0.0722026 0.0604227 0.170307 109
2 0.51344 0.4938 0.0284457 0.0388509 0.704954 116
2 0.41014 0.537615 0.0390389 0.0487435 0.725954 113
0 0.036733 0.631481 0.02577 0.10577 0.537407 117
0 0.992467 0.592488 0.015066 0.182356 0.251051 119
2 0.608595 0.543737 0.0593603 0.0576742 0.298263 121
9 0.992052 0.593992 0.0158957 0.190534 0.144352 122
