2 0.295915 0.590229 0.0682653 0.0939323 0.825283 2
2 0.34331 0.502583 0.0274686 0.037849 0.551248 42
2 0.398915 0.754467 0.145334 0.2919 0.883286 1
2 0.421355 0.489202 0.025369 0.0297451 0.394434 74
0 0.746192 0.555246 0.0237736 0.115056 0.617658 75
2 0.416227 0.583295 0.0799474 0.064515 0.527437 77
2 0.415227 0.591534 0.0841958 0.0774535 0.548785 78
0 0.175447 0.538935 0.0172341 0.0745803 0.513221 80
2 0.295915 0.590229 0.0682653 0.0939323 0.825283 2
2 0.34331 0.502583 0.0274686 0.037849 0.551248 42
2 0.398915 0.754467 0.145334 0.2919 0.883286 1
2 0.421355 0.489202 0.025369 0.0297451 0.394434 74
0 0.746192 0.555246 0.0237736 0.115056 0.617658 75
2 0.416227 0.583295 0.0799474 0.064515 0.527437 77
2 0.415227 0.591534 0.0841958 0.0774535 0.548785 78
0 0.175447 0.538935 0.0172341 0.0745803 0.513221 80
