0 0.434735 0.694387 0.0472174 0.213701 0.569916 164
0 0.438976 0.695052 0.0456464 0.228499 0.691652 165
0 0.340898 0.789134 0.0517595 0.293315 0.766757 170
2 0.098293 0.771396 0.18613 0.241832 0.910166 177
0 0.871713 0.846363 0.103126 0.296773 0.917266 181
0 0.229269 0.587546 0.0301078 0.137014 0.522877 183
0 0.173253 0.599861 0.0259103 0.153608 0.268327 185
0 0.394243 0.688955 0.0375998 0.204023 0.663793 186
