2 0.377249 0.719809 0.198487 0.196442 0.919556 141
0 0.0745863 0.899033 0.0637528 0.189348 0.276731 131
0 0.0313447 0.933382 0.0626894 0.129931 0.605042 151
0 0.31853 0.568904 0.0290253 0.122624 0.552342 156
9 0.0694054 0.464728 0.0707925 0.263869 0.853135 160
0 0.350345 0.563772 0.0279746 0.122087 0.475269 162
0 0.703371 0.659456 0.0412322 0.193984 0.704105 163
0 0.701856 0.655484 0.0376156 0.192978 0.762758 164
0 0.656613 0.676084 0.0378339 0.174831 0.606389 165
0 0.424942 0.587833 0.0257338 0.131911 0.44806 169
0 0.612633 0.717292 0.0461108 0.220769 0.780873 170
9 0.914312 0.411747 0.0686711 0.263349 0.853911 172
0 0.612203 0.719962 0.0524722 0.218912 0.148245 173
2 0.235244 0.616137 0.0852907 0.11881 0.85 134
2 0.19255 0.563698 0.0494252 0.0749222 0.747392 140
