2 0.347341 0.551672 0.0432097 0.0587205 0.782129 2
2 0.869551 0.577654 0.168156 0.118681 0.482406 77
0 0.0956988 0.600755 0.0221968 0.104729 0.35641 80
0 0.0962941 0.600399 0.0252 0.111455 0.361689 91
9 0.640915 0.456768 0.0784833 0.280069 0.848052 93
2 0.418572 0.692511 0.176538 0.235931 0.912521 1
9 0.990517 0.383113 0.0189661 0.103974 0.361037 103
2 0.513245 0.541449 0.0466931 0.0627546 0.736186 109
2 0.347341 0.551672 0.0432097 0.0587205 0.782129 2
2 0.869551 0.577654 0.168156 0.118681 0.482406 77
0 0.0956988 0.600755 0.0221968 0.104729 0.35641 80
0 0.0962941 0.600399 0.0252 0.111455 0.361689 91
9 0.640915 0.456768 0.0784833 0.280069 0.848052 93
2 0.418572 0.692511 0.176538 0.235931 0.912521 1
9 0.990517 0.383113 0.0189661 0.103974 0.361037 103
2 0.513245 0.541449 0.0466931 0.0627546 0.736186 109
