0 0.0184154 0.874364 0.0368308 0.236147 0.667716 201
0 0.374521 0.853356 0.062418 0.290697 0.818713 211
0 0.343177 0.593975 0.0286334 0.114162 0.305864 216
2 0.642003 0.517386 0.0401106 0.0567533 0.232192 219
2 0.601602 0.516543 0.0575755 0.070447 0.762131 220
2 0.732077 0.590772 0.105807 0.107774 0.875043 224
0 0.375984 0.876174 0.0583794 0.244057 0.368104 228
2 0.900201 0.624374 0.129364 0.122603 0.900509 229
2 0.642269 0.520184 0.0370367 0.0538066 0.553311 233
24 0.379812 0.829398 0.0384085 0.114524 0.251817 235
2 0.510729 0.477003 0.0291813 0.0324218 0.740474 236
2 0.453184 0.518754 0.0447234 0.0824697 0.707789 210
2 0.453109 0.511747 0.0433415 0.0807835 0.70009 218
0 0.343699 0.594493 0.0265216 0.117157 0.767907 208
2 0.596112 0.516297 0.0480948 0.0698192 0.66106 239
2 0.510963 0.476629 0.0302478 0.0360653 0.616255 237
