0 0.112271 0.662612 0.0245257 0.14048 0.30189 80
0 0.0923303 0.666085 0.026962 0.15041 0.509059 91
2 0.595412 0.502454 0.0395716 0.0533584 0.7923 116
0 0.766921 0.630162 0.050082 0.175324 0.708452 129
2 0.49267 0.509942 0.0304959 0.0404526 0.746426 2
0 0.841563 0.603966 0.039238 0.203818 0.448511 131
0 0.770067 0.632313 0.0426753 0.160975 0.712592 133
2 0.597094 0.505784 0.0378506 0.0496876 0.604664 134
0 0.726239 0.600994 0.0350787 0.167996 0.452191 109
2 0.49283 0.512381 0.0286839 0.03856 0.638138 136
