2 0.392233 0.539813 0.0389533 0.0487665 0.696292 2
0 0.119376 0.613023 0.0271872 0.114366 0.574588 80
0 0.116372 0.616725 0.0253672 0.110253 0.565227 91
9 0.79273 0.450071 0.118292 0.416427 0.89142 93
2 0.539669 0.688355 0.200604 0.233552 0.940168 1
2 0.577315 0.547971 0.0652668 0.0694962 0.67093 109
0 0.990695 0.690491 0.0186092 0.225512 0.121092 115
2 0.497499 0.49332 0.0281153 0.038531 0.569158 116
2 0.390559 0.535712 0.0427257 0.0579423 0.106698 113
0 0.0344738 0.619632 0.0256672 0.107228 0.637612 117
0 0.960328 0.596598 0.0373413 0.181256 0.712504 119
2 0.581721 0.547042 0.0586493 0.0650603 0.660817 121
0 0.959461 0.593636 0.0314998 0.172868 0.577692 122
0 0.990311 0.677034 0.0193788 0.229502 0.115873 75
2 0.392233 0.539813 0.0389533 0.0487665 0.696292 2
0 0.119376 0.613023 0.0271872 0.114366 0.574588 80
0 0.116372 0.616725 0.0253672 0.110253 0.565227 91
9 0.79273 0.450071 0.118292 0.416427 0.89142 93
2 0.539669 0.688355 0.200604 0.233552 0.940168 1
2 0.577315 0.547971 0.0652668 0.0694962 0.67093 109
0 0.990695 0.690491 0.0186092 0.225512 0.121092 115
2 0.497499 0.49332 0.0281153 0.038531 0.569158 116
2 0.390559 0.535712 0.0427257 0.0579423 0.106698 113
0 0.0344738 0.619632 0.0256672 0.107228 0.637612 117
0 0.960328 0.596598 0.0373413 0.181256 0.712504 119
2 0.581721 0.547042 0.0586493 0.0650603 0.660817 121
0 0.959461 0.593636 0.0314998 0.172868 0.577692 122
0 0.990311 0.677034 0.0193788 0.229502 0.115873 75
