0 0.0980438 0.686079 0.024481 0.137455 0.191289 80
0 0.0773596 0.696092 0.0298877 0.156842 0.618968 91
2 0.599892 0.524154 0.038833 0.0544946 0.597365 116
0 0.769253 0.665307 0.0338715 0.171 0.657777 129
2 0.49711 0.524615 0.0309107 0.0425766 0.723867 2
0 0.845053 0.637604 0.0549739 0.208933 0.630728 131
0 0.767331 0.663866 0.0370838 0.179526 0.135609 133
2 0.596907 0.522419 0.0461854 0.0580797 0.788155 134
0 0.725189 0.623506 0.0322491 0.189399 0.24987 109
2 0.496526 0.525125 0.0339969 0.0467898 0.12467 136
0 0.84749 0.641571 0.0502978 0.192515 0.530624 138
