2 0.819654 0.684138 0.212412 0.242983 0.895529 220
2 0.573406 0.552304 0.0720163 0.0780988 0.791764 253
0 0.17137 0.572703 0.0216887 0.129949 0.376064 254
0 0.169856 0.565688 0.0238114 0.143589 0.29386 255
2 0.324399 0.465436 0.0263495 0.0376224 0.611132 261
2 0.51166 0.524395 0.0628631 0.0681569 0.748703 236
0 0.835737 0.55165 0.0249575 0.0550849 0.247692 265
2 0.281679 0.483424 0.033831 0.0611332 0.705046 210
2 0.28267 0.482726 0.0363839 0.056878 0.33251 275
