2 0.250725 0.580794 0.0552886 0.0744689 0.57571 2
2 0.311939 0.504589 0.0243806 0.035255 0.436432 42
2 0.443773 0.601122 0.120503 0.118987 0.861996 77
0 0.0716874 0.588034 0.0199696 0.0890718 0.56651 80
0 0.924645 0.573083 0.0283499 0.11534 0.612819 85
1 0.922899 0.577455 0.0311693 0.116821 0.143062 87
0 0.0733412 0.587343 0.0234846 0.0903681 0.276574 91
9 0.484528 0.463623 0.0307092 0.133639 0.26488 93
3 0.921578 0.582924 0.0344471 0.108805 0.238829 96
0 0.719013 0.57175 0.0250849 0.127814 0.816596 75
2 0.283359 0.725563 0.154527 0.250685 0.857719 1
2 0.436435 0.59782 0.106236 0.122651 0.598595 98
2 0.250725 0.580794 0.0552886 0.0744689 0.57571 2
2 0.311939 0.504589 0.0243806 0.035255 0.436432 42
2 0.443773 0.601122 0.120503 0.118987 0.861996 77
0 0.0716874 0.588034 0.0199696 0.0890718 0.56651 80
0 0.924645 0.573083 0.0283499 0.11534 0.612819 85
1 0.922899 0.577455 0.0311693 0.116821 0.143062 87
0 0.0733412 0.587343 0.0234846 0.0903681 0.276574 91
9 0.484528 0.463623 0.0307092 0.133639 0.26488 93
3 0.921578 0.582924 0.0344471 0.108805 0.238829 96
0 0.719013 0.57175 0.0250849 0.127814 0.816596 75
2 0.283359 0.725563 0.154527 0.250685 0.857719 1
2 0.436435 0.59782 0.106236 0.122651 0.598595 98
