0 0.0858178 0.69641 0.0261205 0.145602 0.494253 80
0 0.0626204 0.707386 0.0304539 0.158365 0.550232 91
2 0.604053 0.530554 0.0416235 0.0536184 0.626234 116
0 0.772034 0.689927 0.0436553 0.180648 0.598054 129
2 0.499533 0.52534 0.0298279 0.0427457 0.684434 2
0 0.845271 0.657115 0.0467707 0.192233 0.654328 131
0 0.771288 0.683468 0.0479984 0.185484 0.659166 133
2 0.600722 0.5275 0.0475173 0.0589684 0.661224 134
0 0.726867 0.620597 0.0458612 0.219908 0.528177 109
2 0.498599 0.5246 0.0303985 0.0375151 0.615655 136
0 0.846754 0.654145 0.0435186 0.188165 0.311209 138
2 0.605378 0.5339 0.0390432 0.0499814 0.742414 139
2 0.588999 0.513588 0.0255548 0.0377514 0.468415 140
