2 0.612759 0.581111 0.0703743 0.124533 0.700201 1
2 0.525565 0.559456 0.0488623 0.0685325 0.827741 2
0 0.898497 0.629515 0.02955 0.132184 0.821672 7
0 0.953685 0.627455 0.0336466 0.139501 0.85604 18
0 0.249595 0.560596 0.020907 0.101867 0.585394 19
0 0.759601 0.549855 0.02128 0.106267 0.782354 5
0 0.26961 0.559207 0.021464 0.105065 0.702913 23
2 0.612759 0.581111 0.0703743 0.124533 0.700201 1
2 0.525565 0.559456 0.0488623 0.0685325 0.827741 2
0 0.898497 0.629515 0.02955 0.132184 0.821672 7
0 0.953685 0.627455 0.0336466 0.139501 0.85604 18
0 0.249595 0.560596 0.020907 0.101867 0.585394 19
0 0.759601 0.549855 0.02128 0.106267 0.782354 5
0 0.26961 0.559207 0.021464 0.105065 0.702913 23
