2 0.513973 0.477922 0.0293207 0.0477997 0.302718 261
2 0.471413 0.488273 0.0331427 0.0580756 0.51311 210
2 0.515238 0.483309 0.0268178 0.0382295 0.447587 280
2 0.95571 0.622927 0.0755389 0.0784939 0.468459 283
2 0.892282 0.679744 0.132713 0.149027 0.876803 279
0 0.547911 0.646988 0.0518271 0.160605 0.629388 255
2 0.799848 0.621714 0.0817439 0.10323 0.296835 236
2 0.470727 0.488091 0.0295658 0.0523962 0.659264 290
2 0.957441 0.615508 0.0679672 0.0719527 0.604842 292
0 0.552484 0.644224 0.041399 0.154815 0.515877 254
0 0.304396 0.521745 0.0190494 0.092519 0.728602 294
2 0.793047 0.622351 0.0944285 0.110219 0.758295 295
