2 0.578329 0.504608 0.0306327 0.0438373 0.70015 261
2 0.530634 0.502422 0.0270994 0.0516949 0.653984 210
2 0.577977 0.500716 0.0307823 0.0478403 0.522639 280
2 0.530219 0.506012 0.0289288 0.0540639 0.614741 290
0 0.913089 0.753045 0.0733236 0.28697 0.777527 254
0 0.328477 0.578355 0.0246384 0.115043 0.706579 294
2 0.938786 0.677617 0.122428 0.1438 0.831204 236
0 0.914749 0.773338 0.0728884 0.251636 0.788905 255
0 0.441484 0.510909 0.0150941 0.054594 0.524293 301
0 0.327065 0.579347 0.0248117 0.116191 0.171639 302
