2 0.518979 0.588823 0.0674877 0.0943694 0.851945 2
0 0.164604 0.561623 0.0301038 0.141129 0.667913 19
0 0.876675 0.612777 0.0335631 0.156998 0.775723 5
0 0.19196 0.569002 0.0251376 0.12781 0.674796 23
0 0.902454 0.539817 0.0190801 0.0874213 0.439082 12
0 0.901682 0.545088 0.0221912 0.0906343 0.619738 32
0 0.19381 0.568146 0.0244175 0.130254 0.42786 35
0 0.166529 0.568261 0.0264374 0.130693 0.349984 36
2 0.550287 0.514205 0.058271 0.0528072 0.516589 42
9 0.310568 0.427595 0.0133459 0.0499528 0.205626 44
9 0.276061 0.427317 0.0145181 0.0528683 0.174514 45
0 0.276385 0.552784 0.01698 0.0864751 0.354964 46
2 0.64387 0.650792 0.106156 0.200805 0.866291 1
2 0.518979 0.588823 0.0674877 0.0943694 0.851945 2
0 0.164604 0.561623 0.0301038 0.141129 0.667913 19
0 0.876675 0.612777 0.0335631 0.156998 0.775723 5
0 0.19196 0.569002 0.0251376 0.12781 0.674796 23
0 0.902454 0.539817 0.0190801 0.0874213 0.439082 12
0 0.901682 0.545088 0.0221912 0.0906343 0.619738 32
0 0.19381 0.568146 0.0244175 0.130254 0.42786 35
0 0.166529 0.568261 0.0264374 0.130693 0.349984 36
2 0.550287 0.514205 0.058271 0.0528072 0.516589 42
9 0.310568 0.427595 0.0133459 0.0499528 0.205626 44
9 0.276061 0.427317 0.0145181 0.0528683 0.174514 45
0 0.276385 0.552784 0.01698 0.0864751 0.354964 46
2 0.64387 0.650792 0.106156 0.200805 0.866291 1
