2 0.56286 0.555602 0.102756 0.118629 0.87681 220
2 0.858934 0.824728 0.282132 0.341714 0.882082 224
2 0.844529 0.65672 0.190286 0.13382 0.600463 229
2 0.234937 0.479321 0.0429316 0.0703566 0.50032 210
2 0.238147 0.481206 0.0387301 0.0686555 0.668281 218
2 0.404598 0.488801 0.0545665 0.055204 0.764032 236
2 0.48643 0.517407 0.0562703 0.0642416 0.769962 253
0 0.153778 0.531566 0.0275839 0.125606 0.616166 254
0 0.152364 0.537782 0.0251503 0.117164 0.665639 255
2 0.267141 0.45022 0.0288797 0.0394363 0.566759 261
