2 0.643398 0.618905 0.0956372 0.172089 0.810242 1
2 0.530693 0.577236 0.0616066 0.0874141 0.889754 2
0 0.201467 0.569705 0.0237963 0.117623 0.565069 19
0 0.83889 0.577789 0.0286397 0.142327 0.675438 5
0 0.228753 0.566993 0.0210844 0.126133 0.159164 23
0 0.880111 0.520401 0.0194937 0.100471 0.584239 12
0 0.838376 0.57422 0.0304562 0.152204 0.765655 29
0 0.880489 0.521954 0.022316 0.0998587 0.636767 32
0 0.225748 0.567325 0.0241184 0.12319 0.571393 35
0 0.200071 0.563019 0.0249012 0.127487 0.620298 36
0 0.837483 0.57559 0.0271235 0.14672 0.546509 38
2 0.643398 0.618905 0.0956372 0.172089 0.810242 1
2 0.530693 0.577236 0.0616066 0.0874141 0.889754 2
0 0.201467 0.569705 0.0237963 0.117623 0.565069 19
0 0.83889 0.577789 0.0286397 0.142327 0.675438 5
0 0.228753 0.566993 0.0210844 0.126133 0.159164 23
0 0.880111 0.520401 0.0194937 0.100471 0.584239 12
0 0.838376 0.57422 0.0304562 0.152204 0.765655 29
0 0.880489 0.521954 0.022316 0.0998587 0.636767 32
0 0.225748 0.567325 0.0241184 0.12319 0.571393 35
0 0.200071 0.563019 0.0249012 0.127487 0.620298 36
0 0.837483 0.57559 0.0271235 0.14672 0.546509 38
