2 0.795299 0.685687 0.200939 0.234097 0.910212 220
2 0.564554 0.558336 0.0724545 0.0802702 0.83072 253
0 0.165275 0.587963 0.0237737 0.114437 0.50229 254
0 0.164322 0.574075 0.0256893 0.141631 0.601283 255
2 0.318334 0.477393 0.0266829 0.0332678 0.550099 261
2 0.502388 0.531621 0.0625428 0.0703479 0.781061 236
0 0.819411 0.557523 0.0244147 0.0585544 0.143119 265
2 0.275209 0.492392 0.0335438 0.0583295 0.763982 210
2 0.276229 0.492133 0.0367091 0.0641816 0.514729 275
