0 0.418799 0.69839 0.0486165 0.226186 0.628069 164
0 0.423867 0.699449 0.0459351 0.22693 0.708817 165
0 0.320295 0.797022 0.0524469 0.298994 0.77974 170
2 0.0861924 0.774634 0.172385 0.244974 0.883545 177
0 0.854169 0.848121 0.102525 0.296725 0.88843 181
0 0.214845 0.590823 0.031649 0.136895 0.556774 183
0 0.158208 0.607196 0.0265507 0.154743 0.599695 185
0 0.376944 0.690948 0.0362688 0.199101 0.568389 186
