2 0.412295 0.538617 0.0351708 0.045112 0.796164 2
0 0.125769 0.623451 0.0307637 0.122031 0.476119 80
0 0.12398 0.622567 0.02416 0.11598 0.624077 91
9 0.915694 0.446914 0.156652 0.523447 0.876278 93
2 0.607655 0.684951 0.212947 0.238478 0.916298 1
2 0.608488 0.546611 0.0747095 0.0589129 0.148664 109
2 0.515805 0.494602 0.0291907 0.0394677 0.701177 116
2 0.413121 0.538489 0.0388569 0.0505338 0.280089 113
0 0.036668 0.631549 0.0250134 0.106294 0.524738 117
2 0.611349 0.545898 0.0589706 0.0536356 0.124923 121
2 0.412295 0.538617 0.0351708 0.045112 0.796164 2
0 0.125769 0.623451 0.0307637 0.122031 0.476119 80
0 0.12398 0.622567 0.02416 0.11598 0.624077 91
9 0.915694 0.446914 0.156652 0.523447 0.876278 93
2 0.607655 0.684951 0.212947 0.238478 0.916298 1
2 0.608488 0.546611 0.0747095 0.0589129 0.148664 109
2 0.515805 0.494602 0.0291907 0.0394677 0.701177 116
2 0.413121 0.538489 0.0388569 0.0505338 0.280089 113
0 0.036668 0.631549 0.0250134 0.106294 0.524738 117
2 0.611349 0.545898 0.0589706 0.0536356 0.124923 121
