2 0.341375 0.599652 0.0731391 0.0995681 0.799474 2
2 0.38137 0.505315 0.0291642 0.0434859 0.649571 42
9 0.0175549 0.452825 0.025625 0.0875185 0.653186 44
2 0.474055 0.763832 0.155778 0.304545 0.865149 1
9 0.0174865 0.454262 0.0309201 0.0932613 0.226922 60
2 0.455598 0.488168 0.0214588 0.0277031 0.435141 74
0 0.799067 0.569849 0.029153 0.100515 0.616652 75
2 0.472754 0.595811 0.0878245 0.067583 0.67878 77
2 0.47317 0.590259 0.0876568 0.0621473 0.632786 78
0 0.882951 0.571171 0.0196701 0.103775 0.650936 79
2 0.341375 0.599652 0.0731391 0.0995681 0.799474 2
2 0.38137 0.505315 0.0291642 0.0434859 0.649571 42
9 0.0175549 0.452825 0.025625 0.0875185 0.653186 44
2 0.474055 0.763832 0.155778 0.304545 0.865149 1
9 0.0174865 0.454262 0.0309201 0.0932613 0.226922 60
2 0.455598 0.488168 0.0214588 0.0277031 0.435141 74
0 0.799067 0.569849 0.029153 0.100515 0.616652 75
2 0.472754 0.595811 0.0878245 0.067583 0.67878 77
2 0.47317 0.590259 0.0876568 0.0621473 0.632786 78
0 0.882951 0.571171 0.0196701 0.103775 0.650936 79
