2 0.251675 0.579901 0.0546749 0.0745214 0.541593 2
2 0.31393 0.504525 0.0236984 0.0341257 0.299678 42
2 0.454176 0.599683 0.123413 0.118214 0.867544 77
0 0.0695229 0.588724 0.0199984 0.0903139 0.605546 80
0 0.933926 0.571043 0.0267781 0.116772 0.668102 85
0 0.935031 0.572225 0.0263654 0.117974 0.585976 87
0 0.0704199 0.588048 0.0192917 0.0909554 0.523782 91
9 0.483545 0.458778 0.0358317 0.143376 0.636751 93
0 0.934922 0.571384 0.0250205 0.116563 0.560152 96
0 0.721481 0.572145 0.0259335 0.129108 0.841842 75
2 0.282665 0.724628 0.152743 0.248941 0.870569 1
2 0.251675 0.579901 0.0546749 0.0745214 0.541593 2
2 0.31393 0.504525 0.0236984 0.0341257 0.299678 42
2 0.454176 0.599683 0.123413 0.118214 0.867544 77
0 0.0695229 0.588724 0.0199984 0.0903139 0.605546 80
0 0.933926 0.571043 0.0267781 0.116772 0.668102 85
0 0.935031 0.572225 0.0263654 0.117974 0.585976 87
0 0.0704199 0.588048 0.0192917 0.0909554 0.523782 91
9 0.483545 0.458778 0.0358317 0.143376 0.636751 93
0 0.934922 0.571384 0.0250205 0.116563 0.560152 96
0 0.721481 0.572145 0.0259335 0.129108 0.841842 75
2 0.282665 0.724628 0.152743 0.248941 0.870569 1
