2 0.359969 0.545998 0.0433562 0.056311 0.713172 2
2 0.92234 0.572152 0.15532 0.116408 0.586881 77
0 0.100318 0.60155 0.019318 0.103006 0.23618 80
0 0.101848 0.600748 0.0212506 0.10533 0.509062 91
9 0.673673 0.451647 0.0835866 0.302947 0.9009 93
2 0.446733 0.689875 0.183489 0.23675 0.934877 1
2 0.528865 0.543139 0.0524021 0.0627318 0.674315 109
0 0.892365 0.649976 0.0416784 0.207082 0.659502 115
2 0.467803 0.492155 0.0263239 0.0380528 0.540675 116
2 0.359496 0.545795 0.039963 0.0509291 0.769354 113
2 0.359969 0.545998 0.0433562 0.056311 0.713172 2
2 0.92234 0.572152 0.15532 0.116408 0.586881 77
0 0.100318 0.60155 0.019318 0.103006 0.23618 80
0 0.101848 0.600748 0.0212506 0.10533 0.509062 91
9 0.673673 0.451647 0.0835866 0.302947 0.9009 93
2 0.446733 0.689875 0.183489 0.23675 0.934877 1
2 0.528865 0.543139 0.0524021 0.0627318 0.674315 109
0 0.892365 0.649976 0.0416784 0.207082 0.659502 115
2 0.467803 0.492155 0.0263239 0.0380528 0.540675 116
2 0.359496 0.545795 0.039963 0.0509291 0.769354 113
