2 0.282051 0.583262 0.0660351 0.0911519 0.842164 2
2 0.332366 0.50064 0.0275075 0.0344218 0.604398 42
2 0.37087 0.745172 0.142523 0.286024 0.907488 1
2 0.412411 0.494844 0.0245797 0.0330388 0.358106 74
0 0.731892 0.56032 0.0264017 0.11489 0.710834 75
2 0.399541 0.596961 0.0833728 0.0960049 0.662139 77
2 0.400867 0.607221 0.0851627 0.119444 0.586334 78
0 0.155359 0.541801 0.0164216 0.0764829 0.62832 80
0 0.731785 0.559324 0.0224979 0.115059 0.691113 83
2 0.282051 0.583262 0.0660351 0.0911519 0.842164 2
2 0.332366 0.50064 0.0275075 0.0344218 0.604398 42
2 0.37087 0.745172 0.142523 0.286024 0.907488 1
2 0.412411 0.494844 0.0245797 0.0330388 0.358106 74
0 0.731892 0.56032 0.0264017 0.11489 0.710834 75
2 0.399541 0.596961 0.0833728 0.0960049 0.662139 77
2 0.400867 0.607221 0.0851627 0.119444 0.586334 78
0 0.155359 0.541801 0.0164216 0.0764829 0.62832 80
0 0.731785 0.559324 0.0224979 0.115059 0.691113 83
