0 0.117977 0.653596 0.026402 0.143676 0.519152 80
0 0.0990993 0.65812 0.0280728 0.144576 0.520847 91
2 0.592153 0.497401 0.0409012 0.0521673 0.734398 116
0 0.00566313 0.671712 0.0113263 0.124053 0.237911 117
0 0.765781 0.621104 0.0454265 0.167566 0.625271 129
2 0.491166 0.507535 0.0299585 0.0439822 0.695343 2
0 0.835249 0.589482 0.0442947 0.202233 0.32244 131
