2 0.636903 0.615019 0.0868263 0.16316 0.770011 1
2 0.532165 0.577545 0.0570873 0.076771 0.855706 2
0 0.220105 0.560388 0.0239355 0.123267 0.573087 19
0 0.813694 0.583086 0.0249017 0.128354 0.614541 5
0 0.241526 0.568647 0.0226053 0.109501 0.516757 23
0 0.860148 0.535963 0.015671 0.0840004 0.453236 12
0 0.816153 0.583662 0.0266523 0.128688 0.717046 29
0 0.858855 0.53624 0.0158912 0.0816741 0.295755 32
0 0.242555 0.575776 0.0250214 0.10393 0.534514 35
0 0.218872 0.567289 0.0230275 0.111476 0.435282 36
2 0.636903 0.615019 0.0868263 0.16316 0.770011 1
2 0.532165 0.577545 0.0570873 0.076771 0.855706 2
0 0.220105 0.560388 0.0239355 0.123267 0.573087 19
0 0.813694 0.583086 0.0249017 0.128354 0.614541 5
0 0.241526 0.568647 0.0226053 0.109501 0.516757 23
0 0.860148 0.535963 0.015671 0.0840004 0.453236 12
0 0.816153 0.583662 0.0266523 0.128688 0.717046 29
0 0.858855 0.53624 0.0158912 0.0816741 0.295755 32
0 0.242555 0.575776 0.0250214 0.10393 0.534514 35
0 0.218872 0.567289 0.0230275 0.111476 0.435282 36
