0 0.109785 0.583201 0.022513 0.122392 0.126784 156
0 0.482824 0.688961 0.0473129 0.220521 0.493234 164
0 0.482889 0.694347 0.0419011 0.21226 0.726762 165
0 0.400455 0.774963 0.0558382 0.258911 0.706643 170
9 0.685314 0.407898 0.0792706 0.310538 0.641666 172
2 0.0326516 0.645711 0.0653032 0.142749 0.710425 134
2 0.139671 0.760056 0.222457 0.227163 0.939715 177
2 0.0733408 0.508806 0.0438759 0.0840839 0.16149 180
0 0.924683 0.857784 0.0989007 0.28235 0.885565 181
2 0.0348187 0.64228 0.0696374 0.15151 0.769655 182
0 0.272067 0.583831 0.0249596 0.13668 0.636781 183
