2 0.603489 0.569208 0.0658597 0.114587 0.817001 1
2 0.52359 0.548072 0.0472938 0.0634542 0.744949 2
0 0.907483 0.602712 0.0313425 0.12547 0.74966 3
0 0.744445 0.539689 0.0185901 0.0955098 0.592838 5
0 0.856511 0.604502 0.0271107 0.118429 0.738796 7
0 0.782324 0.514033 0.0171799 0.0704288 0.125726 9
0 0.802046 0.521138 0.0167547 0.0655366 0.145276 12
0 0.745617 0.539087 0.02006 0.10238 0.552985 14
2 0.603489 0.569208 0.0658597 0.114587 0.817001 1
2 0.52359 0.548072 0.0472938 0.0634542 0.744949 2
0 0.907483 0.602712 0.0313425 0.12547 0.74966 3
0 0.744445 0.539689 0.0185901 0.0955098 0.592838 5
0 0.856511 0.604502 0.0271107 0.118429 0.738796 7
0 0.782324 0.514033 0.0171799 0.0704288 0.125726 9
0 0.802046 0.521138 0.0167547 0.0655366 0.145276 12
0 0.745617 0.539087 0.02006 0.10238 0.552985 14
