2 0.27102 0.584458 0.06484 0.0872637 0.821638 2
2 0.32353 0.502254 0.0261124 0.0357231 0.438122 42
2 0.345586 0.738227 0.1388 0.272047 0.91505 1
2 0.403012 0.497314 0.0253991 0.034656 0.450118 74
2 0.386418 0.604519 0.0823282 0.112906 0.834577 77
2 0.388933 0.60897 0.0900909 0.119435 0.63919 78
0 0.137673 0.550243 0.0188587 0.0806023 0.696282 80
0 0.721789 0.557846 0.0244336 0.122691 0.818623 84
0 0.84726 0.56258 0.0286384 0.119601 0.592549 85
2 0.27102 0.584458 0.06484 0.0872637 0.821638 2
2 0.32353 0.502254 0.0261124 0.0357231 0.438122 42
2 0.345586 0.738227 0.1388 0.272047 0.91505 1
2 0.403012 0.497314 0.0253991 0.034656 0.450118 74
2 0.386418 0.604519 0.0823282 0.112906 0.834577 77
2 0.388933 0.60897 0.0900909 0.119435 0.63919 78
0 0.137673 0.550243 0.0188587 0.0806023 0.696282 80
0 0.721789 0.557846 0.0244336 0.122691 0.818623 84
0 0.84726 0.56258 0.0286384 0.119601 0.592549 85
