2 0.435825 0.613476 0.0768251 0.105703 0.82049 2
0 0.0143626 0.608144 0.0287253 0.153501 0.449916 19
0 0.928807 0.698969 0.0477057 0.209555 0.822878 5
0 0.0432882 0.605402 0.0328722 0.156223 0.406065 23
2 0.457069 0.512899 0.0344743 0.0500439 0.670692 42
9 0.185406 0.440777 0.0190314 0.0720037 0.626143 44
0 0.128221 0.59033 0.0265992 0.138858 0.128109 46
2 0.584765 0.736102 0.144901 0.283828 0.805347 1
0 0.121485 0.597297 0.0275924 0.121805 0.551593 49
0 0.0432319 0.609359 0.0304393 0.148003 0.676085 52
2 0.45718 0.508929 0.0357157 0.0577266 0.384344 55
0 0.123935 0.595945 0.0275052 0.125456 0.570025 56
0 0.102178 0.595466 0.0202178 0.111701 0.416627 57
0 0.0823033 0.599769 0.0177716 0.0931728 0.535075 59
9 0.18595 0.437124 0.0200857 0.0686141 0.452006 60
0 0.1591 0.590674 0.0228698 0.138182 0.63721 62
0 0.156553 0.593347 0.0220019 0.132664 0.642628 65
0 0.792886 0.519595 0.0133579 0.0615709 0.205535 66
0 0.183284 0.572726 0.0202672 0.101618 0.694013 67
0 0.0145611 0.608517 0.0268506 0.149669 0.567152 69
2 0.435825 0.613476 0.0768251 0.105703 0.82049 2
0 0.0143626 0.608144 0.0287253 0.153501 0.449916 19
0 0.928807 0.698969 0.0477057 0.209555 0.822878 5
0 0.0432882 0.605402 0.0328722 0.156223 0.406065 23
2 0.457069 0.512899 0.0344743 0.0500439 0.670692 42
9 0.185406 0.440777 0.0190314 0.0720037 0.626143 44
0 0.128221 0.59033 0.0265992 0.138858 0.128109 46
2 0.584765 0.736102 0.144901 0.283828 0.805347 1
0 0.121485 0.597297 0.0275924 0.121805 0.551593 49
0 0.0432319 0.609359 0.0304393 0.148003 0.676085 52
2 0.45718 0.508929 0.0357157 0.0577266 0.384344 55
0 0.123935 0.595945 0.0275052 0.125456 0.570025 56
0 0.102178 0.595466 0.0202178 0.111701 0.416627 57
0 0.0823033 0.599769 0.0177716 0.0931728 0.535075 59
9 0.18595 0.437124 0.0200857 0.0686141 0.452006 60
0 0.1591 0.590674 0.0228698 0.138182 0.63721 62
0 0.156553 0.593347 0.0220019 0.132664 0.642628 65
0 0.792886 0.519595 0.0133579 0.0615709 0.205535 66
0 0.183284 0.572726 0.0202672 0.101618 0.694013 67
0 0.0145611 0.608517 0.0268506 0.149669 0.567152 69
