0 0.101393 0.679001 0.0240845 0.136354 0.151526 80
0 0.0808387 0.692148 0.0302753 0.155642 0.514131 91
2 0.598739 0.520455 0.0402548 0.0557781 0.737449 116
0 0.769017 0.660658 0.0339095 0.167643 0.65674 129
2 0.496472 0.523026 0.0301998 0.0416086 0.769582 2
0 0.843638 0.631872 0.0539706 0.210134 0.580034 131
0 0.768219 0.659104 0.039055 0.173409 0.64798 133
2 0.596266 0.518776 0.0479628 0.0555974 0.546282 134
0 0.724915 0.61843 0.0329437 0.195737 0.388763 109
2 0.496908 0.522996 0.0336352 0.0434128 0.503657 136
0 0.845184 0.624631 0.0487754 0.215398 0.589368 138
