2 0.592297 0.580873 0.116743 0.140111 0.893922 220
2 0.889164 0.72576 0.221671 0.209718 0.915966 229
2 0.416879 0.499856 0.0567146 0.0584607 0.787172 236
2 0.48874 0.526198 0.0614417 0.0664269 0.779593 253
0 0.139136 0.534736 0.0265378 0.129684 0.744316 254
0 0.138638 0.543851 0.02498 0.116721 0.743845 255
2 0.264817 0.451929 0.028474 0.041269 0.541359 261
0 0.988596 0.657996 0.0228071 0.196723 0.279603 246
2 0.938163 0.909444 0.122514 0.175528 0.616172 262
2 0.228621 0.475872 0.0442327 0.0663095 0.426781 263
2 0.231027 0.478754 0.0395864 0.0669473 0.793422 210
2 0.41636 0.495431 0.0567535 0.0572714 0.252977 259
