0 0.70722 0.85772 0.063093 0.282569 0.760543 129
2 0.440814 0.500944 0.026995 0.0346193 0.669661 2
2 0.555056 0.570422 0.0484918 0.085473 0.711093 134
0 0.581521 0.722295 0.0409041 0.23695 0.267689 109
2 0.440996 0.501611 0.024949 0.0309245 0.635402 136
2 0.5577 0.573584 0.0558937 0.0833237 0.6528 139
2 0.526738 0.537615 0.0384192 0.0548344 0.693783 140
2 0.753949 0.66871 0.178261 0.152438 0.88097 141
9 0.616543 0.460901 0.0437879 0.169298 0.733976 143
0 0.579571 0.728992 0.052747 0.242665 0.127007 148
0 0.713396 0.735042 0.0434142 0.138374 0.107144 131
2 0.768769 0.671452 0.149604 0.143106 0.445318 152
0 0.716765 0.735967 0.0435464 0.163278 0.178951 153
0 0.709319 0.855386 0.0709393 0.28585 0.306754 151
2 0.528444 0.53575 0.0387875 0.0568502 0.571029 116
0 0.667987 0.570491 0.0229121 0.116194 0.548791 156
