2 0.269794 0.560255 0.050757 0.0580974 0.29044 2
2 0.330257 0.494877 0.0213858 0.0302814 0.285864 42
2 0.547533 0.586906 0.132587 0.118159 0.653712 77
0 0.0642063 0.58617 0.0210961 0.0965373 0.585953 80
0 0.0657206 0.584277 0.0225425 0.100549 0.494708 91
9 0.505465 0.452312 0.0422283 0.171502 0.667277 93
0 0.750238 0.576926 0.0251729 0.131112 0.746793 75
2 0.28639 0.698108 0.14505 0.242797 0.842403 1
0 0.750413 0.575654 0.0278802 0.137515 0.222773 100
2 0.269794 0.560255 0.050757 0.0580974 0.29044 2
2 0.330257 0.494877 0.0213858 0.0302814 0.285864 42
2 0.547533 0.586906 0.132587 0.118159 0.653712 77
0 0.0642063 0.58617 0.0210961 0.0965373 0.585953 80
0 0.0657206 0.584277 0.0225425 0.100549 0.494708 91
9 0.505465 0.452312 0.0422283 0.171502 0.667277 93
0 0.750238 0.576926 0.0251729 0.131112 0.746793 75
2 0.28639 0.698108 0.14505 0.242797 0.842403 1
0 0.750413 0.575654 0.0278802 0.137515 0.222773 100
