2 0.588667 0.5113 0.0302 0.0457699 0.502921 261
2 0.538754 0.510028 0.0299722 0.0524802 0.524923 210
2 0.588322 0.507695 0.0314314 0.0484782 0.579095 280
2 0.539807 0.508547 0.0280596 0.0508392 0.695136 290
0 0.328283 0.591827 0.0247262 0.120676 0.625213 294
2 0.96085 0.707866 0.0781575 0.148501 0.853083 236
0 0.446681 0.51615 0.0127452 0.0564783 0.522272 301
0 0.326798 0.592384 0.0288027 0.128656 0.749076 302
