0 0.669719 0.725568 0.0371115 0.188866 0.770662 201
0 0.672407 0.730617 0.0336603 0.180831 0.212089 203
0 0.704257 0.571749 0.0271657 0.10257 0.596767 208
0 0.626049 0.718845 0.041658 0.176882 0.734982 198
2 0.819248 0.549553 0.0505916 0.0894459 0.664653 210
0 0.868647 0.801295 0.052003 0.252333 0.676982 211
0 0.667286 0.728658 0.0383256 0.193599 0.585425 212
