0 0.0936184 0.690603 0.0254259 0.14685 0.576022 80
0 0.0722996 0.700983 0.0290971 0.158908 0.481792 91
2 0.601503 0.527204 0.039525 0.0502398 0.523105 116
0 0.772011 0.676677 0.039812 0.173946 0.513777 129
2 0.49782 0.524468 0.0306519 0.0429522 0.742865 2
0 0.848026 0.651381 0.053672 0.192702 0.504656 131
0 0.769059 0.67211 0.0393201 0.178257 0.747383 133
2 0.59844 0.524698 0.0466798 0.0595258 0.760099 134
0 0.732112 0.632649 0.0476032 0.185566 0.261074 109
2 0.497024 0.525418 0.0307512 0.0422561 0.681978 136
0 0.842608 0.654128 0.0382184 0.173815 0.596954 138
2 0.603622 0.530774 0.0353156 0.0473736 0.582668 139
2 0.58887 0.511316 0.0278869 0.04017 0.538558 140
