0 0.125763 0.651783 0.0336418 0.137544 0.525397 80
0 0.123117 0.653921 0.0256803 0.137403 0.591091 91
2 0.949956 0.700497 0.100088 0.232334 0.863501 1
2 0.581924 0.511447 0.0359769 0.0470675 0.790546 116
2 0.481643 0.531151 0.030249 0.0409481 0.707742 113
0 0.0228434 0.662101 0.0300036 0.122894 0.573679 117
2 0.711302 0.583049 0.0585887 0.0922894 0.511589 109
0 0.753085 0.628434 0.043144 0.131908 0.165492 129
2 0.481472 0.528741 0.0317899 0.0454 0.579874 2
2 0.583662 0.512151 0.0434972 0.0471962 0.467042 130
0 0.823875 0.61375 0.0303382 0.139872 0.701314 131
0 0.125763 0.651783 0.0336418 0.137544 0.525397 80
0 0.123117 0.653921 0.0256803 0.137403 0.591091 91
2 0.949956 0.700497 0.100088 0.232334 0.863501 1
2 0.581924 0.511447 0.0359769 0.0470675 0.790546 116
2 0.481643 0.531151 0.030249 0.0409481 0.707742 113
0 0.0228434 0.662101 0.0300036 0.122894 0.573679 117
2 0.711302 0.583049 0.0585887 0.0922894 0.511589 109
0 0.753085 0.628434 0.043144 0.131908 0.165492 129
2 0.481472 0.528741 0.0317899 0.0454 0.579874 2
2 0.583662 0.512151 0.0434972 0.0471962 0.467042 130
0 0.823875 0.61375 0.0303382 0.139872 0.701314 131
