2 0.25246 0.579412 0.0546002 0.0723932 0.417903 2
2 0.314836 0.504077 0.0233938 0.0339136 0.514637 42
2 0.46458 0.598676 0.128322 0.115672 0.826352 77
0 0.0680529 0.590099 0.0208684 0.0905301 0.604098 80
0 0.94197 0.576232 0.0289066 0.110454 0.237376 85
0 0.941605 0.569754 0.0304102 0.125342 0.707103 87
0 0.0725128 0.58746 0.0244811 0.0937382 0.152927 91
9 0.485031 0.460084 0.0357794 0.142977 0.665286 93
0 0.944389 0.570728 0.0281568 0.121947 0.64262 96
0 0.724186 0.572688 0.0261964 0.127276 0.7915 75
2 0.281114 0.722314 0.153239 0.250033 0.880906 1
2 0.25246 0.579412 0.0546002 0.0723932 0.417903 2
2 0.314836 0.504077 0.0233938 0.0339136 0.514637 42
2 0.46458 0.598676 0.128322 0.115672 0.826352 77
0 0.0680529 0.590099 0.0208684 0.0905301 0.604098 80
0 0.94197 0.576232 0.0289066 0.110454 0.237376 85
0 0.941605 0.569754 0.0304102 0.125342 0.707103 87
0 0.0725128 0.58746 0.0244811 0.0937382 0.152927 91
9 0.485031 0.460084 0.0357794 0.142977 0.665286 93
0 0.944389 0.570728 0.0281568 0.121947 0.64262 96
0 0.724186 0.572688 0.0261964 0.127276 0.7915 75
2 0.281114 0.722314 0.153239 0.250033 0.880906 1
