2 0.629067 0.600385 0.0818923 0.142646 0.757811 1
2 0.53073 0.566988 0.0576293 0.077567 0.859618 2
0 0.989738 0.676142 0.0205239 0.166414 0.600741 7
0 0.226085 0.559721 0.0209146 0.120586 0.546493 19
0 0.798191 0.566232 0.0238091 0.12022 0.767826 5
0 0.248842 0.551801 0.0257502 0.130103 0.641297 23
0 0.844258 0.518606 0.0176641 0.0959204 0.523051 12
0 0.796639 0.566244 0.022087 0.109262 0.211591 29
0 0.843234 0.518842 0.0212898 0.0976972 0.539091 32
2 0.528982 0.571757 0.0541198 0.0712156 0.688539 34
2 0.629067 0.600385 0.0818923 0.142646 0.757811 1
2 0.53073 0.566988 0.0576293 0.077567 0.859618 2
0 0.989738 0.676142 0.0205239 0.166414 0.600741 7
0 0.226085 0.559721 0.0209146 0.120586 0.546493 19
0 0.798191 0.566232 0.0238091 0.12022 0.767826 5
0 0.248842 0.551801 0.0257502 0.130103 0.641297 23
0 0.844258 0.518606 0.0176641 0.0959204 0.523051 12
0 0.796639 0.566244 0.022087 0.109262 0.211591 29
0 0.843234 0.518842 0.0212898 0.0976972 0.539091 32
2 0.528982 0.571757 0.0541198 0.0712156 0.688539 34
