2 0.63311 0.609657 0.0846055 0.157798 0.809647 1
2 0.531545 0.574463 0.0569981 0.0778393 0.825714 2
0 0.222213 0.556244 0.0244096 0.130711 0.593541 19
0 0.806966 0.578932 0.0233061 0.126176 0.699575 5
0 0.244501 0.559826 0.0218991 0.126254 0.522546 23
0 0.852646 0.531041 0.016922 0.087172 0.581967 12
0 0.805549 0.577267 0.0243562 0.123032 0.46516 29
0 0.851587 0.526603 0.0225396 0.0975115 0.219896 32
0 0.245539 0.576486 0.0218493 0.0968073 0.585666 35
0 0.222043 0.562221 0.0237661 0.12499 0.480929 36
2 0.63311 0.609657 0.0846055 0.157798 0.809647 1
2 0.531545 0.574463 0.0569981 0.0778393 0.825714 2
0 0.222213 0.556244 0.0244096 0.130711 0.593541 19
0 0.806966 0.578932 0.0233061 0.126176 0.699575 5
0 0.244501 0.559826 0.0218991 0.126254 0.522546 23
0 0.852646 0.531041 0.016922 0.087172 0.581967 12
0 0.805549 0.577267 0.0243562 0.123032 0.46516 29
0 0.851587 0.526603 0.0225396 0.0975115 0.219896 32
0 0.245539 0.576486 0.0218493 0.0968073 0.585666 35
0 0.222043 0.562221 0.0237661 0.12499 0.480929 36
