2 0.539813 0.543473 0.0923447 0.109439 0.842904 220
2 0.758851 0.731361 0.229898 0.231762 0.909528 224
2 0.816267 0.65806 0.168239 0.169583 0.87913 229
2 0.245414 0.494645 0.0364846 0.0632406 0.857481 210
2 0.246035 0.496821 0.0385301 0.0686133 0.721078 218
0 0.00984284 0.697709 0.0196857 0.197101 0.2448 208
1 0.0607303 0.837057 0.0585554 0.180724 0.543113 241
0 0.950291 0.618559 0.0301388 0.162243 0.698198 246
1 0.0544273 0.837155 0.0557893 0.178176 0.510615 250
2 0.39293 0.487977 0.0465426 0.0538892 0.741698 236
0 0.948673 0.618774 0.0382456 0.169681 0.708777 251
2 0.480493 0.517163 0.0449593 0.0622052 0.710709 253
0 0.163543 0.550386 0.0242585 0.0990387 0.707286 254
0 0.165103 0.549716 0.0253254 0.0949193 0.191151 255
