2 0.369438 0.604849 0.0764767 0.103672 0.818886 2
0 0.977562 0.768892 0.0448752 0.288002 0.6229 5
2 0.404197 0.507286 0.0298989 0.0432312 0.593759 42
9 0.0731694 0.443173 0.0262705 0.0749048 0.13847 44
2 0.513179 0.758722 0.158236 0.291807 0.881897 1
0 0.0130355 0.628688 0.0260709 0.189256 0.556002 62
0 0.0129435 0.619817 0.0255259 0.180661 0.100225 65
0 0.0748598 0.58782 0.0226491 0.139163 0.477276 67
9 0.0733722 0.446776 0.0250119 0.0791232 0.78709 60
2 0.477084 0.484283 0.0198657 0.0300054 0.64237 74
0 0.825271 0.56182 0.0182554 0.103059 0.693529 75
0 0.979321 0.776064 0.0409913 0.279671 0.753312 76
2 0.504743 0.588808 0.0877971 0.067606 0.544821 77
2 0.369438 0.604849 0.0764767 0.103672 0.818886 2
0 0.977562 0.768892 0.0448752 0.288002 0.6229 5
2 0.404197 0.507286 0.0298989 0.0432312 0.593759 42
9 0.0731694 0.443173 0.0262705 0.0749048 0.13847 44
2 0.513179 0.758722 0.158236 0.291807 0.881897 1
0 0.0130355 0.628688 0.0260709 0.189256 0.556002 62
0 0.0129435 0.619817 0.0255259 0.180661 0.100225 65
0 0.0748598 0.58782 0.0226491 0.139163 0.477276 67
9 0.0733722 0.446776 0.0250119 0.0791232 0.78709 60
2 0.477084 0.484283 0.0198657 0.0300054 0.64237 74
0 0.825271 0.56182 0.0182554 0.103059 0.693529 75
0 0.979321 0.776064 0.0409913 0.279671 0.753312 76
2 0.504743 0.588808 0.0877971 0.067606 0.544821 77
