2 0.552259 0.550253 0.0980342 0.115994 0.857016 220
2 0.821596 0.781306 0.280373 0.285173 0.827025 224
2 0.831218 0.668227 0.182753 0.17881 0.824617 229
2 0.240594 0.487616 0.0357811 0.0655213 0.584044 210
2 0.240207 0.486989 0.0391598 0.0716008 0.722757 218
1 0.0254133 0.870968 0.0508266 0.192399 0.617194 241
1 0.0225336 0.86858 0.0450672 0.192198 0.596837 250
2 0.399254 0.488847 0.050738 0.0557893 0.79205 236
2 0.486661 0.517331 0.0563446 0.0641107 0.747964 253
0 0.156956 0.537624 0.026819 0.12443 0.373397 254
0 0.157269 0.543876 0.0248682 0.113028 0.626769 255
2 0.397691 0.484831 0.0501373 0.0554655 0.153184 259
