0 0.0235235 0.743431 0.0298421 0.170837 0.555298 80
0 0.00899384 0.75141 0.0179877 0.171218 0.393815 91
0 0.784389 0.763314 0.0479705 0.217323 0.763236 129
2 0.503426 0.538899 0.0292997 0.036654 0.726633 2
2 0.612473 0.565387 0.0452152 0.0583853 0.515341 134
0 0.704988 0.677975 0.0264987 0.155788 0.490158 109
2 0.504247 0.542394 0.0271531 0.0347119 0.668378 136
0 0.841124 0.730469 0.0506852 0.219586 0.727194 138
2 0.614432 0.568844 0.0438644 0.0570717 0.755708 139
2 0.592956 0.543747 0.0309608 0.041744 0.595587 140
2 0.775483 0.649264 0.118948 0.120045 0.153269 141
9 0.685173 0.484738 0.035309 0.127526 0.681112 143
2 0.787172 0.652884 0.0977829 0.118638 0.610251 144
0 0.73047 0.693221 0.0343768 0.197495 0.555728 145
0 0.725026 0.69465 0.0446973 0.209432 0.585232 148
