2 0.255712 0.588319 0.0613113 0.0816667 0.821611 2
2 0.312718 0.503874 0.0244685 0.0366088 0.497095 42
2 0.391966 0.50907 0.0201045 0.0335673 0.277662 74
2 0.383572 0.604971 0.0959407 0.117817 0.862886 77
0 0.110567 0.565125 0.019901 0.0818775 0.561393 80
0 0.710141 0.564161 0.0234709 0.115014 0.759239 84
0 0.857352 0.568975 0.0267368 0.116464 0.596191 85
0 0.708604 0.561435 0.0253951 0.12188 0.612978 75
0 0.858439 0.571703 0.0237204 0.11092 0.564485 87
2 0.31135 0.727093 0.139304 0.25571 0.888235 1
2 0.255712 0.588319 0.0613113 0.0816667 0.821611 2
2 0.312718 0.503874 0.0244685 0.0366088 0.497095 42
2 0.391966 0.50907 0.0201045 0.0335673 0.277662 74
2 0.383572 0.604971 0.0959407 0.117817 0.862886 77
0 0.110567 0.565125 0.019901 0.0818775 0.561393 80
0 0.710141 0.564161 0.0234709 0.115014 0.759239 84
0 0.857352 0.568975 0.0267368 0.116464 0.596191 85
0 0.708604 0.561435 0.0253951 0.12188 0.612978 75
0 0.858439 0.571703 0.0237204 0.11092 0.564485 87
2 0.31135 0.727093 0.139304 0.25571 0.888235 1
