0 0.118361 0.648597 0.0360647 0.14508 0.446706 80
0 0.109531 0.651487 0.024926 0.14202 0.459296 91
2 0.587303 0.503771 0.0379313 0.0481995 0.692063 116
2 0.487833 0.517573 0.0314232 0.0426492 0.799455 113
0 0.011793 0.6607 0.023586 0.124345 0.519877 117
2 0.726128 0.572511 0.0653574 0.0941289 0.10678 109
0 0.761023 0.619049 0.0396168 0.152112 0.639383 129
2 0.488172 0.514603 0.0363349 0.0449976 0.3624 2
0 0.831295 0.603514 0.0388191 0.163894 0.656401 131
0 0.118361 0.648597 0.0360647 0.14508 0.446706 80
0 0.109531 0.651487 0.024926 0.14202 0.459296 91
2 0.587303 0.503771 0.0379313 0.0481995 0.692063 116
2 0.487833 0.517573 0.0314232 0.0426492 0.799455 113
0 0.011793 0.6607 0.023586 0.124345 0.519877 117
2 0.726128 0.572511 0.0653574 0.0941289 0.10678 109
0 0.761023 0.619049 0.0396168 0.152112 0.639383 129
2 0.488172 0.514603 0.0363349 0.0449976 0.3624 2
0 0.831295 0.603514 0.0388191 0.163894 0.656401 131
