0 0.590862 0.87873 0.0646645 0.229771 0.805015 129
2 0.36809 0.495565 0.0237365 0.032302 0.375144 2
2 0.445939 0.539616 0.0381865 0.0649164 0.580404 140
2 0.667957 0.678793 0.184534 0.158394 0.857041 141
9 0.503067 0.476685 0.0538355 0.23217 0.430936 143
0 0.581928 0.721936 0.0371127 0.111535 0.189937 131
0 0.564295 0.862517 0.0588467 0.262445 0.543194 151
2 0.446943 0.540333 0.038904 0.0604022 0.645662 116
0 0.582865 0.562941 0.0224901 0.123564 0.438337 156
0 0.455565 0.759476 0.0645392 0.289757 0.720546 145
9 0.505238 0.455842 0.0484022 0.193286 0.612924 160
0 0.61275 0.551373 0.0264852 0.107001 0.620008 162
0 0.970963 0.630944 0.0355835 0.175302 0.59693 163
