2 0.249403 0.586196 0.059497 0.078807 0.716658 2
2 0.308538 0.504424 0.02473 0.0349735 0.44454 42
2 0.412806 0.604908 0.111801 0.11589 0.886037 77
0 0.0831466 0.576888 0.0233869 0.0895133 0.17808 80
0 0.709922 0.571515 0.0266729 0.124628 0.82465 84
0 0.894258 0.577128 0.0353317 0.120372 0.65449 85
0 0.896729 0.575377 0.0322259 0.120225 0.67466 87
2 0.278997 0.724096 0.134036 0.246601 0.876325 1
0 0.0810666 0.57858 0.0218319 0.0886816 0.552049 91
9 0.482179 0.459593 0.0316044 0.130276 0.651087 93
2 0.249403 0.586196 0.059497 0.078807 0.716658 2
2 0.308538 0.504424 0.02473 0.0349735 0.44454 42
2 0.412806 0.604908 0.111801 0.11589 0.886037 77
0 0.0831466 0.576888 0.0233869 0.0895133 0.17808 80
0 0.709922 0.571515 0.0266729 0.124628 0.82465 84
0 0.894258 0.577128 0.0353317 0.120372 0.65449 85
0 0.896729 0.575377 0.0322259 0.120225 0.67466 87
2 0.278997 0.724096 0.134036 0.246601 0.876325 1
0 0.0810666 0.57858 0.0218319 0.0886816 0.552049 91
9 0.482179 0.459593 0.0316044 0.130276 0.651087 93
