2 0.525155 0.479278 0.0281139 0.0389663 0.215668 261
2 0.481687 0.494038 0.0318772 0.0557862 0.73264 210
2 0.526933 0.485031 0.027744 0.0409921 0.516718 280
2 0.977189 0.6386 0.0456218 0.145176 0.437408 283
2 0.924449 0.675218 0.140626 0.146277 0.803289 279
0 0.5954 0.663343 0.058041 0.1622 0.641779 255
2 0.481861 0.492443 0.0367759 0.0583975 0.205829 290
2 0.978157 0.602328 0.0436864 0.0729596 0.163904 292
0 0.601199 0.662443 0.0465893 0.160469 0.554931 254
0 0.309241 0.537455 0.0197626 0.0930982 0.607065 294
2 0.922397 0.663483 0.141078 0.154718 0.745028 253
2 0.816696 0.618131 0.10126 0.112087 0.873025 236
