2 0.335725 0.599817 0.0728463 0.0956816 0.802006 2
2 0.376403 0.505813 0.0275506 0.0409645 0.258431 42
9 0.00975615 0.454535 0.0195123 0.0869053 0.109446 44
2 0.467425 0.77044 0.157483 0.293917 0.849984 1
2 0.451457 0.48899 0.0217292 0.0286695 0.56126 74
0 0.793376 0.568216 0.0275194 0.102307 0.675302 75
2 0.464996 0.594758 0.0894178 0.0666724 0.687021 77
2 0.465288 0.588633 0.0853756 0.0598664 0.548372 78
0 0.879827 0.568369 0.0185615 0.0985371 0.602227 79
0 0.225623 0.528778 0.0169171 0.0718489 0.517144 80
2 0.335725 0.599817 0.0728463 0.0956816 0.802006 2
2 0.376403 0.505813 0.0275506 0.0409645 0.258431 42
9 0.00975615 0.454535 0.0195123 0.0869053 0.109446 44
2 0.467425 0.77044 0.157483 0.293917 0.849984 1
2 0.451457 0.48899 0.0217292 0.0286695 0.56126 74
0 0.793376 0.568216 0.0275194 0.102307 0.675302 75
2 0.464996 0.594758 0.0894178 0.0666724 0.687021 77
2 0.465288 0.588633 0.0853756 0.0598664 0.548372 78
0 0.879827 0.568369 0.0185615 0.0985371 0.602227 79
0 0.225623 0.528778 0.0169171 0.0718489 0.517144 80
