0 0.431116 0.776212 0.044471 0.24066 0.578391 201
0 0.540049 0.585221 0.0228795 0.100594 0.777065 208
0 0.649518 0.820368 0.0554752 0.272612 0.795302 211
2 0.877067 0.589066 0.131664 0.100319 0.904287 215
0 0.540943 0.581837 0.0247617 0.109242 0.613269 216
2 0.644248 0.538376 0.0417779 0.0755932 0.55706 218
2 0.8001 0.533395 0.0488611 0.0511149 0.601573 219
0 0.386523 0.768728 0.0415264 0.224645 0.65603 209
2 0.736032 0.516972 0.046306 0.0653846 0.724844 220
2 0.873217 0.580787 0.12289 0.105449 0.842791 224
2 0.643976 0.54248 0.045297 0.0802601 0.707358 225
0 0.382955 0.766724 0.0366672 0.214844 0.673758 198
0 0.652771 0.825583 0.049028 0.254248 0.600183 228
0 0.428046 0.778236 0.0421311 0.238353 0.723319 203
